<svg xmlns="http://www.w3.org/2000/svg" width="126.14" height="159.444" viewBox="0 0 126.14 159.444">
  <g id="Grupo_822" data-name="Grupo 822" transform="translate(-551 -1337.556)">
    <g id="Grupo_821" data-name="Grupo 821">
      <text id="Opción_1" data-name="Opción 1" transform="translate(613.14 1380.535)" fill="#333" font-size="16" font-family="Roboto-Regular, Roboto"><tspan x="0" y="0">Opción 1</tspan></text>
      <text id="Opción_2" data-name="Opción 2" transform="translate(613.14 1406.535)" fill="#333" font-size="16" font-family="Roboto-Regular, Roboto"><tspan x="0" y="0">Opción 2</tspan></text>
      <text id="Opción_3" data-name="Opción 3" transform="translate(613.14 1436.535)" fill="#333" font-size="16" font-family="Roboto-Regular, Roboto"><tspan x="0" y="0">Opción 3</tspan></text>
      <text id="Opción_4" data-name="Opción 4" transform="translate(613.14 1462.535)" fill="#333" font-size="16" font-family="Roboto-Regular, Roboto"><tspan x="0" y="0">Opción 4</tspan></text>
      <text id="Etiqueta" transform="translate(611.834 1350.556)" fill="#494949" font-size="14" font-family="Roboto-Regular, Roboto"><tspan x="-25.813" y="0">Etiqueta</tspan></text>
      <g id="Rectángulo_1739" data-name="Rectángulo 1739" transform="translate(585.819 1366)" fill="#fff" stroke="#494949" stroke-width="1">
        <rect width="17.753" height="17.753" rx="3" stroke="none"/>
        <rect x="0.5" y="0.5" width="16.753" height="16.753" rx="2.5" fill="none"/>
      </g>
      <g id="Rectángulo_1741" data-name="Rectángulo 1741" transform="translate(585.98 1420.746)" fill="#fff" stroke="#494949" stroke-width="1">
        <rect width="17.753" height="17.753" rx="3" stroke="none"/>
        <rect x="0.5" y="0.5" width="16.753" height="16.753" rx="2.5" fill="none"/>
      </g>
      <g id="Rectángulo_1742" data-name="Rectángulo 1742" transform="translate(585.754 1393.373)" fill="#d5007f" stroke="#494949" stroke-width="1">
        <rect width="17.753" height="17.753" rx="3" stroke="none"/>
        <rect x="0.5" y="0.5" width="16.753" height="16.753" rx="2.5" fill="none"/>
      </g>
      <g id="Rectángulo_1744" data-name="Rectángulo 1744" transform="translate(585.754 1448.282)" fill="#d5007f" stroke="#494949" stroke-width="1">
        <rect width="17.753" height="17.753" rx="3" stroke="none"/>
        <rect x="0.5" y="0.5" width="16.753" height="16.753" rx="2.5" fill="none"/>
      </g>
      <path id="Trazado_1118" data-name="Trazado 1118" d="M575.528,4616.982a.613.613,0,0,1-.089-.005.775.775,0,0,1-.572-.361l-2.1-3.388a.778.778,0,0,1,1.322-.82l1.584,2.554,5.937-5.937a.778.778,0,0,1,1.1,1.1l-6.631,6.629A.779.779,0,0,1,575.528,4616.982Z" transform="translate(16.656 -3210.576)" fill="#fff"/>
      <path id="Trazado_1118-2" data-name="Trazado 1118" d="M575.528,4616.982a.613.613,0,0,1-.089-.005.775.775,0,0,1-.572-.361l-2.1-3.388a.778.778,0,0,1,1.322-.82l1.584,2.554,5.937-5.937a.778.778,0,0,1,1.1,1.1l-6.631,6.629A.779.779,0,0,1,575.528,4616.982Z" transform="translate(16.656 -3155.666)" fill="#fff"/>
      <rect id="Rectángulo_1738" data-name="Rectángulo 1738" width="10" height="101" transform="translate(604.08 1365.522)" fill="#4199a0" opacity="0.81"/>
      <rect id="Rectángulo_1745" data-name="Rectángulo 1745" width="10" height="19" transform="translate(585.334 1393.022) rotate(-90)" fill="#4199a0" opacity="0.81"/>
      <rect id="Rectángulo_1746" data-name="Rectángulo 1746" width="10" height="19" transform="translate(585.334 1421.022) rotate(-90)" fill="#4199a0" opacity="0.81"/>
      <rect id="Rectángulo_1747" data-name="Rectángulo 1747" width="10" height="19" transform="translate(585.334 1448.022) rotate(-90)" fill="#4199a0" opacity="0.81"/>
      <text id="_10px" data-name="10px" transform="translate(594.246 1494)" fill="#4199a0" font-size="14" font-family="Roboto-Medium, Roboto" font-weight="500"><tspan x="0" y="0">10px</tspan></text>
      <text id="_10px-2" data-name="10px" transform="translate(551 1392)" fill="#4199a0" font-size="14" font-family="Roboto-Medium, Roboto" font-weight="500"><tspan x="0" y="0">10px</tspan></text>
      <text id="_10px-3" data-name="10px" transform="translate(551 1419)" fill="#4199a0" font-size="14" font-family="Roboto-Medium, Roboto" font-weight="500"><tspan x="0" y="0">10px</tspan></text>
      <text id="_10px-4" data-name="10px" transform="translate(551 1446)" fill="#4199a0" font-size="14" font-family="Roboto-Medium, Roboto" font-weight="500"><tspan x="0" y="0">10px</tspan></text>
      <line id="Línea_25" data-name="Línea 25" y1="8" transform="translate(614.58 1472.522)" fill="none" stroke="#4199a0" stroke-miterlimit="10" stroke-width="1"/>
      <line id="Línea_26" data-name="Línea 26" y1="8" transform="translate(604.58 1472.522)" fill="none" stroke="#4199a0" stroke-miterlimit="10" stroke-width="1"/>
      <line id="Línea_27" data-name="Línea 27" x2="10.666" transform="translate(604.08 1476.607)" fill="none" stroke="#4199a0" stroke-miterlimit="10" stroke-width="1"/>
    </g>
  </g>
</svg>
