<svg xmlns="http://www.w3.org/2000/svg" width="347" height="266" viewBox="0 0 347 266">
  <g id="Grupo_102" data-name="Grupo 102" transform="translate(-51 -345)">
    <g id="Grupo_100" data-name="Grupo 100">
      <rect id="Rectángulo_375" data-name="Rectángulo 375" width="347" height="8" transform="translate(51 415)" fill="#d8d8d8" opacity="0.651"/>
      <rect id="Rectángulo_280" data-name="Rectángulo 280" width="347" height="52" transform="translate(51 367)"/>
      <text id="Avance" transform="translate(227 403)" fill="#fff" font-size="18" font-family="Roboto-Medium, Roboto" font-weight="500"><tspan x="-29.571" y="0">Avance</tspan></text>
      <g id="Rectángulo_271" data-name="Rectángulo 271" transform="translate(51 345)" fill="none" stroke="#707070" stroke-width="1">
        <rect width="347" height="266" stroke="none"/>
        <rect x="0.5" y="0.5" width="346" height="265" fill="none"/>
      </g>
      <path id="Trazado_3" data-name="Trazado 3" d="M21.2,44.125H3.168l7.117-7.117-1.17-1.17L0,44.953l9.115,9.115,1.17-1.17L3.168,45.78H21.2Z" transform="translate(75 351.397)" fill="snow"/>
      <rect id="Rectángulo_275" data-name="Rectángulo 275" width="235" height="9" transform="translate(75 454)" fill="#e5e5e5"/>
      <rect id="Rectángulo_287" data-name="Rectángulo 287" width="235" height="9" transform="translate(75 494)" fill="#e5e5e5"/>
      <rect id="Rectángulo_289" data-name="Rectángulo 289" width="235" height="9" transform="translate(75 534)" fill="#e5e5e5"/>
      <rect id="Rectángulo_279" data-name="Rectángulo 279" width="83" height="9" transform="translate(75 437)" fill="#adadad"/>
      <rect id="Rectángulo_288" data-name="Rectángulo 288" width="83" height="9" transform="translate(75 477)" fill="#adadad"/>
      <rect id="Rectángulo_290" data-name="Rectángulo 290" width="83" height="9" transform="translate(75 517)" fill="#adadad"/>
      <rect id="Rectángulo_291" data-name="Rectángulo 291" width="125" height="14" transform="translate(75 582)" fill="#d30c7f"/>
      <line id="Línea_99" data-name="Línea 99" x2="293" transform="translate(74.5 563.5)" fill="none" stroke="#707070" stroke-width="1" opacity="0.345"/>
      <rect id="Rectángulo_281" data-name="Rectángulo 281" width="347" height="23" transform="translate(51 345)"/>
      <rect id="Rectángulo_285" data-name="Rectángulo 285" width="2.333" height="5.831" transform="translate(65.724 356.185)" fill="#fff"/>
      <rect id="Rectángulo_286" data-name="Rectángulo 286" width="2.333" height="6.998" transform="translate(69.223 355.018)" fill="#fff"/>
      <rect id="Rectángulo_284" data-name="Rectángulo 284" width="2.333" height="9.33" transform="translate(72.722 352.686)" fill="#fff"/>
      <rect id="Rectángulo_283" data-name="Rectángulo 283" width="2.333" height="10.496" transform="translate(76.22 351.52)" fill="#fff"/>
      <text id="RED" transform="translate(88.154 360.247)" fill="#fff" font-size="9" font-family="Roboto-Medium, Roboto" font-weight="500"><tspan x="0" y="0">RED</tspan></text>
      <text id="_12:00" data-name="12:00" transform="translate(212.334 360.269)" fill="#fff" font-size="9" font-family="Roboto-Medium, Roboto" font-weight="500"><tspan x="0" y="0">12:00</tspan></text>
      <path id="Trazado_57" data-name="Trazado 57" d="M116,19.135l5.107,9.362,5.107-9.362A12.331,12.331,0,0,0,116,19.135Z" transform="translate(-1.005 333.519)" fill="#fff"/>
      <rect id="Rectángulo_282" data-name="Rectángulo 282" width="24.939" height="10.527" transform="translate(357.581 351.13)" fill="#fff"/>
      <text id="_100_" data-name="100%" transform="translate(326.454 359.786)" fill="#fff" font-size="9" font-family="Roboto-Medium, Roboto" font-weight="500"><tspan x="0" y="0">100%</tspan></text>
      <text id="_10.5_" data-name="10.5%" transform="translate(325 466)" fill="#333" font-size="16" font-family="Roboto-Regular, Roboto"><tspan x="0" y="0">10.5%</tspan></text>
      <text id="_22_" data-name="22%" transform="translate(338 503)" fill="#333" font-size="16" font-family="Roboto-Regular, Roboto"><tspan x="0" y="0">22%</tspan></text>
      <text id="_7.8_" data-name="7.8%" transform="translate(334 540)" fill="#333" font-size="16" font-family="Roboto-Regular, Roboto"><tspan x="0" y="0">7.8%</tspan></text>
      <text id="_40.3_" data-name="40.3%" transform="translate(316 595)" fill="#d30c7f" font-size="19" font-family="Roboto-Bold, Roboto" font-weight="700"><tspan x="0" y="0">40.3%</tspan></text>
    </g>
  </g>
</svg>
