<svg xmlns="http://www.w3.org/2000/svg" xmlns:xlink="http://www.w3.org/1999/xlink" width="369" height="85.179" viewBox="0 0 369 85.179">
  <defs>
    <filter id="Trazado_73" x="0" y="20.179" width="369" height="65" filterUnits="userSpaceOnUse">
      <feOffset dy="1" input="SourceAlpha"/>
      <feGaussianBlur stdDeviation="1.5" result="blur"/>
      <feFlood flood-opacity="0.302"/>
      <feComposite operator="in" in2="blur"/>
      <feComposite in="SourceGraphic"/>
    </filter>
  </defs>
  <g id="Grupo_2550" data-name="Grupo 2550" transform="translate(-559.5 -3221.113)">
    <g transform="matrix(1, 0, 0, 1, 559.5, 3221.11)" filter="url(#Trazado_73)">
      <path id="Trazado_73-2" data-name="Trazado 73" d="M84.327,368.906h360v56h-360Z" transform="translate(-79.83 -345.23)" fill="#242424"/>
    </g>
    <rect id="Rectángulo_1" data-name="Rectángulo 1" width="360" height="23.862" transform="translate(564 3221.113)"/>
    <rect id="Rectángulo_4" data-name="Rectángulo 4" width="2" height="6.049" transform="translate(578.448 3232.717)" fill="#fff"/>
    <rect id="Rectángulo_5" data-name="Rectángulo 5" width="2" height="7.26" transform="translate(582.078 3231.506)" fill="#fff"/>
    <rect id="Rectángulo_6" data-name="Rectángulo 6" width="2" height="9.68" transform="translate(585.708 3229.087)" fill="#fff"/>
    <rect id="Rectángulo_7" data-name="Rectángulo 7" width="2" height="10.889" transform="translate(589.337 3227.877)" fill="#fff"/>
    <text id="RED" transform="translate(601.514 3236.931)" fill="#fff" font-size="9.337" font-family="Roboto-Medium, Roboto" font-weight="500" style="isolation: isolate"><tspan x="0" y="0">RED</tspan></text>
    <text id="_12:00" data-name="12:00" transform="translate(730.347 3236.954)" fill="#fff" font-size="9.337" font-family="Roboto-Medium, Roboto" font-weight="500" style="isolation: isolate"><tspan x="0" y="0">12:00</tspan></text>
    <path id="Trazado_1" data-name="Trazado 1" d="M149.682,353.167l5.3,9.713,5.3-9.713A12.789,12.789,0,0,0,149.682,353.167Z" transform="translate(479.673 2875.887)" fill="#fff"/>
    <rect id="Rectángulo_3" data-name="Rectángulo 3" width="25.873" height="10.921" transform="translate(881.029 3227.474)" fill="#fff"/>
    <text id="_100_" data-name="100%" transform="translate(848.741 3236.453)" fill="#fff" font-size="9.337" font-family="Roboto-Medium, Roboto" font-weight="500" style="isolation: isolate"><tspan x="0" y="0">100%</tspan></text>
    <text id="Título_de_dialogo" data-name="Título de dialogo" transform="translate(635.658 3280.792)" fill="snow" font-size="20" font-family="Roboto-Medium, Roboto" font-weight="500" style="isolation: isolate"><tspan x="0" y="0">Título de dialogo</tspan></text>
    <path id="Trazado_2206" data-name="Trazado 2206" d="M123.42,408.078l-10.567-10.61,10.48-10.444a.84.84,0,0,0-1.191-1.186l-10.475,10.439-10.479-10.521a.84.84,0,0,0-1.2,1.182l10.483,10.525L99.911,407.991a.841.841,0,0,0,1.191,1.187l10.56-10.523,10.562,10.605a.841.841,0,0,0,1.2-1.182Z" transform="translate(479.673 2875.887)" fill="#fff"/>
    <text id="Acción" transform="translate(862.721 3279.873)" fill="#fff" font-size="14" font-family="Roboto-Medium, Roboto" font-weight="500" letter-spacing="0.03em" style="isolation: isolate"><tspan x="0" y="0">Acción</tspan></text>
  </g>
</svg>
