<svg xmlns="http://www.w3.org/2000/svg" xmlns:xlink="http://www.w3.org/1999/xlink" width="348" height="266" viewBox="0 0 348 266">
  <defs>
    <filter id="Rectángulo_3919" x="123" y="29" width="225" height="63" filterUnits="userSpaceOnUse">
      <feOffset input="SourceAlpha"/>
      <feGaussianBlur stdDeviation="3" result="blur"/>
      <feFlood flood-opacity="0.102"/>
      <feComposite operator="in" in2="blur"/>
      <feComposite in="SourceGraphic"/>
    </filter>
  </defs>
  <g id="Grupo_2607" data-name="Grupo 2607" transform="translate(-446 -1487)">
    <g id="Rectángulo_4027" data-name="Rectángulo 4027" transform="translate(446 1487)" fill="#fff" stroke="#707070" stroke-width="1">
      <rect width="347" height="266" stroke="none"/>
      <rect x="0.5" y="0.5" width="346" height="265" fill="none"/>
    </g>
    <rect id="Rectángulo_4028" data-name="Rectángulo 4028" width="347" height="26" transform="translate(446 1487)" fill="#333"/>
    <g id="Grupo_2581" data-name="Grupo 2581" transform="translate(-24 -323.534)">
      <g id="Grupo_2549" data-name="Grupo 2549" transform="translate(602 1849)">
        <g transform="matrix(1, 0, 0, 1, -132, -38.47)" filter="url(#Rectángulo_3919)">
          <g id="Rectángulo_3919-2" data-name="Rectángulo 3919" transform="translate(132 38)" fill="#ffdce1" stroke="#fdc9d1" stroke-width="1">
            <rect width="207" height="45" rx="4" stroke="none"/>
            <rect x="0.5" y="0.5" width="206" height="44" rx="3.5" fill="none"/>
          </g>
        </g>
      </g>
      <path id="Rectángulo_4005" data-name="Rectángulo 4005" d="M4,0H4A0,0,0,0,1,4,0V45a0,0,0,0,1,0,0H4a4,4,0,0,1-4-4V4A4,4,0,0,1,4,0Z" transform="translate(602 1848.534)" fill="#d31338"/>
      <path id="Trazado_1543" data-name="Trazado 1543" d="M4.537,9.4H2.305v1.511h2.62v.934H1.143V6.2H4.917v.942H2.305V8.49H4.537ZM7.89,8.7a3.043,3.043,0,0,0-.4-.031.82.82,0,0,0-.833.43v2.744H5.533V7.653H6.591l.031.5a1.038,1.038,0,0,1,.934-.577,1.174,1.174,0,0,1,.349.05Zm2.895,0a3.043,3.043,0,0,0-.4-.031.82.82,0,0,0-.833.43v2.744H8.428V7.653H9.486l.031.5a1.038,1.038,0,0,1,.934-.577,1.174,1.174,0,0,1,.349.05Zm.225,1.008a2.487,2.487,0,0,1,.24-1.112,1.759,1.759,0,0,1,.692-.756,2.018,2.018,0,0,1,1.048-.267,1.909,1.909,0,0,1,1.385.519,2.084,2.084,0,0,1,.6,1.411l.008.287a2.192,2.192,0,0,1-.539,1.548A1.872,1.872,0,0,1,13,11.923a1.882,1.882,0,0,1-1.447-.581,2.23,2.23,0,0,1-.541-1.581Zm1.12.081a1.563,1.563,0,0,0,.225.913.808.808,0,0,0,1.279,0,1.71,1.71,0,0,0,.229-1,1.548,1.548,0,0,0-.229-.907.744.744,0,0,0-.643-.322.731.731,0,0,0-.636.32A1.739,1.739,0,0,0,12.129,9.792Zm5.9-1.089a3.043,3.043,0,0,0-.4-.031.82.82,0,0,0-.833.43v2.744h-1.12V7.653h1.058l.031.5a1.038,1.038,0,0,1,.934-.577,1.174,1.174,0,0,1,.349.05ZM17.954,11.3a.564.564,0,0,1,.18-.434.7.7,0,0,1,.907,0,.564.564,0,0,1,.18.434.556.556,0,0,1-.178.428.712.712,0,0,1-.911,0A.556.556,0,0,1,17.954,11.3ZM4.483,19.82H2.038v2H4.878v.608H1.294V16.785H4.84V17.4h-2.8v1.814H4.483Zm1.988,2.608H5.754V16.475h.717Zm3.465,0V18.789H9.273v-.554h.663V17.8a1.428,1.428,0,0,1,.36-1.042,1.361,1.361,0,0,1,1.019-.368,1.881,1.881,0,0,1,.492.066l-.039.581a2.059,2.059,0,0,0-.388-.035.7.7,0,0,0-.539.2.824.824,0,0,0-.19.583v.442h.9v.554h-.9v3.639Zm2.213-2.135a2.477,2.477,0,0,1,.242-1.108,1.807,1.807,0,0,1,.674-.76,1.836,1.836,0,0,1,.986-.267,1.768,1.768,0,0,1,1.385.593,2.281,2.281,0,0,1,.529,1.577v.05a2.5,2.5,0,0,1-.234,1.1,1.78,1.78,0,0,1-.67.758,1.857,1.857,0,0,1-1,.271,1.764,1.764,0,0,1-1.382-.593,2.27,2.27,0,0,1-.529-1.57Zm.721.085a1.794,1.794,0,0,0,.324,1.12,1.1,1.1,0,0,0,1.734-.006,1.962,1.962,0,0,0,.322-1.2,1.791,1.791,0,0,0-.327-1.118,1.041,1.041,0,0,0-.87-.428,1.029,1.029,0,0,0-.856.422A1.947,1.947,0,0,0,12.869,20.378Zm6.022-1.5a2.148,2.148,0,0,0-.353-.027.945.945,0,0,0-.957.6v2.976h-.717V18.235h.7l.012.484a1.116,1.116,0,0,1,1-.562.732.732,0,0,1,.318.054Zm1.333-.643.019.465a1.549,1.549,0,0,1,1.244-.543,1.2,1.2,0,0,1,1.2.674,1.588,1.588,0,0,1,.544-.488,1.608,1.608,0,0,1,.793-.186q1.38,0,1.4,1.461v2.81h-.717V19.661a.963.963,0,0,0-.205-.672.9.9,0,0,0-.69-.223.951.951,0,0,0-.663.238.967.967,0,0,0-.306.641v2.783h-.721V19.68a.8.8,0,0,0-.9-.915.959.959,0,0,0-.965.6v3.062h-.717V18.235ZM29.1,22.428a1.506,1.506,0,0,1-.1-.442,1.6,1.6,0,0,1-1.194.519,1.48,1.48,0,0,1-1.017-.351,1.135,1.135,0,0,1-.4-.889,1.185,1.185,0,0,1,.5-1.017,2.348,2.348,0,0,1,1.4-.362h.7v-.329a.805.805,0,0,0-.225-.6.9.9,0,0,0-.663-.223,1.045,1.045,0,0,0-.643.194.571.571,0,0,0-.26.469h-.721a.989.989,0,0,1,.223-.606,1.521,1.521,0,0,1,.6-.463,2.034,2.034,0,0,1,.839-.171,1.658,1.658,0,0,1,1.135.362,1.307,1.307,0,0,1,.426,1v1.93a2.359,2.359,0,0,0,.147.918v.062Zm-1.19-.546a1.26,1.26,0,0,0,.639-.174,1.055,1.055,0,0,0,.438-.453v-.86h-.562q-1.318,0-1.318.771a.653.653,0,0,0,.225.527A.864.864,0,0,0,27.906,21.882ZM31.8,17.219v1.015h.783v.554H31.8v2.6a.581.581,0,0,0,.1.378.441.441,0,0,0,.357.126,1.736,1.736,0,0,0,.341-.047v.581a2.078,2.078,0,0,1-.55.078.893.893,0,0,1-.725-.291,1.249,1.249,0,0,1-.244-.825v-2.6h-.763v-.554h.763V17.219Zm1.352,3.073a2.477,2.477,0,0,1,.242-1.108,1.807,1.807,0,0,1,.674-.76,1.836,1.836,0,0,1,.986-.267,1.768,1.768,0,0,1,1.385.593,2.281,2.281,0,0,1,.529,1.577v.05a2.5,2.5,0,0,1-.234,1.1,1.78,1.78,0,0,1-.67.758,1.857,1.857,0,0,1-1,.271,1.764,1.764,0,0,1-1.382-.593,2.27,2.27,0,0,1-.529-1.57Zm.721.085a1.794,1.794,0,0,0,.324,1.12,1.1,1.1,0,0,0,1.734-.006,1.962,1.962,0,0,0,.322-1.2,1.791,1.791,0,0,0-.327-1.118,1.041,1.041,0,0,0-.87-.428,1.029,1.029,0,0,0-.856.422A1.947,1.947,0,0,0,33.87,20.378Zm5.786-.081a2.456,2.456,0,0,1,.457-1.552,1.556,1.556,0,0,1,2.364-.083V16.475h.717v5.953h-.659l-.035-.45a1.46,1.46,0,0,1-1.2.527,1.432,1.432,0,0,1-1.188-.6,2.484,2.484,0,0,1-.459-1.558Zm.717.081a1.86,1.86,0,0,0,.295,1.116.952.952,0,0,0,.814.4,1.046,1.046,0,0,0,1-.612V19.359a1.054,1.054,0,0,0-.988-.593.957.957,0,0,0-.822.407A2.048,2.048,0,0,0,40.373,20.378Zm5.674,2.128a1.832,1.832,0,0,1-1.387-.56,2.078,2.078,0,0,1-.535-1.5v-.132a2.516,2.516,0,0,1,.238-1.114,1.859,1.859,0,0,1,.667-.767,1.676,1.676,0,0,1,.928-.277,1.57,1.57,0,0,1,1.271.539,2.332,2.332,0,0,1,.453,1.542v.3H44.841a1.49,1.49,0,0,0,.362,1,1.139,1.139,0,0,0,.882.382,1.249,1.249,0,0,0,.643-.155,1.616,1.616,0,0,0,.461-.411l.438.341A1.761,1.761,0,0,1,46.046,22.505Zm-.089-3.759a.956.956,0,0,0-.729.316,1.535,1.535,0,0,0-.364.886h2.1v-.054a1.366,1.366,0,0,0-.295-.847A.9.9,0,0,0,45.957,18.746Zm7.107,3.682a1.506,1.506,0,0,1-.1-.442,1.6,1.6,0,0,1-1.194.519,1.48,1.48,0,0,1-1.017-.351,1.135,1.135,0,0,1-.4-.889,1.185,1.185,0,0,1,.5-1.017,2.348,2.348,0,0,1,1.4-.362h.7v-.329a.805.805,0,0,0-.225-.6.9.9,0,0,0-.663-.223,1.045,1.045,0,0,0-.643.194.571.571,0,0,0-.26.469h-.721a.989.989,0,0,1,.223-.606,1.521,1.521,0,0,1,.6-.463,2.034,2.034,0,0,1,.839-.171,1.658,1.658,0,0,1,1.135.362,1.307,1.307,0,0,1,.426,1v1.93a2.36,2.36,0,0,0,.147.918v.062Zm-1.19-.546a1.26,1.26,0,0,0,.639-.174,1.055,1.055,0,0,0,.438-.453v-.86H52.39q-1.318,0-1.318.771a.653.653,0,0,0,.225.527A.864.864,0,0,0,51.875,21.882Zm4.945-3a2.148,2.148,0,0,0-.353-.027.945.945,0,0,0-.957.6v2.976h-.717V18.235h.7l.012.484a1.116,1.116,0,0,1,1-.562.732.732,0,0,1,.318.054Zm2.267,3.042a1.033,1.033,0,0,0,.67-.233.818.818,0,0,0,.318-.581h.678a1.3,1.3,0,0,1-.248.686,1.634,1.634,0,0,1-.61.519,1.761,1.761,0,0,1-.808.194,1.727,1.727,0,0,1-1.362-.572,2.277,2.277,0,0,1-.506-1.564v-.12a2.524,2.524,0,0,1,.225-1.089,1.712,1.712,0,0,1,.645-.74,1.833,1.833,0,0,1,.994-.264,1.682,1.682,0,0,1,1.172.422,1.51,1.51,0,0,1,.5,1.1h-.678a.988.988,0,0,0-.308-.668.958.958,0,0,0-.684-.262,1,1,0,0,0-.847.393,1.847,1.847,0,0,0-.3,1.137v.136a1.81,1.81,0,0,0,.3,1.116A1.008,1.008,0,0,0,59.087,21.92Zm3.189-3.178a1.524,1.524,0,0,1,1.24-.585q1.329,0,1.341,1.5v2.771H64.14V19.653a.965.965,0,0,0-.207-.67.831.831,0,0,0-.634-.217,1.035,1.035,0,0,0-.612.186,1.263,1.263,0,0,0-.411.488v2.988h-.717V16.475h.717Zm4.433,3.685h-.717V18.235h.717Zm-.775-5.305a.428.428,0,0,1,.107-.295.4.4,0,0,1,.316-.12.406.406,0,0,1,.318.12.423.423,0,0,1,.109.295.41.41,0,0,1-.109.291.414.414,0,0,1-.318.116.407.407,0,0,1-.316-.116A.414.414,0,0,1,65.935,17.123Zm3.306,4.333,1.039-3.22h.732l-1.5,4.193h-.546l-1.519-4.193h.732Zm2.213-1.163a2.477,2.477,0,0,1,.242-1.108,1.807,1.807,0,0,1,.674-.76,1.836,1.836,0,0,1,.986-.267,1.768,1.768,0,0,1,1.385.593,2.281,2.281,0,0,1,.529,1.577v.05a2.5,2.5,0,0,1-.234,1.1,1.78,1.78,0,0,1-.67.758,1.857,1.857,0,0,1-1,.271,1.764,1.764,0,0,1-1.382-.593,2.27,2.27,0,0,1-.529-1.57Zm.721.085A1.794,1.794,0,0,0,72.5,21.5a1.1,1.1,0,0,0,1.734-.006,1.962,1.962,0,0,0,.322-1.2,1.791,1.791,0,0,0-.327-1.118,1.041,1.041,0,0,0-.87-.428,1.03,1.03,0,0,0-.856.422A1.947,1.947,0,0,0,72.174,20.378Zm6.638-2.143.023.527a1.528,1.528,0,0,1,1.256-.6q1.329,0,1.341,1.5v2.771h-.717V19.653a.965.965,0,0,0-.207-.67.831.831,0,0,0-.634-.217,1.035,1.035,0,0,0-.612.186,1.263,1.263,0,0,0-.411.488v2.988h-.717V18.235Zm3.511,2.058a2.477,2.477,0,0,1,.242-1.108,1.807,1.807,0,0,1,.674-.76,1.836,1.836,0,0,1,.986-.267,1.768,1.768,0,0,1,1.385.593,2.281,2.281,0,0,1,.529,1.577v.05a2.5,2.5,0,0,1-.234,1.1,1.78,1.78,0,0,1-.67.758,1.857,1.857,0,0,1-1,.271,1.764,1.764,0,0,1-1.382-.593,2.27,2.27,0,0,1-.529-1.57Zm.721.085a1.794,1.794,0,0,0,.324,1.12,1.1,1.1,0,0,0,1.734-.006,1.962,1.962,0,0,0,.322-1.2,1.791,1.791,0,0,0-.327-1.118,1.041,1.041,0,0,0-.87-.428,1.029,1.029,0,0,0-.856.422A1.947,1.947,0,0,0,83.044,20.378Zm7.7,2.128a1.832,1.832,0,0,1-1.387-.56,2.078,2.078,0,0,1-.535-1.5v-.132a2.516,2.516,0,0,1,.238-1.114,1.859,1.859,0,0,1,.667-.767,1.676,1.676,0,0,1,.928-.277,1.57,1.57,0,0,1,1.271.539,2.332,2.332,0,0,1,.453,1.542v.3H89.539a1.49,1.49,0,0,0,.362,1,1.139,1.139,0,0,0,.882.382,1.249,1.249,0,0,0,.643-.155,1.616,1.616,0,0,0,.461-.411l.438.341A1.761,1.761,0,0,1,90.745,22.505Zm-.089-3.759a.956.956,0,0,0-.729.316,1.535,1.535,0,0,0-.364.886h2.1v-.054a1.366,1.366,0,0,0-.295-.847A.9.9,0,0,0,90.655,18.746Zm5,2.569a.528.528,0,0,0-.219-.451,2.108,2.108,0,0,0-.763-.277,3.61,3.61,0,0,1-.864-.279,1.229,1.229,0,0,1-.473-.388.927.927,0,0,1-.153-.535,1.088,1.088,0,0,1,.436-.872,1.7,1.7,0,0,1,1.114-.357,1.752,1.752,0,0,1,1.157.368,1.169,1.169,0,0,1,.444.942h-.721a.647.647,0,0,0-.25-.508.937.937,0,0,0-.63-.213.98.98,0,0,0-.612.171.537.537,0,0,0-.221.446.435.435,0,0,0,.205.391,2.527,2.527,0,0,0,.742.252,3.867,3.867,0,0,1,.87.287,1.269,1.269,0,0,1,.494.4.986.986,0,0,1,.161.572,1.073,1.073,0,0,1-.45.9,1.886,1.886,0,0,1-1.166.339,2.111,2.111,0,0,1-.891-.178,1.45,1.45,0,0,1-.606-.5,1.2,1.2,0,0,1-.219-.692h.717a.742.742,0,0,0,.289.572,1.12,1.12,0,0,0,.711.211,1.156,1.156,0,0,0,.653-.165A.506.506,0,0,0,95.651,21.316Zm5,.14,1.039-3.22h.732l-1.5,4.193h-.546l-1.519-4.193h.732Zm5.05.973a1.506,1.506,0,0,1-.1-.442,1.6,1.6,0,0,1-1.194.519,1.48,1.48,0,0,1-1.017-.351,1.135,1.135,0,0,1-.4-.889,1.185,1.185,0,0,1,.5-1.017,2.348,2.348,0,0,1,1.4-.362h.7v-.329a.805.805,0,0,0-.225-.6.9.9,0,0,0-.663-.223,1.045,1.045,0,0,0-.643.194.571.571,0,0,0-.26.469h-.721a.989.989,0,0,1,.223-.606,1.521,1.521,0,0,1,.6-.463,2.034,2.034,0,0,1,.839-.171,1.658,1.658,0,0,1,1.135.362,1.307,1.307,0,0,1,.426,1v1.93a2.36,2.36,0,0,0,.147.918v.062Zm-1.19-.546a1.26,1.26,0,0,0,.639-.174,1.055,1.055,0,0,0,.438-.453v-.86h-.562q-1.318,0-1.318.771a.653.653,0,0,0,.225.527A.864.864,0,0,0,104.51,21.882Zm.663-5.406h.868L105,17.615h-.577Zm3.034,5.953h-.717V16.475h.717Zm1.926,0h-.717V18.235h.717Zm-.775-5.305a.428.428,0,0,1,.107-.295.4.4,0,0,1,.316-.12.406.406,0,0,1,.318.12.423.423,0,0,1,.109.295.41.41,0,0,1-.109.291.414.414,0,0,1-.318.116.407.407,0,0,1-.316-.116A.414.414,0,0,1,109.358,17.123Zm1.748,3.174a2.456,2.456,0,0,1,.457-1.552,1.556,1.556,0,0,1,2.364-.083V16.475h.717v5.953h-.659l-.035-.45a1.46,1.46,0,0,1-1.2.527,1.432,1.432,0,0,1-1.188-.6,2.484,2.484,0,0,1-.459-1.558Zm.717.081a1.86,1.86,0,0,0,.295,1.116.952.952,0,0,0,.814.4,1.046,1.046,0,0,0,1-.612V19.359a1.054,1.054,0,0,0-.988-.593.957.957,0,0,0-.822.407A2.048,2.048,0,0,0,111.823,20.378Zm3.744-.085a2.477,2.477,0,0,1,.242-1.108,1.807,1.807,0,0,1,.674-.76,1.836,1.836,0,0,1,.986-.267,1.768,1.768,0,0,1,1.385.593,2.281,2.281,0,0,1,.529,1.577v.05a2.5,2.5,0,0,1-.234,1.1,1.78,1.78,0,0,1-.67.758,1.857,1.857,0,0,1-1,.271,1.764,1.764,0,0,1-1.382-.593,2.27,2.27,0,0,1-.529-1.57Zm.721.085a1.794,1.794,0,0,0,.324,1.12,1.1,1.1,0,0,0,1.734-.006,1.962,1.962,0,0,0,.322-1.2,1.791,1.791,0,0,0-.327-1.118,1.041,1.041,0,0,0-.87-.428,1.029,1.029,0,0,0-.856.422A1.947,1.947,0,0,0,116.287,20.378Zm4.011,1.674a.449.449,0,0,1,.11-.31.421.421,0,0,1,.331-.124.433.433,0,0,1,.335.124.44.44,0,0,1,.114.31.416.416,0,0,1-.114.3.441.441,0,0,1-.335.12.4.4,0,0,1-.442-.419Z" transform="translate(646.777 1856.996)" fill="#333"/>
      <g id="Grupo_2551" data-name="Grupo 2551" transform="translate(616.991 1862.889)">
        <g id="Grupo_771" data-name="Grupo 771" transform="translate(0 0)">
          <path id="Trazado_1116" data-name="Trazado 1116" d="M350.179,333.993a9.92,9.92,0,1,0,2.907,7.016A9.86,9.86,0,0,0,350.179,333.993Zm-2.733,11.261a1.117,1.117,0,0,1-1.583,0l-2.694-2.693-2.708,2.707a1.12,1.12,0,0,1-1.583-1.583l2.706-2.707-2.693-2.693a1.12,1.12,0,1,1,1.585-1.583l2.694,2.693,2.68-2.681a1.121,1.121,0,1,1,1.585,1.584l-2.681,2.679,2.694,2.693A1.119,1.119,0,0,1,347.446,345.254Z" transform="translate(-333.244 -331.087)" fill="#d31338"/>
        </g>
      </g>
      <g id="Grupo_2559" data-name="Grupo 2559" transform="translate(790.357 1861.787)">
        <g id="Grupo_790" data-name="Grupo 790">
          <path id="Trazado_1119" data-name="Trazado 1119" d="M743.973,5038.214a3.968,3.968,0,1,0,1.163,2.806A3.943,3.943,0,0,0,743.973,5038.214Zm-1.093,4.5a.446.446,0,0,1-.633,0l-1.078-1.077-1.083,1.083a.448.448,0,0,1-.633-.633l1.083-1.083-1.078-1.078a.448.448,0,0,1,.634-.633l1.078,1.077,1.072-1.072a.448.448,0,0,1,.634.634l-1.073,1.072,1.078,1.077A.447.447,0,0,1,742.879,5042.718Z" transform="translate(-737.199 -5037.051)"/>
        </g>
      </g>
    </g>
  </g>
</svg>
