<svg xmlns="http://www.w3.org/2000/svg" width="115" height="106" viewBox="0 0 115 106">
  <g id="Grupo_1667" data-name="Grupo 1667" transform="translate(-1002 -324.5)">
    <g id="Grupo_1661" data-name="Grupo 1661" transform="translate(-1)">
      <rect id="Rectángulo_3379" data-name="Rectángulo 3379" width="80.276" height="105" transform="translate(1020.251 325)" fill="#ededed" stroke="#fdfdfd" stroke-width="1"/>
      <rect id="Rectángulo_3380" data-name="Rectángulo 3380" width="58.268" height="3.841" transform="translate(1031.255 336.516)" fill="#868787"/>
      <rect id="Rectángulo_3381" data-name="Rectángulo 3381" width="58.268" height="3.841" transform="translate(1031.255 347.964)" fill="#868787"/>
      <g id="android-logo" transform="translate(1041.543 367.777)">
        <g id="Grupo_1585" data-name="Grupo 1585" transform="translate(0 0)">
          <g id="Grupo_1584" data-name="Grupo 1584">
            <path id="Trazado_1498" data-name="Trazado 1498" d="M39.8,164.715h-.11a2.565,2.565,0,0,0-2.558,2.558v11.136a2.563,2.563,0,0,0,2.558,2.559H39.8a2.565,2.565,0,0,0,2.558-2.559V167.273A2.569,2.569,0,0,0,39.8,164.715Z" transform="translate(-37.134 -150.725)" fill="#d5007f"/>
            <path id="Trazado_1499" data-name="Trazado 1499" d="M113.085,187.108a2.354,2.354,0,0,0,2.351,2.347h2.512v6.015a2.566,2.566,0,0,0,2.558,2.561h.11a2.566,2.566,0,0,0,2.561-2.561v-6.015h3.51v6.015a2.569,2.569,0,0,0,2.561,2.561h.108a2.565,2.565,0,0,0,2.559-2.561v-6.015h2.514a2.353,2.353,0,0,0,2.349-2.347V169.525H113.085Z" transform="translate(-106.634 -155.126)" fill="#d5007f"/>
            <path id="Trazado_1500" data-name="Trazado 1500" d="M129.984,3.736l2-3.08a.424.424,0,0,0-.125-.586.42.42,0,0,0-.586.125L129.2,3.381a13.677,13.677,0,0,0-10.233,0L116.9.194a.425.425,0,0,0-.715.462l2,3.08a10.1,10.1,0,0,0-6.028,8.9c0,.235.015.465.035.694h23.787c.02-.229.033-.46.033-.694A10.1,10.1,0,0,0,129.984,3.736ZM118.57,9.251a1.142,1.142,0,1,1,1.145-1.143A1.143,1.143,0,0,1,118.57,9.251Zm11.028,0a1.142,1.142,0,1,1,1.143-1.143A1.143,1.143,0,0,1,129.6,9.251Z" transform="translate(-105.785 0)" fill="#d5007f"/>
            <path id="Trazado_1501" data-name="Trazado 1501" d="M409.137,164.715h-.106a2.568,2.568,0,0,0-2.561,2.558v11.136a2.567,2.567,0,0,0,2.561,2.559h.108a2.564,2.564,0,0,0,2.558-2.559V167.273A2.566,2.566,0,0,0,409.137,164.715Z" transform="translate(-375.099 -150.725)" fill="#d5007f"/>
          </g>
        </g>
      </g>
    </g>
    <rect id="Rectángulo_3390" data-name="Rectángulo 3390" width="115" height="105" transform="translate(1002 325)" fill="none"/>
  </g>
</svg>
