<svg xmlns="http://www.w3.org/2000/svg" width="115" height="106" viewBox="0 0 115 106">
  <g id="Grupo_1666" data-name="Grupo 1666" transform="translate(-868 -324.5)">
    <g id="Grupo_1660" data-name="Grupo 1660" transform="translate(-8)">
      <rect id="Rectángulo_3382" data-name="Rectángulo 3382" width="80.276" height="105" transform="translate(892.998 325)" fill="#ededed" stroke="#fdfdfd" stroke-width="1"/>
      <rect id="Rectángulo_3383" data-name="Rectángulo 3383" width="58.338" height="3.829" transform="translate(903.967 336.48)" fill="#868787"/>
      <rect id="Rectángulo_3384" data-name="Rectángulo 3384" width="58.338" height="3.829" transform="translate(903.967 347.967)" fill="#868787"/>
      <g id="Grupo_1645" data-name="Grupo 1645" transform="translate(904.753 373.08)">
        <g id="Grupo_1637" data-name="Grupo 1637" transform="translate(21.974 0)">
          <g id="Grupo_1636" data-name="Grupo 1636" transform="translate(0)">
            <rect id="Rectángulo_3375" data-name="Rectángulo 3375" width="31.885" height="4.38" transform="matrix(0.275, -0.961, 0.961, 0.275, 0, 30.654)" fill="#d50b7f"/>
          </g>
        </g>
        <g id="Grupo_1639" data-name="Grupo 1639" transform="translate(0 3.256)">
          <g id="Grupo_1638" data-name="Grupo 1638" transform="translate(0 0)">
            <path id="Trazado_1594" data-name="Trazado 1594" d="M152.741,85.221l-2.8-3.365L136.791,92.81a2.191,2.191,0,0,0,0,3.365l13.145,10.954,2.8-3.365-11.125-9.272Z" transform="translate(-136.004 -81.856)" fill="#d50b7f"/>
          </g>
        </g>
        <g id="Grupo_1641" data-name="Grupo 1641" transform="translate(40.223 3.256)">
          <g id="Grupo_1640" data-name="Grupo 1640" transform="translate(0 0)">
            <path id="Trazado_1595" data-name="Trazado 1595" d="M299.109,93.09a2.187,2.187,0,0,0-.279-.279L285.684,81.856l-2.8,3.365,11.125,9.272-11.125,9.272,2.8,3.365,13.145-10.954A2.191,2.191,0,0,0,299.109,93.09Z" transform="translate(-282.88 -81.856)" fill="#d50b7f"/>
          </g>
        </g>
      </g>
    </g>
    <rect id="Rectángulo_3389" data-name="Rectángulo 3389" width="115" height="105" transform="translate(868 325)" fill="none"/>
  </g>
</svg>
