<svg xmlns="http://www.w3.org/2000/svg" width="37.478" height="33.365" viewBox="0 0 37.478 33.365">
  <g id="Grupo_2481" data-name="Grupo 2481" transform="translate(-106.234 -692.692)">
    <path id="Trazado_2103" data-name="Trazado 2103" d="M143.712,695.832v26.6H106.234v-26.6a2.3,2.3,0,0,1,2.3-2.3h32.873A2.3,2.3,0,0,1,143.712,695.832Z" transform="translate(0 1.446)" fill="#d971a9"/>
    <path id="Trazado_2104" data-name="Trazado 2104" d="M122.93,694.627v2.953h-16.7v-2.953a1.938,1.938,0,0,1,1.935-1.935h12.826A1.936,1.936,0,0,1,122.93,694.627Z" transform="translate(0)" fill="#d971a9"/>
    <path id="Trazado_2106" data-name="Trazado 2106" d="M143.712,696.635v26.6H106.234v-26.6a2.3,2.3,0,0,1,2.3-2.3h32.873A2.3,2.3,0,0,1,143.712,696.635Z" transform="translate(0 2.824)" fill="#f7daea"/>
  </g>
</svg>
