<svg xmlns="http://www.w3.org/2000/svg" xmlns:xlink="http://www.w3.org/1999/xlink" width="346.677" height="265.881" viewBox="0 0 346.677 265.881">
  <defs>
    <filter id="Rectángulo_1985" x="53" y="31.56" width="254.008" height="228.44" filterUnits="userSpaceOnUse">
      <feOffset dy="3" input="SourceAlpha"/>
      <feGaussianBlur stdDeviation="3" result="blur"/>
      <feFlood flood-opacity="0.161"/>
      <feComposite operator="in" in2="blur"/>
      <feComposite in="SourceGraphic"/>
    </filter>
  </defs>
  <g id="Grupo_886" data-name="Grupo 886" transform="translate(-554 -1870)">
    <g id="Trazado_1251" data-name="Trazado 1251" transform="translate(554 1870)" fill="#fff">
      <path d="M 346.177001953125 265.3809814453125 L 0.5000009536743164 265.3809814453125 L 0.5000009536743164 0.5000209212303162 L 346.177001953125 0.5000209212303162 L 346.177001953125 265.3809814453125 Z" stroke="none"/>
      <path d="M 1 0.999969482421875 L 1 264.8809204101562 L 345.677001953125 264.8809204101562 L 345.677001953125 0.999969482421875 L 1 0.999969482421875 M 0 -3.0517578125e-05 L 346.677001953125 -3.0517578125e-05 L 346.677001953125 265.8809204101562 L 0 265.8809204101562 L 0 -3.0517578125e-05 Z" stroke="none" fill="#707070"/>
    </g>
    <path id="Trazado_1252" data-name="Trazado 1252" d="M0,0H346.677V25.882H0Z" transform="translate(554 1870)" fill="#333"/>
    <g id="Grupo_865" data-name="Grupo 865" transform="translate(195 160.56)">
      <g id="Grupo_864" data-name="Grupo 864" transform="translate(421 1747)">
        <g transform="matrix(1, 0, 0, 1, -62, -37.56)" filter="url(#Rectángulo_1985)">
          <rect id="Rectángulo_1985-2" data-name="Rectángulo 1985" width="236.008" height="210.44" rx="5" transform="translate(62 37.56)" fill="#fff"/>
        </g>
        <text id="Subtitulo_1" data-name="Subtitulo 1" transform="translate(9.167 38.858)" fill="#333" font-size="7" font-family="Roboto-Medium, Roboto" font-weight="500"><tspan x="0" y="0">Subtitulo 1</tspan></text>
        <text id="Subtitulo_2" data-name="Subtitulo 2" transform="translate(9.167 110.447)" fill="#333" font-size="7" font-family="Roboto-Medium, Roboto" font-weight="500"><tspan x="0" y="0">Subtitulo 2</tspan></text>
        <rect id="Rectángulo_1986" data-name="Rectángulo 1986" width="47.595" height="17.701" rx="4" transform="translate(178.579 182.718)" fill="#b7006d"/>
        <text id="Entendido" transform="translate(189.118 193.84)" fill="#fff" font-size="6" font-family="Roboto-Medium, Roboto" font-weight="500"><tspan x="0" y="0">Entendido</tspan></text>
        <line id="Línea_325" data-name="Línea 325" x2="215.947" transform="translate(9.637 172.089)" fill="none" stroke="#d8d8d8" stroke-width="1"/>
        <text id="Es_un_hecho_establecido_hace_demasiado_tiempo_que_un_lector_se_distraerá_con_el_contenido_del_texto_de_un_sitio_mientras_que_mira_su_diseño._El_punto_de_usar_Lorem_Ipsum_es_que_tiene_una_distribución_más_o_menos_normal_de_las_letras_al_contrario_de_usar_t" data-name="Es un hecho establecido hace demasiado tiempo que un lector se distraerá con el contenido del texto de un sitio mientras que mira su diseño. El punto de usar Lorem Ipsum es que tiene una distribución más o menos normal de las letras, al contrario de usar t" transform="translate(9.834 48.775)" fill="#494949" font-size="5" font-family="Roboto-Regular, Roboto"><tspan x="0" y="5">Es un hecho establecido hace demasiado tiempo que un lector se distraerá con el contenido del </tspan><tspan x="0" y="13">texto de un sitio mientras que mira su diseño. El punto de usar Lorem Ipsum es que tiene una </tspan><tspan x="0" y="21">distribución más o menos normal de las letras, al contrario de usar textos como por ejemplo </tspan><tspan x="0" y="29">“Contenido aquí.</tspan></text>
        <text id="Es_un_hecho_establecido_hace_demasiado_tiempo_que_un_lector_se_distraerá_con_el_contenido_del_texto_de_un_sitio_mientras_que_mira_su_diseño._El_punto_de_usar_Lorem_Ipsum_es_que_tiene_una_distribución_más_o_menos_normal_de_las_letras_al_contrario_de_usar_t-2" data-name="Es un hecho establecido hace demasiado tiempo que un lector se distraerá con el contenido del texto de un sitio mientras que mira su diseño. El punto de usar Lorem Ipsum es que tiene una distribución más o menos normal de las letras, al contrario de usar t" transform="translate(9.834 118.791)" fill="#494949" font-size="5" font-family="Roboto-Regular, Roboto"><tspan x="0" y="5">Es un hecho establecido hace demasiado tiempo que un lector se distraerá con el contenido del </tspan><tspan x="0" y="15">texto de un sitio mientras que mira su diseño. El punto de usar Lorem Ipsum es que tiene una </tspan><tspan x="0" y="25">distribución más o menos normal de las letras, al contrario de usar textos como por ejemplo </tspan><tspan x="0" y="35">“Contenido aquí.</tspan></text>
        <path id="Rectángulo_1987" data-name="Rectángulo 1987" d="M5,0H231.008a5,5,0,0,1,5,5V21.634a0,0,0,0,1,0,0H0a0,0,0,0,1,0,0V5A5,5,0,0,1,5,0Z" transform="translate(0 0)" fill="#333"/>
        <text id="Título_de_información" data-name="Título de información" transform="translate(9.95 14.371)" fill="#fff" font-size="7" font-family="Roboto-Bold, Roboto" font-weight="700"><tspan x="0" y="0">Título de información</tspan></text>
        <g id="Grupo_863" data-name="Grupo 863" transform="translate(221.352 5.9)">
          <g id="Grupo_790" data-name="Grupo 790">
            <path id="Trazado_1119" data-name="Trazado 1119" d="M744.585,5038.317a4.327,4.327,0,1,0,1.268,3.061A4.3,4.3,0,0,0,744.585,5038.317Zm-1.192,4.912a.487.487,0,0,1-.691,0l-1.175-1.175-1.181,1.181a.488.488,0,0,1-.691-.69l1.18-1.181-1.175-1.174a.489.489,0,0,1,.691-.69l1.175,1.175,1.169-1.169a.488.488,0,0,1,.691.69l-1.169,1.169,1.175,1.175A.488.488,0,0,1,743.393,5043.229Z" transform="translate(-737.199 -5037.051)" fill="#fff"/>
          </g>
        </g>
      </g>
    </g>
  </g>
</svg>
