<svg xmlns="http://www.w3.org/2000/svg" xmlns:xlink="http://www.w3.org/1999/xlink" width="346.677" height="265.881" viewBox="0 0 346.677 265.881">
  <defs>
    <filter id="Rectángulo_1988" x="46" y="57.352" width="254.531" height="175.074" filterUnits="userSpaceOnUse">
      <feOffset dy="3" input="SourceAlpha"/>
      <feGaussianBlur stdDeviation="3" result="blur"/>
      <feFlood flood-opacity="0.161"/>
      <feComposite operator="in" in2="blur"/>
      <feComposite in="SourceGraphic"/>
    </filter>
  </defs>
  <g id="Grupo_887" data-name="Grupo 887" transform="translate(-553 -2464)">
    <g id="Trazado_1251" data-name="Trazado 1251" transform="translate(553 2464)" fill="#fff">
      <path d="M 346.177001953125 265.3809814453125 L 0.5000009536743164 265.3809814453125 L 0.5000009536743164 0.5000209212303162 L 346.177001953125 0.5000209212303162 L 346.177001953125 265.3809814453125 Z" stroke="none"/>
      <path d="M 1 0.999969482421875 L 1 264.8809204101562 L 345.677001953125 264.8809204101562 L 345.677001953125 0.999969482421875 L 1 0.999969482421875 M 0 -3.0517578125e-05 L 346.677001953125 -3.0517578125e-05 L 346.677001953125 265.8809204101562 L 0 265.8809204101562 L 0 -3.0517578125e-05 Z" stroke="none" fill="#707070"/>
    </g>
    <path id="Trazado_1252" data-name="Trazado 1252" d="M0,0H346.677V25.882H0Z" transform="translate(553 2464)" fill="#333"/>
    <g id="Grupo_868" data-name="Grupo 868" transform="translate(31 12.352)">
      <g transform="matrix(1, 0, 0, 1, 522, 2451.65)" filter="url(#Rectángulo_1988)">
        <rect id="Rectángulo_1988-2" data-name="Rectángulo 1988" width="236.531" height="157.074" rx="5" transform="translate(55 63.35)" fill="#fff"/>
      </g>
      <text id="La_carga_puede_tardar_unos_minutos_" data-name="La carga puede tardar unos minutos…" transform="translate(593.426 2577.074)" fill="#494949" font-size="10" font-family="Roboto-Regular, Roboto"><tspan x="0" y="0">La carga puede tardar unos minutos…</tspan></text>
      <path id="Rectángulo_1989" data-name="Rectángulo 1989" d="M5,0H231.531a5,5,0,0,1,5,5V37.169a0,0,0,0,1,0,0H0a0,0,0,0,1,0,0V5A5,5,0,0,1,5,0Z" transform="translate(577 2515)" fill="#333"/>
      <text id="Procesando_" data-name="Procesando…" transform="translate(593.42 2540.706)" fill="#fff" font-size="13" font-family="Roboto-Bold, Roboto" font-weight="700"><tspan x="0" y="0">Procesando…</tspan></text>
      <g id="Grupo_867" data-name="Grupo 867" transform="translate(665.918 2599.198)">
        <rect id="Rectángulo_1559" data-name="Rectángulo 1559" width="12.874" height="12.874" transform="translate(27.31 0) rotate(45)" fill="#b7006d"/>
        <rect id="Rectángulo_1560" data-name="Rectángulo 1560" width="12.553" height="12.553" transform="translate(36.867 9.557) rotate(45)" fill="#b7006d"/>
        <rect id="Rectángulo_1561" data-name="Rectángulo 1561" width="13.516" height="13.516" transform="translate(47.786 17.753) rotate(45)" fill="#b7006d"/>
        <rect id="Rectángulo_1562" data-name="Rectángulo 1562" width="12.576" height="12.576" transform="translate(17.786 9.524) rotate(45)" fill="#b7006d"/>
        <rect id="Rectángulo_1563" data-name="Rectángulo 1563" width="12.874" height="12.874" transform="translate(27.31 18.207) rotate(45)" fill="#b7006d"/>
        <rect id="Rectángulo_1564" data-name="Rectángulo 1564" width="12.553" height="12.553" transform="translate(36.867 27.31) rotate(45)" fill="#b7006d"/>
        <rect id="Rectángulo_1565" data-name="Rectángulo 1565" width="13.516" height="13.516" transform="translate(9.557 17.753) rotate(45)" fill="#b7006d"/>
        <rect id="Rectángulo_1566" data-name="Rectángulo 1566" width="12.576" height="12.576" transform="translate(17.786 27.31) rotate(45)" fill="#b7006d"/>
        <rect id="Rectángulo_1567" data-name="Rectángulo 1567" width="12.874" height="12.874" transform="translate(27.31 36.413) rotate(45)" fill="#b7006d"/>
      </g>
    </g>
  </g>
</svg>
