<svg xmlns="http://www.w3.org/2000/svg" width="129" height="68.663" viewBox="0 0 129 68.663">
  <g id="Grupo_841" data-name="Grupo 841" transform="translate(-943.364 -3220.859)">
    <path id="Trazado_1281" data-name="Trazado 1281" d="M5.391-2.191a1.121,1.121,0,0,0-.378-.873,3.479,3.479,0,0,0-1.339-.609,5.71,5.71,0,0,1-2.124-1A2,2,0,0,1,.8-6.287a2.1,2.1,0,0,1,.82-1.7,3.233,3.233,0,0,1,2.109-.668,3.2,3.2,0,0,1,2.212.741,2.271,2.271,0,0,1,.8,1.831l-.012.035H5.361a1.363,1.363,0,0,0-.448-1.072,1.729,1.729,0,0,0-1.192-.4,1.638,1.638,0,0,0-1.11.34,1.112,1.112,0,0,0-.39.879.974.974,0,0,0,.428.812,4.647,4.647,0,0,0,1.418.606A4.957,4.957,0,0,1,6.111-3.858a2.15,2.15,0,0,1,.7,1.655A2.02,2.02,0,0,1,5.982-.51,3.516,3.516,0,0,1,3.8.123,3.8,3.8,0,0,1,1.529-.568,2.19,2.19,0,0,1,.592-2.52L.6-2.555H1.975A1.344,1.344,0,0,0,2.5-1.4a2.122,2.122,0,0,0,1.292.39,1.9,1.9,0,0,0,1.175-.319A1.03,1.03,0,0,0,5.391-2.191ZM7.863-3.229A3.443,3.443,0,0,1,8.64-5.552a2.651,2.651,0,0,1,2.124-.905,2.672,2.672,0,0,1,2.142.905,3.443,3.443,0,0,1,.776,2.323v.123a3.437,3.437,0,0,1-.776,2.329,2.666,2.666,0,0,1-2.13.9,2.669,2.669,0,0,1-2.136-.9,3.44,3.44,0,0,1-.776-2.326Zm1.424.123A2.812,2.812,0,0,0,9.65-1.594a1.233,1.233,0,0,0,1.125.58A1.236,1.236,0,0,0,11.892-1.6a2.763,2.763,0,0,0,.372-1.509v-.123a2.757,2.757,0,0,0-.372-1.5,1.244,1.244,0,0,0-1.128-.589,1.219,1.219,0,0,0-1.11.589,2.792,2.792,0,0,0-.366,1.5ZM16.441,0H15.018V-9.141h1.424Zm3.111,0H18.129V-6.34h1.424Zm0-7.893H18.129V-9.141h1.424Zm1.33,4.811a4.181,4.181,0,0,1,.65-2.446,2.1,2.1,0,0,1,1.828-.929,2,2,0,0,1,.923.208,2.088,2.088,0,0,1,.706.595V-9.141h1.424V0H25.26l-.17-.8a2.115,2.115,0,0,1-.738.688,2.054,2.054,0,0,1-1,.237,2.157,2.157,0,0,1-1.816-.85,3.575,3.575,0,0,1-.65-2.232Zm1.424.123a2.553,2.553,0,0,0,.337,1.4,1.18,1.18,0,0,0,1.069.521,1.43,1.43,0,0,0,.765-.193,1.472,1.472,0,0,0,.513-.551V-4.547a1.5,1.5,0,0,0-.516-.548,1.394,1.394,0,0,0-.75-.2,1.148,1.148,0,0,0-1.072.612,3.231,3.231,0,0,0-.346,1.6Zm9.27-.094H28.119V-4.2h3.457ZM36.926,0H35.5V-7.219H33.691V-8.35l3.234-.3ZM45.65-2.959A3.575,3.575,0,0,1,45-.727a2.151,2.151,0,0,1-1.811.85,2.242,2.242,0,0,1-.955-.193,1.965,1.965,0,0,1-.715-.568V2.438H40.1V-6.34h1.2l.141.8a2.114,2.114,0,0,1,.735-.68,2.057,2.057,0,0,1,1-.234A2.106,2.106,0,0,1,45-5.528a4.167,4.167,0,0,1,.653,2.446Zm-1.418-.123a3.089,3.089,0,0,0-.366-1.591,1.191,1.191,0,0,0-1.093-.618,1.42,1.42,0,0,0-.756.19,1.4,1.4,0,0,0-.5.53v2.865a1.324,1.324,0,0,0,.5.513,1.518,1.518,0,0,0,.768.179,1.221,1.221,0,0,0,1.087-.536,2.484,2.484,0,0,0,.36-1.409Zm4.846-1.084L50.25-6.34h1.635L49.893-3.205,51.943,0H50.326L49.1-2.227,47.877,0H46.248L48.3-3.205,46.307-6.34h1.617Z" transform="translate(983.53 3230)" fill="#4199a0"/>
    <g id="Trazado_1282" data-name="Trazado 1282" transform="translate(943.364 3244.522)" fill="none">
      <path d="M14.991,0h99.018A14.991,14.991,0,0,1,129,14.991V30.009A14.991,14.991,0,0,1,114.009,45H14.991A14.991,14.991,0,0,1,0,30.009V14.991A14.991,14.991,0,0,1,14.991,0Z" stroke="none"/>
      <path d="M 14.99113464355469 1 C 11.25396728515625 1 7.740486145019531 2.455333709716797 5.097915649414062 5.097915649414062 C 2.455329895019531 7.740482330322266 1 11.25396728515625 1 14.99113273620605 L 1 30.00886535644531 C 1 33.74603271484375 2.455329895019531 37.25951766967773 5.097915649414062 39.90208435058594 C 7.740486145019531 42.5446662902832 11.25396728515625 44 14.99113464355469 44 L 114.0088653564453 44 C 117.7460327148438 44 121.2595138549805 42.5446662902832 123.9020843505859 39.90208435058594 C 126.5446701049805 37.25951766967773 128 33.74603271484375 128 30.00886535644531 L 128 14.99113273620605 C 128 11.25396728515625 126.5446701049805 7.740482330322266 123.9020843505859 5.097915649414062 C 121.2595138549805 2.455333709716797 117.7460327148438 1 114.0088653564453 1 L 14.99113464355469 1 M 14.99113464355469 0 L 114.0088653564453 0 C 122.2882308959961 0 129 6.711765289306641 129 14.99113273620605 L 129 30.00886535644531 C 129 38.28823471069336 122.2882308959961 45 114.0088653564453 45 L 14.99113464355469 45 C 6.711769104003906 45 0 38.28823471069336 0 30.00886535644531 L 0 14.99113273620605 C 0 6.711765289306641 6.711769104003906 0 14.99113464355469 0 Z" stroke="none" fill="#d5007f"/>
    </g>
    <path id="Trazado_1283" data-name="Trazado 1283" d="M8.086-3.287A1.681,1.681,0,0,0,7.519-4.6a5.219,5.219,0,0,0-2.008-.914,8.565,8.565,0,0,1-3.186-1.5A2.993,2.993,0,0,1,1.2-9.431a3.146,3.146,0,0,1,1.23-2.549,4.85,4.85,0,0,1,3.164-1A4.793,4.793,0,0,1,8.917-11.87a3.407,3.407,0,0,1,1.2,2.747L10.1-9.07H8.042a2.044,2.044,0,0,0-.672-1.608,2.593,2.593,0,0,0-1.789-.6,2.457,2.457,0,0,0-1.666.51,1.668,1.668,0,0,0-.584,1.318,1.46,1.46,0,0,0,.642,1.217,6.971,6.971,0,0,0,2.127.91A7.436,7.436,0,0,1,9.167-5.788,3.225,3.225,0,0,1,10.222-3.3,3.03,3.03,0,0,1,8.974-.765,5.274,5.274,0,0,1,5.7.185a5.694,5.694,0,0,1-3.4-1.037A3.286,3.286,0,0,1,.888-3.779l.018-.053H2.962a2.016,2.016,0,0,0,.8,1.736A3.183,3.183,0,0,0,5.7-1.512a2.852,2.852,0,0,0,1.762-.479A1.544,1.544,0,0,0,8.086-3.287ZM16.225.185a4.141,4.141,0,0,1-3.256-1.314,4.921,4.921,0,0,1-1.173-3.406v-.352a5.088,5.088,0,0,1,1.173-3.45A3.792,3.792,0,0,1,16-9.686,3.559,3.559,0,0,1,18.9-8.5a4.78,4.78,0,0,1,.984,3.16v1.151H14l-.018.044a3.116,3.116,0,0,0,.615,1.9,2.1,2.1,0,0,0,1.749.729,4.812,4.812,0,0,0,1.507-.211,4.3,4.3,0,0,0,1.182-.606l.694,1.4a4.526,4.526,0,0,1-1.441.8A6.041,6.041,0,0,1,16.225.185ZM16-7.972a1.65,1.65,0,0,0-1.336.6A2.984,2.984,0,0,0,14.036-5.8l.018.044h3.718v-.167A2.4,2.4,0,0,0,17.345-7.4,1.578,1.578,0,0,0,16-7.972Zm9.492,6.451a1.775,1.775,0,0,0,1.235-.457,1.5,1.5,0,0,0,.505-1.16h1.934l.018.053a2.867,2.867,0,0,1-1.059,2.3,3.839,3.839,0,0,1-2.632.967,3.875,3.875,0,0,1-3.173-1.358A5.213,5.213,0,0,1,21.2-4.6V-4.9a5.217,5.217,0,0,1,1.116-3.419,3.859,3.859,0,0,1,3.164-1.362,3.73,3.73,0,0,1,2.7,1,3.256,3.256,0,0,1,1,2.536l-.018.053H27.229a1.929,1.929,0,0,0-.483-1.327,1.611,1.611,0,0,0-1.266-.545,1.742,1.742,0,0,0-1.644.883,4.371,4.371,0,0,0-.5,2.184V-4.6a4.411,4.411,0,0,0,.5,2.2A1.752,1.752,0,0,0,25.488-1.521Zm11.417.114A3.19,3.19,0,0,1,35.776-.229a3.045,3.045,0,0,1-1.6.413A2.978,2.978,0,0,1,31.79-.822a4.732,4.732,0,0,1-.861-3.125V-9.51h2.127v5.581a3.178,3.178,0,0,0,.4,1.868,1.466,1.466,0,0,0,1.23.505,2.747,2.747,0,0,0,1.3-.277,2.011,2.011,0,0,0,.822-.8V-9.51h2.136V0H37.1Zm6.2-8.1.123,1.371A3.4,3.4,0,0,1,44.4-9.277a3.131,3.131,0,0,1,1.6-.409,2.97,2.97,0,0,1,2.316.914,4.153,4.153,0,0,1,.831,2.856V0H47V-5.9a2.3,2.3,0,0,0-.431-1.573,1.687,1.687,0,0,0-1.3-.466,2.55,2.55,0,0,0-1.187.259,2.078,2.078,0,0,0-.8.716V0H41.15V-9.51Zm7.866,4.887a6.271,6.271,0,0,1,.976-3.669,3.156,3.156,0,0,1,2.742-1.393,3,3,0,0,1,1.384.312,3.133,3.133,0,0,1,1.059.892v-5.229h2.136V0H57.533l-.255-1.2A3.172,3.172,0,0,1,56.171-.171a3.08,3.08,0,0,1-1.5.356A3.236,3.236,0,0,1,51.943-1.09a5.362,5.362,0,0,1-.976-3.349Zm2.136.185a3.83,3.83,0,0,0,.505,2.1,1.77,1.77,0,0,0,1.6.782,2.144,2.144,0,0,0,1.147-.29,2.208,2.208,0,0,0,.769-.826V-6.82a2.249,2.249,0,0,0-.773-.822,2.091,2.091,0,0,0-1.125-.294,1.722,1.722,0,0,0-1.608.918,4.846,4.846,0,0,0-.519,2.4ZM67.289,0q-.114-.36-.189-.7a5.026,5.026,0,0,1-.1-.686A3.663,3.663,0,0,1,65.848-.268a2.962,2.962,0,0,1-1.608.453A3.161,3.161,0,0,1,61.958-.58a2.777,2.777,0,0,1-.8-2.1,2.481,2.481,0,0,1,1.09-2.149A5.262,5.262,0,0,1,65.32-5.6h1.661v-.835A1.553,1.553,0,0,0,66.546-7.6a1.74,1.74,0,0,0-1.261-.422,1.8,1.8,0,0,0-1.16.347,1.1,1.1,0,0,0-.431.9l-2.057.009-.009-.053a2.355,2.355,0,0,1,1.006-2,4.264,4.264,0,0,1,2.782-.87,4.069,4.069,0,0,1,2.681.844,2.97,2.97,0,0,1,1.02,2.426v4.228A7.8,7.8,0,0,0,69.2-1.059,6,6,0,0,0,69.451,0Zm-2.61-1.529a2.669,2.669,0,0,0,1.446-.4,2.036,2.036,0,0,0,.857-.923V-4.263h-1.7a2.141,2.141,0,0,0-1.459.461A1.4,1.4,0,0,0,63.3-2.716a1.107,1.107,0,0,0,.356.866A1.479,1.479,0,0,0,64.679-1.529ZM76.087-7.585l-.914-.035a1.915,1.915,0,0,0-1.042.264,1.736,1.736,0,0,0-.646.747V0H71.35V-9.51H73.3l.141,1.38a3.05,3.05,0,0,1,.927-1.143,2.158,2.158,0,0,1,1.305-.413,1.99,1.99,0,0,1,.36.031,2.631,2.631,0,0,1,.308.075ZM79.945,0H77.81V-9.51h2.136Zm0-11.839H77.81v-1.872h2.136Zm2,7A5.164,5.164,0,0,1,83.1-8.328a3.977,3.977,0,0,1,3.186-1.358A4.007,4.007,0,0,1,89.5-8.328a5.164,5.164,0,0,1,1.165,3.485v.185A5.156,5.156,0,0,1,89.5-1.165,4,4,0,0,1,86.309.185a4,4,0,0,1-3.2-1.354A5.16,5.16,0,0,1,81.94-4.658Zm2.136.185a4.218,4.218,0,0,0,.545,2.268,1.85,1.85,0,0,0,1.688.87A1.855,1.855,0,0,0,87.983-2.4a4.144,4.144,0,0,0,.558-2.263v-.185a4.136,4.136,0,0,0-.558-2.246,1.866,1.866,0,0,0-1.692-.883,1.829,1.829,0,0,0-1.666.883,4.188,4.188,0,0,0-.549,2.246Z" transform="translate(962.53 3272)" fill="#d5007f"/>
    <g id="Trazado_1284" data-name="Trazado 1284" transform="translate(943.364 3244.522)" fill="none">
      <path d="M14.991,0h99.018A14.991,14.991,0,0,1,129,14.991V30.009A14.991,14.991,0,0,1,114.009,45H14.991A14.991,14.991,0,0,1,0,30.009V14.991A14.991,14.991,0,0,1,14.991,0Z" stroke="none"/>
      <path d="M 14.99113464355469 1 C 11.25396728515625 1 7.740486145019531 2.455333709716797 5.097915649414062 5.097915649414062 C 2.455329895019531 7.740482330322266 1 11.25396728515625 1 14.99113273620605 L 1 30.00886535644531 C 1 33.74603271484375 2.455329895019531 37.25951766967773 5.097915649414062 39.90208435058594 C 7.740486145019531 42.5446662902832 11.25396728515625 44 14.99113464355469 44 L 114.0088653564453 44 C 117.7460327148438 44 121.2595138549805 42.5446662902832 123.9020843505859 39.90208435058594 C 126.5446701049805 37.25951766967773 128 33.74603271484375 128 30.00886535644531 L 128 14.99113273620605 C 128 11.25396728515625 126.5446701049805 7.740482330322266 123.9020843505859 5.097915649414062 C 121.2595138549805 2.455333709716797 117.7460327148438 1 114.0088653564453 1 L 14.99113464355469 1 M 14.99113464355469 0 L 114.0088653564453 0 C 122.2882308959961 0 129 6.711765289306641 129 14.99113273620605 L 129 30.00886535644531 C 129 38.28823471069336 122.2882308959961 45 114.0088653564453 45 L 14.99113464355469 45 C 6.711769104003906 45 0 38.28823471069336 0 30.00886535644531 L 0 14.99113273620605 C 0 6.711765289306641 6.711769104003906 0 14.99113464355469 0 Z" stroke="none" fill="#b7006d"/>
    </g>
    <path id="Trazado_1285" data-name="Trazado 1285" d="M8.086-3.287A1.681,1.681,0,0,0,7.519-4.6a5.219,5.219,0,0,0-2.008-.914,8.565,8.565,0,0,1-3.186-1.5A2.993,2.993,0,0,1,1.2-9.431a3.146,3.146,0,0,1,1.23-2.549,4.85,4.85,0,0,1,3.164-1A4.793,4.793,0,0,1,8.917-11.87a3.407,3.407,0,0,1,1.2,2.747L10.1-9.07H8.042a2.044,2.044,0,0,0-.672-1.608,2.593,2.593,0,0,0-1.789-.6,2.457,2.457,0,0,0-1.666.51,1.668,1.668,0,0,0-.584,1.318,1.46,1.46,0,0,0,.642,1.217,6.971,6.971,0,0,0,2.127.91A7.436,7.436,0,0,1,9.167-5.788,3.225,3.225,0,0,1,10.222-3.3,3.03,3.03,0,0,1,8.974-.765,5.274,5.274,0,0,1,5.7.185a5.694,5.694,0,0,1-3.4-1.037A3.286,3.286,0,0,1,.888-3.779l.018-.053H2.962a2.016,2.016,0,0,0,.8,1.736A3.183,3.183,0,0,0,5.7-1.512a2.852,2.852,0,0,0,1.762-.479A1.544,1.544,0,0,0,8.086-3.287ZM16.225.185a4.141,4.141,0,0,1-3.256-1.314,4.921,4.921,0,0,1-1.173-3.406v-.352a5.088,5.088,0,0,1,1.173-3.45A3.792,3.792,0,0,1,16-9.686,3.559,3.559,0,0,1,18.9-8.5a4.78,4.78,0,0,1,.984,3.16v1.151H14l-.018.044a3.116,3.116,0,0,0,.615,1.9,2.1,2.1,0,0,0,1.749.729,4.812,4.812,0,0,0,1.507-.211,4.3,4.3,0,0,0,1.182-.606l.694,1.4a4.526,4.526,0,0,1-1.441.8A6.041,6.041,0,0,1,16.225.185ZM16-7.972a1.65,1.65,0,0,0-1.336.6A2.984,2.984,0,0,0,14.036-5.8l.018.044h3.718v-.167A2.4,2.4,0,0,0,17.345-7.4,1.578,1.578,0,0,0,16-7.972Zm9.492,6.451a1.775,1.775,0,0,0,1.235-.457,1.5,1.5,0,0,0,.505-1.16h1.934l.018.053a2.867,2.867,0,0,1-1.059,2.3,3.839,3.839,0,0,1-2.632.967,3.875,3.875,0,0,1-3.173-1.358A5.213,5.213,0,0,1,21.2-4.6V-4.9a5.217,5.217,0,0,1,1.116-3.419,3.859,3.859,0,0,1,3.164-1.362,3.73,3.73,0,0,1,2.7,1,3.256,3.256,0,0,1,1,2.536l-.018.053H27.229a1.929,1.929,0,0,0-.483-1.327,1.611,1.611,0,0,0-1.266-.545,1.742,1.742,0,0,0-1.644.883,4.371,4.371,0,0,0-.5,2.184V-4.6a4.411,4.411,0,0,0,.5,2.2A1.752,1.752,0,0,0,25.488-1.521Zm11.417.114A3.19,3.19,0,0,1,35.776-.229a3.045,3.045,0,0,1-1.6.413A2.978,2.978,0,0,1,31.79-.822a4.732,4.732,0,0,1-.861-3.125V-9.51h2.127v5.581a3.178,3.178,0,0,0,.4,1.868,1.466,1.466,0,0,0,1.23.505,2.747,2.747,0,0,0,1.3-.277,2.011,2.011,0,0,0,.822-.8V-9.51h2.136V0H37.1Zm6.2-8.1.123,1.371A3.4,3.4,0,0,1,44.4-9.277a3.131,3.131,0,0,1,1.6-.409,2.97,2.97,0,0,1,2.316.914,4.153,4.153,0,0,1,.831,2.856V0H47V-5.9a2.3,2.3,0,0,0-.431-1.573,1.687,1.687,0,0,0-1.3-.466,2.55,2.55,0,0,0-1.187.259,2.078,2.078,0,0,0-.8.716V0H41.15V-9.51Zm7.866,4.887a6.271,6.271,0,0,1,.976-3.669,3.156,3.156,0,0,1,2.742-1.393,3,3,0,0,1,1.384.312,3.133,3.133,0,0,1,1.059.892v-5.229h2.136V0H57.533l-.255-1.2A3.172,3.172,0,0,1,56.171-.171a3.08,3.08,0,0,1-1.5.356A3.236,3.236,0,0,1,51.943-1.09a5.362,5.362,0,0,1-.976-3.349Zm2.136.185a3.83,3.83,0,0,0,.505,2.1,1.77,1.77,0,0,0,1.6.782,2.144,2.144,0,0,0,1.147-.29,2.208,2.208,0,0,0,.769-.826V-6.82a2.249,2.249,0,0,0-.773-.822,2.091,2.091,0,0,0-1.125-.294,1.722,1.722,0,0,0-1.608.918,4.846,4.846,0,0,0-.519,2.4ZM67.289,0q-.114-.36-.189-.7a5.026,5.026,0,0,1-.1-.686A3.663,3.663,0,0,1,65.848-.268a2.962,2.962,0,0,1-1.608.453A3.161,3.161,0,0,1,61.958-.58a2.777,2.777,0,0,1-.8-2.1,2.481,2.481,0,0,1,1.09-2.149A5.262,5.262,0,0,1,65.32-5.6h1.661v-.835A1.553,1.553,0,0,0,66.546-7.6a1.74,1.74,0,0,0-1.261-.422,1.8,1.8,0,0,0-1.16.347,1.1,1.1,0,0,0-.431.9l-2.057.009-.009-.053a2.355,2.355,0,0,1,1.006-2,4.264,4.264,0,0,1,2.782-.87,4.069,4.069,0,0,1,2.681.844,2.97,2.97,0,0,1,1.02,2.426v4.228A7.8,7.8,0,0,0,69.2-1.059,6,6,0,0,0,69.451,0Zm-2.61-1.529a2.669,2.669,0,0,0,1.446-.4,2.036,2.036,0,0,0,.857-.923V-4.263h-1.7a2.141,2.141,0,0,0-1.459.461A1.4,1.4,0,0,0,63.3-2.716a1.107,1.107,0,0,0,.356.866A1.479,1.479,0,0,0,64.679-1.529ZM76.087-7.585l-.914-.035a1.915,1.915,0,0,0-1.042.264,1.736,1.736,0,0,0-.646.747V0H71.35V-9.51H73.3l.141,1.38a3.05,3.05,0,0,1,.927-1.143,2.158,2.158,0,0,1,1.305-.413,1.99,1.99,0,0,1,.36.031,2.631,2.631,0,0,1,.308.075ZM79.945,0H77.81V-9.51h2.136Zm0-11.839H77.81v-1.872h2.136Zm2,7A5.164,5.164,0,0,1,83.1-8.328a3.977,3.977,0,0,1,3.186-1.358A4.007,4.007,0,0,1,89.5-8.328a5.164,5.164,0,0,1,1.165,3.485v.185A5.156,5.156,0,0,1,89.5-1.165,4,4,0,0,1,86.309.185a4,4,0,0,1-3.2-1.354A5.16,5.16,0,0,1,81.94-4.658Zm2.136.185a4.218,4.218,0,0,0,.545,2.268,1.85,1.85,0,0,0,1.688.87A1.855,1.855,0,0,0,87.983-2.4a4.144,4.144,0,0,0,.558-2.263v-.185a4.136,4.136,0,0,0-.558-2.246,1.866,1.866,0,0,0-1.692-.883,1.829,1.829,0,0,0-1.666.883,4.188,4.188,0,0,0-.549,2.246Z" transform="translate(962.53 3272)" fill="#b7006d"/>
  </g>
</svg>
