<svg xmlns="http://www.w3.org/2000/svg" xmlns:xlink="http://www.w3.org/1999/xlink" width="698" height="173" viewBox="0 0 698 173">
  <defs>
    <filter id="Rectángulo_4569" x="0" y="0" width="698" height="173" filterUnits="userSpaceOnUse">
      <feOffset input="SourceAlpha"/>
      <feGaussianBlur stdDeviation="3" result="blur"/>
      <feFlood flood-opacity="0.102"/>
      <feComposite operator="in" in2="blur"/>
      <feComposite in="SourceGraphic"/>
    </filter>
  </defs>
  <g id="Grupo_2872" data-name="Grupo 2872" transform="translate(-423 -13362)">
    <g transform="matrix(1, 0, 0, 1, 423, 13362)" filter="url(#Rectángulo_4569)">
      <rect id="Rectángulo_4569-2" data-name="Rectángulo 4569" width="680" height="155" transform="translate(9 9)" fill="#fff"/>
    </g>
    <text id="_Atributo_para_mostrar_la_causa_private_static_final_String_CAUSED_BY_nCaused_by:_" data-name="/**
			*Atributo para mostrar la causa
		*/
 private static final String CAUSED_BY=”\nCaused by: “; " transform="translate(456 13393.677)" fill="#91c4c8" font-size="16" font-family="Roboto-Regular, Roboto"><tspan x="0" y="17">/**</tspan><tspan x="0" y="43.4" xml:space="preserve">			*Atributo para mostrar la causa</tspan><tspan x="0" y="69.8" xml:space="preserve">		*/</tspan><tspan fill="#3f99a0"><tspan x="0" y="96.2" xml:space="preserve" fill="#d3097f"> private static final </tspan><tspan y="96.2" fill="#000">String</tspan><tspan y="96.2" fill="#d3097f"> </tspan><tspan y="96.2" fill="#3f99a0">CAUSED_BY=”\nCaused by: “; </tspan></tspan></text>
  </g>
</svg>
