<svg xmlns="http://www.w3.org/2000/svg" xmlns:xlink="http://www.w3.org/1999/xlink" width="735" height="1729.027" viewBox="0 0 735 1729.027">
  <defs>
    <filter id="Rectángulo_3375" x="0" y="9.096" width="735" height="1719.932" filterUnits="userSpaceOnUse">
      <feOffset dy="3" input="SourceAlpha"/>
      <feGaussianBlur stdDeviation="3" result="blur"/>
      <feFlood flood-opacity="0.078"/>
      <feComposite operator="in" in2="blur"/>
      <feComposite in="SourceGraphic"/>
    </filter>
  </defs>
  <g id="Grupo_2874" data-name="Grupo 2874" transform="translate(-402 -16319)">
    <g transform="matrix(1, 0, 0, 1, 402, 16319)" filter="url(#Rectángulo_3375)">
      <rect id="Rectángulo_3375-2" data-name="Rectángulo 3375" width="717" height="1701.932" rx="27.64" transform="translate(9 15.1)" fill="#fdf7fa"/>
    </g>
    <rect id="Rectángulo_3376" data-name="Rectángulo 3376" width="339.632" height="51.173" transform="translate(413.83 16319)" fill="#d3097f"/>
    <rect id="Rectángulo_3377" data-name="Rectángulo 3377" width="339.632" height="16.038" transform="translate(413.83 16319)" fill="#98145e"/>
    <rect id="Rectángulo_3378" data-name="Rectángulo 3378" width="375.128" height="51.173" transform="translate(752.872 16319)" fill="#d970a8"/>
    <rect id="Rectángulo_3379" data-name="Rectángulo 3379" width="375.128" height="16.038" transform="translate(752.872 16319)" fill="#b60f6e"/>
    <text id="Etiqueta" transform="translate(450.624 16337.971)" fill="#fff" font-size="18" font-family="Roboto-Bold, Roboto" font-weight="700"><tspan x="99.681" y="19">Etiqueta</tspan></text>
    <text id="Descripción" transform="translate(807.414 16337.971)" fill="#fff" font-size="18" font-family="Roboto-Bold, Roboto" font-weight="700"><tspan x="85.043" y="19">Descripción</tspan></text>
    <text id="groupId_artifactId" data-name="groupId, artifactId" transform="translate(452.049 16395.535)" fill="#1d1d1b" font-size="17" font-family="Roboto-Regular, Roboto"><tspan x="0" y="18">groupId, artifactId</tspan></text>
    <text id="Coordenadas_correspondientes_de_la_dependencia." data-name="Coordenadas correspondientes de la dependencia." transform="translate(783.63 16396.355)" fill="#1d1d1b" font-size="14" font-family="Roboto-Regular, Roboto"><tspan x="0" y="15">Coordenadas correspondientes de la </tspan><tspan x="0" y="33.114">dependencia.</tspan></text>
    <text id="versión" transform="translate(450.624 16473.838)" fill="#1d1d1b" font-size="17" font-family="Roboto-Regular, Roboto"><tspan x="0" y="18">versión</tspan></text>
    <text id="Especificación_de_una_dependencia." data-name="Especificación de una dependencia." transform="translate(783.414 16474.66)" fill="#1d1d1b" font-size="14" font-family="Roboto-Regular, Roboto"><tspan x="0" y="15">Especificación de una dependencia.</tspan></text>
    <text id="type" transform="translate(450.624 16532.33)" fill="#1d1d1b" font-size="17" font-family="Roboto-Regular, Roboto"><tspan x="0" y="18">type</tspan></text>
    <text id="Corresponde_al_tipo_de_embalaje_del_artefacto_dependiente._Esto_está_predeterminado_en_jar." data-name="Corresponde al tipo de embalaje del artefacto dependiente. Esto está predeterminado en jar." transform="translate(783.828 16533.152)" fill="#1d1d1b" font-size="14" font-family="Roboto-Regular, Roboto"><tspan x="0" y="15">Corresponde al tipo de embalaje del artefacto </tspan><tspan x="0" y="33.114">dependiente. Esto está predeterminado en jar.</tspan></text>
    <text id="scope" transform="translate(450.624 16610.635)" fill="#1d1d1b" font-size="17" font-family="Roboto-Regular, Roboto"><tspan x="0" y="18">scope</tspan></text>
    <text id="Ámbito_de_la_dependencia_ruta_de_clase_de_la_tarea_en_cuestión_compilación_y_tiempo_de_ejecución_prueba_etc._." data-name="Ámbito de la dependencia, ruta de clase de la tarea en cuestión (compilación y tiempo de ejecución, prueba, etc.)." transform="translate(783.828 16611.457)" fill="#1d1d1b" font-size="14" font-family="Roboto-Regular, Roboto"><tspan x="0" y="15">Ámbito de la dependencia, ruta de clase de la </tspan><tspan x="0" y="33.114">tarea en cuestión (compilación y tiempo de </tspan><tspan x="0" y="51.227">ejecución, prueba, etc.).</tspan></text>
    <text id="compile" transform="translate(450.624 16703.09)" fill="#1d1d1b" font-size="17" font-family="Roboto-Regular, Roboto"><tspan x="0" y="18">compile</tspan></text>
    <text id="Este_es_el_alcance_predeterminado_se_usa_si_no_se_especifica_ninguno._Las_dependencias_de_compilación_están_disponibles_en_todos_los_classpaths._Además_esas_dependencias_se_propagan_a_proyectos_dependientes." data-name="Este es el alcance predeterminado, se usa si no se especifica ninguno. Las dependencias de compilación están disponibles en todos los classpaths. Además, esas dependencias se propagan a proyectos dependientes." transform="translate(783.828 16703.91)" fill="#1d1d1b" font-size="14" font-family="Roboto-Regular, Roboto"><tspan x="0" y="15">Este es el alcance predeterminado, se usa si no se </tspan><tspan x="0" y="33.114">especifica ninguno. Las dependencias de </tspan><tspan x="0" y="51.227">compilación están disponibles en todos los </tspan><tspan x="0" y="69.341">classpaths. Además, esas dependencias se </tspan><tspan x="0" y="87.455">propagan a proyectos dependientes.</tspan></text>
    <text id="provided" transform="translate(450.624 16831.395)" fill="#1d1d1b" font-size="17" font-family="Roboto-Regular, Roboto"><tspan x="0" y="18">provided</tspan></text>
    <text id="Este_es_muy_similar_a_la_compilación_pero_indica_que_espera_que_el_JDK_o_un_contenedor_lo_proporcione_en_tiempo_de_ejecución._Sólo_está_disponible_en_el_classpath_de_compilación_y_prueba_y_no_es_transitivo." data-name="Este es muy similar a la compilación, pero indica que espera que el JDK o un contenedor, lo proporcione en tiempo de ejecución. Sólo está disponible en el classpath de compilación y prueba, y no es transitivo." transform="translate(783.828 16832.215)" fill="#1d1d1b" font-size="14" font-family="Roboto-Regular, Roboto"><tspan x="0" y="15">Este es muy similar a la compilación, pero indica </tspan><tspan x="0" y="33.114">que espera que el JDK o un contenedor, lo </tspan><tspan x="0" y="51.227">proporcione en tiempo de ejecución. Sólo está </tspan><tspan x="0" y="69.341">disponible en el classpath de compilación y </tspan><tspan x="0" y="87.455">prueba, y no es transitivo.</tspan></text>
    <text id="runtime" transform="translate(450.624 16964.418)" fill="#1d1d1b" font-size="17" font-family="Roboto-Regular, Roboto"><tspan x="0" y="18">runtime</tspan></text>
    <text id="Este_ámbito_indica_que_la_dependencia_no_es_necesaria_para_la_compilación_pero_sí_para_la_ejecución._Está_en_los_classpaths_de_tiempo_de_ejecución_y_de_prueba_mas_no_en_el_classpath_de_compilación." data-name="Este ámbito indica que la dependencia no es necesaria para la compilación, pero sí para la ejecución. Está en los classpaths de tiempo de ejecución y de prueba, mas no en el classpath de compilación." transform="translate(783.828 16965.238)" fill="#1d1d1b" font-size="14" font-family="Roboto-Regular, Roboto"><tspan x="0" y="15">Este ámbito indica que la dependencia no es </tspan><tspan x="0" y="33.114">necesaria para la compilación, pero sí para la </tspan><tspan x="0" y="51.227">ejecución. Está en los classpaths de tiempo de </tspan><tspan x="0" y="69.341">ejecución y de prueba, mas no en el classpath de </tspan><tspan x="0" y="87.455">compilación.</tspan></text>
    <text id="test" transform="translate(450.624 17099.326)" fill="#1d1d1b" font-size="17" font-family="Roboto-Regular, Roboto"><tspan x="0" y="18">test</tspan></text>
    <text id="Este_alcance_indica_que_la_dependencia_no_es_necesaria_para_el_uso_normal_de_la_aplicación_y_sólo_está_disponible_para_las_fases_de_compilación_y_ejecución_de_prueba._No_es_transitivo." data-name="Este alcance indica que la dependencia no es necesaria para el uso normal de la aplicación, y sólo está disponible para las fases de compilación y ejecución de prueba. No es transitivo." transform="translate(783.828 17100.148)" fill="#1d1d1b" font-size="14" font-family="Roboto-Regular, Roboto"><tspan x="0" y="15">Este alcance indica que la dependencia no es </tspan><tspan x="0" y="33.114">necesaria para el uso normal de la aplicación, y </tspan><tspan x="0" y="51.227">sólo está disponible para las fases de </tspan><tspan x="0" y="69.341">compilación y ejecución de prueba. No es </tspan><tspan x="0" y="87.455">transitivo.</tspan></text>
    <text id="system" transform="translate(450.624 17229.52)" fill="#1d1d1b" font-size="17" font-family="Roboto-Regular, Roboto"><tspan x="0" y="18">system</tspan></text>
    <text id="Este_alcance_es_similar_al_proporcionado_excepto_que_debe_proporcionar_el_JAR_que_lo_contiene_explícitamente._El_artefacto_siempre_está_disponible_y_no_se_busca_en_un_repositorio." data-name="Este alcance es similar al proporcionado, excepto que debe proporcionar el JAR que lo contiene explícitamente. El artefacto siempre está disponible y no se busca en un repositorio." transform="translate(783.828 17230.34)" fill="#1d1d1b" font-size="14" font-family="Roboto-Regular, Roboto"><tspan x="0" y="15">Este alcance es similar al proporcionado, excepto </tspan><tspan x="0" y="33.114">que debe proporcionar el JAR que lo contiene </tspan><tspan x="0" y="51.227">explícitamente. El artefacto siempre está </tspan><tspan x="0" y="69.341">disponible y no se busca en un repositorio.</tspan></text>
    <text id="systemPath" transform="translate(450.624 17360.654)" fill="#1d1d1b" font-size="17" font-family="Roboto-Regular, Roboto"><tspan x="0" y="18">systemPath</tspan></text>
    <text id="Se_usa_sólo_si_el_ámbito_es_de_tipo_system._La_ruta_debe_ser_absoluta_por_lo_que_se_recomienda_utilizar_una_propiedad_para_indicar_la_ruta_específica_de_la_máquina_más_en_las_propiedades_a_continuación_como_java.home_lib" data-name="Se usa sólo si el ámbito es de tipo system.  La ruta debe ser absoluta, por lo que se recomienda utilizar una propiedad para indicar la ruta específica de la máquina (más en las propiedades a continuación), como $ {java.home} / lib" transform="translate(783.828 17361.477)" fill="#1d1d1b" font-size="14" font-family="Roboto-Regular, Roboto"><tspan x="0" y="15" xml:space="preserve">Se usa sólo si el ámbito es de tipo system.  La </tspan><tspan x="0" y="33.114">ruta debe ser absoluta, por lo que se recomienda </tspan><tspan x="0" y="51.227">utilizar una propiedad para indicar la ruta </tspan><tspan x="0" y="69.341">específica de la máquina (más en las propiedades </tspan><tspan x="0" y="87.455">a continuación), como $ {java.home} / lib</tspan></text>
    <text id="exclusions" transform="translate(450.624 17842.742)" fill="#1d1d1b" font-size="17" font-family="Roboto-Regular, Roboto"><tspan x="0" y="18">exclusions</tspan></text>
    <text id="Las_exclusiones_le_dicen_a_Maven_que_no_incluya_el_proyecto_especificado_pues_es_una_dependencia_de_esta_dependencia_en_otras_palabras_su_dependencia_transitiva_._Por_ejemplo_maven-embedder_requiere_maven-core_y_no_lo_deseamos_usar_entonces_lo_agrega" data-name="Las exclusiones le dicen a Maven que no incluya el proyecto especificado, pues es una dependencia de esta dependencia (en otras palabras, su dependencia transitiva). Por ejemplo, maven-embedder requiere maven-core, y no lo deseamos usar, entonces lo agrega" transform="translate(783.828 17843.563)" fill="#1d1d1b" font-size="14" font-family="Roboto-Regular, Roboto"><tspan x="0" y="15">Las exclusiones le dicen a Maven que no incluya </tspan><tspan x="0" y="33.114">el proyecto especificado, pues es una </tspan><tspan x="0" y="51.227">dependencia de esta dependencia (en otras </tspan><tspan x="0" y="69.341">palabras, su dependencia transitiva). Por ejemplo, </tspan><tspan x="0" y="87.455">maven-embedder requiere maven-core, y no lo </tspan><tspan x="0" y="105.568">deseamos usar, entonces lo agregamos como una </tspan><tspan x="0" y="123.682">exclusión.</tspan></text>
    <text id="opcional" transform="translate(450.624 17511.602)" fill="#1d1d1b" font-size="17" font-family="Roboto-Regular, Roboto"><tspan x="0" y="18">opcional</tspan></text>
    <text id="Marca_una_dependencia_opcional_cuando_este_proyecto_en_sí_sea_una_dependencia._Por_ejemplo_si_un_proyecto_A_depende_del_proyecto_B_para_compilar_una_porción_del_código_que_no_se_puede_usar_en_tiempo_de_ejecución_entonces_es_posible_que_no_tengamos_necesi" data-name="Marca una dependencia opcional cuando este proyecto en sí sea una dependencia. Por ejemplo, si un proyecto A depende del proyecto B para compilar una porción del código que no se puede usar en tiempo de ejecución, entonces es posible que no tengamos necesi" transform="translate(783.828 17512.422)" fill="#1d1d1b" font-size="14" font-family="Roboto-Regular, Roboto" letter-spacing="-0.005em"><tspan x="0" y="15">Marca una dependencia opcional cuando este </tspan><tspan x="0" y="33.114">proyecto en sí sea una dependencia. Por ejemplo, </tspan><tspan x="0" y="51.227">si un proyecto A depende del proyecto B para </tspan><tspan x="0" y="69.341">compilar una porción del código que no se puede </tspan><tspan x="0" y="87.455">usar en tiempo de ejecución, entonces es posible </tspan><tspan x="0" y="105.568">que no tengamos necesidad del proyecto B para </tspan><tspan x="0" y="123.682">todo el proyecto. En este caso, si el proyecto X </tspan><tspan x="0" y="141.796">agrega el proyecto A como su propia dependencia, </tspan><tspan x="0" y="159.91">entonces Maven no necesitará instalar el proyecto </tspan><tspan x="0" y="178.023">B en absoluto. Simbólicamente, si =&gt; representa </tspan><tspan x="0" y="196.137">una dependencia requerida, y -&gt; representa </tspan><tspan x="0" y="214.251">opcional, aunque A =&gt; B puede ser el caso cuando </tspan><tspan x="0" y="232.364">se construye A X =&gt; A -&gt; B sería el caso al </tspan><tspan x="0" y="250.478">construir X.</tspan></text>
  </g>
</svg>
