<svg xmlns="http://www.w3.org/2000/svg" xmlns:xlink="http://www.w3.org/1999/xlink" width="698" height="267" viewBox="0 0 698 267">
  <defs>
    <filter id="Rectángulo_4575" x="0" y="0" width="698" height="267" filterUnits="userSpaceOnUse">
      <feOffset input="SourceAlpha"/>
      <feGaussianBlur stdDeviation="3" result="blur"/>
      <feFlood flood-opacity="0.102"/>
      <feComposite operator="in" in2="blur"/>
      <feComposite in="SourceGraphic"/>
    </filter>
  </defs>
  <g id="Grupo_2901" data-name="Grupo 2901" transform="translate(-423 -11653)">
    <g transform="matrix(1, 0, 0, 1, 423, 11653)" filter="url(#Rectángulo_4575)">
      <rect id="Rectángulo_4575-2" data-name="Rectángulo 4575" width="680" height="249" transform="translate(9 9)" fill="#fff"/>
    </g>
    <g id="Grupo_2297" data-name="Grupo 2297" transform="translate(153.848 8295.845)">
      <text id="_entity-mappings_named-native-query_named-native-query_..._..._named-native-query_named-native-query_sql-result-set-mapping_sql-result-set-mapping_..._..._sql-result-set-mapping_sql-result-set-mapping_entity-mappings_" data-name="&lt;entity-mappings&gt;
	&lt;named-native-query&gt;		&lt;/named-native-query&gt;
...
...
	&lt;named-native-query&gt;		&lt;/named-native-query&gt;
	&lt;sql-result-set-mapping&gt;	&lt;/sql-result-set-mapping&gt;
...
...
	&lt;sql-result-set-mapping&gt;	&lt;/sql-result-set-mapping&gt;
&lt;entity-mappings&gt;" transform="translate(307.152 3385.155)" fill="#1d1d1b" font-size="16" font-family="Roboto-Regular, Roboto"><tspan x="0" y="17">&lt;entity-mappings&gt;</tspan><tspan x="0" y="37" xml:space="preserve">	&lt;named-native-query&gt;		&lt;/named-native-query&gt;</tspan><tspan x="0" y="57">...</tspan><tspan x="0" y="77">...</tspan><tspan x="0" y="97" xml:space="preserve">	&lt;named-native-query&gt;		&lt;/named-native-query&gt;</tspan><tspan x="0" y="117" xml:space="preserve">	&lt;sql-result-set-mapping&gt;	&lt;/sql-result-set-mapping&gt;</tspan><tspan x="0" y="137">...</tspan><tspan x="0" y="157">...</tspan><tspan x="0" y="177" xml:space="preserve">	&lt;sql-result-set-mapping&gt;	&lt;/sql-result-set-mapping&gt;</tspan><tspan x="0" y="197">&lt;entity-mappings&gt;</tspan></text>
    </g>
  </g>
</svg>
