<svg xmlns="http://www.w3.org/2000/svg" xmlns:xlink="http://www.w3.org/1999/xlink" width="734.905" height="901.479" viewBox="0 0 734.905 901.479">
  <defs>
    <filter id="Trazado_2137" x="0" y="6.902" width="734.905" height="894.576" filterUnits="userSpaceOnUse">
      <feOffset dy="3" input="SourceAlpha"/>
      <feGaussianBlur stdDeviation="3" result="blur"/>
      <feFlood flood-opacity="0.078"/>
      <feComposite operator="in" in2="blur"/>
      <feComposite in="SourceGraphic"/>
    </filter>
  </defs>
  <g id="Grupo_2903" data-name="Grupo 2903" transform="translate(-405.095 -14290)">
    <g transform="matrix(1, 0, 0, 1, 405.1, 14290)" filter="url(#Trazado_2137)">
      <path id="Trazado_2137-2" data-name="Trazado 2137" d="M821.422,5954.07H159.79c-15.263,0-27.636-14.966-27.636-21.49V5089.307c0-6.524,12.373-11.813,27.636-11.813H821.422c15.263,0,27.637,5.289,27.637,11.813v844.079C849.059,5939.91,836.685,5954.07,821.422,5954.07Z" transform="translate(-123.15 -5064.59)" fill="#fdf7fa"/>
    </g>
    <rect id="Rectángulo_4123" data-name="Rectángulo 4123" width="243.538" height="43.742" transform="translate(416.514 14290)" fill="#d3097f"/>
    <rect id="Rectángulo_4124" data-name="Rectángulo 4124" width="243.538" height="13.709" transform="translate(416.514 14290)" fill="#98145e"/>
    <rect id="Rectángulo_4125" data-name="Rectángulo 4125" width="470.948" height="43.742" transform="translate(660.052 14290)" fill="#d970a8"/>
    <rect id="Rectángulo_4126" data-name="Rectángulo 4126" width="470.948" height="13.709" transform="translate(660.052 14290)" fill="#b60f6e"/>
    <text id="Caso_de_Uso" data-name="Caso de Uso" transform="translate(424.095 14306.25)" fill="#fff" font-size="18" font-family="Roboto-Bold, Roboto" font-weight="700"><tspan x="63.216" y="19">Caso de Uso</tspan></text>
    <text id="Palabra_reservada" data-name="Palabra reservada" transform="translate(812.051 14306.25)" fill="#fff" font-size="18" font-family="Roboto-Bold, Roboto" font-weight="700"><tspan x="0" y="19">Palabra reservada</tspan></text>
    <text id="Y" transform="translate(474.728 14354.636)" fill="#1d1d1b" font-size="14" font-family="Roboto-Regular, Roboto"><tspan x="0" y="15">Y</tspan></text>
    <text id="And" transform="translate(699.718 14354.636)" fill="#1d1d1b" font-size="14" font-family="Roboto-Regular, Roboto"><tspan x="0" y="15">And</tspan></text>
    <text id="O" transform="translate(474.728 14389.312)" fill="#1d1d1b" font-size="14" font-family="Roboto-Regular, Roboto"><tspan x="0" y="15">O</tspan></text>
    <text id="Or" transform="translate(699.718 14389.312)" fill="#1d1d1b" font-size="14" font-family="Roboto-Regular, Roboto"><tspan x="0" y="15">Or</tspan></text>
    <text id="Después" transform="translate(474.728 14426.987)" fill="#1d1d1b" font-size="14" font-family="Roboto-Regular, Roboto"><tspan x="0" y="15">Después</tspan></text>
    <text id="After_IsAfter" data-name="After, IsAfter" transform="translate(699.718 14426.988)" fill="#1d1d1b" font-size="14" font-family="Roboto-Regular, Roboto"><tspan x="0" y="15">After, IsAfter</tspan></text>
    <text id="Antes" transform="translate(474.728 14458.664)" fill="#1d1d1b" font-size="14" font-family="Roboto-Regular, Roboto"><tspan x="0" y="15">Antes</tspan></text>
    <text id="Before_IsBefore" data-name="Before, IsBefore" transform="translate(699.718 14458.664)" fill="#1d1d1b" font-size="14" font-family="Roboto-Regular, Roboto"><tspan x="0" y="15">Before, IsBefore</tspan></text>
    <text id="Contiene" transform="translate(474.728 14495.34)" fill="#1d1d1b" font-size="14" font-family="Roboto-Regular, Roboto"><tspan x="0" y="15">Contiene</tspan></text>
    <text id="Containing_IsContaining_Contains" data-name="Containing, IsContaining, Contains" transform="translate(699.718 14495.34)" fill="#1d1d1b" font-size="14" font-family="Roboto-Regular, Roboto"><tspan x="0" y="15">Containing, IsContaining, Contains</tspan></text>
    <text id="Entre" transform="translate(474.728 14532.016)" fill="#1d1d1b" font-size="14" font-family="Roboto-Regular, Roboto"><tspan x="0" y="15">Entre</tspan></text>
    <text id="Between_IsBetween" data-name="Between, IsBetween" transform="translate(699.718 14532.016)" fill="#1d1d1b" font-size="14" font-family="Roboto-Regular, Roboto"><tspan x="0" y="15">Between, IsBetween</tspan></text>
    <text id="Termina_con" data-name="Termina con" transform="translate(474.728 14565.691)" fill="#1d1d1b" font-size="14" font-family="Roboto-Regular, Roboto"><tspan x="0" y="15">Termina con</tspan></text>
    <text id="EndingWith_IsEndingWith_EndsWith" data-name="EndingWith, IsEndingWith, EndsWith" transform="translate(699.718 14565.691)" fill="#1d1d1b" font-size="14" font-family="Roboto-Regular, Roboto"><tspan x="0" y="15">EndingWith, IsEndingWith, EndsWith</tspan></text>
    <text id="Existe" transform="translate(474.728 14600.367)" fill="#1d1d1b" font-size="14" font-family="Roboto-Regular, Roboto"><tspan x="0" y="15">Existe</tspan></text>
    <text id="Exists" transform="translate(699.718 14600.367)" fill="#1d1d1b" font-size="14" font-family="Roboto-Regular, Roboto"><tspan x="0" y="15">Exists</tspan></text>
    <text id="Es_falso" data-name="Es falso" transform="translate(474.728 14635.043)" fill="#1d1d1b" font-size="14" font-family="Roboto-Regular, Roboto"><tspan x="0" y="15">Es falso</tspan></text>
    <text id="False_IsFalse" data-name="False, IsFalse" transform="translate(699.718 14635.043)" fill="#1d1d1b" font-size="14" font-family="Roboto-Regular, Roboto"><tspan x="0" y="15">False, IsFalse</tspan></text>
    <text id="Mayor_que" data-name="Mayor que" transform="translate(474.728 14670.719)" fill="#1d1d1b" font-size="14" font-family="Roboto-Regular, Roboto"><tspan x="0" y="15">Mayor que</tspan></text>
    <text id="GreaterThan_IsGreaterThan" data-name="GreaterThan, IsGreaterThan" transform="translate(699.718 14670.719)" fill="#1d1d1b" font-size="14" font-family="Roboto-Regular, Roboto"><tspan x="0" y="15">GreaterThan, IsGreaterThan</tspan></text>
    <text id="Mayor_que_o_igual" data-name="Mayor que o igual" transform="translate(474.728 14706.395)" fill="#1d1d1b" font-size="14" font-family="Roboto-Regular, Roboto"><tspan x="0" y="15">Mayor que o igual</tspan></text>
    <text id="GreaterThanEqual_IsGreaterThanEqual" data-name="GreaterThanEqual, IsGreaterThanEqual" transform="translate(699.718 14706.396)" fill="#1d1d1b" font-size="14" font-family="Roboto-Regular, Roboto"><tspan x="0" y="15">GreaterThanEqual, IsGreaterThanEqual</tspan></text>
    <text id="En" transform="translate(474.728 14740.071)" fill="#1d1d1b" font-size="14" font-family="Roboto-Regular, Roboto"><tspan x="0" y="15">En</tspan></text>
    <text id="In_IsIn" data-name="In, IsIn" transform="translate(699.718 14740.071)" fill="#1d1d1b" font-size="14" font-family="Roboto-Regular, Roboto"><tspan x="0" y="15">In, IsIn</tspan></text>
    <text id="Es" transform="translate(474.728 14774.747)" fill="#1d1d1b" font-size="14" font-family="Roboto-Regular, Roboto"><tspan x="0" y="15">Es</tspan></text>
    <text id="Is_Equals_or_no_keyword_" data-name="Is, Equals, (or no keyword)" transform="translate(699.718 14774.747)" fill="#1d1d1b" font-size="14" font-family="Roboto-Regular, Roboto"><tspan x="0" y="15">Is, Equals, (or no keyword)</tspan></text>
    <text id="No_es_nulo" data-name="No es nulo" transform="translate(474.728 14808.423)" fill="#1d1d1b" font-size="14" font-family="Roboto-Regular, Roboto"><tspan x="0" y="15">No es nulo</tspan></text>
    <text id="NotNull_IsNotNull" data-name="NotNull, IsNotNull" transform="translate(699.718 14808.423)" fill="#1d1d1b" font-size="14" font-family="Roboto-Regular, Roboto"><tspan x="0" y="15">NotNull, IsNotNull</tspan></text>
    <text id="Es_nulo" data-name="Es nulo" transform="translate(474.728 14843.099)" fill="#1d1d1b" font-size="14" font-family="Roboto-Regular, Roboto"><tspan x="0" y="15">Es nulo</tspan></text>
    <text id="Null_IsNull" data-name="Null, IsNull" transform="translate(699.718 14843.1)" fill="#1d1d1b" font-size="14" font-family="Roboto-Regular, Roboto"><tspan x="0" y="15">Null, IsNull</tspan></text>
    <text id="Menor_que" data-name="Menor que" transform="translate(474.728 14878.775)" fill="#1d1d1b" font-size="14" font-family="Roboto-Regular, Roboto"><tspan x="0" y="15">Menor que</tspan></text>
    <text id="LessThan_IsLessThan" data-name="LessThan, IsLessThan" transform="translate(699.718 14878.775)" fill="#1d1d1b" font-size="14" font-family="Roboto-Regular, Roboto"><tspan x="0" y="15">LessThan, IsLessThan</tspan></text>
    <text id="Menor_que_o_igual" data-name="Menor que o igual" transform="translate(474.728 14913.451)" fill="#1d1d1b" font-size="14" font-family="Roboto-Regular, Roboto"><tspan x="0" y="15">Menor que o igual</tspan></text>
    <text id="LessThanEqual_IsLessThanEqual" data-name="LessThanEqual, IsLessThanEqual" transform="translate(699.718 14913.451)" fill="#1d1d1b" font-size="14" font-family="Roboto-Regular, Roboto"><tspan x="0" y="15">LessThanEqual, IsLessThanEqual</tspan></text>
    <text id="Como" transform="translate(474.728 14949.127)" fill="#1d1d1b" font-size="14" font-family="Roboto-Regular, Roboto"><tspan x="0" y="15">Como</tspan></text>
    <text id="Like_IsLike" data-name="Like, IsLike" transform="translate(699.718 14949.127)" fill="#1d1d1b" font-size="14" font-family="Roboto-Regular, Roboto"><tspan x="0" y="15">Like, IsLike</tspan></text>
    <text id="Negación" transform="translate(474.728 14981.803)" fill="#1d1d1b" font-size="14" font-family="Roboto-Regular, Roboto"><tspan x="0" y="15">Negación</tspan></text>
    <text id="Not_IsNot" data-name="Not, IsNot" transform="translate(699.718 14981.803)" fill="#1d1d1b" font-size="14" font-family="Roboto-Regular, Roboto"><tspan x="0" y="15">Not, IsNot</tspan></text>
    <text id="No_está_en" data-name="No está en" transform="translate(474.728 15016.479)" fill="#1d1d1b" font-size="14" font-family="Roboto-Regular, Roboto"><tspan x="0" y="15">No está en</tspan></text>
    <text id="NotIn_IsNotIn" data-name="NotIn, IsNotIn" transform="translate(699.718 15016.479)" fill="#1d1d1b" font-size="14" font-family="Roboto-Regular, Roboto"><tspan x="0" y="15">NotIn, IsNotIn</tspan></text>
    <text id="Comienza_con" data-name="Comienza con" transform="translate(474.728 15051.154)" fill="#1d1d1b" font-size="14" font-family="Roboto-Regular, Roboto"><tspan x="0" y="15">Comienza con</tspan></text>
    <text id="StartingWith_IsStartingWith_StartsWith" data-name="StartingWith, IsStartingWith, StartsWith" transform="translate(699.718 15051.154)" fill="#1d1d1b" font-size="14" font-family="Roboto-Regular, Roboto"><tspan x="0" y="15">StartingWith, IsStartingWith, StartsWith</tspan></text>
    <text id="Es_verdadero" data-name="Es verdadero" transform="translate(474.728 15084.83)" fill="#1d1d1b" font-size="14" font-family="Roboto-Regular, Roboto"><tspan x="0" y="15">Es verdadero</tspan></text>
    <text id="True_IsTrue" data-name="True, IsTrue" transform="translate(699.718 15084.831)" fill="#1d1d1b" font-size="14" font-family="Roboto-Regular, Roboto"><tspan x="0" y="15">True, IsTrue</tspan></text>
    <text id="Esta_dentro_de_" data-name="Esta dentro de " transform="translate(474.728 15120.506)" fill="#1d1d1b" font-size="14" font-family="Roboto-Regular, Roboto"><tspan x="0" y="15">Esta dentro de </tspan></text>
    <text id="Within_IsWithin" data-name="Within, IsWithin" transform="translate(699.718 15120.507)" fill="#1d1d1b" font-size="14" font-family="Roboto-Regular, Roboto"><tspan x="0" y="15">Within, IsWithin</tspan></text>
    <rect id="Rectángulo_4127" data-name="Rectángulo 4127" width="716.905" height="24.193" transform="translate(414 14353.037)" fill="#d3097f" opacity="0.2"/>
    <rect id="Rectángulo_4128" data-name="Rectángulo 4128" width="716.905" height="24.193" transform="translate(414 14424.002)" fill="#d3097f" opacity="0.2"/>
    <rect id="Rectángulo_4129" data-name="Rectángulo 4129" width="716.905" height="24.193" transform="translate(414 14493.354)" fill="#d3097f" opacity="0.2"/>
    <rect id="Rectángulo_4130" data-name="Rectángulo 4130" width="716.905" height="24.193" transform="translate(414 14562.705)" fill="#d3097f" opacity="0.2"/>
    <rect id="Rectángulo_4131" data-name="Rectángulo 4131" width="716.905" height="24.193" transform="translate(414 14632.863)" fill="#d3097f" opacity="0.2"/>
    <rect id="Rectángulo_4132" data-name="Rectángulo 4132" width="716.905" height="24.193" transform="translate(414 14704.635)" fill="#d3097f" opacity="0.2"/>
    <rect id="Rectángulo_4133" data-name="Rectángulo 4133" width="716.905" height="24.193" transform="translate(414 14772.374)" fill="#d3097f" opacity="0.2"/>
    <rect id="Rectángulo_4134" data-name="Rectángulo 4134" width="716.905" height="24.193" transform="translate(414 14841.726)" fill="#d3097f" opacity="0.2"/>
    <rect id="Rectángulo_4135" data-name="Rectángulo 4135" width="716.905" height="24.193" transform="translate(414 14911.078)" fill="#d3097f" opacity="0.2"/>
    <rect id="Rectángulo_4136" data-name="Rectángulo 4136" width="716.905" height="24.193" transform="translate(414 14980.43)" fill="#d3097f" opacity="0.2"/>
    <rect id="Rectángulo_4137" data-name="Rectángulo 4137" width="716.905" height="24.193" transform="translate(414 15048.975)" fill="#d3097f" opacity="0.2"/>
    <rect id="Rectángulo_4138" data-name="Rectángulo 4138" width="716.905" height="24.193" transform="translate(414 15119.133)" fill="#d3097f" opacity="0.2"/>
  </g>
</svg>
