<svg xmlns="http://www.w3.org/2000/svg" width="280" height="66.173" viewBox="0 0 280 66.173">
  <g id="Grupo_2582" data-name="Grupo 2582" transform="translate(-586.827 -2134.278)">
    <path id="Surface-2" d="M106.929,534.995H380.1a3.422,3.422,0,0,1,3.415,3.429v41.142a3.422,3.422,0,0,1-3.415,3.429H106.929a3.422,3.422,0,0,1-3.414-3.429V538.424A3.422,3.422,0,0,1,106.929,534.995Z" transform="translate(483.313 1599.283)" fill="#f2f2f2"/>
    <line id="Línea_646" data-name="Línea 646" x2="280" transform="translate(586.827 2181.849)" fill="none" stroke="#428569" stroke-miterlimit="10" stroke-width="1"/>
    <text id="Mensaje_de_error" data-name="Mensaje de error" transform="translate(604.346 2197.451)" fill="#428569" font-size="12" font-family="Roboto-Regular, Roboto" letter-spacing="0.034em" style="isolation: isolate"><tspan x="0" y="0">Mensaje de error</tspan></text>
    <text id="Etiqueta" transform="translate(604.241 2153.327)" fill="#428569" font-size="12" font-family="Roboto-Regular, Roboto" letter-spacing="0.009em"><tspan x="0" y="0">Etiqueta</tspan></text>
    <text id="Texto_de_entrada" data-name="Texto de entrada" transform="translate(604.241 2172.969)" fill="#333" font-size="16" font-family="Roboto-Regular, Roboto" letter-spacing="0.009em"><tspan x="0" y="0">Texto de entrada</tspan></text>
  </g>
</svg>
