<svg xmlns="http://www.w3.org/2000/svg" width="287.063" height="169.168" viewBox="0 0 287.063 169.168">
  <g id="Grupo_877" data-name="Grupo 877" transform="translate(-596 -948.938)">
    <g id="Grupo_870" data-name="Grupo 870" transform="translate(-1159.869 820.097)">
      <g id="Grupo_867" data-name="Grupo 867" transform="translate(1755.869 128.84)">
        <rect id="Rectángulo_1732" data-name="Rectángulo 1732" width="220.452" height="138.146" fill="#fff"/>
        <rect id="Rectángulo_1733" data-name="Rectángulo 1733" width="220.452" height="18.774" fill="#3a3a3a"/>
        <rect id="Rectángulo_1734" data-name="Rectángulo 1734" width="220.452" height="36.142" transform="translate(0 102.004)" fill="#3a3a3a"/>
        <rect id="Rectángulo_1735" data-name="Rectángulo 1735" width="19.627" height="5.198" transform="translate(113.407 6.788)" fill="#f7f7f7"/>
        <rect id="Rectángulo_1736" data-name="Rectángulo 1736" width="19.627" height="5.198" transform="translate(138.24 6.788)" fill="#f7f7f7"/>
        <rect id="Rectángulo_1737" data-name="Rectángulo 1737" width="19.627" height="5.198" transform="translate(164.228 6.788)" fill="#f7f7f7"/>
        <rect id="Rectángulo_1738" data-name="Rectángulo 1738" width="19.627" height="5.198" transform="translate(189.061 6.788)" fill="#f7f7f7"/>
        <rect id="Rectángulo_1739" data-name="Rectángulo 1739" width="35.433" height="11.988" transform="translate(12.715 3.245)" fill="#f7f7f7"/>
        <rect id="Rectángulo_1740" data-name="Rectángulo 1740" width="90.372" height="8.085" transform="translate(12.715 28.01)" fill="#c4c3c3"/>
        <rect id="Rectángulo_1741" data-name="Rectángulo 1741" width="194.461" height="4.043" transform="translate(12.715 40.715)" fill="#c4c3c3"/>
        <rect id="Rectángulo_1742" data-name="Rectángulo 1742" width="194.461" height="4.043" transform="translate(12.715 47.706)" fill="#c4c3c3"/>
        <rect id="Rectángulo_1743" data-name="Rectángulo 1743" width="194.461" height="4.043" transform="translate(12.715 54.697)" fill="#c4c3c3"/>
        <rect id="Rectángulo_1744" data-name="Rectángulo 1744" width="194.461" height="4.043" transform="translate(12.715 61.689)" fill="#c4c3c3"/>
        <g id="Grupo_864" data-name="Grupo 864" transform="translate(12.715 106.841)">
          <rect id="Rectángulo_1745" data-name="Rectángulo 1745" width="29.339" height="5.198" fill="#f7f7f7"/>
          <rect id="Rectángulo_1746" data-name="Rectángulo 1746" width="40.472" height="2.599" transform="translate(0 8.593)" fill="#f7f7f7"/>
          <rect id="Rectángulo_1747" data-name="Rectángulo 1747" width="40.472" height="2.599" transform="translate(0 13.235)" fill="#f7f7f7"/>
        </g>
        <g id="Grupo_865" data-name="Grupo 865" transform="translate(87.144 106.841)">
          <rect id="Rectángulo_1748" data-name="Rectángulo 1748" width="29.339" height="5.198" fill="#f7f7f7"/>
          <rect id="Rectángulo_1749" data-name="Rectángulo 1749" width="40.472" height="2.599" transform="translate(0 8.593)" fill="#f7f7f7"/>
          <rect id="Rectángulo_1750" data-name="Rectángulo 1750" width="40.472" height="2.599" transform="translate(0 13.235)" fill="#f7f7f7"/>
        </g>
        <g id="Grupo_866" data-name="Grupo 866" transform="translate(161.574 106.841)">
          <rect id="Rectángulo_1751" data-name="Rectángulo 1751" width="29.339" height="5.198" fill="#f7f7f7"/>
          <rect id="Rectángulo_1752" data-name="Rectángulo 1752" width="40.472" height="2.599" transform="translate(0 8.593)" fill="#f7f7f7"/>
          <rect id="Rectángulo_1753" data-name="Rectángulo 1753" width="40.472" height="2.599" transform="translate(0 13.235)" fill="#f7f7f7"/>
        </g>
        <rect id="Rectángulo_1754" data-name="Rectángulo 1754" width="90.372" height="27.024" transform="translate(12.715 70.313)" fill="#c4c3c3"/>
        <rect id="Rectángulo_1755" data-name="Rectángulo 1755" width="90.372" height="27.024" transform="translate(116.388 70.313)" fill="#c4c3c3"/>
      </g>
      <g id="Grupo_869" data-name="Grupo 869" transform="translate(1954.658 209.732)">
        <g id="Grupo_868" data-name="Grupo 868" transform="translate(0 0)">
          <path id="Trazado_1451" data-name="Trazado 1451" d="M2105.25,253.05a44.137,44.137,0,1,0,44.134,44.135A44.188,44.188,0,0,0,2105.25,253.05Zm20.787,34.412-26.471,26.472a4.968,4.968,0,0,1-3.516,1.454,4.312,4.312,0,0,1-.572-.031,4.963,4.963,0,0,1-3.654-2.317l-8.387-13.525a4.968,4.968,0,0,1,8.443-5.237l5.089,8.195,22.042-22.036a4.968,4.968,0,1,1,7.026,7.026Z" transform="translate(-2061.109 -253.05)" fill="#449b23"/>
        </g>
      </g>
    </g>
  </g>
</svg>
