<svg xmlns="http://www.w3.org/2000/svg" width="369.178" height="325" viewBox="0 0 369.178 325">
  <g id="Grupo_2923" data-name="Grupo 2923" transform="translate(-324.62 1099.089)">
    <g id="Grupo_2922" data-name="Grupo 2922" transform="translate(349.001 -1099.089)">
      <path id="Trazado_2406" data-name="Trazado 2406" d="M546.255-242.719l-1.944-.467c-.781,3.248-1.456,6.566-2,9.863l1.972.329C544.821-236.245,545.486-239.517,546.255-242.719Z" transform="translate(-540.394 353.65)" fill="#fff"/>
      <path id="Trazado_2407" data-name="Trazado 2407" d="M560.839-279.542l-1.737-.99c-1.658,2.907-3.231,5.908-4.678,8.921l1.8.866C557.653-273.715,559.205-276.675,560.839-279.542Z" transform="translate(-540.394 353.65)" fill="#fff"/>
      <path id="Trazado_2408" data-name="Trazado 2408" d="M571.848-296.059l-1.583-1.222c-2.042,2.644-4.019,5.4-5.874,8.178l1.664,1.11C567.884-290.737,569.833-293.451,571.848-296.059Z" transform="translate(-540.394 353.65)" fill="#fff"/>
      <path id="Trazado_2409" data-name="Trazado 2409" d="M585.038-310.884l-1.4-1.429c-2.389,2.337-4.727,4.788-6.948,7.284l1.495,1.329C580.375-306.162,582.681-308.579,585.038-310.884Z" transform="translate(-540.394 353.65)" fill="#fff"/>
      <path id="Trazado_2410" data-name="Trazado 2410" d="M616.873-334.384l-.955-1.758c-2.935,1.593-5.851,3.31-8.668,5.1l1.074,1.688C611.1-331.12,613.978-332.813,616.873-334.384Z" transform="translate(-540.394 353.65)" fill="#fff"/>
      <path id="Trazado_2411" data-name="Trazado 2411" d="M600.143-323.741l-1.188-1.609c-2.69,1.986-5.342,4.09-7.884,6.253l1.3,1.523C594.874-319.708,597.49-321.782,600.143-323.741Z" transform="translate(-540.394 353.65)" fill="#fff"/>
      <path id="Trazado_2412" data-name="Trazado 2412" d="M542.991-223.155,541-223.344c-.316,3.322-.521,6.7-.606,10.044l2,.051C542.478-216.546,542.679-219.878,542.991-223.155Z" transform="translate(-540.394 353.65)" fill="#fff"/>
      <path id="Trazado_2413" data-name="Trazado 2413" d="M552.244-261.643l-1.859-.737c-1.232,3.107-2.369,6.3-3.38,9.5l1.908.6C549.909-255.43,551.03-258.58,552.244-261.643Z" transform="translate(-540.394 353.65)" fill="#fff"/>
      <path id="Trazado_2414" data-name="Trazado 2414" d="M634.9-342.6l-.7-1.873c-3.122,1.168-6.246,2.462-9.286,3.848l.829,1.82C628.744-340.175,631.825-341.451,634.9-342.6Z" transform="translate(-540.394 353.65)" fill="#fff"/>
      <path id="Trazado_2415" data-name="Trazado 2415" d="M542.481-203.322l-2,.087c.145,3.34.41,6.716.787,10.032l1.987-.226C542.885-196.7,542.625-200.027,542.481-203.322Z" transform="translate(-540.394 353.65)" fill="#fff"/>
      <path id="Trazado_2416" data-name="Trazado 2416" d="M542.756-183.25c.609,3.284,1.344,6.589,2.183,9.825l1.936-.5c-.828-3.191-1.552-6.449-2.152-9.687Z" transform="translate(-540.394 353.65)" fill="#fff"/>
      <path id="Trazado_2417" data-name="Trazado 2417" d="M715.143-350.557c-3.268-.685-6.6-1.263-9.916-1.72l-.274,1.981c3.267.451,6.557,1.021,9.779,1.7Z" transform="translate(-540.394 353.65)" fill="#fff"/>
      <path id="Trazado_2418" data-name="Trazado 2418" d="M810.387-281.974c-1.685-2.879-3.5-5.739-5.383-8.5l-1.65,1.129c1.86,2.722,3.645,5.542,5.306,8.381Z" transform="translate(-540.394 353.65)" fill="#fff"/>
      <path id="Trazado_2419" data-name="Trazado 2419" d="M770.029-326.325c-2.71-1.954-5.525-3.839-8.369-5.6l-1.055,1.7c2.8,1.74,5.582,3.6,8.254,5.525Z" transform="translate(-540.394 353.65)" fill="#fff"/>
      <path id="Trazado_2420" data-name="Trazado 2420" d="M785.5-313.457c-2.414-2.309-4.941-4.564-7.512-6.7l-1.279,1.538c2.536,2.108,5.028,4.332,7.408,6.61Z" transform="translate(-540.394 353.65)" fill="#fff"/>
      <path id="Trazado_2421" data-name="Trazado 2421" d="M819.3-263.959c-1.263-3.083-2.655-6.166-4.139-9.163l-1.793.887c1.463,2.956,2.836,5.995,4.082,9.035Z" transform="translate(-540.394 353.65)" fill="#fff"/>
      <path id="Trazado_2422" data-name="Trazado 2422" d="M825.6-244.867c-.822-3.24-1.768-6.492-2.815-9.664l-1.9.627c1.031,3.127,1.965,6.333,2.773,9.529Z" transform="translate(-540.394 353.65)" fill="#fff"/>
      <path id="Trazado_2423" data-name="Trazado 2423" d="M829.146-225.066c-.357-3.321-.836-6.673-1.425-9.962l-1.969.352c.581,3.244,1.054,6.549,1.406,9.824Z" transform="translate(-540.394 353.65)" fill="#fff"/>
      <path id="Trazado_2424" data-name="Trazado 2424" d="M695.08-351.312l.137-2c-3.9-.266-7.866-.379-11.783-.331l.024,2C687.316-351.685,691.237-351.575,695.08-351.312Z" transform="translate(-540.394 353.65)" fill="#fff"/>
      <path id="Trazado_2425" data-name="Trazado 2425" d="M653.923-348.24l-.434-1.952c-3.259.723-6.537,1.571-9.742,2.521l.568,1.918C647.476-346.69,650.708-347.527,653.923-348.24Z" transform="translate(-540.394 353.65)" fill="#fff"/>
      <path id="Trazado_2426" data-name="Trazado 2426" d="M673.541-351.186l-.161-1.993c-3.336.267-6.7.654-10,1.148l.3,1.978C666.932-350.541,670.25-350.922,673.541-351.186Z" transform="translate(-540.394 353.65)" fill="#fff"/>
      <path id="Trazado_2427" data-name="Trazado 2427" d="M752.92-336.935c-2.952-1.559-6-3.036-9.068-4.389l-.809,1.829c3.023,1.335,6.032,2.791,8.943,4.328Z" transform="translate(-540.394 353.65)" fill="#fff"/>
      <path id="Trazado_2428" data-name="Trazado 2428" d="M734.5-345.072c-3.143-1.133-6.367-2.169-9.582-3.08l-.545,1.923c3.17.9,6.349,1.921,9.449,3.039Z" transform="translate(-540.394 353.65)" fill="#fff"/>
      <path id="Trazado_2429" data-name="Trazado 2429" d="M799.042-298.578c-2.068-2.618-4.26-5.2-6.512-7.674l-1.478,1.347c2.22,2.439,4.381,4.986,6.422,7.567Z" transform="translate(-540.394 353.65)" fill="#fff"/>
      <path id="Trazado_2430" data-name="Trazado 2430" d="M829.873-215.03l-2,.075c.066,1.789.1,3.6.1,5.392,0,1.5-.025,3.026-.072,4.535l2,.064c.049-1.531.074-3.078.074-4.6C829.976-211.377,829.941-213.216,829.873-215.03Z" transform="translate(-540.394 353.65)" fill="#fff"/>
      <path id="Trazado_2431" data-name="Trazado 2431" d="M825.9-185.294l1.971.341c.568-3.283,1.028-6.638,1.366-9.971l-1.99-.2C826.914-191.839,826.461-188.532,825.9-185.294Z" transform="translate(-540.394 353.65)" fill="#fff"/>
      <path id="Trazado_2432" data-name="Trazado 2432" d="M549.707-164.416l-1.9.638c.625,1.858,1.307,3.713,2.014,5.558h2.151C551.175-160.274,550.4-162.342,549.707-164.416Z" transform="translate(-540.394 353.65)" fill="#fff"/>
      <path id="Trazado_2433" data-name="Trazado 2433" d="M821.149-166.037l1.9.616c1.027-3.179,1.954-6.435,2.755-9.681l-1.942-.48C823.075-172.381,822.162-169.17,821.149-166.037Z" transform="translate(-540.394 353.65)" fill="#fff"/>
      <path id="Trazado_2434" data-name="Trazado 2434" d="M553.2-155.14c-.424-1.016-.82-2.05-1.221-3.08h-2.151c.495,1.291,1,2.58,1.526,3.849Z" transform="translate(-540.394 353.65)" fill="#532979"/>
    </g>
    <rect id="Rectángulo_3629" data-name="Rectángulo 3629" width="3.792" height="68.109" transform="translate(483.873 -784.844) rotate(90)" fill="#cbc9c9"/>
    <ellipse id="Elipse_237" data-name="Elipse 237" cx="5.377" cy="5.377" rx="5.377" ry="5.377" transform="translate(410.578 -784.844)"/>
    <ellipse id="Elipse_238" data-name="Elipse 238" cx="5.377" cy="5.377" rx="5.377" ry="5.377" transform="translate(478.166 -784.844)"/>
    <rect id="Rectángulo_3603" data-name="Rectángulo 3603" width="31.481" height="40.626" rx="2" transform="translate(555.389 -1088.249)" fill="#eae1f0"/>
    <g id="Grupo_1911" data-name="Grupo 1911" transform="translate(554.245 -1089.39)">
      <g id="Grupo_1907" data-name="Grupo 1907">
        <path id="Trazado_1711" data-name="Trazado 1711" d="M245.587,843.669a.652.652,0,0,1-.652-.653v-4.87a2.744,2.744,0,0,1,2.741-2.741h4a.653.653,0,1,1,0,1.305h-4a1.438,1.438,0,0,0-1.437,1.436v4.87A.653.653,0,0,1,245.587,843.669Z" transform="translate(-244.935 -835.405)" fill="#1a1023"/>
      </g>
      <g id="Grupo_1908" data-name="Grupo 1908" transform="translate(26.37 0.218)">
        <path id="Trazado_1712" data-name="Trazado 1712" d="M274.786,843.858a.652.652,0,0,1-.653-.652v-4.87A1.437,1.437,0,0,0,272.7,836.9h-4a.652.652,0,1,1,0-1.3h4a2.744,2.744,0,0,1,2.741,2.741v4.87A.652.652,0,0,1,274.786,843.858Z" transform="translate(-268.045 -835.596)" fill="#1a1023"/>
      </g>
      <g id="Grupo_1909" data-name="Grupo 1909" transform="translate(26.37 34.299)">
        <path id="Trazado_1713" data-name="Trazado 1713" d="M272.7,872.826h-4a.652.652,0,1,1,0-1.3h4a1.438,1.438,0,0,0,1.435-1.437v-4.87a.653.653,0,0,1,1.305,0v4.87A2.744,2.744,0,0,1,272.7,872.826Z" transform="translate(-268.045 -864.563)" fill="#1a1023"/>
      </g>
      <g id="Grupo_1910" data-name="Grupo 1910" transform="translate(0 34.081)">
        <path id="Trazado_1714" data-name="Trazado 1714" d="M251.675,872.636h-4a2.744,2.744,0,0,1-2.741-2.741v-4.87a.652.652,0,1,1,1.3,0v4.87a1.438,1.438,0,0,0,1.437,1.435h4a.653.653,0,0,1,0,1.305Z" transform="translate(-244.935 -864.372)" fill="#1a1023"/>
      </g>
    </g>
    <g id="Grupo_361" data-name="Grupo 361" transform="translate(557.071 -1080.993)">
      <path id="laugh-regular" d="M261.727,841.862a14.321,14.321,0,1,0,14.321,14.322,14.323,14.323,0,0,0-14.321-14.322Zm8.165,22.488a11.544,11.544,0,1,1,3.384-8.165A11.544,11.544,0,0,1,269.893,864.35Zm-3.546-10.014a1.847,1.847,0,1,0-.006,0Zm-9.239,0a1.848,1.848,0,1,0-1.846-1.851v0a1.847,1.847,0,0,0,1.845,1.848Zm11.226,3.695H255.121a.775.775,0,0,0-.785.765.814.814,0,0,0,.006.1,7.01,7.01,0,0,0,6.993,6.061h.785a7.012,7.012,0,0,0,6.995-6.061.776.776,0,0,0-.679-.862.787.787,0,0,0-.1,0Z" transform="translate(-247.406 -841.862)" fill="#ab1269"/>
    </g>
    <rect id="Rectángulo_3604" data-name="Rectángulo 3604" width="277.304" height="16.128" transform="translate(354.839 -904.3)" fill="#532979"/>
    <g id="Grupo_1918" data-name="Grupo 1918" transform="translate(442.601 -1010.783)">
      <g id="Grupo_1912" data-name="Grupo 1912" transform="translate(32.436 101.416)">
        <rect id="Rectángulo_3605" data-name="Rectángulo 3605" width="66.116" height="5.458" rx="1.411" fill="#6e6e6e"/>
      </g>
      <g id="Grupo_1913" data-name="Grupo 1913" transform="translate(57.739 81.441)">
        <rect id="Rectángulo_3606" data-name="Rectángulo 3606" width="15.404" height="22.186" fill="#6e6e6e"/>
      </g>
      <g id="Grupo_1914" data-name="Grupo 1914">
        <rect id="Rectángulo_3607" data-name="Rectángulo 3607" width="130.989" height="82.929" rx="1.434" fill="#6e6e6e"/>
      </g>
      <g id="Grupo_1915" data-name="Grupo 1915" transform="translate(1.971 2.364)">
        <rect id="Rectángulo_3608" data-name="Rectángulo 3608" width="127.047" height="74.791" fill="#fff"/>
      </g>
      <g id="Grupo_1916" data-name="Grupo 1916" transform="translate(1.385 1.285)">
        <path id="Trazado_1715" data-name="Trazado 1715" d="M276.091,981.658h-1.17V906.867a.261.261,0,0,0-.254-.266H149.3a.262.262,0,0,0-.256.266v74.477h-1.17V906.867a1.458,1.458,0,0,1,1.425-1.486H274.667a1.458,1.458,0,0,1,1.424,1.486Z" transform="translate(-147.874 -905.381)" fill="#4a494a"/>
      </g>
      <g id="Grupo_1917" data-name="Grupo 1917" transform="translate(0 77.562)">
        <path id="Rectángulo_3609" data-name="Rectángulo 3609" d="M0,0H130.989a0,0,0,0,1,0,0V2.591a2.775,2.775,0,0,1-2.775,2.775H2.775A2.775,2.775,0,0,1,0,2.591V0A0,0,0,0,1,0,0Z" fill="#6e6e6e"/>
      </g>
    </g>
    <rect id="Rectángulo_3610" data-name="Rectángulo 3610" width="125.655" height="16.565" transform="translate(445.266 -1008.021)" fill="#d21780"/>
    <rect id="Rectángulo_3611" data-name="Rectángulo 3611" width="125.655" height="58.585" transform="translate(445.266 -991.719)" fill="#e391bd"/>
    <rect id="Rectángulo_3612" data-name="Rectángulo 3612" width="100.697" height="58.533" transform="translate(457.752 -991.667)" fill="#fff"/>
    <g id="Grupo_1919" data-name="Grupo 1919" transform="translate(447.758 -1005.587)">
      <rect id="Rectángulo_3613" data-name="Rectángulo 3613" width="2.424" height="2.424" transform="translate(0 0)" fill="#fff"/>
      <rect id="Rectángulo_3614" data-name="Rectángulo 3614" width="2.424" height="2.424" transform="translate(1.293 1.616)" fill="#fff"/>
    </g>
    <rect id="Rectángulo_3615" data-name="Rectángulo 3615" width="113.582" height="1.616" transform="translate(452.529 -1004.379)" fill="#fff"/>
    <rect id="Rectángulo_3616" data-name="Rectángulo 3616" width="26.267" height="3.209" transform="translate(439.458 -788.397)"/>
    <rect id="Rectángulo_3617" data-name="Rectángulo 3617" width="26.267" height="3.209" transform="translate(400.173 -788.397)"/>
    <rect id="Rectángulo_3618" data-name="Rectángulo 3618" width="11.684" height="76.698" transform="translate(413.234 -865.095)" fill="#f4bb97"/>
    <rect id="Rectángulo_3619" data-name="Rectángulo 3619" width="11.684" height="76.698" transform="translate(440.938 -865.095)" fill="#f4bb97"/>
    <rect id="Rectángulo_3620" data-name="Rectángulo 3620" width="13.038" height="45.843" transform="translate(403.214 -928.469)" fill="#de8a72"/>
    <path id="Rectángulo_3621" data-name="Rectángulo 3621" d="M9.793,0h3.245a0,0,0,0,1,0,0V14.8a0,0,0,0,1,0,0H0a0,0,0,0,1,0,0v-5A9.793,9.793,0,0,1,9.793,0Z" transform="translate(403.214 -946.209)" fill="#f4bb97"/>
    <rect id="Rectángulo_3622" data-name="Rectángulo 3622" width="8.763" height="45.026" transform="translate(486.563 -904.308) rotate(140.859)" fill="#f4bb97"/>
    <rect id="Rectángulo_3623" data-name="Rectángulo 3623" width="8.763" height="27.204" transform="translate(479.558 -898.834) rotate(-129.141)" fill="#f4bb97"/>
    <path id="Rectángulo_3624" data-name="Rectángulo 3624" d="M0,0H13.038a0,0,0,0,1,0,0V14.8a0,0,0,0,1,0,0H9.793A9.793,9.793,0,0,1,0,5V0A0,0,0,0,1,0,0Z" transform="translate(460.215 -936.16) rotate(146.977)" fill="#f4bb97"/>
    <rect id="Rectángulo_3625" data-name="Rectángulo 3625" width="45.905" height="33.992" rx="3.274" transform="translate(409.514 -889.106)" fill="#5c103a"/>
    <path id="Trazado_1716" data-name="Trazado 1716" d="M150.091,957.892l-22.1.039a9.48,9.48,0,0,0-9.214,9.723h0a9.466,9.466,0,0,0,9.236,9.685l22.1-.039a9.48,9.48,0,0,0,9.214-9.723h0A9.466,9.466,0,0,0,150.091,957.892Z" transform="translate(292.672 -1907.678)" fill="#5c103a"/>
    <path id="Trazado_1717" data-name="Trazado 1717" d="M159.3,967.143l-40.273.06-1.716,63.273,45.543-.06Z" transform="translate(292.467 -1906.669)" fill="#5c103a"/>
    <rect id="Rectángulo_3626" data-name="Rectángulo 3626" width="45.543" height="7.053" transform="translate(409.777 -887.022)" fill="#5c103a"/>
    <rect id="Rectángulo_3627" data-name="Rectángulo 3627" width="8.627" height="15.209" transform="matrix(1, -0.001, 0.001, 1, 427.612, -965.209)" fill="#f4bb97"/>
    <path id="Trazado_1718" data-name="Trazado 1718" d="M141.621,958.233c-.145,7.126-8.459,7.134-8.626.013C133.14,951.12,141.454,951.111,141.621,958.233Z" transform="translate(294.628 -1908.306)" fill="#f4bb97"/>
    <path id="Trazado_1719" data-name="Trazado 1719" d="M140.714,994.862l-31,58.87a1.078,1.078,0,0,0,1.055,1.534h62a1.078,1.078,0,0,0,1.055-1.534l-31-58.87A1.222,1.222,0,0,0,140.714,994.862Z" transform="translate(291.406 -1903.115)" fill="#5c103a"/>
    <rect id="Rectángulo_3628" data-name="Rectángulo 3628" width="3.705" height="66.221" transform="translate(431.527 -847.399)" fill="#cbc9c9"/>
    <rect id="Rectángulo_3630" data-name="Rectángulo 3630" width="8.848" height="37.167" transform="translate(428.137 -894.871)" fill="#cbc9c9"/>
    <rect id="Rectángulo_3631" data-name="Rectángulo 3631" width="15.757" height="84.031" rx="4.113" transform="translate(475.066 -866.913) rotate(90)" fill="#b6b5b5"/>
    <rect id="Rectángulo_3632" data-name="Rectángulo 3632" width="90.605" height="57.25" rx="6.517" transform="translate(387.762 -938.701)" fill="#b6b5b5"/>
    <rect id="Rectángulo_3633" data-name="Rectángulo 3633" width="5.725" height="113.539" transform="translate(382.433 -889.548)"/>
    <rect id="Rectángulo_3634" data-name="Rectángulo 3634" width="5.725" height="113.539" transform="translate(606.847 -889.548)"/>
    <g id="Grupo_1920" data-name="Grupo 1920" transform="translate(412.299 -1005.68)">
      <path id="Trazado_1720" data-name="Trazado 1720" d="M158.9,931.984c.023,12.941-8.8,23.445-19.7,23.461-26.176-1.157-26.252-45.634-.082-46.865C150.016,908.564,158.873,919.042,158.9,931.984Z" transform="translate(-119.525 -908.58)"/>
    </g>
    <g id="Grupo_1921" data-name="Grupo 1921" transform="translate(425.666 -970.106)">
      <ellipse id="Elipse_239" data-name="Elipse 239" cx="8.573" cy="6.378" rx="8.573" ry="6.378" transform="translate(0 5.716) rotate(-19.472)"/>
    </g>
    <g id="Grupo_1922" data-name="Grupo 1922" transform="translate(428.952 -963.517)">
      <ellipse id="Elipse_240" data-name="Elipse 240" cx="8.573" cy="6.378" rx="8.573" ry="6.378" transform="translate(0 5.716) rotate(-19.472)"/>
    </g>
    <g id="Grupo_1923" data-name="Grupo 1923" transform="translate(431.676 -955.857)">
      <ellipse id="Elipse_241" data-name="Elipse 241" cx="8.573" cy="6.378" rx="8.573" ry="6.378" transform="translate(0 5.716) rotate(-19.472)"/>
    </g>
    <g id="Grupo_1924" data-name="Grupo 1924" transform="translate(433.956 -950.173)">
      <ellipse id="Elipse_242" data-name="Elipse 242" cx="8.573" cy="6.378" rx="8.573" ry="6.378" transform="translate(0 5.716) rotate(-19.472)"/>
    </g>
    <g id="Grupo_1925" data-name="Grupo 1925" transform="translate(436.806 -943.142)">
      <ellipse id="Elipse_243" data-name="Elipse 243" cx="8.114" cy="6.036" rx="8.114" ry="6.036" transform="matrix(0.985, -0.172, 0.172, 0.985, 0, 2.791)"/>
    </g>
    <g id="Grupo_1926" data-name="Grupo 1926" transform="translate(438.305 -935.073)">
      <ellipse id="Elipse_244" data-name="Elipse 244" cx="7.529" cy="5.602" rx="7.529" ry="5.602" transform="translate(0 0)"/>
    </g>
    <g id="Grupo_1927" data-name="Grupo 1927" transform="translate(436.072 -930.027)">
      <ellipse id="Elipse_245" data-name="Elipse 245" cx="5.322" cy="7.153" rx="5.322" ry="7.153" transform="translate(0 10.419) rotate(-78.218)"/>
    </g>
    <g id="Grupo_1928" data-name="Grupo 1928" transform="translate(431.229 -925.925)">
      <ellipse id="Elipse_246" data-name="Elipse 246" cx="5.322" cy="7.153" rx="5.322" ry="7.153" transform="translate(0 7.526) rotate(-45)"/>
    </g>
    <g id="Grupo_1929" data-name="Grupo 1929" transform="translate(429.39 -915.384)">
      <ellipse id="Elipse_247" data-name="Elipse 247" cx="3.239" cy="4.354" rx="3.239" ry="4.354" transform="translate(0 5.06) rotate(-51.366)"/>
    </g>
    <g id="Grupo_1930" data-name="Grupo 1930" transform="translate(431.86 -916.87)">
      <rect id="Rectángulo_3635" data-name="Rectángulo 3635" width="9.354" height="2.638" rx="0.991" transform="translate(7.307 7.901) rotate(-141.366)" fill="#79144b"/>
    </g>
    <rect id="Rectángulo_3636" data-name="Rectángulo 3636" width="70.414" height="5.168" transform="translate(473.474 -982.672)" fill="#5c103a"/>
    <g id="Grupo_1934" data-name="Grupo 1934" transform="translate(473.691 -973.287)">
      <g id="Grupo_1931" data-name="Grupo 1931">
        <path id="Trazado_1721" data-name="Trazado 1721" d="M189.684,951.534H175.05a1.347,1.347,0,0,1-1.345-1.345V938.462a1.347,1.347,0,0,1,1.345-1.345h14.634a1.347,1.347,0,0,1,1.345,1.345v11.727A1.347,1.347,0,0,1,189.684,951.534Zm-14.634-13.6a.524.524,0,0,0-.524.524v11.727a.525.525,0,0,0,.524.525h14.634a.525.525,0,0,0,.525-.525V938.462a.525.525,0,0,0-.525-.524Z" transform="translate(-173.705 -937.117)" fill="#d21780"/>
      </g>
      <g id="Grupo_1932" data-name="Grupo 1932" transform="translate(0 5.826)">
        <path id="Trazado_1722" data-name="Trazado 1722" d="M190.581,947.763a.408.408,0,0,1-.29-.12l-3.306-3.306-2.951,2.951a.666.666,0,0,1-.94,0l-4.185-4.187-4.5,4.5a.41.41,0,0,1-.58-.581l4.613-4.613a.681.681,0,0,1,.94,0l4.185,4.187,2.951-2.951a.666.666,0,0,1,.94,0l3.416,3.415a.41.41,0,0,1-.291.7Z" transform="translate(-173.705 -942.223)" fill="#d21780"/>
      </g>
      <g id="Grupo_1933" data-name="Grupo 1933" transform="translate(7.551 2.241)">
        <path id="Trazado_1723" data-name="Trazado 1723" d="M182.633,943.7a2.31,2.31,0,1,1,2.311-2.311A2.313,2.313,0,0,1,182.633,943.7Zm0-3.8a1.49,1.49,0,1,0,1.49,1.489A1.492,1.492,0,0,0,182.633,939.9Z" transform="translate(-180.323 -939.081)" fill="#d21780"/>
      </g>
    </g>
    <g id="Grupo_1938" data-name="Grupo 1938" transform="translate(500.292 -973.287)">
      <g id="Grupo_1935" data-name="Grupo 1935">
        <path id="Trazado_1724" data-name="Trazado 1724" d="M213.18,951.534H198.546a1.347,1.347,0,0,1-1.345-1.345V938.462a1.347,1.347,0,0,1,1.345-1.345H213.18a1.346,1.346,0,0,1,1.344,1.345v11.727A1.346,1.346,0,0,1,213.18,951.534Zm-14.634-13.6a.525.525,0,0,0-.525.524v11.727a.525.525,0,0,0,.525.525H213.18a.525.525,0,0,0,.524-.525V938.462a.525.525,0,0,0-.524-.524Z" transform="translate(-197.201 -937.117)" fill="#d21780"/>
      </g>
      <g id="Grupo_1936" data-name="Grupo 1936" transform="translate(0 5.826)">
        <path id="Trazado_1725" data-name="Trazado 1725" d="M214.077,947.763a.409.409,0,0,1-.291-.12l-3.306-3.306-2.951,2.951a.665.665,0,0,1-.939,0L202.4,943.1l-4.5,4.5a.411.411,0,0,1-.581-.581l4.613-4.613a.681.681,0,0,1,.94,0l4.185,4.187,2.951-2.951a.666.666,0,0,1,.94,0l3.416,3.415a.41.41,0,0,1-.29.7Z" transform="translate(-197.201 -942.223)" fill="#d21780"/>
      </g>
      <g id="Grupo_1937" data-name="Grupo 1937" transform="translate(7.55 2.241)">
        <path id="Trazado_1726" data-name="Trazado 1726" d="M206.129,943.7a2.31,2.31,0,1,1,2.309-2.311A2.313,2.313,0,0,1,206.129,943.7Zm0-3.8a1.49,1.49,0,1,0,1.489,1.489A1.492,1.492,0,0,0,206.129,939.9Z" transform="translate(-203.818 -939.081)" fill="#d21780"/>
      </g>
    </g>
    <g id="Grupo_1942" data-name="Grupo 1942" transform="translate(525.61 -973.287)">
      <g id="Grupo_1939" data-name="Grupo 1939" transform="translate(0.001)">
        <path id="Trazado_1727" data-name="Trazado 1727" d="M235.542,951.534H220.908a1.346,1.346,0,0,1-1.344-1.345V938.462a1.346,1.346,0,0,1,1.344-1.345h14.634a1.347,1.347,0,0,1,1.345,1.345v11.727A1.347,1.347,0,0,1,235.542,951.534Zm-14.634-13.6a.524.524,0,0,0-.524.524v11.727a.525.525,0,0,0,.524.525h14.634a.525.525,0,0,0,.525-.525V938.462a.525.525,0,0,0-.525-.524Z" transform="translate(-219.564 -937.117)" fill="#d21780"/>
      </g>
      <g id="Grupo_1940" data-name="Grupo 1940" transform="translate(0 5.826)">
        <path id="Trazado_1728" data-name="Trazado 1728" d="M236.439,947.763a.408.408,0,0,1-.29-.12l-3.306-3.306-2.951,2.951a.666.666,0,0,1-.94,0l-4.185-4.187-4.5,4.5a.41.41,0,1,1-.58-.581l4.613-4.613a.681.681,0,0,1,.94,0l4.185,4.187,2.951-2.951a.666.666,0,0,1,.94,0l3.416,3.415a.41.41,0,0,1-.291.7Z" transform="translate(-219.563 -942.223)" fill="#d21780"/>
      </g>
      <g id="Grupo_1941" data-name="Grupo 1941" transform="translate(7.551 2.241)">
        <path id="Trazado_1729" data-name="Trazado 1729" d="M228.491,943.7a2.31,2.31,0,1,1,2.311-2.311A2.313,2.313,0,0,1,228.491,943.7Zm0-3.8a1.49,1.49,0,1,0,1.49,1.489A1.492,1.492,0,0,0,228.491,939.9Z" transform="translate(-226.181 -939.081)" fill="#d21780"/>
      </g>
    </g>
    <rect id="Rectángulo_3637" data-name="Rectángulo 3637" width="18.734" height="1.938" transform="translate(472.988 -953.17)" fill="#222224"/>
    <rect id="Rectángulo_3638" data-name="Rectángulo 3638" width="18.734" height="1.938" transform="translate(473.046 -948.682)" fill="#222224"/>
    <rect id="Rectángulo_3639" data-name="Rectángulo 3639" width="18.734" height="1.938" transform="translate(473.046 -944.835)" fill="#222224"/>
    <rect id="Rectángulo_3640" data-name="Rectángulo 3640" width="18.734" height="1.938" transform="translate(499.266 -953.17)" fill="#222224"/>
    <rect id="Rectángulo_3641" data-name="Rectángulo 3641" width="18.734" height="1.938" transform="translate(499.325 -948.682)" fill="#222224"/>
    <rect id="Rectángulo_3642" data-name="Rectángulo 3642" width="18.734" height="1.938" transform="translate(499.325 -944.835)" fill="#222224"/>
    <rect id="Rectángulo_3643" data-name="Rectángulo 3643" width="18.734" height="1.938" transform="translate(524.904 -953.17)" fill="#222224"/>
    <rect id="Rectángulo_3644" data-name="Rectángulo 3644" width="18.734" height="1.938" transform="translate(524.963 -948.682)" fill="#222224"/>
    <rect id="Rectángulo_3645" data-name="Rectángulo 3645" width="18.734" height="1.938" transform="translate(524.963 -944.835)" fill="#222224"/>
    <rect id="Rectángulo_3646" data-name="Rectángulo 3646" width="44.534" height="47.259" rx="7.418" transform="translate(332.573 -1010.946)" fill="#eae1f0"/>
    <g id="Grupo_1943" data-name="Grupo 1943" transform="translate(351.518 -1003.338)">
      <rect id="Rectángulo_3647" data-name="Rectángulo 3647" width="0.886" height="2.657" rx="0.067" transform="translate(2.878 1.771)" fill="#97165f"/>
      <rect id="Rectángulo_3648" data-name="Rectángulo 3648" width="6.642" height="1.771" rx="0.776" transform="translate(0 0)" fill="#97165f"/>
    </g>
    <g id="Grupo_1944" data-name="Grupo 1944" transform="translate(341.497 -999.001)">
      <rect id="Rectángulo_3649" data-name="Rectángulo 3649" width="0.886" height="2.657" rx="0.067" transform="translate(1.647 2.273) rotate(-45)" fill="#97165f"/>
      <rect id="Rectángulo_3650" data-name="Rectángulo 3650" width="3.966" height="1.058" rx="0.463" transform="translate(0 2.805) rotate(-45)" fill="#97165f"/>
    </g>
    <g id="Grupo_1945" data-name="Grupo 1945" transform="translate(340.263 -1000.519)">
      <path id="Trazado_1730" data-name="Trazado 1730" d="M84.763,927.713a14.614,14.614,0,0,1-14.615,14.614c-19.386-.769-19.381-28.462,0-29.229A14.615,14.615,0,0,1,84.763,927.713Z" transform="translate(-55.61 -913.098)" fill="#d10e7f"/>
      <path id="Trazado_1731" data-name="Trazado 1731" d="M82.111,927.421a12.254,12.254,0,0,1-12.254,12.254c-16.254-.645-16.25-23.864,0-24.507A12.254,12.254,0,0,1,82.111,927.421Z" transform="translate(-55.32 -912.806)" fill="#fff"/>
      <path id="Trazado_1732" data-name="Trazado 1732" d="M68.332,928.25a.936.936,0,0,1-.76-.947V916.951a.937.937,0,0,1,.76-.948.889.889,0,0,1,1.017.88V927.37A.888.888,0,0,1,68.332,928.25Z" transform="translate(-53.923 -912.69)" fill="#d10e7f"/>
      <path id="Trazado_1733" data-name="Trazado 1733" d="M68.777,927.313a.934.934,0,0,1,1.206.133l2.53,2.529a.936.936,0,0,1,.132,1.206.888.888,0,0,1-1.341.1l-2.626-2.626A.888.888,0,0,1,68.777,927.313Z" transform="translate(-53.804 -911.116)" fill="#d10e7f"/>
      <path id="Trazado_1734" data-name="Trazado 1734" d="M70.055,927.044a1.4,1.4,0,0,1-2.8,0A1.4,1.4,0,0,1,70.055,927.044Z" transform="translate(-53.969 -911.327)" fill="#381027"/>
    </g>
    <rect id="Rectángulo_3651" data-name="Rectángulo 3651" width="106.363" height="20.909" rx="3.321" transform="translate(587.435 -997.81)" fill="#eae1f0"/>
    <path id="Trazado_1735" data-name="Trazado 1735" d="M283.586,921.786l3.82,1.544v1.2l-4.992-2.313v-.891l4.992-2.307v1.2Z" transform="translate(314.426 -1912.774)"/>
    <path id="Trazado_1736" data-name="Trazado 1736" d="M344.619,929.514l-4.034-1.581v-1.159l5.211,2.307v.89l-5.211,2.313v-1.171Z" transform="translate(321.931 -1911.746)"/>
    <rect id="Rectángulo_3652" data-name="Rectángulo 3652" width="10.227" height="5.579" transform="translate(604.48 -993.551)" fill="#3f969e"/>
    <rect id="Rectángulo_3653" data-name="Rectángulo 3653" width="61.919" height="5.579" transform="translate(622.466 -993.551)" fill="#e492bd"/>
    <rect id="Rectángulo_3654" data-name="Rectángulo 3654" width="35.693" height="5.579" transform="translate(603.683 -984.758)" fill="#e492bd"/>
    <rect id="Rectángulo_3655" data-name="Rectángulo 3655" width="10.227" height="5.579" transform="translate(648.136 -984.758)" fill="#3f969e"/>
    <rect id="Rectángulo_3656" data-name="Rectángulo 3656" width="4.649" height="5.579" transform="translate(616.18 -993.551)" fill="#cf107f"/>
    <rect id="Rectángulo_3657" data-name="Rectángulo 3657" width="4.649" height="5.579" transform="translate(616.18 -993.551)" fill="#cf107f"/>
    <rect id="Rectángulo_3658" data-name="Rectángulo 3658" width="4.649" height="5.579" transform="translate(641.628 -984.758)" fill="#cf107f"/>
    <path id="Trazado_1737" data-name="Trazado 1737" d="M215.189,871.259H46.462c-2.473,0-4.476-.316-4.476-.708V853.1c0-.39,2-.707,4.476-.707H215.189c2.473,0,4.478.317,4.478.707v17.449C219.667,870.943,217.662,871.259,215.189,871.259Z" transform="translate(282.731 -1921.37)" fill="#f7daea"/>
    <rect id="Rectángulo_3659" data-name="Rectángulo 3659" width="43.254" height="11.419" transform="translate(324.62 -1072.525)" fill="#d10e7f"/>
    <rect id="Rectángulo_3660" data-name="Rectángulo 3660" width="43.254" height="3.579" transform="translate(324.62 -1072.525)" fill="#97165f"/>
    <rect id="Rectángulo_3661" data-name="Rectángulo 3661" width="48.096" height="11.419" transform="translate(367.393 -1072.525)" fill="#d76fa7"/>
    <rect id="Rectángulo_3662" data-name="Rectángulo 3662" width="48.096" height="3.579" transform="translate(367.393 -1072.525)" fill="#b5116e"/>
    <path id="Trazado_2402" data-name="Trazado 2402" d="M13.9,3.351H12.766L12.549,4h-.69L13.032.852h.6L14.811,4h-.69Zm-.962-.525h.787l-.4-1.178Zm2.595-1.165.019.27a.817.817,0,0,1,.672-.314.679.679,0,0,1,.553.218,1.019,1.019,0,0,1,.186.653V4h-.625V2.5a.405.405,0,0,0-.086-.289.387.387,0,0,0-.288-.09.43.43,0,0,0-.4.225V4h-.625V1.661Zm1.808,1.148a1.387,1.387,0,0,1,.134-.621.981.981,0,0,1,.386-.422,1.126,1.126,0,0,1,.585-.149,1.065,1.065,0,0,1,.773.29,1.163,1.163,0,0,1,.334.787l0,.16a1.223,1.223,0,0,1-.3.864,1.165,1.165,0,0,1-1.614,0,1.244,1.244,0,0,1-.3-.882Zm.625.045a.872.872,0,0,0,.125.509.451.451,0,0,0,.713,0,.954.954,0,0,0,.128-.557.863.863,0,0,0-.128-.506.415.415,0,0,0-.359-.179.408.408,0,0,0-.355.178A.97.97,0,0,0,17.968,2.854Zm2.724-1.769v.575h.4v.458h-.4V3.287a.279.279,0,0,0,.05.186.25.25,0,0,0,.19.056,1,1,0,0,0,.184-.015v.473a1.286,1.286,0,0,1-.378.056.6.6,0,0,1-.67-.664V2.119h-.342V1.661h.342V1.085ZM22.8,4a.694.694,0,0,1-.063-.21.756.756,0,0,1-.59.253.831.831,0,0,1-.57-.2.64.64,0,0,1-.226-.5.661.661,0,0,1,.276-.571,1.36,1.36,0,0,1,.8-.2h.288V2.437a.386.386,0,0,0-.083-.259.327.327,0,0,0-.263-.1.372.372,0,0,0-.248.076.257.257,0,0,0-.09.208H21.4a.628.628,0,0,1,.125-.376.829.829,0,0,1,.355-.271,1.292,1.292,0,0,1,.515-.1,1.021,1.021,0,0,1,.686.217.76.76,0,0,1,.254.611V3.459a1.118,1.118,0,0,0,.093.5V4Zm-.517-.435a.538.538,0,0,0,.255-.062.4.4,0,0,0,.173-.165v-.4h-.234q-.469,0-.5.324l0,.037a.25.25,0,0,0,.082.192A.319.319,0,0,0,22.279,3.565Zm2.508-.026a.41.41,0,0,0,.281-.1.333.333,0,0,0,.112-.253h.586a.8.8,0,0,1-.13.436.856.856,0,0,1-.349.307,1.093,1.093,0,0,1-.49.109,1.016,1.016,0,0,1-.791-.319,1.262,1.262,0,0,1-.29-.881V2.8A1.248,1.248,0,0,1,24,1.94a1,1,0,0,1,.789-.322.984.984,0,0,1,.7.25.884.884,0,0,1,.269.665H25.18a.426.426,0,0,0-.112-.3.419.419,0,0,0-.615.045.92.92,0,0,0-.111.516v.065a.931.931,0,0,0,.11.519A.381.381,0,0,0,24.787,3.539Zm2,.461h-.627V1.661h.627Zm-.664-2.945a.308.308,0,0,1,.094-.231.405.405,0,0,1,.511,0,.306.306,0,0,1,.1.231.307.307,0,0,1-.1.234.4.4,0,0,1-.508,0A.307.307,0,0,1,26.119,1.055ZM27.2,2.809a1.387,1.387,0,0,1,.134-.621.981.981,0,0,1,.386-.422,1.126,1.126,0,0,1,.585-.149,1.065,1.065,0,0,1,.773.29,1.163,1.163,0,0,1,.334.787l0,.16a1.223,1.223,0,0,1-.3.864,1.165,1.165,0,0,1-1.614,0,1.244,1.244,0,0,1-.3-.882Zm.625.045a.872.872,0,0,0,.125.509.451.451,0,0,0,.713,0,.954.954,0,0,0,.128-.557.863.863,0,0,0-.128-.506.415.415,0,0,0-.359-.179.408.408,0,0,0-.355.178A.97.97,0,0,0,27.825,2.854Zm.6-2.175h.681l-.6.67H28Zm1.948.982.019.27a.817.817,0,0,1,.672-.314.679.679,0,0,1,.553.218,1.019,1.019,0,0,1,.186.653V4h-.625V2.5a.405.405,0,0,0-.086-.289.387.387,0,0,0-.288-.09.43.43,0,0,0-.4.225V4h-.625V1.661Z" transform="translate(323.988 -1067.626)" fill="#fff"/>
    <rect id="Rectángulo_3663" data-name="Rectángulo 3663" width="38.201" height="11.419" transform="translate(415.072 -1072.525)" fill="#d10e7f"/>
    <rect id="Rectángulo_3664" data-name="Rectángulo 3664" width="38.201" height="3.579" transform="translate(415.072 -1072.525)" fill="#97165f"/>
    <path id="Trazado_2404" data-name="Trazado 2404" d="M10.309,2.848H9.792V4H9.143V.852h1.17a1.322,1.322,0,0,1,.861.249.858.858,0,0,1,.3.7.969.969,0,0,1-.139.537.951.951,0,0,1-.423.343L11.6,3.97V4h-.7Zm-.517-.525h.523a.536.536,0,0,0,.378-.124.444.444,0,0,0,.134-.343A.476.476,0,0,0,10.7,1.5a.526.526,0,0,0-.388-.128H9.792ZM13,4.043a1.148,1.148,0,0,1-.838-.316,1.122,1.122,0,0,1-.323-.841V2.826a1.413,1.413,0,0,1,.136-.63,1,1,0,0,1,.386-.428,1.083,1.083,0,0,1,.57-.15.971.971,0,0,1,.756.3,1.23,1.23,0,0,1,.276.858v.255h-1.49a.58.58,0,0,0,.183.368.552.552,0,0,0,.386.138.674.674,0,0,0,.564-.262l.307.344a.938.938,0,0,1-.381.31A1.248,1.248,0,0,1,13,4.043Zm-.071-1.92a.391.391,0,0,0-.3.125.648.648,0,0,0-.148.359h.869v-.05a.462.462,0,0,0-.112-.321A.4.4,0,0,0,12.933,2.123Zm1.291.685a1.4,1.4,0,0,1,.245-.871.8.8,0,0,1,.673-.32.718.718,0,0,1,.6.288l.041-.244h.549V4.9h-.627V3.8a.72.72,0,0,1-.566.244.8.8,0,0,1-.666-.324A1.467,1.467,0,0,1,14.224,2.809Zm.625.045a.915.915,0,0,0,.118.51.377.377,0,0,0,.332.175.42.42,0,0,0,.406-.229V2.344a.417.417,0,0,0-.4-.221.382.382,0,0,0-.335.175A1.01,1.01,0,0,0,14.849,2.854Zm3.375.908a.784.784,0,0,1-.64.281.739.739,0,0,1-.574-.216.923.923,0,0,1-.2-.633V1.661h.625V3.172q0,.365.333.365a.451.451,0,0,0,.437-.221V1.661h.627V4h-.588Zm2.153.281a1.148,1.148,0,0,1-.838-.316,1.122,1.122,0,0,1-.323-.841V2.826a1.413,1.413,0,0,1,.136-.63,1,1,0,0,1,.386-.428,1.083,1.083,0,0,1,.57-.15.971.971,0,0,1,.756.3,1.23,1.23,0,0,1,.276.858v.255H19.85a.58.58,0,0,0,.183.368.552.552,0,0,0,.386.138.674.674,0,0,0,.564-.262l.307.344a.938.938,0,0,1-.381.31A1.248,1.248,0,0,1,20.378,4.043Zm-.071-1.92a.391.391,0,0,0-.3.125.648.648,0,0,0-.148.359h.869v-.05a.462.462,0,0,0-.112-.321A.4.4,0,0,0,20.306,2.123Zm2.7.123a1.7,1.7,0,0,0-.225-.017.458.458,0,0,0-.465.24V4h-.625V1.661h.59l.017.279a.579.579,0,0,1,.521-.322.655.655,0,0,1,.195.028ZM23.969,4h-.627V1.661h.627Zm-.664-2.945A.308.308,0,0,1,23.4.824a.405.405,0,0,1,.511,0,.306.306,0,0,1,.1.231.307.307,0,0,1-.1.234.4.4,0,0,1-.508,0A.307.307,0,0,1,23.305,1.055Zm1.081,1.758a1.41,1.41,0,0,1,.245-.871.8.8,0,0,1,.671-.324.717.717,0,0,1,.564.255V.679h.627V4H25.93l-.03-.249a.735.735,0,0,1-.6.292.794.794,0,0,1-.663-.325A1.455,1.455,0,0,1,24.386,2.813Zm.625.045a.921.921,0,0,0,.115.5.373.373,0,0,0,.333.175.418.418,0,0,0,.409-.244V2.37a.412.412,0,0,0-.4-.244Q25.011,2.125,25.011,2.858Zm1.87-.05a1.387,1.387,0,0,1,.134-.621.981.981,0,0,1,.386-.422,1.126,1.126,0,0,1,.585-.149,1.065,1.065,0,0,1,.773.29,1.163,1.163,0,0,1,.334.787l0,.16a1.223,1.223,0,0,1-.3.864,1.165,1.165,0,0,1-1.614,0,1.244,1.244,0,0,1-.3-.882Zm.625.045a.872.872,0,0,0,.125.509.451.451,0,0,0,.713,0,.954.954,0,0,0,.128-.557.863.863,0,0,0-.128-.506.415.415,0,0,0-.359-.179.408.408,0,0,0-.355.178A.97.97,0,0,0,27.506,2.854Z" transform="translate(415.155 -1067.626)" fill="#fff"/>
    <path id="Trazado_2403" data-name="Trazado 2403" d="M.281,4V.852H1.25a1.471,1.471,0,0,1,.743.187,1.3,1.3,0,0,1,.511.532,1.64,1.64,0,0,1,.184.784V2.5a1.645,1.645,0,0,1-.181.781A1.293,1.293,0,0,1,2,3.81,1.482,1.482,0,0,1,1.256,4ZM.93,1.377v2.1h.314a.7.7,0,0,0,.582-.249,1.124,1.124,0,0,0,.205-.711V2.352a1.141,1.141,0,0,0-.2-.728.7.7,0,0,0-.582-.248ZM4.194,4.043a1.148,1.148,0,0,1-.838-.316,1.122,1.122,0,0,1-.323-.841V2.826A1.413,1.413,0,0,1,3.17,2.2a1,1,0,0,1,.386-.428,1.083,1.083,0,0,1,.57-.15.971.971,0,0,1,.756.3,1.23,1.23,0,0,1,.276.858v.255H3.667A.58.58,0,0,0,3.85,3.4a.552.552,0,0,0,.386.138A.674.674,0,0,0,4.8,3.278l.307.344a.938.938,0,0,1-.381.31A1.248,1.248,0,0,1,4.194,4.043Zm-.071-1.92a.391.391,0,0,0-.3.125.648.648,0,0,0-.148.359h.869v-.05a.462.462,0,0,0-.112-.321A.4.4,0,0,0,4.123,2.123Zm2.655,1.23a.2.2,0,0,0-.114-.181A1.289,1.289,0,0,0,6.3,3.055q-.835-.175-.835-.709a.643.643,0,0,1,.258-.52A1.042,1.042,0,0,1,6.4,1.617a1.122,1.122,0,0,1,.712.21.661.661,0,0,1,.267.545H6.754a.3.3,0,0,0-.086-.222.366.366,0,0,0-.27-.088.374.374,0,0,0-.244.071.225.225,0,0,0-.086.182.193.193,0,0,0,.1.168,1.012,1.012,0,0,0,.332.11,2.711,2.711,0,0,1,.394.1.647.647,0,0,1,.5.629.61.61,0,0,1-.275.518,1.184,1.184,0,0,1-.709.2,1.237,1.237,0,0,1-.522-.1.876.876,0,0,1-.358-.288.668.668,0,0,1-.13-.395h.592a.326.326,0,0,0,.123.255.489.489,0,0,0,.307.089.452.452,0,0,0,.271-.068A.212.212,0,0,0,6.778,3.354Zm1.983.186a.41.41,0,0,0,.281-.1.333.333,0,0,0,.112-.253H9.74a.8.8,0,0,1-.13.436.856.856,0,0,1-.349.307,1.093,1.093,0,0,1-.49.109,1.016,1.016,0,0,1-.791-.319,1.262,1.262,0,0,1-.29-.881V2.8a1.248,1.248,0,0,1,.288-.863,1,1,0,0,1,.789-.322.984.984,0,0,1,.7.25.884.884,0,0,1,.269.665H9.154a.426.426,0,0,0-.112-.3.419.419,0,0,0-.615.045.92.92,0,0,0-.111.516v.065a.931.931,0,0,0,.11.519A.381.381,0,0,0,8.761,3.539Zm2.651-1.293a1.7,1.7,0,0,0-.225-.017.458.458,0,0,0-.465.24V4H10.1V1.661h.59l.017.279a.579.579,0,0,1,.521-.322.655.655,0,0,1,.195.028ZM12.372,4h-.627V1.661h.627Zm-.664-2.945A.308.308,0,0,1,11.8.824a.405.405,0,0,1,.511,0,.306.306,0,0,1,.1.231.307.307,0,0,1-.1.234.4.4,0,0,1-.508,0A.307.307,0,0,1,11.708,1.055Zm3.284,1.8a1.4,1.4,0,0,1-.245.866.787.787,0,0,1-.663.325.729.729,0,0,1-.573-.246V4.9h-.625V1.661h.579l.022.229a.734.734,0,0,1,.592-.272.792.792,0,0,1,.672.32,1.441,1.441,0,0,1,.24.882Zm-.625-.045a.921.921,0,0,0-.116-.5.377.377,0,0,0-.336-.177.409.409,0,0,0-.4.225v.958a.416.416,0,0,0,.409.231Q14.367,3.539,14.367,2.807Zm1.985.733a.41.41,0,0,0,.281-.1.333.333,0,0,0,.112-.253h.586a.8.8,0,0,1-.13.436.856.856,0,0,1-.349.307,1.093,1.093,0,0,1-.49.109,1.016,1.016,0,0,1-.791-.319,1.262,1.262,0,0,1-.29-.881V2.8a1.248,1.248,0,0,1,.288-.863,1,1,0,0,1,.789-.322.984.984,0,0,1,.7.25.884.884,0,0,1,.269.665h-.586a.426.426,0,0,0-.112-.3.419.419,0,0,0-.615.045.92.92,0,0,0-.111.516v.065a.931.931,0,0,0,.11.519A.381.381,0,0,0,16.352,3.539Zm2,.461h-.627V1.661h.627Zm-.664-2.945a.308.308,0,0,1,.094-.231.405.405,0,0,1,.511,0,.306.306,0,0,1,.1.231.307.307,0,0,1-.1.234.4.4,0,0,1-.508,0A.307.307,0,0,1,17.684,1.055Zm1.081,1.753a1.387,1.387,0,0,1,.134-.621.981.981,0,0,1,.386-.422,1.126,1.126,0,0,1,.585-.149,1.065,1.065,0,0,1,.773.29,1.163,1.163,0,0,1,.334.787l0,.16a1.223,1.223,0,0,1-.3.864,1.165,1.165,0,0,1-1.614,0,1.244,1.244,0,0,1-.3-.882Zm.625.045a.872.872,0,0,0,.125.509.451.451,0,0,0,.713,0,.954.954,0,0,0,.128-.557.863.863,0,0,0-.128-.506.415.415,0,0,0-.359-.179.408.408,0,0,0-.355.178A.97.97,0,0,0,19.39,2.854Zm.6-2.175h.681l-.6.67h-.508Zm1.948.982.019.27a.817.817,0,0,1,.672-.314.679.679,0,0,1,.553.218,1.019,1.019,0,0,1,.186.653V4h-.625V2.5a.405.405,0,0,0-.086-.289.387.387,0,0,0-.288-.09.43.43,0,0,0-.4.225V4h-.625V1.661Z" transform="translate(373.906 -1067.626)" fill="#fff"/>
    <rect id="Rectángulo_3665" data-name="Rectángulo 3665" width="48.096" height="11.419" transform="translate(453.035 -1072.525)" fill="#d76fa7"/>
    <rect id="Rectángulo_3666" data-name="Rectángulo 3666" width="48.096" height="3.579" transform="translate(453.035 -1072.525)" fill="#b5116e"/>
    <path id="Trazado_2405" data-name="Trazado 2405" d="M2.058,3.351H.921L.7,4H.015L1.187.852h.6L2.966,4h-.69ZM1.1,2.826h.787l-.4-1.178Zm2.835-1.74v.575h.4v.458h-.4V3.287a.279.279,0,0,0,.05.186.25.25,0,0,0,.19.056,1,1,0,0,0,.184-.015v.473a1.286,1.286,0,0,1-.378.056.6.6,0,0,1-.67-.664V2.119H2.964V1.661h.342V1.085ZM5.993,2.247a1.7,1.7,0,0,0-.225-.017.458.458,0,0,0-.465.24V4H4.679V1.661h.59l.017.279a.579.579,0,0,1,.521-.322A.655.655,0,0,1,6,1.645ZM6.953,4H6.326V1.661h.627ZM6.29,1.055A.308.308,0,0,1,6.384.824a.405.405,0,0,1,.511,0,.306.306,0,0,1,.1.231.307.307,0,0,1-.1.234.4.4,0,0,1-.508,0A.307.307,0,0,1,6.29,1.055Zm3.286,1.8a1.417,1.417,0,0,1-.24.877.8.8,0,0,1-.67.315.73.73,0,0,1-.608-.292L8.03,4H7.468V.679h.625V1.87a.712.712,0,0,1,.569-.253.8.8,0,0,1,.671.315,1.419,1.419,0,0,1,.243.885Zm-.625-.045a.931.931,0,0,0-.112-.518A.38.38,0,0,0,8.5,2.125a.412.412,0,0,0-.411.244v.923a.418.418,0,0,0,.415.246.386.386,0,0,0,.4-.3A1.539,1.539,0,0,0,8.951,2.807Zm2.411.956a.784.784,0,0,1-.64.281.739.739,0,0,1-.574-.216.923.923,0,0,1-.2-.633V1.661h.625V3.172q0,.365.333.365a.451.451,0,0,0,.437-.221V1.661h.627V4h-.588Zm1.825-2.677v.575h.4v.458h-.4V3.287a.279.279,0,0,0,.05.186.25.25,0,0,0,.19.056,1,1,0,0,0,.184-.015v.473a1.286,1.286,0,0,1-.378.056.6.6,0,0,1-.67-.664V2.119H12.22V1.661h.342V1.085Zm.586,1.723a1.387,1.387,0,0,1,.134-.621.981.981,0,0,1,.386-.422,1.126,1.126,0,0,1,.585-.149,1.065,1.065,0,0,1,.773.29,1.163,1.163,0,0,1,.334.787l0,.16a1.223,1.223,0,0,1-.3.864,1.165,1.165,0,0,1-1.614,0,1.244,1.244,0,0,1-.3-.882Zm.625.045a.872.872,0,0,0,.125.509.451.451,0,0,0,.713,0,.954.954,0,0,0,.128-.557.863.863,0,0,0-.128-.506.415.415,0,0,0-.359-.179.408.408,0,0,0-.355.178A.97.97,0,0,0,14.4,2.854Zm3.243.5a.2.2,0,0,0-.114-.181,1.289,1.289,0,0,0-.364-.118q-.835-.175-.835-.709a.643.643,0,0,1,.258-.52,1.042,1.042,0,0,1,.676-.209,1.122,1.122,0,0,1,.712.21.661.661,0,0,1,.267.545h-.625a.3.3,0,0,0-.086-.222.366.366,0,0,0-.27-.088.374.374,0,0,0-.244.071.225.225,0,0,0-.086.182.193.193,0,0,0,.1.168,1.012,1.012,0,0,0,.332.11,2.711,2.711,0,0,1,.394.1.647.647,0,0,1,.5.629.61.61,0,0,1-.275.518,1.184,1.184,0,0,1-.709.2,1.237,1.237,0,0,1-.522-.1.876.876,0,0,1-.358-.288.668.668,0,0,1-.13-.395h.592a.326.326,0,0,0,.123.255.489.489,0,0,0,.307.089.452.452,0,0,0,.271-.068A.212.212,0,0,0,17.641,3.354Z" transform="translate(459.586 -1067.626)" fill="#fff"/>
    <rect id="Rectángulo_3667" data-name="Rectángulo 3667" width="30.947" height="1.909" transform="translate(330.802 -1055.584)" fill="#d23189"/>
    <rect id="Rectángulo_3668" data-name="Rectángulo 3668" width="30.947" height="1.909" transform="translate(373.772 -1055.584)" fill="#d23189"/>
    <rect id="Rectángulo_3669" data-name="Rectángulo 3669" width="9.052" height="2.134" transform="translate(422.924 -1055.584)" fill="#d23189"/>
    <rect id="Rectángulo_3670" data-name="Rectángulo 3670" width="8.421" height="2.021" transform="translate(460.58 -1055.584)" fill="#d23189"/>
    <line id="Línea_484" data-name="Línea 484" x2="299.48" transform="translate(351.228 -776.368)" fill="none" stroke="#442261" stroke-linecap="round" stroke-miterlimit="10" stroke-width="2"/>
  </g>
</svg>
