<svg xmlns="http://www.w3.org/2000/svg" xmlns:xlink="http://www.w3.org/1999/xlink" width="412" height="309.795" viewBox="0 0 412 309.795">
  <defs>
    <clipPath id="clip-path">
      <rect id="Rectángulo_3809" data-name="Rectángulo 3809" width="11.061" height="19.52" fill="none"/>
    </clipPath>
    <clipPath id="clip-path-2">
      <rect id="Rectángulo_3826" data-name="Rectángulo 3826" width="11.603" height="18.977" fill="none"/>
    </clipPath>
  </defs>
  <g id="Grupo_2928" data-name="Grupo 2928" transform="translate(-704.5 -181.438)">
    <g id="Grupo_2272" data-name="Grupo 2272" transform="translate(957.115 304.724)">
      <path id="Trazado_1767" data-name="Trazado 1767" d="M235.578,1877.761a11.925,11.925,0,0,0-11.912,11.5h23.822A11.923,11.923,0,0,0,235.578,1877.761Z" transform="translate(-223.666 -1877.761)" fill="#333"/>
    </g>
    <g id="Grupo_2273" data-name="Grupo 2273" transform="translate(783.3 181.438)">
      <g id="Grupo_2023" data-name="Grupo 2023" transform="translate(0 0)">
        <g id="Grupo_2012" data-name="Grupo 2012" transform="translate(42.341 132.386)">
          <g id="Grupo_2011" data-name="Grupo 2011">
            <rect id="Rectángulo_3774" data-name="Rectángulo 3774" width="86.307" height="7.124" rx="1.26" fill="#222224"/>
          </g>
        </g>
        <g id="Grupo_2014" data-name="Grupo 2014" transform="translate(75.371 106.311)">
          <g id="Grupo_2013" data-name="Grupo 2013">
            <rect id="Rectángulo_3775" data-name="Rectángulo 3775" width="20.108" height="28.962" fill="#222224"/>
          </g>
        </g>
        <g id="Grupo_2016" data-name="Grupo 2016">
          <g id="Grupo_2015" data-name="Grupo 2015">
            <rect id="Rectángulo_3776" data-name="Rectángulo 3776" width="170.99" height="108.253" rx="0.711" fill="#222224"/>
          </g>
        </g>
        <g id="Grupo_2018" data-name="Grupo 2018" transform="translate(2.572 3.086)">
          <g id="Grupo_2017" data-name="Grupo 2017">
            <rect id="Rectángulo_3777" data-name="Rectángulo 3777" width="165.845" height="97.631" fill="#fff"/>
          </g>
        </g>
        <g id="Grupo_2020" data-name="Grupo 2020" transform="translate(1.809 1.677)">
          <g id="Grupo_2019" data-name="Grupo 2019">
            <path id="Trazado_1768" data-name="Trazado 1768" d="M268.657,1890.808h-1.526v-97.632a.341.341,0,0,0-.333-.347H103.144a.341.341,0,0,0-.333.347v97.22h-1.526v-97.22a1.9,1.9,0,0,1,1.859-1.94H266.8a1.9,1.9,0,0,1,1.859,1.94Z" transform="translate(-101.285 -1791.237)" fill="#4a494a"/>
          </g>
        </g>
        <g id="Grupo_2022" data-name="Grupo 2022" transform="translate(0 101.248)">
          <g id="Grupo_2021" data-name="Grupo 2021">
            <path id="Rectángulo_3778" data-name="Rectángulo 3778" d="M0,0H170.99a0,0,0,0,1,0,0V4.526A2.478,2.478,0,0,1,168.511,7H2.478A2.478,2.478,0,0,1,0,4.526V0A0,0,0,0,1,0,0Z" fill="#333"/>
          </g>
        </g>
      </g>
      <g id="Grupo_2024" data-name="Grupo 2024" transform="translate(3.476 3.257)">
        <rect id="Rectángulo_3779" data-name="Rectángulo 3779" width="164.027" height="13.259" fill="#3f969e"/>
      </g>
      <g id="Grupo_2025" data-name="Grupo 2025" transform="translate(3.476 16.516)">
        <rect id="Rectángulo_3780" data-name="Rectángulo 3780" width="164.027" height="84.841" fill="#c4dfe1"/>
      </g>
      <g id="Grupo_2068" data-name="Grupo 2068" transform="translate(4.011 12.075)">
        <g id="Grupo_2026" data-name="Grupo 2026" transform="translate(0 44.751)">
          <rect id="Rectángulo_3781" data-name="Rectángulo 3781" width="163.78" height="44.422" fill="#fff"/>
        </g>
        <g id="Grupo_2027" data-name="Grupo 2027">
          <rect id="Rectángulo_3782" data-name="Rectángulo 3782" width="163.643" height="5.751" fill="#cccbcb"/>
        </g>
        <g id="Grupo_2028" data-name="Grupo 2028" transform="translate(0 11.52)">
          <rect id="Rectángulo_3783" data-name="Rectángulo 3783" width="163.572" height="33.231" fill="#f7daea"/>
        </g>
        <g id="Grupo_2029" data-name="Grupo 2029" transform="translate(0 5.751)">
          <rect id="Rectángulo_3784" data-name="Rectángulo 3784" width="163.572" height="5.595" fill="#232324"/>
        </g>
        <g id="Grupo_2030" data-name="Grupo 2030" transform="translate(5.18 20.114)">
          <path id="Trazado_1769" data-name="Trazado 1769" d="M108.648,1815.886a.394.394,0,0,0-.155-.336,1.979,1.979,0,0,0-.559-.25,3.814,3.814,0,0,1-.638-.257,1.041,1.041,0,0,1-.642-.934.914.914,0,0,1,.171-.544,1.118,1.118,0,0,1,.495-.374,1.861,1.861,0,0,1,.724-.135,1.7,1.7,0,0,1,.72.146,1.156,1.156,0,0,1,.491.413,1.085,1.085,0,0,1,.174.6h-.776a.5.5,0,0,0-.163-.4.667.667,0,0,0-.46-.145.724.724,0,0,0-.441.12.383.383,0,0,0-.159.317.365.365,0,0,0,.186.309,2.15,2.15,0,0,0,.545.233,2.344,2.344,0,0,1,.966.493.987.987,0,0,1,.3.735.913.913,0,0,1-.37.768,1.625,1.625,0,0,1-1,.277,1.939,1.939,0,0,1-.793-.158,1.26,1.26,0,0,1-.545-.437,1.125,1.125,0,0,1-.186-.642h.777c0,.418.25.624.746.624a.719.719,0,0,0,.431-.113A.364.364,0,0,0,108.648,1815.886Z" transform="translate(-106.538 -1812.901)" fill="#b5106f"/>
          <path id="Trazado_1770" data-name="Trazado 1770" d="M108.928,1813.377a.371.371,0,0,1,.112-.277.489.489,0,0,1,.613,0,.367.367,0,0,1,.114.277.371.371,0,0,1-.115.28.482.482,0,0,1-.609,0A.371.371,0,0,1,108.928,1813.377Zm.8,3.525h-.751v-2.8h.751Z" transform="translate(-105.569 -1812.927)" fill="#b5106f"/>
          <path id="Trazado_1771" data-name="Trazado 1771" d="M110.9,1813.291v.69h.478v.548H110.9v1.4a.325.325,0,0,0,.06.222.292.292,0,0,0,.226.068,1.127,1.127,0,0,0,.219-.018v.568a1.567,1.567,0,0,1-.453.066.713.713,0,0,1-.8-.794v-1.508h-.409v-.548h.409v-.69Z" transform="translate(-105.237 -1812.806)" fill="#b5106f"/>
          <path id="Trazado_1772" data-name="Trazado 1772" d="M111.2,1813.377a.367.367,0,0,1,.114-.277.487.487,0,0,1,.611,0,.363.363,0,0,1,.115.277.367.367,0,0,1-.117.28.48.48,0,0,1-.607,0A.367.367,0,0,1,111.2,1813.377Zm.8,3.525h-.752v-2.8H112Z" transform="translate(-104.647 -1812.927)" fill="#b5106f"/>
          <path id="Trazado_1773" data-name="Trazado 1773" d="M112.123,1815.17a1.659,1.659,0,0,1,.159-.742,1.185,1.185,0,0,1,.462-.506,1.356,1.356,0,0,1,.7-.177,1.276,1.276,0,0,1,.925.346,1.39,1.39,0,0,1,.4.942l0,.191a1.464,1.464,0,0,1-.36,1.036,1.4,1.4,0,0,1-1.931,0,1.491,1.491,0,0,1-.36-1.056Zm.748.053a1.048,1.048,0,0,0,.149.61.538.538,0,0,0,.855,0,1.136,1.136,0,0,0,.152-.667,1.037,1.037,0,0,0-.152-.607.5.5,0,0,0-.43-.215.494.494,0,0,0-.424.213A1.174,1.174,0,0,0,112.871,1815.223Z" transform="translate(-104.273 -1812.622)" fill="#b5106f"/>
          <path id="Trazado_1774" data-name="Trazado 1774" d="M116.122,1816.861h-.776v-3.768h.776Z" transform="translate(-102.966 -1812.886)" fill="#b5106f"/>
          <path id="Trazado_1775" data-name="Trazado 1775" d="M119.272,1813.093v2.48a1.27,1.27,0,0,1-.387.978,1.739,1.739,0,0,1-2.1.011,1.247,1.247,0,0,1-.4-.96v-2.51h.777v2.488a.715.715,0,0,0,.176.538.684.684,0,0,0,.491.17c.436,0,.659-.23.665-.689v-2.507Z" transform="translate(-102.545 -1812.886)" fill="#b5106f"/>
          <path id="Trazado_1776" data-name="Trazado 1776" d="M120.322,1814.391l.706-1.3h.894l-1.1,1.869,1.126,1.9h-.9l-.724-1.32-.725,1.32h-.9l1.126-1.9-1.1-1.869h.893Z" transform="translate(-101.609 -1812.886)" fill="#b5106f"/>
          <path id="Trazado_1777" data-name="Trazado 1777" d="M125.218,1815.621a1.342,1.342,0,0,1-.45.957,1.572,1.572,0,0,1-1.067.349,1.417,1.417,0,0,1-1.14-.488,2,2,0,0,1-.416-1.338v-.23a2.252,2.252,0,0,1,.191-.957,1.435,1.435,0,0,1,.548-.636,1.711,1.711,0,0,1,1.878.129,1.437,1.437,0,0,1,.46.979h-.776a.788.788,0,0,0-.2-.528.748.748,0,0,0-.531-.164.662.662,0,0,0-.582.278,1.561,1.561,0,0,0-.2.863v.284a1.67,1.67,0,0,0,.186.894.643.643,0,0,0,.583.281.77.77,0,0,0,.537-.163.75.75,0,0,0,.2-.509Z" transform="translate(-100.209 -1812.901)" fill="#b5106f"/>
          <path id="Trazado_1778" data-name="Trazado 1778" d="M125.977,1816.647a1.368,1.368,0,0,1-1-.378,1.34,1.34,0,0,1-.387-1.006v-.072a1.69,1.69,0,0,1,.162-.753,1.19,1.19,0,0,1,.462-.513,1.289,1.289,0,0,1,.682-.18,1.167,1.167,0,0,1,.905.361,1.476,1.476,0,0,1,.33,1.027v.3h-1.784a.7.7,0,0,0,.218.442.666.666,0,0,0,.462.166.812.812,0,0,0,.676-.313l.367.41a1.1,1.1,0,0,1-.455.372A1.5,1.5,0,0,1,125.977,1816.647Zm-.084-2.3a.468.468,0,0,0-.361.152.772.772,0,0,0-.179.432h1.04v-.059a.558.558,0,0,0-.134-.387A.487.487,0,0,0,125.892,1814.346Z" transform="translate(-99.219 -1812.622)" fill="#b5106f"/>
          <path id="Trazado_1779" data-name="Trazado 1779" d="M127.39,1813.8l.024.323a.975.975,0,0,1,.8-.375.813.813,0,0,1,.662.26,1.223,1.223,0,0,1,.224.783v1.809h-.748v-1.791a.485.485,0,0,0-.1-.346.464.464,0,0,0-.344-.107.512.512,0,0,0-.472.268v1.975h-.748v-2.8Z" transform="translate(-98.368 -1812.622)" fill="#b5106f"/>
          <path id="Trazado_1780" data-name="Trazado 1780" d="M129.78,1813.291v.69h.479v.548h-.479v1.4a.325.325,0,0,0,.06.222.3.3,0,0,0,.228.068,1.147,1.147,0,0,0,.219-.018v.568a1.581,1.581,0,0,1-.453.066.714.714,0,0,1-.8-.794v-1.508h-.409v-.548h.409v-.69Z" transform="translate(-97.583 -1812.806)" fill="#b5106f"/>
          <path id="Trazado_1781" data-name="Trazado 1781" d="M131.657,1814.5a2.25,2.25,0,0,0-.27-.021.549.549,0,0,0-.557.288v1.833h-.748v-2.8h.706l.021.333a.693.693,0,0,1,.624-.385.784.784,0,0,1,.233.034Z" transform="translate(-96.991 -1812.622)" fill="#b5106f"/>
          <path id="Trazado_1782" data-name="Trazado 1782" d="M131.31,1815.17a1.658,1.658,0,0,1,.159-.742,1.177,1.177,0,0,1,.462-.506,1.357,1.357,0,0,1,.7-.177,1.276,1.276,0,0,1,.925.346,1.4,1.4,0,0,1,.4.942l0,.191a1.465,1.465,0,0,1-.36,1.036,1.4,1.4,0,0,1-1.931,0,1.485,1.485,0,0,1-.36-1.056Zm.748.053a1.048,1.048,0,0,0,.149.61.493.493,0,0,0,.43.212.5.5,0,0,0,.424-.21,1.146,1.146,0,0,0,.152-.667,1.047,1.047,0,0,0-.152-.607.5.5,0,0,0-.43-.215.493.493,0,0,0-.424.213A1.174,1.174,0,0,0,132.058,1815.223Z" transform="translate(-96.493 -1812.622)" fill="#b5106f"/>
          <path id="Trazado_1783" data-name="Trazado 1783" d="M134.381,1815.5a1.692,1.692,0,0,1,.292-1.043.955.955,0,0,1,.8-.388.858.858,0,0,1,.676.305v-1.428h.749v3.975h-.675l-.038-.3a.874.874,0,0,1-.718.349.95.95,0,0,1-.793-.388A1.743,1.743,0,0,1,134.381,1815.5Zm.748.056a1.109,1.109,0,0,0,.136.6.447.447,0,0,0,.4.211.5.5,0,0,0,.489-.294v-1.107a.494.494,0,0,0-.485-.291C135.307,1814.677,135.129,1814.968,135.129,1815.556Z" transform="translate(-95.248 -1812.946)" fill="#b5106f"/>
          <path id="Trazado_1784" data-name="Trazado 1784" d="M137.9,1816.647a1.37,1.37,0,0,1-1-.378,1.34,1.34,0,0,1-.387-1.006v-.072a1.69,1.69,0,0,1,.163-.753,1.187,1.187,0,0,1,.461-.513,1.293,1.293,0,0,1,.682-.18,1.172,1.172,0,0,1,.907.361,1.476,1.476,0,0,1,.329,1.027v.3h-1.782a.691.691,0,0,0,.218.442.665.665,0,0,0,.461.166.81.81,0,0,0,.676-.313l.367.41a1.1,1.1,0,0,1-.454.372A1.506,1.506,0,0,1,137.9,1816.647Zm-.084-2.3a.47.47,0,0,0-.361.152.771.771,0,0,0-.177.432h1.04v-.059a.565.565,0,0,0-.135-.387A.485.485,0,0,0,137.82,1814.346Z" transform="translate(-94.382 -1812.622)" fill="#b5106f"/>
          <path id="Trazado_1785" data-name="Trazado 1785" d="M141.817,1816.084h-1.359l-.259.777h-.826l1.4-3.768h.718l1.411,3.768h-.825Zm-1.15-.628h.942l-.475-1.41Z" transform="translate(-93.223 -1812.886)" fill="#b5106f"/>
          <path id="Trazado_1786" data-name="Trazado 1786" d="M143.135,1815.523l.519-1.741h.8l-1.126,3.234-.062.147a.854.854,0,0,1-.828.55,1.139,1.139,0,0,1-.332-.051v-.566l.115,0a.6.6,0,0,0,.315-.065.425.425,0,0,0,.166-.215l.087-.23-.981-2.807h.805Z" transform="translate(-92.235 -1812.607)" fill="#b5106f"/>
          <path id="Trazado_1787" data-name="Trazado 1787" d="M145.583,1816.3a.931.931,0,0,1-.766.336.883.883,0,0,1-.686-.259,1.1,1.1,0,0,1-.242-.759v-1.833h.748v1.81c0,.292.132.439.4.439a.538.538,0,0,0,.521-.266v-1.983h.751v2.8h-.7Z" transform="translate(-91.392 -1812.607)" fill="#b5106f"/>
          <path id="Trazado_1788" data-name="Trazado 1788" d="M145.929,1815.5a1.692,1.692,0,0,1,.294-1.043.952.952,0,0,1,.8-.388.856.856,0,0,1,.676.305v-1.428h.749v3.975h-.673l-.038-.3a.877.877,0,0,1-.72.349.952.952,0,0,1-.793-.388A1.752,1.752,0,0,1,145.929,1815.5Zm.748.056a1.1,1.1,0,0,0,.138.6.445.445,0,0,0,.4.211.5.5,0,0,0,.489-.294v-1.107a.493.493,0,0,0-.485-.291C146.857,1814.677,146.677,1814.968,146.677,1815.556Z" transform="translate(-90.565 -1812.946)" fill="#b5106f"/>
          <path id="Trazado_1789" data-name="Trazado 1789" d="M149.79,1816.6a.862.862,0,0,1-.074-.252.905.905,0,0,1-.706.3.991.991,0,0,1-.682-.238.762.762,0,0,1-.271-.6.79.79,0,0,1,.33-.683,1.623,1.623,0,0,1,.953-.24h.344v-.162a.458.458,0,0,0-.1-.309.392.392,0,0,0-.315-.117.45.45,0,0,0-.3.09.309.309,0,0,0-.108.249h-.748a.737.737,0,0,1,.15-.45.976.976,0,0,1,.424-.325,1.539,1.539,0,0,1,.616-.118,1.224,1.224,0,0,1,.822.259.915.915,0,0,1,.3.732v1.213a1.312,1.312,0,0,0,.112.6v.044Zm-.618-.521a.649.649,0,0,0,.306-.073.482.482,0,0,0,.207-.2v-.482h-.28q-.561,0-.6.388l0,.043a.3.3,0,0,0,.1.23A.382.382,0,0,0,149.172,1816.075Z" transform="translate(-89.702 -1812.622)" fill="#b5106f"/>
        </g>
        <g id="Grupo_2031" data-name="Grupo 2031" transform="translate(5.181 28.136)">
          <rect id="Rectángulo_3785" data-name="Rectángulo 3785" width="61.35" height="1.332" fill="#b5106f"/>
        </g>
        <g id="Grupo_2032" data-name="Grupo 2032" transform="translate(5.181 32.132)">
          <rect id="Rectángulo_3786" data-name="Rectángulo 3786" width="61.35" height="1.332" fill="#b5106f"/>
        </g>
        <g id="Grupo_2033" data-name="Grupo 2033" transform="translate(19.056 53.532)">
          <rect id="Rectángulo_3787" data-name="Rectángulo 3787" width="61.35" height="1.332" fill="#333"/>
        </g>
        <g id="Grupo_2034" data-name="Grupo 2034" transform="translate(19.056 60.923)">
          <rect id="Rectángulo_3788" data-name="Rectángulo 3788" width="133.091" height="1.332" fill="#333"/>
        </g>
        <g id="Grupo_2035" data-name="Grupo 2035" transform="translate(19.056 63.847)">
          <rect id="Rectángulo_3789" data-name="Rectángulo 3789" width="64.808" height="1.332" fill="#333"/>
        </g>
        <g id="Grupo_2060" data-name="Grupo 2060" transform="translate(119.463 12.559)">
          <g id="Elipse_170" data-name="Elipse 170" transform="translate(2.219)">
            <path id="Trazado_1790" data-name="Trazado 1790" d="M205,1838.724c-.486,0-.988-.024-1.488-.073l.037-.381a15.272,15.272,0,0,0,4.54-.25l.079.375A15.361,15.361,0,0,1,205,1838.724Zm-6.01-1.207a15.5,15.5,0,0,1-3.985-2.417l.246-.3a15.186,15.186,0,0,0,3.886,2.358Zm13.546-.745-.187-.336a15.218,15.218,0,0,0,3.605-2.77l.277.269A15.585,15.585,0,0,1,212.54,1836.772Zm-20.619-5.167a15.724,15.724,0,0,1-1.916-4.246l.37-.106a15.222,15.222,0,0,0,1.872,4.143Zm27-1.482-.343-.172a15.336,15.336,0,0,0,1.407-4.326l.378.063a15.811,15.811,0,0,1-.495,2.082A15.61,15.61,0,0,1,218.921,1830.123Zm-29.108-7.383-.385-.008a15.691,15.691,0,0,1,2.731-8.4l.318.218a15.279,15.279,0,0,0-2.663,8.194Zm30.237-1.66a15.149,15.149,0,0,0-1.29-4.36l.35-.162a15.6,15.6,0,0,1,1.321,4.471Zm-3.8-8.145a15.117,15.117,0,0,0-3.525-2.871l.2-.332a15.464,15.464,0,0,1,3.615,2.944Zm-20.661-1.707-.238-.3a15.679,15.679,0,0,1,4.048-2.308l.139.359A15.345,15.345,0,0,0,195.584,1811.228Zm12.918-2.857a15,15,0,0,0-4.53-.38l-.027-.385a15.543,15.543,0,0,1,4.647.388Z" transform="translate(-189.428 -1807.57)" fill="#eeb5d3"/>
          </g>
          <g id="Elipse_171" data-name="Elipse 171" transform="translate(7.449 5.241)">
            <ellipse id="Elipse_249" data-name="Elipse 249" cx="10.342" cy="10.342" rx="10.342" ry="10.342" fill="#f5d9e9"/>
          </g>
          <g id="Grupo_187" data-name="Grupo 187" transform="translate(28.941 15.929)">
            <g id="Trazado_1608" data-name="Trazado 1608">
              <path id="Trazado_1791" data-name="Trazado 1791" d="M213.626,1818.9h-3.746a1.441,1.441,0,0,0-1.441,1.439v2.648a1.44,1.44,0,0,0,1.362,1.437,2.757,2.757,0,0,1-.805,1.309,4.784,4.784,0,0,0,2.485-1.3h2.145a1.441,1.441,0,0,0,1.439-1.441v-2.648A1.439,1.439,0,0,0,213.626,1818.9Z" transform="translate(-208.44 -1818.904)" fill="#eeb5d3"/>
            </g>
          </g>
          <g id="Grupo_188" data-name="Grupo 188" transform="translate(30.097 17.464)">
            <g id="Trazado_1609" data-name="Trazado 1609" transform="translate(0.004)">
              <path id="Trazado_1792" data-name="Trazado 1792" d="M213.383,1820.409h-3.912a.207.207,0,0,1,0-.414h3.912a.207.207,0,0,1,0,.414Z" transform="translate(-209.266 -1819.996)" fill="#f7f6f6"/>
            </g>
            <g id="Trazado_1610" data-name="Trazado 1610" transform="translate(0 1.092)">
              <path id="Trazado_1793" data-name="Trazado 1793" d="M213.384,1821.185h-3.912a.206.206,0,0,1-.008-.412h3.92a.206.206,0,0,1,.01.412Z" transform="translate(-209.263 -1820.773)" fill="#f7f6f6"/>
            </g>
            <g id="Trazado_1611" data-name="Trazado 1611" transform="translate(0.004 2.156)">
              <path id="Trazado_1794" data-name="Trazado 1794" d="M213.383,1821.943h-3.912a.207.207,0,0,1,0-.413h3.912a.207.207,0,0,1,0,.413Z" transform="translate(-209.266 -1821.53)" fill="#f7f6f6"/>
            </g>
          </g>
          <g id="Trazado_1612" data-name="Trazado 1612" transform="translate(26.593 4.247)">
            <path id="Trazado_1795" data-name="Trazado 1795" d="M212.039,1810.592h-3.806a1.463,1.463,0,0,0-1.463,1.463v2.692a1.461,1.461,0,0,0,1.384,1.459,2.819,2.819,0,0,1-.818,1.33,4.853,4.853,0,0,0,2.524-1.325h2.179a1.463,1.463,0,0,0,1.463-1.463h0v-2.692a1.463,1.463,0,0,0-1.463-1.463Z" transform="translate(-206.77 -1810.592)" fill="#eeb5d3"/>
          </g>
          <g id="Trazado_1614" data-name="Trazado 1614" transform="translate(0.871 5.187)">
            <path id="Trazado_1796" data-name="Trazado 1796" d="M189.9,1811.261h3.726a1.431,1.431,0,0,1,1.431,1.431v2.634a1.43,1.43,0,0,1-1.354,1.428,2.752,2.752,0,0,0,.8,1.3,4.754,4.754,0,0,1-2.471-1.3H189.9a1.43,1.43,0,0,1-1.431-1.431v-2.634a1.431,1.431,0,0,1,1.431-1.431Z" transform="translate(-188.469 -1811.261)" fill="#eeb5d3"/>
          </g>
          <g id="Trazado_1618" data-name="Trazado 1618" transform="translate(0 16.78)">
            <path id="Trazado_1797" data-name="Trazado 1797" d="M189.264,1819.509h3.682a1.416,1.416,0,0,1,1.415,1.416h0v2.6a1.416,1.416,0,0,1-1.339,1.412,2.724,2.724,0,0,0,.793,1.286,4.7,4.7,0,0,1-2.443-1.283h-2.108a1.414,1.414,0,0,1-1.415-1.414v-2.6a1.416,1.416,0,0,1,1.415-1.416Z" transform="translate(-187.849 -1819.509)" fill="#eeb5d3"/>
          </g>
          <g id="Grupo_2037" data-name="Grupo 2037" transform="translate(7.78 7.943)">
            <g id="Grupo_2036" data-name="Grupo 2036" clip-path="url(#clip-path)">
              <g id="Enmascarar_grupo_3" data-name="Enmascarar grupo 3" transform="translate(-1.43 1.072)">
                <g id="Grupo_393" data-name="Grupo 393">
                  <g id="Grupo_324" data-name="Grupo 324" transform="translate(4.571 23.558)">
                    <g id="Rectángulo_4057" data-name="Rectángulo 4057">
                      <rect id="Rectángulo_3790" data-name="Rectángulo 3790" width="2.087" height="19.018" fill="#e18567"/>
                    </g>
                  </g>
                  <g id="Grupo_325" data-name="Grupo 325" transform="translate(7.042 23.558)">
                    <g id="Rectángulo_4058" data-name="Rectángulo 4058">
                      <rect id="Rectángulo_3791" data-name="Rectángulo 3791" width="2.087" height="19.018" fill="#e18567"/>
                    </g>
                  </g>
                  <g id="Grupo_326" data-name="Grupo 326" transform="translate(0 16.244)">
                    <g id="Trazado_1686" data-name="Trazado 1686">
                      <path id="Trazado_1798" data-name="Trazado 1798" d="M199.222,1825.618l-6.836,12.155a.147.147,0,0,0,.056.2.15.15,0,0,0,.073.02h13.671a.148.148,0,0,0,.148-.148.154.154,0,0,0-.018-.072l-6.836-12.155a.146.146,0,0,0-.2-.056A.143.143,0,0,0,199.222,1825.618Z" transform="translate(-192.367 -1825.542)" fill="#e9e8e7"/>
                    </g>
                  </g>
                  <g id="Grupo_327" data-name="Grupo 327" transform="translate(2.299 3.372)">
                    <g id="Trazado_1687" data-name="Trazado 1687">
                      <path id="Trazado_1799" data-name="Trazado 1799" d="M196.8,1817.784a1.4,1.4,0,0,1-1.4,1.4h0a1.4,1.4,0,1,1,1.4-1.4Z" transform="translate(-194.002 -1816.384)" fill="#161615"/>
                    </g>
                  </g>
                  <g id="Grupo_328" data-name="Grupo 328" transform="translate(2.299 5.477)">
                    <g id="Trazado_1688" data-name="Trazado 1688">
                      <path id="Trazado_1800" data-name="Trazado 1800" d="M196.8,1819.283a1.4,1.4,0,1,1-1.4-1.4A1.4,1.4,0,0,1,196.8,1819.283Z" transform="translate(-194.002 -1817.882)" fill="#161615"/>
                    </g>
                  </g>
                  <g id="Grupo_329" data-name="Grupo 329" transform="translate(2.299 7.584)">
                    <g id="Trazado_1689" data-name="Trazado 1689">
                      <path id="Trazado_1801" data-name="Trazado 1801" d="M196.8,1820.782a1.4,1.4,0,0,1-1.4,1.4h0a1.4,1.4,0,1,1,1.4-1.4Z" transform="translate(-194.002 -1819.381)" fill="#161615"/>
                    </g>
                  </g>
                  <g id="Grupo_330" data-name="Grupo 330" transform="translate(8.996 3.372)">
                    <g id="Trazado_1690" data-name="Trazado 1690">
                      <path id="Trazado_1802" data-name="Trazado 1802" d="M201.561,1817.784a1.4,1.4,0,0,1-1.4,1.4h0a1.4,1.4,0,1,1,1.4-1.4Z" transform="translate(-198.767 -1816.384)" fill="#161615"/>
                    </g>
                  </g>
                  <g id="Grupo_331" data-name="Grupo 331" transform="translate(5.48)">
                    <g id="Trazado_1691" data-name="Trazado 1691">
                      <path id="Trazado_1803" data-name="Trazado 1803" d="M199.059,1815.385a1.4,1.4,0,1,1-1.4-1.4,1.4,1.4,0,0,1,1.4,1.4Z" transform="translate(-196.265 -1813.985)" fill="#161615"/>
                    </g>
                  </g>
                  <g id="Grupo_332" data-name="Grupo 332" transform="translate(3.863 0.483)">
                    <g id="Trazado_1692" data-name="Trazado 1692">
                      <path id="Trazado_1804" data-name="Trazado 1804" d="M197.91,1815.729a1.4,1.4,0,0,1-1.4,1.4h0a1.4,1.4,0,1,1,1.4-1.4Z" transform="translate(-195.115 -1814.329)" fill="#161615"/>
                    </g>
                  </g>
                  <g id="Grupo_333" data-name="Grupo 333" transform="translate(2.972 1.711)">
                    <g id="Trazado_1693" data-name="Trazado 1693">
                      <path id="Trazado_1805" data-name="Trazado 1805" d="M197.276,1816.6a1.4,1.4,0,1,1-1.4-1.4A1.4,1.4,0,0,1,197.276,1816.6Z" transform="translate(-194.481 -1815.202)" fill="#161615"/>
                    </g>
                  </g>
                  <g id="Grupo_334" data-name="Grupo 334" transform="translate(8.996 5.477)">
                    <g id="Trazado_1694" data-name="Trazado 1694">
                      <path id="Trazado_1806" data-name="Trazado 1806" d="M201.561,1819.283a1.4,1.4,0,1,1-1.4-1.4A1.4,1.4,0,0,1,201.561,1819.283Z" transform="translate(-198.767 -1817.882)" fill="#161615"/>
                    </g>
                  </g>
                  <g id="Grupo_335" data-name="Grupo 335" transform="translate(8.996 7.584)">
                    <g id="Trazado_1695" data-name="Trazado 1695">
                      <path id="Trazado_1807" data-name="Trazado 1807" d="M201.561,1820.782a1.4,1.4,0,0,1-1.4,1.4h0a1.4,1.4,0,1,1,1.4-1.4Z" transform="translate(-198.767 -1819.381)" fill="#161615"/>
                    </g>
                  </g>
                  <g id="Grupo_336" data-name="Grupo 336" transform="translate(2.299 9.306)">
                    <g id="Trazado_1696" data-name="Trazado 1696">
                      <path id="Trazado_1808" data-name="Trazado 1808" d="M196.8,1822.007a1.4,1.4,0,1,1-1.4-1.4A1.4,1.4,0,0,1,196.8,1822.007Z" transform="translate(-194.002 -1820.606)" fill="#161615"/>
                    </g>
                  </g>
                  <g id="Grupo_337" data-name="Grupo 337" transform="translate(4.374 7.584)">
                    <g id="Trazado_1697" data-name="Trazado 1697">
                      <path id="Trazado_1809" data-name="Trazado 1809" d="M198.273,1820.782a1.4,1.4,0,1,1-1.4-1.4A1.4,1.4,0,0,1,198.273,1820.782Z" transform="translate(-195.478 -1819.381)" fill="#161615"/>
                    </g>
                  </g>
                  <g id="Grupo_338" data-name="Grupo 338" transform="translate(4.374 9.306)">
                    <g id="Trazado_1698" data-name="Trazado 1698">
                      <path id="Trazado_1810" data-name="Trazado 1810" d="M198.273,1822.007a1.4,1.4,0,1,1-1.4-1.4A1.4,1.4,0,0,1,198.273,1822.007Z" transform="translate(-195.478 -1820.606)" fill="#161615"/>
                    </g>
                  </g>
                  <g id="Grupo_339" data-name="Grupo 339" transform="translate(7.025 7.584)">
                    <g id="Trazado_1699" data-name="Trazado 1699">
                      <path id="Trazado_1811" data-name="Trazado 1811" d="M200.159,1820.782a1.4,1.4,0,1,1-1.4-1.4A1.4,1.4,0,0,1,200.159,1820.782Z" transform="translate(-197.365 -1819.381)" fill="#161615"/>
                    </g>
                  </g>
                  <g id="Grupo_340" data-name="Grupo 340" transform="translate(7.025 9.306)">
                    <g id="Trazado_1700" data-name="Trazado 1700">
                      <path id="Trazado_1812" data-name="Trazado 1812" d="M200.159,1822.007a1.4,1.4,0,1,1-1.4-1.4A1.4,1.4,0,0,1,200.159,1822.007Z" transform="translate(-197.365 -1820.606)" fill="#161615"/>
                    </g>
                  </g>
                  <g id="Grupo_341" data-name="Grupo 341" transform="translate(8.996 9.306)">
                    <g id="Trazado_1701" data-name="Trazado 1701">
                      <path id="Trazado_1813" data-name="Trazado 1813" d="M201.561,1822.007a1.4,1.4,0,1,1-1.4-1.4A1.4,1.4,0,0,1,201.561,1822.007Z" transform="translate(-198.767 -1820.606)" fill="#161615"/>
                    </g>
                  </g>
                  <g id="Grupo_342" data-name="Grupo 342" transform="translate(7.042 42.447)">
                    <g id="Rectángulo_4059" data-name="Rectángulo 4059">
                      <rect id="Rectángulo_3792" data-name="Rectángulo 3792" width="3.98" height="0.423" fill="#e18567"/>
                    </g>
                  </g>
                  <g id="Grupo_343" data-name="Grupo 343" transform="translate(2.677 42.447)">
                    <g id="Rectángulo_4060" data-name="Rectángulo 4060">
                      <rect id="Rectángulo_3793" data-name="Rectángulo 3793" width="3.98" height="0.423" fill="#e18567"/>
                    </g>
                  </g>
                  <g id="Grupo_345" data-name="Grupo 345" transform="translate(5.919 11.101)">
                    <g id="Grupo_344" data-name="Grupo 344">
                      <g id="Trazado_1702" data-name="Trazado 1702">
                        <path id="Trazado_1814" data-name="Trazado 1814" d="M198.513,1821.883h-1.935C196.681,1823.368,198.414,1823.368,198.513,1821.883Z" transform="translate(-196.578 -1821.883)" fill="#d2d2d2"/>
                      </g>
                    </g>
                  </g>
                  <g id="Grupo_347" data-name="Grupo 347" transform="translate(6.116 8.304)">
                    <g id="Grupo_346" data-name="Grupo 346">
                      <g id="Rectángulo_4061" data-name="Rectángulo 4061">
                        <rect id="Rectángulo_3794" data-name="Rectángulo 3794" width="1.539" height="2.713" fill="#e18567"/>
                      </g>
                    </g>
                  </g>
                  <g id="Grupo_349" data-name="Grupo 349" transform="translate(3.122 0.38)">
                    <g id="Grupo_348" data-name="Grupo 348">
                      <g id="Trazado_1703" data-name="Trazado 1703">
                        <path id="Trazado_1815" data-name="Trazado 1815" d="M198.332,1814.259a3.644,3.644,0,0,1,3.956,3.426l.008,5.078-7.7.011-.008-5.1A3.591,3.591,0,0,1,198.332,1814.259Z" transform="translate(-194.588 -1814.255)" fill="#161615"/>
                      </g>
                    </g>
                  </g>
                  <g id="Grupo_351" data-name="Grupo 351" transform="translate(3.693 0.884)">
                    <g id="Grupo_350" data-name="Grupo 350">
                      <g id="Trazado_1704" data-name="Trazado 1704">
                        <path id="Trazado_1816" data-name="Trazado 1816" d="M201.576,1818.8c0,2.315-1.47,4.194-3.293,4.2-4.375-.208-4.389-8.164-.014-8.385C200.092,1814.611,201.572,1816.486,201.576,1818.8Z" transform="translate(-194.994 -1814.614)" fill="#e18567"/>
                      </g>
                    </g>
                  </g>
                  <g id="Grupo_353" data-name="Grupo 353" transform="translate(3.26 3.391)">
                    <g id="Grupo_352" data-name="Grupo 352">
                      <g id="Trazado_1705" data-name="Trazado 1705">
                        <path id="Trazado_1817" data-name="Trazado 1817" d="M195.234,1816.4a.55.55,0,0,1,.551.549l.007,3.781a.55.55,0,0,1-1.1.015v-.014l-.006-3.781A.549.549,0,0,1,195.234,1816.4Z" transform="translate(-194.686 -1816.398)" fill="#161615"/>
                      </g>
                    </g>
                  </g>
                  <g id="Grupo_355" data-name="Grupo 355" transform="translate(9.724 3.007)">
                    <g id="Grupo_354" data-name="Grupo 354">
                      <g id="Rectángulo_4062" data-name="Rectángulo 4062">
                        <rect id="Rectángulo_3795" data-name="Rectángulo 3795" width="0.963" height="5.131" rx="0.158" fill="#161615"/>
                      </g>
                    </g>
                  </g>
                  <g id="Grupo_358" data-name="Grupo 358" transform="translate(6.582 0.384)">
                    <g id="Grupo_357" data-name="Grupo 357">
                      <g id="Grupo_356" data-name="Grupo 356">
                        <g id="Trazado_1706" data-name="Trazado 1706">
                          <path id="Trazado_1818" data-name="Trazado 1818" d="M198.9,1815.3c0,.053,0,.107,0,.159a4.028,4.028,0,0,1,1.337,1.8h.6a3.689,3.689,0,0,0-3.781-3,4.084,4.084,0,0,1,1.777.4A2.8,2.8,0,0,1,198.9,1815.3Z" transform="translate(-197.05 -1814.258)" fill="#d87fb1"/>
                        </g>
                      </g>
                    </g>
                  </g>
                  <g id="Grupo_360" data-name="Grupo 360" transform="translate(3.303 0.371)">
                    <g id="Grupo_359" data-name="Grupo 359">
                      <g id="Trazado_1707" data-name="Trazado 1707">
                        <path id="Trazado_1819" data-name="Trazado 1819" d="M194.717,1817.317c2.112,2.224,6.141.446,5.477-2.657C197.941,1813.543,194.994,1814.793,194.717,1817.317Z" transform="translate(-194.717 -1814.249)" fill="#161615"/>
                      </g>
                    </g>
                  </g>
                  <g id="Grupo_362" data-name="Grupo 362" transform="translate(4.501 5.648)" opacity="0.4">
                    <g id="Grupo_361" data-name="Grupo 361">
                      <g id="Trazado_1708" data-name="Trazado 1708">
                        <path id="Trazado_1820" data-name="Trazado 1820" d="M197.081,1818.5c-.023.659-1.487.662-1.512,0C195.593,1817.839,197.056,1817.838,197.081,1818.5Z" transform="translate(-195.569 -1818.004)" fill="#c3096f"/>
                      </g>
                    </g>
                  </g>
                  <g id="Grupo_364" data-name="Grupo 364" transform="translate(8.076 5.643)" opacity="0.4">
                    <g id="Grupo_363" data-name="Grupo 363">
                      <g id="Trazado_1709" data-name="Trazado 1709">
                        <path id="Trazado_1821" data-name="Trazado 1821" d="M199.625,1818.493c-.022.661-1.487.662-1.512,0C198.135,1817.835,199.6,1817.834,199.625,1818.493Z" transform="translate(-198.113 -1818)" fill="#c3096f"/>
                      </g>
                    </g>
                  </g>
                  <g id="Grupo_365" data-name="Grupo 365" transform="translate(1.809 14.623)">
                    <g id="Rectángulo_4063" data-name="Rectángulo 4063">
                      <rect id="Rectángulo_3796" data-name="Rectángulo 3796" width="2.51" height="9.658" fill="#d2d2d2"/>
                    </g>
                  </g>
                  <g id="Grupo_366" data-name="Grupo 366" transform="translate(1.809 11.893)">
                    <g id="Trazado_1710" data-name="Trazado 1710">
                      <path id="Trazado_1822" data-name="Trazado 1822" d="M196.163,1822.457a2.261,2.261,0,0,0-2.509,2.228v.759h2.509Z" transform="translate(-193.654 -1822.447)" fill="#d2d2d2"/>
                    </g>
                  </g>
                  <g id="Grupo_367" data-name="Grupo 367" transform="translate(1.809 19.245)">
                    <g id="Rectángulo_4064" data-name="Rectángulo 4064">
                      <rect id="Rectángulo_3797" data-name="Rectángulo 3797" width="2.51" height="8.078" fill="#e18567"/>
                    </g>
                  </g>
                  <g id="Grupo_368" data-name="Grupo 368" transform="translate(1.809 26.401)">
                    <g id="Rectángulo_4065" data-name="Rectángulo 4065">
                      <rect id="Rectángulo_3798" data-name="Rectángulo 3798" width="2.51" height="0.234" fill="#7f8080"/>
                    </g>
                  </g>
                  <g id="Grupo_369" data-name="Grupo 369" transform="translate(9.573 14.496)">
                    <g id="Rectángulo_4066" data-name="Rectángulo 4066">
                      <rect id="Rectángulo_3799" data-name="Rectángulo 3799" width="2.51" height="9.785" fill="#d2d2d2"/>
                    </g>
                  </g>
                  <g id="Grupo_370" data-name="Grupo 370" transform="translate(9.573 11.893)">
                    <g id="Trazado_1711" data-name="Trazado 1711">
                      <path id="Trazado_1823" data-name="Trazado 1823" d="M199.178,1822.457a2.261,2.261,0,0,1,2.509,2.228v.759h-2.509Z" transform="translate(-199.178 -1822.447)" fill="#d2d2d2"/>
                    </g>
                  </g>
                  <g id="Grupo_371" data-name="Grupo 371" transform="translate(9.573 19.245)">
                    <g id="Rectángulo_4067" data-name="Rectángulo 4067">
                      <rect id="Rectángulo_3800" data-name="Rectángulo 3800" width="2.51" height="8.078" fill="#e18567"/>
                    </g>
                  </g>
                  <g id="Grupo_372" data-name="Grupo 372" transform="translate(1.809 18.364)">
                    <g id="Rectángulo_4068" data-name="Rectángulo 4068">
                      <rect id="Rectángulo_3801" data-name="Rectángulo 3801" width="2.51" height="8.078" fill="#d2d2d2"/>
                    </g>
                  </g>
                  <g id="Grupo_373" data-name="Grupo 373" transform="translate(9.573 18.364)">
                    <g id="Rectángulo_4069" data-name="Rectángulo 4069">
                      <rect id="Rectángulo_3802" data-name="Rectángulo 3802" width="2.51" height="8.078" fill="#d2d2d2"/>
                    </g>
                  </g>
                  <g id="Grupo_374" data-name="Grupo 374" transform="translate(9.573 26.401)">
                    <g id="Rectángulo_4070" data-name="Rectángulo 4070">
                      <rect id="Rectángulo_3803" data-name="Rectángulo 3803" width="2.51" height="0.234" fill="#7f8080"/>
                    </g>
                  </g>
                  <g id="Grupo_376" data-name="Grupo 376" transform="translate(3.231 11.101)">
                    <g id="Grupo_375" data-name="Grupo 375">
                      <g id="Trazado_1712" data-name="Trazado 1712">
                        <path id="Trazado_1824" data-name="Trazado 1824" d="M200.259,1821.883l-3.947.007a1.688,1.688,0,0,0,0,3.375l3.948-.005A1.689,1.689,0,0,0,200.259,1821.883Z" transform="translate(-194.666 -1821.883)" fill="#91c3c6"/>
                      </g>
                    </g>
                  </g>
                  <g id="Grupo_378" data-name="Grupo 378" transform="translate(3.228 12.79)">
                    <g id="Grupo_377" data-name="Grupo 377" transform="translate(0 0)">
                      <g id="Rectángulo_4071" data-name="Rectángulo 4071" transform="translate(0)">
                        <rect id="Rectángulo_3804" data-name="Rectángulo 3804" width="7.243" height="14.684" transform="translate(0 0.007) rotate(-0.058)" fill="#91c3c6"/>
                      </g>
                    </g>
                  </g>
                  <g id="Grupo_380" data-name="Grupo 380" transform="translate(5.836 11.101)">
                    <g id="Grupo_379" data-name="Grupo 379">
                      <g id="Trazado_1713" data-name="Trazado 1713">
                        <path id="Trazado_1825" data-name="Trazado 1825" d="M198.543,1821.883h-2.024C196.626,1823.475,198.439,1823.474,198.543,1821.883Z" transform="translate(-196.519 -1821.883)" fill="#d2d2d2"/>
                      </g>
                    </g>
                  </g>
                  <g id="Grupo_381" data-name="Grupo 381" transform="translate(8.578 1.656)">
                    <g id="Trazado_1714" data-name="Trazado 1714">
                      <path id="Trazado_1826" data-name="Trazado 1826" d="M201.264,1816.564a1.4,1.4,0,1,1-1.4-1.4A1.4,1.4,0,0,1,201.264,1816.564Z" transform="translate(-198.47 -1815.163)" fill="#161615"/>
                    </g>
                  </g>
                  <g id="Grupo_382" data-name="Grupo 382" transform="translate(7.079 0.318)">
                    <g id="Trazado_1715" data-name="Trazado 1715">
                      <path id="Trazado_1827" data-name="Trazado 1827" d="M200.2,1815.611a1.4,1.4,0,1,1-1.4-1.4A1.4,1.4,0,0,1,200.2,1815.611Z" transform="translate(-197.403 -1814.211)" fill="#161615"/>
                    </g>
                  </g>
                  <g id="Grupo_384" data-name="Grupo 384" transform="translate(4.211 1.4)">
                    <g id="Grupo_383" data-name="Grupo 383">
                      <g id="Trazado_1716" data-name="Trazado 1716">
                        <path id="Trazado_1828" data-name="Trazado 1828" d="M196.469,1817.71a5.685,5.685,0,0,1-.939-.083.188.188,0,0,1-.166-.209v-.008a.2.2,0,0,1,.24-.15,2.99,2.99,0,0,0,3.774-2.125c.045-.236.447-.185.406.063A3.253,3.253,0,0,1,196.469,1817.71Z" transform="translate(-195.363 -1814.981)" fill="#303130"/>
                      </g>
                    </g>
                  </g>
                  <g id="Grupo_386" data-name="Grupo 386" transform="translate(3.336 0.607)">
                    <g id="Grupo_385" data-name="Grupo 385">
                      <g id="Trazado_1717" data-name="Trazado 1717">
                        <path id="Trazado_1829" data-name="Trazado 1829" d="M194.973,1819.426a.208.208,0,0,1-.219-.191c-.2-3.2,1.739-4.867,3.976-4.817a.2.2,0,0,1,0,.4.184.184,0,0,1-.03,0c-2.056-.017-3.684,1.491-3.512,4.4a.207.207,0,0,1-.209.205h-.008Z" transform="translate(-194.74 -1814.417)" fill="#303130"/>
                      </g>
                    </g>
                  </g>
                  <g id="Grupo_387" data-name="Grupo 387" transform="translate(7.042 42.87)">
                    <g id="Rectángulo_4072" data-name="Rectángulo 4072">
                      <rect id="Rectángulo_3805" data-name="Rectángulo 3805" width="3.98" height="0.227" fill="#353433"/>
                    </g>
                  </g>
                  <g id="Grupo_388" data-name="Grupo 388" transform="translate(2.677 42.87)">
                    <g id="Rectángulo_4073" data-name="Rectángulo 4073">
                      <rect id="Rectángulo_3806" data-name="Rectángulo 3806" width="3.98" height="0.227" fill="#353433"/>
                    </g>
                  </g>
                  <g id="Grupo_390" data-name="Grupo 390" transform="translate(6.117 10.064)">
                    <g id="Grupo_389" data-name="Grupo 389">
                      <g id="Trazado_1718" data-name="Trazado 1718">
                        <path id="Trazado_1830" data-name="Trazado 1830" d="M198.258,1822.1c-.027,1.272-1.509,1.273-1.539,0C196.744,1820.829,198.227,1820.827,198.258,1822.1Z" transform="translate(-196.719 -1821.145)" fill="#e18567"/>
                      </g>
                    </g>
                  </g>
                  <g id="Grupo_391" data-name="Grupo 391" transform="translate(3.268 42.44)">
                    <g id="Rectángulo_4074" data-name="Rectángulo 4074">
                      <rect id="Rectángulo_3807" data-name="Rectángulo 3807" width="1.111" height="0.43" fill="#030404"/>
                    </g>
                  </g>
                  <g id="Grupo_392" data-name="Grupo 392" transform="translate(9.347 42.44)">
                    <g id="Rectángulo_4075" data-name="Rectángulo 4075">
                      <rect id="Rectángulo_3808" data-name="Rectángulo 3808" width="1.111" height="0.43" fill="#030404"/>
                    </g>
                  </g>
                </g>
              </g>
            </g>
          </g>
          <g id="Grupo_2039" data-name="Grupo 2039" transform="translate(16.456 8.268)">
            <g id="Grupo_2038" data-name="Grupo 2038" clip-path="url(#clip-path-2)">
              <g id="Enmascarar_grupo_4" data-name="Enmascarar grupo 4" transform="translate(0.475 0.009)">
                <g id="Grupo_323" data-name="Grupo 323">
                  <g id="Grupo_273" data-name="Grupo 273" transform="translate(2.419 19.351)">
                    <g id="Rectángulo_4041" data-name="Rectángulo 4041">
                      <rect id="Rectángulo_3810" data-name="Rectángulo 3810" width="1.832" height="21.488" fill="#f18d69"/>
                    </g>
                  </g>
                  <g id="Grupo_274" data-name="Grupo 274" transform="translate(6.419 19.351)">
                    <g id="Rectángulo_4042" data-name="Rectángulo 4042">
                      <rect id="Rectángulo_3811" data-name="Rectángulo 3811" width="1.832" height="21.488" fill="#f18d69"/>
                    </g>
                  </g>
                  <g id="Grupo_275" data-name="Grupo 275" transform="translate(1.717)">
                    <g id="Trazado_1660" data-name="Trazado 1660">
                      <path id="Trazado_1831" data-name="Trazado 1831" d="M204.119,1813.63a1.324,1.324,0,0,1,1.3,0l1.844,1.165.88.557c.592.374.18,1.02-.651,1.02h-5.448c-.831,0-1.242-.647-.651-1.02Z" transform="translate(-201.116 -1813.459)" fill="#161615"/>
                    </g>
                  </g>
                  <g id="Grupo_276" data-name="Grupo 276" transform="translate(8.706 13.821)">
                    <g id="Rectángulo_4043" data-name="Rectángulo 4043">
                      <rect id="Rectángulo_3812" data-name="Rectángulo 3812" width="2.03" height="8.551" fill="#d68060"/>
                    </g>
                  </g>
                  <g id="Grupo_277" data-name="Grupo 277" transform="translate(8.706 17.787)">
                    <g id="Rectángulo_4044" data-name="Rectángulo 4044">
                      <rect id="Rectángulo_3813" data-name="Rectángulo 3813" width="2.03" height="7.354" fill="#d68060"/>
                    </g>
                  </g>
                  <g id="Grupo_278" data-name="Grupo 278" transform="translate(8.706 11.096)">
                    <g id="Trazado_1661" data-name="Trazado 1661">
                      <path id="Trazado_1832" data-name="Trazado 1832" d="M206.089,1821.361a1.85,1.85,0,0,1,2.031,1.827v.891h-2.031Z" transform="translate(-206.089 -1821.354)" fill="#3a3a3a"/>
                    </g>
                  </g>
                  <g id="Grupo_279" data-name="Grupo 279" transform="translate(8.706 13.821)">
                    <g id="Rectángulo_4045" data-name="Rectángulo 4045">
                      <rect id="Rectángulo_3814" data-name="Rectángulo 3814" width="2.03" height="0.213" fill="#161615"/>
                    </g>
                  </g>
                  <g id="Grupo_280" data-name="Grupo 280" transform="translate(0 13.821)">
                    <g id="Rectángulo_4046" data-name="Rectángulo 4046">
                      <rect id="Rectángulo_3815" data-name="Rectángulo 3815" width="2.03" height="8.551" fill="#d68060"/>
                    </g>
                  </g>
                  <g id="Grupo_281" data-name="Grupo 281" transform="translate(0 11.096)">
                    <g id="Trazado_1662" data-name="Trazado 1662">
                      <path id="Trazado_1833" data-name="Trazado 1833" d="M201.925,1821.361a1.85,1.85,0,0,0-2.03,1.827v.891h2.03Z" transform="translate(-199.895 -1821.354)" fill="#3a3a3a"/>
                    </g>
                  </g>
                  <g id="Grupo_282" data-name="Grupo 282" transform="translate(0 17.787)">
                    <g id="Rectángulo_4047" data-name="Rectángulo 4047">
                      <rect id="Rectángulo_3816" data-name="Rectángulo 3816" width="2.03" height="7.354" fill="#d68060"/>
                    </g>
                  </g>
                  <g id="Grupo_283" data-name="Grupo 283" transform="translate(0 13.821)">
                    <g id="Rectángulo_4048" data-name="Rectángulo 4048">
                      <rect id="Rectángulo_3817" data-name="Rectángulo 3817" width="2.03" height="0.213" fill="#161615"/>
                    </g>
                  </g>
                  <g id="Grupo_285" data-name="Grupo 285" transform="translate(1.832 10.236)">
                    <g id="Grupo_284" data-name="Grupo 284">
                      <g id="Trazado_1663" data-name="Trazado 1663">
                        <path id="Trazado_1834" data-name="Trazado 1834" d="M206.617,1820.742l-3.83.005a1.537,1.537,0,1,0,0,3.073l3.83-.006A1.537,1.537,0,1,0,206.617,1820.742Z" transform="translate(-201.199 -1820.742)" fill="#d05096"/>
                      </g>
                    </g>
                  </g>
                  <g id="Grupo_286" data-name="Grupo 286" transform="translate(5.473 40.811)">
                    <g id="Rectángulo_4049" data-name="Rectángulo 4049">
                      <rect id="Rectángulo_3818" data-name="Rectángulo 3818" width="3.878" height="0.412" fill="#030404"/>
                    </g>
                  </g>
                  <g id="Grupo_287" data-name="Grupo 287" transform="translate(1.215 40.811)">
                    <g id="Rectángulo_4050" data-name="Rectángulo 4050">
                      <rect id="Rectángulo_3819" data-name="Rectángulo 3819" width="3.878" height="0.412" fill="#030404"/>
                    </g>
                  </g>
                  <g id="Grupo_288" data-name="Grupo 288" transform="translate(5.473 41.223)">
                    <g id="Rectángulo_4051" data-name="Rectángulo 4051">
                      <rect id="Rectángulo_3820" data-name="Rectángulo 3820" width="3.878" height="0.22" fill="#353433"/>
                    </g>
                  </g>
                  <g id="Grupo_289" data-name="Grupo 289" transform="translate(1.215 41.223)">
                    <g id="Rectángulo_4052" data-name="Rectángulo 4052">
                      <rect id="Rectángulo_3821" data-name="Rectángulo 3821" width="3.878" height="0.22" fill="#353433"/>
                    </g>
                  </g>
                  <g id="Grupo_291" data-name="Grupo 291" transform="translate(4.267 10.236)">
                    <g id="Grupo_290" data-name="Grupo 290">
                      <g id="Trazado_1664" data-name="Trazado 1664">
                        <path id="Trazado_1835" data-name="Trazado 1835" d="M205.073,1820.742h-2.142A1.071,1.071,0,1,0,205.073,1820.742Z" transform="translate(-202.931 -1820.742)" fill="#161615"/>
                      </g>
                    </g>
                  </g>
                  <g id="Grupo_296" data-name="Grupo 296" transform="translate(4.627 7.573)">
                    <g id="Grupo_293" data-name="Grupo 293">
                      <g id="Grupo_292" data-name="Grupo 292">
                        <g id="Rectángulo_4053" data-name="Rectángulo 4053">
                          <rect id="Rectángulo_3822" data-name="Rectángulo 3822" width="1.488" height="2.661" fill="#d68060"/>
                        </g>
                      </g>
                    </g>
                    <g id="Grupo_295" data-name="Grupo 295" transform="translate(0 1.749)">
                      <g id="Grupo_294" data-name="Grupo 294">
                        <g id="Trazado_1665" data-name="Trazado 1665">
                          <path id="Trazado_1836" data-name="Trazado 1836" d="M204.675,1820.9a.747.747,0,1,1-1.488,0A.747.747,0,1,1,204.675,1820.9Z" transform="translate(-203.187 -1820.092)" fill="#d68060"/>
                        </g>
                      </g>
                    </g>
                  </g>
                  <g id="Grupo_297" data-name="Grupo 297" transform="translate(1.714 1.907)">
                    <g id="Trazado_1666" data-name="Trazado 1666">
                      <path id="Trazado_1837" data-name="Trazado 1837" d="M201.533,1814.816c-1.224,2.746.353,6.7,3.238,6.693,2.887.009,4.462-3.947,3.24-6.693Z" transform="translate(-201.114 -1814.816)" fill="#d68060"/>
                    </g>
                  </g>
                  <g id="Grupo_298" data-name="Grupo 298" transform="translate(1.718 1.146)">
                    <g id="Trazado_1667" data-name="Trazado 1667">
                      <path id="Trazado_1838" data-name="Trazado 1838" d="M201.117,1816.042h3.366a1.032,1.032,0,0,0,1.032-1.031v-.207a.53.53,0,0,0-.53-.528h-2.7a1.169,1.169,0,0,0-1.169,1.169h0Z" transform="translate(-201.117 -1814.275)" fill="#161615"/>
                    </g>
                  </g>
                  <g id="Grupo_299" data-name="Grupo 299" transform="translate(4.307 1.146)">
                    <g id="Trazado_1668" data-name="Trazado 1668">
                      <path id="Trazado_1839" data-name="Trazado 1839" d="M207.719,1816.042h-3.688a1.073,1.073,0,0,1-1.072-1.074v-.142a.551.551,0,0,1,.55-.551H206.5a1.218,1.218,0,0,1,1.217,1.217h0Z" transform="translate(-202.959 -1814.275)" fill="#161615"/>
                    </g>
                  </g>
                  <g id="Grupo_301" data-name="Grupo 301" transform="translate(2.346 5.69)" opacity="0.2">
                    <g id="Grupo_300" data-name="Grupo 300">
                      <g id="Trazado_1669" data-name="Trazado 1669">
                        <path id="Trazado_1840" data-name="Trazado 1840" d="M203.314,1818.093c-.034.781-1.716.781-1.75,0C201.6,1817.313,203.28,1817.313,203.314,1818.093Z" transform="translate(-201.564 -1817.508)" fill="#c3096f"/>
                      </g>
                    </g>
                  </g>
                  <g id="Grupo_303" data-name="Grupo 303" transform="translate(6.481 5.69)" opacity="0.2">
                    <g id="Grupo_302" data-name="Grupo 302">
                      <g id="Trazado_1670" data-name="Trazado 1670">
                        <path id="Trazado_1841" data-name="Trazado 1841" d="M206.254,1818.093c-.034.781-1.716.781-1.748,0C204.538,1817.313,206.222,1817.313,206.254,1818.093Z" transform="translate(-204.506 -1817.508)" fill="#c3096f"/>
                      </g>
                    </g>
                  </g>
                  <g id="Grupo_304" data-name="Grupo 304" transform="translate(8.653 1.719)">
                    <g id="Trazado_1671" data-name="Trazado 1671">
                      <path id="Trazado_1842" data-name="Trazado 1842" d="M206.418,1815.976c.181,1.748-.118,1.766-.309.028S206.225,1814.236,206.418,1815.976Z" transform="translate(-206.051 -1814.682)" fill="#161615"/>
                    </g>
                  </g>
                  <g id="Grupo_305" data-name="Grupo 305" transform="translate(1.642 1.798)">
                    <g id="Trazado_1672" data-name="Trazado 1672">
                      <path id="Trazado_1843" data-name="Trazado 1843" d="M201.073,1816.108c.086-1.833.451-1.824.377.014S201,1817.945,201.073,1816.108Z" transform="translate(-201.063 -1814.738)" fill="#161615"/>
                    </g>
                  </g>
                  <g id="Grupo_306" data-name="Grupo 306" transform="translate(4.301 0.862)">
                    <g id="Trazado_1673" data-name="Trazado 1673">
                      <path id="Trazado_1844" data-name="Trazado 1844" d="M205,1815.845a.205.205,0,0,1-.124-.041l-1.841-1.364a.206.206,0,0,1,.246-.331l1.841,1.362a.208.208,0,0,1,.038.292A.2.2,0,0,1,205,1815.845Z" transform="translate(-202.955 -1814.073)" fill="#303130"/>
                    </g>
                  </g>
                  <g id="Grupo_307" data-name="Grupo 307" transform="translate(5.373 0.261)">
                    <g id="Trazado_1674" data-name="Trazado 1674">
                      <path id="Trazado_1845" data-name="Trazado 1845" d="M205.762,1815.418a.2.2,0,0,1-.122-.041l-1.843-1.362a.207.207,0,0,1,.246-.333l1.843,1.362a.21.21,0,0,1,.038.294A.213.213,0,0,1,205.762,1815.418Z" transform="translate(-203.718 -1813.645)" fill="#303130"/>
                    </g>
                  </g>
                  <g id="Grupo_308" data-name="Grupo 308" transform="translate(4.35 6.867)">
                    <g id="Trazado_1675" data-name="Trazado 1675">
                      <path id="Trazado_1846" data-name="Trazado 1846" d="M204.494,1818.928h-1.407a.1.1,0,0,1-.1-.1.487.487,0,0,1,.488-.488h1.41c.066,0,.076.066.072.12a.464.464,0,0,1-.465.464Z" transform="translate(-202.99 -1818.345)" fill="#161615"/>
                    </g>
                  </g>
                  <g id="Grupo_309" data-name="Grupo 309" transform="translate(4.35 7.574)">
                    <g id="Trazado_1676" data-name="Trazado 1676">
                      <path id="Trazado_1847" data-name="Trazado 1847" d="M204.277,1820.016h-1.145a.142.142,0,0,1-.142-.142h0v-.312a.714.714,0,0,1,.715-.714h1.15a.1.1,0,0,1,.1.1v.381a.683.683,0,0,1-.682.683Z" transform="translate(-202.99 -1818.848)" fill="#161615"/>
                    </g>
                  </g>
                  <g id="Grupo_310" data-name="Grupo 310" transform="translate(8.439 2.622)">
                    <g id="Trazado_1677" data-name="Trazado 1677">
                      <path id="Trazado_1848" data-name="Trazado 1848" d="M206.527,1817.9v-2.477a.105.105,0,0,0-.108-.1H206.4a.506.506,0,0,0-.506.506v2.481c0,.08.086.076.146.073A.482.482,0,0,0,206.527,1817.9Z" transform="translate(-205.899 -1815.325)" fill="#161615"/>
                    </g>
                  </g>
                  <g id="Grupo_311" data-name="Grupo 311" transform="translate(1.649 2.622)">
                    <g id="Trazado_1678" data-name="Trazado 1678">
                      <path id="Trazado_1849" data-name="Trazado 1849" d="M201.7,1817.9v-2.477a.105.105,0,0,0-.107-.1h-.017a.505.505,0,0,0-.5.506h0v2.481c0,.08.086.076.146.073a.482.482,0,0,0,.482-.482Z" transform="translate(-201.068 -1815.325)" fill="#161615"/>
                    </g>
                  </g>
                  <g id="Grupo_312" data-name="Grupo 312" transform="translate(4.312 6.865)">
                    <g id="Trazado_1679" data-name="Trazado 1679">
                      <path id="Trazado_1850" data-name="Trazado 1850" d="M203.591,1819.737v-1.292a.1.1,0,0,0-.107-.1h-.015a.506.506,0,0,0-.506.506h0v1.295a.074.074,0,0,0,.075.073.49.49,0,0,0,.55-.426A.361.361,0,0,0,203.591,1819.737Z" transform="translate(-202.963 -1818.344)" fill="#161615"/>
                    </g>
                  </g>
                  <g id="Grupo_313" data-name="Grupo 313" transform="translate(5.801 6.865)">
                    <g id="Trazado_1680" data-name="Trazado 1680">
                      <path id="Trazado_1851" data-name="Trazado 1851" d="M204.65,1819.454v-1.018c0-.093-.09-.1-.162-.091a.466.466,0,0,0-.467.467h0v1.019c0,.093.125.065.184.069a.445.445,0,0,0,.444-.444Z" transform="translate(-204.022 -1818.344)" fill="#161615"/>
                    </g>
                  </g>
                  <g id="Grupo_314" data-name="Grupo 314" transform="translate(1.805 4.05)">
                    <g id="Trazado_1681" data-name="Trazado 1681">
                      <path id="Trazado_1852" data-name="Trazado 1852" d="M208.236,1816.98c-.024-.142-.093-.062-.27-.066-.209-.509-1.117-.568-1.3-.572a1.362,1.362,0,0,0-1.354.568l-.01-.169-.011-.008a.964.964,0,0,0-1.186,0l0,.008-.008.165a1.366,1.366,0,0,0-1.352-.565c-.177,0-1.088.062-1.3.574-.177,0-.245-.075-.268.066s.1.138.207.136a1.233,1.233,0,0,0,1.327,1.489,1.339,1.339,0,0,0,1.467-1.484h0l.011-.349a1.132,1.132,0,0,1,1.009,0l.024.349h0c-.267,1.911,3.127,2.057,2.793,0C208.138,1817.118,208.257,1817.108,208.236,1816.98Zm-4.751,1.363a1.637,1.637,0,0,1-1.567-.039c-.578-.389-.694-1.551.142-1.761,1.145-.344,2.024.069,2.046.732a1.194,1.194,0,0,1-.621,1.068Zm4.436-.69c-.17.894-1.294,1.054-1.989.69a1.194,1.194,0,0,1-.621-1.068c.007-.142.1-.851,1.258-.851.769.013,1.573.222,1.352,1.23Z" transform="translate(-201.179 -1816.341)" fill="#fff"/>
                    </g>
                  </g>
                  <g id="Grupo_315" data-name="Grupo 315" transform="translate(2.253 24.601)">
                    <g id="Trazado_1682" data-name="Trazado 1682">
                      <path id="Trazado_1853" data-name="Trazado 1853" d="M207.755,1831.393c-.014.574-6.249.573-6.257,0C201.512,1830.818,207.747,1830.82,207.755,1831.393Z" transform="translate(-201.498 -1830.962)" fill="#4d999e"/>
                    </g>
                  </g>
                  <g id="Grupo_316" data-name="Grupo 316" transform="translate(1.286 23.986)">
                    <g id="Trazado_1683" data-name="Trazado 1683">
                      <path id="Trazado_1854" data-name="Trazado 1854" d="M200.81,1838.739c0-4.536.918-8.214,2.049-8.214,2.7.211,2.692,16.225,0,16.429C201.728,1846.954,200.81,1843.276,200.81,1838.739Z" transform="translate(-200.81 -1830.525)" fill="#161615"/>
                    </g>
                  </g>
                  <g id="Grupo_317" data-name="Grupo 317" transform="translate(5.286 23.986)">
                    <g id="Trazado_1684" data-name="Trazado 1684">
                      <path id="Trazado_1855" data-name="Trazado 1855" d="M203.656,1838.739c0-4.536.918-8.214,2.049-8.214,2.7.211,2.692,16.225,0,16.429C204.574,1846.954,203.656,1843.276,203.656,1838.739Z" transform="translate(-203.656 -1830.525)" fill="#161615"/>
                    </g>
                  </g>
                  <g id="Grupo_318" data-name="Grupo 318" transform="translate(1.376 20.861)">
                    <g id="Trazado_1685" data-name="Trazado 1685">
                      <path id="Trazado_1856" data-name="Trazado 1856" d="M208.875,1839.01l-8-.046.486-10.662h6.9Z" transform="translate(-200.874 -1828.302)" fill="#161615"/>
                    </g>
                  </g>
                  <g id="Grupo_319" data-name="Grupo 319" transform="translate(2.419 39.551)">
                    <g id="Rectángulo_4054" data-name="Rectángulo 4054">
                      <rect id="Rectángulo_3823" data-name="Rectángulo 3823" width="1.832" height="0.933" fill="#272727"/>
                    </g>
                  </g>
                  <g id="Grupo_320" data-name="Grupo 320" transform="translate(6.419 39.551)">
                    <g id="Rectángulo_4055" data-name="Rectángulo 4055">
                      <rect id="Rectángulo_3824" data-name="Rectángulo 3824" width="1.832" height="0.933" fill="#272727"/>
                    </g>
                  </g>
                  <g id="Grupo_322" data-name="Grupo 322" transform="translate(1.819 11.97)">
                    <g id="Grupo_321" data-name="Grupo 321" transform="translate(0 0)">
                      <g id="Rectángulo_4056" data-name="Rectángulo 4056" transform="translate(0)">
                        <rect id="Rectángulo_3825" data-name="Rectángulo 3825" width="7.018" height="10.071" transform="matrix(1, -0.001, 0.001, 1, 0, 0.009)" fill="#d871a8"/>
                      </g>
                    </g>
                  </g>
                </g>
              </g>
            </g>
          </g>
          <g id="Rectángulo_4018" data-name="Rectángulo 4018" transform="translate(7.634 28.136)">
            <rect id="Rectángulo_3827" data-name="Rectángulo 3827" width="20.312" height="0.742" fill="#d9d9db"/>
          </g>
          <g id="Trazado_1607" data-name="Trazado 1607" transform="translate(6.236 27.229)">
            <path id="Trazado_1857" data-name="Trazado 1857" d="M215.394,1827.4a.454.454,0,0,1-.453.454h-22.2a.454.454,0,0,1-.453-.454h0a.452.452,0,0,1,.453-.453h22.2a.452.452,0,0,1,.453.453Z" transform="translate(-192.286 -1826.944)" fill="#f0f0f1"/>
          </g>
          <g id="Trazado_1613" data-name="Trazado 1613" transform="translate(1.263 17.423)">
            <path id="Trazado_1858" data-name="Trazado 1858" d="M192.067,1822.243a2.081,2.081,0,0,0,.568-.176,1.862,1.862,0,0,0,0-.307,2.06,2.06,0,0,0-.568-.176,1.47,1.47,0,0,0-.069-.211,1.438,1.438,0,0,0-.1-.2,2.137,2.137,0,0,0,.277-.526,2.006,2.006,0,0,0-.218-.218,2.11,2.11,0,0,0-.526.278,1.392,1.392,0,0,0-.409-.17,2.113,2.113,0,0,0-.174-.568,1.905,1.905,0,0,0-.308,0,2.116,2.116,0,0,0-.176.568,1.634,1.634,0,0,0-.211.069,1.494,1.494,0,0,0-.2.1,2.1,2.1,0,0,0-.526-.277,1.756,1.756,0,0,0-.216.217,2.067,2.067,0,0,0,.277.526,1.385,1.385,0,0,0-.169.409,2.06,2.06,0,0,0-.568.176,1.866,1.866,0,0,0,0,.307,2.081,2.081,0,0,0,.568.176,1.611,1.611,0,0,0,.069.211,1.32,1.32,0,0,0,.1.2,2.043,2.043,0,0,0-.277.526,1.76,1.76,0,0,0,.216.216,2.093,2.093,0,0,0,.526-.277,1.4,1.4,0,0,0,.409.169,2.068,2.068,0,0,0,.176.568,1.916,1.916,0,0,0,.306,0,2.074,2.074,0,0,0,.176-.567,1.567,1.567,0,0,0,.211-.069,1.679,1.679,0,0,0,.2-.1,2.138,2.138,0,0,0,.526.277,1.861,1.861,0,0,0,.216-.216,2.044,2.044,0,0,0-.277-.526,1.35,1.35,0,0,0,.169-.409Zm-1.022.517a.915.915,0,1,1,.495-.5.917.917,0,0,1-.495.5Z" transform="translate(-188.747 -1819.966)" fill="#fff"/>
          </g>
          <g id="question-solid" transform="translate(2.879 6.349)">
            <path id="Trazado_1859" data-name="Trazado 1859" d="M191.162,1812.088a1.391,1.391,0,0,0-1.234.652.173.173,0,0,0,.038.236l.309.233a.17.17,0,0,0,.238-.03.7.7,0,0,1,.593-.354c.221,0,.495.142.495.356,0,.162-.134.245-.351.367-.254.143-.59.321-.59.763v.07a.173.173,0,0,0,.171.173h.52a.173.173,0,0,0,.171-.173v-.041c0-.308.9-.32.9-1.153A1.233,1.233,0,0,0,191.162,1812.088Zm-.072,2.677a.5.5,0,1,0,.5.5h0A.5.5,0,0,0,191.09,1814.765Z" transform="translate(-189.897 -1812.088)" fill="#fff"/>
          </g>
          <g id="question-solid-2" transform="translate(28.761 5.186)">
            <path id="Trazado_1860" data-name="Trazado 1860" d="M209.578,1811.26a1.39,1.39,0,0,0-1.235.654.172.172,0,0,0,.038.235l.309.234a.171.171,0,0,0,.238-.029.7.7,0,0,1,.593-.356c.221,0,.495.142.495.357,0,.162-.134.245-.351.367-.254.142-.59.319-.59.763v.069a.173.173,0,0,0,.171.173h.52a.171.171,0,0,0,.171-.172v-.042c0-.307.9-.319.9-1.151A1.233,1.233,0,0,0,209.578,1811.26Zm-.073,2.679a.5.5,0,1,0,.5.5h0A.5.5,0,0,0,209.505,1813.939Z" transform="translate(-208.312 -1811.26)" fill="#fff"/>
          </g>
          <g id="Grupo_2059" data-name="Grupo 2059" transform="translate(11.803 19.651)">
            <g id="Grupo_2052" data-name="Grupo 2052">
              <g id="Grupo_2041" data-name="Grupo 2041" transform="translate(3.215 7.986)">
                <g id="Grupo_2040" data-name="Grupo 2040">
                  <rect id="Rectángulo_3828" data-name="Rectángulo 3828" width="5.418" height="0.447" rx="0.06" fill="#222224"/>
                </g>
              </g>
              <g id="Grupo_2043" data-name="Grupo 2043" transform="translate(5.288 6.349)">
                <g id="Grupo_2042" data-name="Grupo 2042">
                  <rect id="Rectángulo_3829" data-name="Rectángulo 3829" width="1.262" height="1.818" fill="#222224"/>
                </g>
              </g>
              <g id="Grupo_2045" data-name="Grupo 2045" transform="translate(0.001)">
                <g id="Grupo_2044" data-name="Grupo 2044">
                  <rect id="Rectángulo_3830" data-name="Rectángulo 3830" width="11.846" height="7.5" rx="0.365" fill="#222224"/>
                </g>
              </g>
              <g id="Grupo_2047" data-name="Grupo 2047" transform="translate(0.179 0.214)">
                <g id="Grupo_2046" data-name="Grupo 2046">
                  <rect id="Rectángulo_3831" data-name="Rectángulo 3831" width="11.49" height="6.764" fill="#222224"/>
                </g>
              </g>
              <g id="Grupo_2049" data-name="Grupo 2049" transform="translate(0.127 0.116)">
                <g id="Grupo_2048" data-name="Grupo 2048">
                  <path id="Trazado_1861" data-name="Trazado 1861" d="M207.932,1828.533h-.105c-.024-.024.044-6.791-.024-6.788H196.465c-.069,0,0,6.737-.022,6.76h-.105v-6.735a.132.132,0,0,1,.128-.135H207.8a.132.132,0,0,1,.129.135Z" transform="translate(-196.337 -1821.635)" fill="#222224"/>
                </g>
              </g>
              <g id="Grupo_2051" data-name="Grupo 2051" transform="translate(0 7.014)">
                <g id="Grupo_2050" data-name="Grupo 2050">
                  <path id="Trazado_1862" data-name="Trazado 1862" d="M207.911,1827.028h-11.48a.184.184,0,0,1-.184-.183v-.3h11.847v.3A.182.182,0,0,1,207.911,1827.028Z" transform="translate(-196.247 -1826.543)" fill="#222224"/>
                </g>
              </g>
            </g>
            <g id="Grupo_2058" data-name="Grupo 2058" transform="translate(5.301 2.778)">
              <g id="Grupo_2053" data-name="Grupo 2053">
                <path id="Trazado_1863" data-name="Trazado 1863" d="M201.257,1824.133l-.087-.086-.089-.09h0l-.423-.422a.024.024,0,0,0-.038.006,1.381,1.381,0,0,1-.249.34,1.423,1.423,0,0,1-.128.114l-.021.016h0l-.02.016,0,0-.02.014-.006,0-.02.013-.006,0-.02.013-.007,0-.021.013-.007,0-.023.013-.007,0-.03.017a.022.022,0,0,0-.01.032l0,.006.187.187.035.035.042.043.035.034.1.1.035.034.044.044.034.034.087.087h0v0h0a.021.021,0,0,0,.024,0h0l.024-.011,0,0,.025-.014h0l.028-.017h0a1.471,1.471,0,0,0,.159-.111l.027-.023h0l.024-.021,0,0,.021-.019.007-.006.027-.025.011-.013.007-.006.006-.007.008-.008,0-.006.01-.01h0c.017-.018.034-.039.051-.061h0l.02-.025h0l.058-.083,0-.006.014-.022.006-.01.013-.021.007-.01.013-.023,0-.01.018-.034A.026.026,0,0,0,201.257,1824.133Z" transform="translate(-200.019 -1823.529)" fill="#fff"/>
              </g>
              <g id="Grupo_2057" data-name="Grupo 2057" transform="translate(0.062 1.425)">
                <g id="Grupo_2054" data-name="Grupo 2054">
                  <path id="Trazado_1864" data-name="Trazado 1864" d="M200.175,1825.087h-.112v-.544h.112Z" transform="translate(-200.063 -1824.543)" fill="#fff"/>
                </g>
                <g id="Grupo_2055" data-name="Grupo 2055" transform="translate(0.216)">
                  <path id="Trazado_1865" data-name="Trazado 1865" d="M200.658,1825.087h-.111l-.219-.357v.357h-.111v-.544h.111l.219.359v-.359h.111Z" transform="translate(-200.217 -1824.543)" fill="#fff"/>
                </g>
                <g id="Grupo_2056" data-name="Grupo 2056" transform="translate(0.756)">
                  <path id="Trazado_1866" data-name="Trazado 1866" d="M200.928,1824.852h-.215V1825h.252v.09H200.6v-.544h.364v.092h-.252v.129h.215Z" transform="translate(-200.601 -1824.543)" fill="#fff"/>
                </g>
              </g>
            </g>
          </g>
        </g>
        <g id="Grupo_2061" data-name="Grupo 2061" transform="translate(2.155 7.125)">
          <rect id="Rectángulo_3832" data-name="Rectángulo 3832" width="2.847" height="2.847" fill="#f9f8f8"/>
        </g>
        <g id="Grupo_2062" data-name="Grupo 2062" transform="translate(6.177 7.125)">
          <rect id="Rectángulo_3833" data-name="Rectángulo 3833" width="20.685" height="2.847" fill="#f9f8f8"/>
        </g>
        <g id="Grupo_2063" data-name="Grupo 2063" transform="translate(124.032 2.234)">
          <rect id="Rectángulo_3834" data-name="Rectángulo 3834" width="6.467" height="1.398" fill="#d3057f"/>
        </g>
        <g id="Grupo_2064" data-name="Grupo 2064" transform="translate(153.164 2.234)">
          <rect id="Rectángulo_3835" data-name="Rectángulo 3835" width="6.467" height="1.398" fill="#d3057f"/>
        </g>
        <g id="Grupo_2065" data-name="Grupo 2065" transform="translate(134.767 2.234)">
          <rect id="Rectángulo_3836" data-name="Rectángulo 3836" width="14.153" height="1.398" fill="#d3057f"/>
        </g>
        <g id="Grupo_2066" data-name="Grupo 2066" transform="translate(18.67 74.669)">
          <path id="Trazado_1867" data-name="Trazado 1867" d="M173.941,1864.145H116.136v-12.384h57.805Zm-57.035-.77h56.265v-10.844H116.906Z" transform="translate(-116.136 -1851.761)" fill="#b5106f"/>
        </g>
        <g id="Grupo_2067" data-name="Grupo 2067" transform="translate(93.439 74.669)">
          <path id="Trazado_1868" data-name="Trazado 1868" d="M227.138,1864.145H169.333v-12.384h57.805Zm-57.035-.77h56.265v-10.844H170.1Z" transform="translate(-169.333 -1851.761)" fill="#b5106f"/>
        </g>
      </g>
    </g>
    <line id="Línea_487" data-name="Línea 487" x2="363.295" transform="translate(734.122 473.165)" fill="none" stroke="#6f378a" stroke-linecap="round" stroke-miterlimit="10" stroke-width="3"/>
    <line id="Línea_488" data-name="Línea 488" x2="409" transform="translate(706 485.439)" fill="none" stroke="#6f378a" stroke-linecap="round" stroke-miterlimit="10" stroke-width="3"/>
    <rect id="Rectángulo_3998" data-name="Rectángulo 3998" width="311.669" height="21.053" transform="translate(737.942 315.884)" fill="#7b4693"/>
    <g id="Grupo_2274" data-name="Grupo 2274" transform="translate(825.84 185.428)">
      <g id="Grupo_2070" data-name="Grupo 2070" transform="translate(17.766 184.943)">
        <rect id="Rectángulo_3838" data-name="Rectángulo 3838" width="34.161" height="4.173" transform="translate(51.503 99.749)"/>
        <rect id="Rectángulo_3839" data-name="Rectángulo 3839" width="34.161" height="4.173" transform="translate(0 99.749)"/>
        <rect id="Rectángulo_3840" data-name="Rectángulo 3840" width="15.195" height="99.749" transform="translate(17.081)" fill="#f4bb97"/>
        <rect id="Rectángulo_3841" data-name="Rectángulo 3841" width="15.195" height="99.749" transform="translate(53.389)" fill="#f4bb97"/>
      </g>
      <rect id="Rectángulo_3842" data-name="Rectángulo 3842" width="16.956" height="59.621" transform="translate(21.717 101.291)" fill="#de8a72"/>
      <path id="Rectángulo_3843" data-name="Rectángulo 3843" d="M12.064,0h4.892a0,0,0,0,1,0,0V19.244a0,0,0,0,1,0,0H0a0,0,0,0,1,0,0v-7.18A12.064,12.064,0,0,1,12.064,0Z" transform="translate(21.717 77.844)" fill="#f4bb97"/>
      <rect id="Rectángulo_3844" data-name="Rectángulo 3844" width="11.397" height="58.558" transform="translate(130.694 132.557) rotate(140.859)" fill="#f4bb97"/>
      <rect id="Rectángulo_3845" data-name="Rectángulo 3845" width="11.397" height="35.38" transform="translate(121.785 139.751) rotate(-129.141)" fill="#f4bb97"/>
      <path id="Rectángulo_3846" data-name="Rectángulo 3846" d="M0,0H16.956a0,0,0,0,1,0,0V19.244a0,0,0,0,1,0,0H12.064A12.064,12.064,0,0,1,0,7.18V0A0,0,0,0,1,0,0Z" transform="matrix(-0.838, 0.545, -0.545, -0.838, 96.255, 90.913)" fill="#f4bb97"/>
      <rect id="Rectángulo_3847" data-name="Rectángulo 3847" width="58.954" height="30.086" rx="2.608" transform="translate(30.82 166.957)" fill="#1d1e1c"/>
      <g id="Grupo_2071" data-name="Grupo 2071" transform="translate(33.664 73.179)">
        <path id="Trazado_1869" data-name="Trazado 1869" d="M194.116,1844.949l-28.159.049c-6.492.011-11.75,5.674-11.74,12.645h0c.01,6.968,5.279,12.607,11.768,12.6l28.159-.049c6.493-.012,11.75-5.674,11.74-12.645h0C205.875,1850.575,200.605,1844.936,194.116,1844.949Z" transform="translate(-154.217 -1844.949)" fill="#1d1e1c"/>
      </g>
      <g id="Grupo_2072" data-name="Grupo 2072" transform="translate(30.419 86.907)">
        <path id="Trazado_1870" data-name="Trazado 1870" d="M206.516,1854.716l-52.376.078-2.232,82.289,59.23-.078Z" transform="translate(-151.908 -1854.716)" fill="#1d1e1c"/>
      </g>
      <rect id="Rectángulo_3848" data-name="Rectángulo 3848" width="59.23" height="6.242" transform="translate(30.419 168.684)" fill="#1d1e1c"/>
      <g id="Grupo_2073" data-name="Grupo 2073" transform="translate(53.679 52.924)">
        <rect id="Rectángulo_3849" data-name="Rectángulo 3849" width="11.219" height="19.78" transform="matrix(1, -0.001, 0.001, 1, 0, 0.017)" fill="#f4bb97"/>
      </g>
      <g id="Grupo_2074" data-name="Grupo 2074" transform="translate(53.694 65.765)">
        <path id="Trazado_1871" data-name="Trazado 1871" d="M179.687,1846.614c-.188,9.268-11,9.279-11.219.017C168.656,1837.363,179.469,1837.352,179.687,1846.614Z" transform="translate(-168.468 -1839.674)" fill="#f4bb97"/>
      </g>
      <path id="Trazado_1872" data-name="Trazado 1872" d="M184.234,1884.131l-40.321,76.562a1.4,1.4,0,0,0,1.373,1.995h80.64a1.4,1.4,0,0,0,1.372-1.995l-40.32-76.562A1.59,1.59,0,0,0,184.234,1884.131Z" transform="translate(-124.793 -1756.201)" fill="#1d1e1c"/>
      <g id="Grupo_2075" data-name="Grupo 2075" transform="translate(0 90.466)">
        <rect id="Rectángulo_3850" data-name="Rectángulo 3850" width="4.819" height="86.123" transform="translate(57.113 120.012)" fill="#cbc9c9"/>
        <rect id="Rectángulo_3851" data-name="Rectángulo 3851" width="4.819" height="86.567" transform="translate(103.915 201.669) rotate(90)" fill="#cbc9c9"/>
        <rect id="Rectángulo_3852" data-name="Rectángulo 3852" width="11.508" height="48.338" transform="translate(52.688 57.353)" fill="#cbc9c9"/>
        <rect id="Rectángulo_3853" data-name="Rectángulo 3853" width="20.493" height="109.285" rx="3.997" transform="translate(109.286 93.844) rotate(90)" fill="#6e6e6e"/>
        <rect id="Rectángulo_3854" data-name="Rectángulo 3854" width="117.835" height="74.455" rx="6.333" fill="#6e6e6e"/>
        <ellipse id="Elipse_250" data-name="Elipse 250" cx="6.834" cy="6.834" rx="6.834" ry="6.834" transform="translate(10.514 201.669)"/>
        <ellipse id="Elipse_251" data-name="Elipse 251" cx="6.834" cy="6.834" rx="6.834" ry="6.834" transform="translate(97.081 201.669)"/>
      </g>
      <g id="Grupo_2087" data-name="Grupo 2087" transform="translate(33.705 0)">
        <g id="Grupo_2076" data-name="Grupo 2076">
          <path id="Trazado_1873" data-name="Trazado 1873" d="M205.45,1823.32c.03,16.833-11.441,30.493-25.621,30.514-34.043-1.505-34.142-59.349-.108-60.951C193.9,1792.863,205.42,1806.489,205.45,1823.32Z" transform="translate(-154.246 -1792.883)" fill="#e391bd"/>
        </g>
        <g id="Grupo_2077" data-name="Grupo 2077" transform="translate(17.463 46.534)">
          <ellipse id="Elipse_252" data-name="Elipse 252" cx="11.15" cy="8.295" rx="11.15" ry="8.295" transform="translate(0 7.433) rotate(-19.472)" fill="#e391bd"/>
        </g>
        <g id="Grupo_2078" data-name="Grupo 2078" transform="translate(21.771 55.171)">
          <ellipse id="Elipse_253" data-name="Elipse 253" cx="11.15" cy="8.295" rx="11.15" ry="8.295" transform="translate(0 7.433) rotate(-19.472)" fill="#e391bd"/>
        </g>
        <g id="Grupo_2079" data-name="Grupo 2079" transform="translate(25.341 65.212)">
          <ellipse id="Elipse_254" data-name="Elipse 254" cx="11.15" cy="8.295" rx="11.15" ry="8.295" transform="translate(0 7.433) rotate(-19.472)" fill="#e391bd"/>
        </g>
        <g id="Grupo_2080" data-name="Grupo 2080" transform="translate(28.331 72.663)">
          <ellipse id="Elipse_255" data-name="Elipse 255" cx="11.15" cy="8.295" rx="11.15" ry="8.295" transform="translate(0 7.433) rotate(-19.472)" fill="#e391bd"/>
        </g>
        <g id="Grupo_2081" data-name="Grupo 2081" transform="translate(32.058 81.864)">
          <ellipse id="Elipse_256" data-name="Elipse 256" cx="10.552" cy="7.85" rx="10.552" ry="7.85" transform="matrix(0.985, -0.172, 0.172, 0.985, 0, 3.63)" fill="#e391bd"/>
        </g>
        <g id="Grupo_2082" data-name="Grupo 2082" transform="translate(34.011 92.422)">
          <ellipse id="Elipse_257" data-name="Elipse 257" cx="9.792" cy="7.285" rx="9.792" ry="7.285" fill="#e391bd"/>
        </g>
        <g id="Grupo_2083" data-name="Grupo 2083" transform="translate(31.088 99.047)">
          <ellipse id="Elipse_258" data-name="Elipse 258" cx="6.921" cy="9.303" rx="6.921" ry="9.303" transform="translate(0 13.55) rotate(-78.218)" fill="#e391bd"/>
        </g>
        <g id="Grupo_2084" data-name="Grupo 2084" transform="translate(24.746 104.449)">
          <ellipse id="Elipse_259" data-name="Elipse 259" cx="6.921" cy="9.303" rx="6.921" ry="9.303" transform="translate(0 9.788) rotate(-45)" fill="#e391bd"/>
        </g>
        <g id="Grupo_2085" data-name="Grupo 2085" transform="translate(22.312 118.222)">
          <ellipse id="Elipse_260" data-name="Elipse 260" cx="4.213" cy="5.662" rx="4.213" ry="5.662" transform="translate(0 6.581) rotate(-51.366)" fill="#e391bd"/>
        </g>
        <g id="Grupo_2086" data-name="Grupo 2086" transform="translate(25.543 116.26)">
          <rect id="Rectángulo_3855" data-name="Rectángulo 3855" width="12.165" height="3.431" rx="1.221" transform="translate(9.503 10.275) rotate(-141.366)" fill="#79144b"/>
        </g>
      </g>
      <g id="Grupo_2088" data-name="Grupo 2088" transform="translate(39.014 4.999)">
        <path id="Trazado_1874" data-name="Trazado 1874" d="M159.486,1827.948a1.326,1.326,0,0,1-1.376-1.207c-1.237-20.158,10.935-30.606,25.012-30.294a1.258,1.258,0,1,1-.176,2.5c-12.929-.105-23.165,9.379-22.086,27.7a1.307,1.307,0,0,1-1.325,1.3Z" transform="translate(-158.023 -1796.44)" fill="#f5d9e9"/>
      </g>
    </g>
    <rect id="Rectángulo_3999" data-name="Rectángulo 3999" width="6.05" height="146.832" transform="translate(756.593 336.937)" fill="#6e6e6e"/>
    <rect id="Rectángulo_4000" data-name="Rectángulo 4000" width="6.05" height="146.832" transform="translate(1025.674 336.937)" fill="#6e6e6e"/>
  </g>
</svg>
