<svg id="settings-24px" xmlns="http://www.w3.org/2000/svg" width="35" height="35" viewBox="0 0 35 35">
  <path id="Trazado_1416" data-name="Trazado 1416" d="M0,0H35V35H0Z" fill="none"/>
  <path id="Trazado_1417" data-name="Trazado 1417" d="M28.845,18.979a11.016,11.016,0,0,0,.1-1.479,9,9,0,0,0-.111-1.479l3.226-2.485a.766.766,0,0,0,.191-.959L29.195,7.355a.78.78,0,0,0-.938-.346l-3.8,1.51A11.253,11.253,0,0,0,21.886,7.04l-.572-4a.766.766,0,0,0-.763-.645h-6.1a.75.75,0,0,0-.747.645l-.572,4a11.5,11.5,0,0,0-2.574,1.479l-3.8-1.51a.762.762,0,0,0-.938.346L2.786,12.577a.711.711,0,0,0,.191.959L6.2,16.021a8.664,8.664,0,0,0-.032,2.957L2.945,21.464a.766.766,0,0,0-.191.959l3.051,5.222a.78.78,0,0,0,.938.346l3.8-1.51a11.253,11.253,0,0,0,2.574,1.479l.572,4a.779.779,0,0,0,.763.645h6.1a.739.739,0,0,0,.747-.645l.572-4a10.926,10.926,0,0,0,2.574-1.479l3.8,1.51a.762.762,0,0,0,.938-.346l3.051-5.222a.723.723,0,0,0-.191-.959ZM17.5,23.163A5.663,5.663,0,1,1,23.22,17.5,5.708,5.708,0,0,1,17.5,23.163Z" transform="translate(0)"/>
</svg>
