<svg xmlns="http://www.w3.org/2000/svg" width="303.572" height="499.318" viewBox="0 0 303.572 499.318">
  <g id="Grupo_2566" data-name="Grupo 2566" transform="translate(-599.928 -2404.054)">
    <rect id="Rectángulo_3441" data-name="Rectángulo 3441" width="303.572" height="499.318" transform="translate(599.928 2404.054)" fill="#d5007f"/>
    <g id="Headline_5" data-name="Headline 5" transform="translate(637.052 2862.885)">
      <text id="Cuerpo_2_lorem_Ipsum_is_simply_dummy_text_of_the_printing_text_simulation." data-name="Cuerpo 2 lorem Ipsum is simply dummy text of the
printing text simulation." transform="translate(112 10)" fill="#fff" font-size="10" font-family="Roboto-Regular, Roboto" style="isolation: isolate"><tspan x="-111.699" y="0">Cuerpo 2 lorem Ipsum is simply dummy text of the</tspan><tspan x="-52.385" y="12">printing text simulation.</tspan></text>
    </g>
    <g id="Grupo_2483" data-name="Grupo 2483" transform="translate(662.886 2626.1)">
      <path id="Trazado_2276" data-name="Trazado 2276" d="M402.445,269.421h43.667l2.591.832H400.245Zm-.376-1.144-7.842,3.047h60.366l-7.8-3.047Z" transform="translate(-394.227 -240.106)" fill="#fff"/>
      <path id="Trazado_2277" data-name="Trazado 2277" d="M405.6,270.488s6.573,5.551,10.069,6.432c0,0,5.056-5.87,5.768-6.432Z" transform="translate(-384.847 -238.282)" fill="#fff"/>
      <path id="Trazado_2278" data-name="Trazado 2278" d="M439.423,256.821H450.81l24.254,18.323V256.821h11.494v31.37H475.064l-24.171-18.7v18.7H439.423Z" transform="translate(-356.955 -249.553)" fill="#fff"/>
      <g id="Grupo_2482" data-name="Grupo 2482" transform="translate(3.471 45.245)">
        <path id="Trazado_2279" data-name="Trazado 2279" d="M398.362,286.338h-2.233v-8.45h2.233Z" transform="translate(-396.129 -277.425)" fill="#fff"/>
        <path id="Trazado_2280" data-name="Trazado 2280" d="M400.427,279.131l.069.737a2.437,2.437,0,0,1,1.972-.854,2.074,2.074,0,0,1,1.613.586,2.626,2.626,0,0,1,.551,1.764v4.045h-2.157v-3.963a.988.988,0,0,0-.212-.7,1.029,1.029,0,0,0-.765-.224,1.059,1.059,0,0,0-.94.453v4.434h-2.151v-6.279Z" transform="translate(-394.249 -276.496)" fill="#fff"/>
        <path id="Trazado_2281" data-name="Trazado 2281" d="M406.54,283.645a.456.456,0,0,0-.286-.4,4.692,4.692,0,0,0-1.093-.312,5.371,5.371,0,0,1-1.327-.427,2.2,2.2,0,0,1-.8-.641,1.436,1.436,0,0,1-.274-.865,1.688,1.688,0,0,1,.785-1.425,3.456,3.456,0,0,1,2.055-.56,3.856,3.856,0,0,1,2.2.562,1.721,1.721,0,0,1,.83,1.482h-2.159q0-.755-.874-.755a.92.92,0,0,0-.568.172.512.512,0,0,0-.23.425.483.483,0,0,0,.281.425,2.835,2.835,0,0,0,.9.266,8.346,8.346,0,0,1,1.082.25q1.557.487,1.558,1.746a1.611,1.611,0,0,1-.839,1.4,3.95,3.95,0,0,1-2.175.54,4.077,4.077,0,0,1-1.582-.29,2.633,2.633,0,0,1-1.086-.788,1.683,1.683,0,0,1-.389-1.051h2.011a.737.737,0,0,0,.319.637,1.425,1.425,0,0,0,.785.2,1.111,1.111,0,0,0,.661-.162A.5.5,0,0,0,406.54,283.645Z" transform="translate(-390.839 -276.496)" fill="#fff"/>
        <path id="Trazado_2282" data-name="Trazado 2282" d="M409.451,278.223v1.56h1.137v1.358h-1.137v2.872a.685.685,0,0,0,.141.493.808.808,0,0,0,.557.141,3.669,3.669,0,0,0,.536-.035v1.4a4.312,4.312,0,0,1-1.213.168,2.4,2.4,0,0,1-1.64-.474,1.844,1.844,0,0,1-.531-1.445v-3.117h-.88v-1.358h.88v-1.56Z" transform="translate(-387.642 -277.148)" fill="#fff"/>
        <path id="Trazado_2283" data-name="Trazado 2283" d="M409.438,278.62a.841.841,0,0,1,.332-.684,1.528,1.528,0,0,1,1.724,0,.873.873,0,0,1,0,1.37,1.528,1.528,0,0,1-1.724,0A.844.844,0,0,1,409.438,278.62Zm2.286,7.9h-2.159V280.24h2.159Z" transform="translate(-385.153 -277.605)" fill="#fff"/>
        <path id="Trazado_2284" data-name="Trazado 2284" d="M414.446,278.223v1.56h1.137v1.358h-1.137v2.872a.685.685,0,0,0,.141.493.808.808,0,0,0,.557.141,3.625,3.625,0,0,0,.535-.035v1.4a4.291,4.291,0,0,1-1.212.168,2.4,2.4,0,0,1-1.64-.474,1.843,1.843,0,0,1-.531-1.445v-3.117h-.88v-1.358h.88v-1.56Z" transform="translate(-383.523 -277.148)" fill="#fff"/>
        <path id="Trazado_2285" data-name="Trazado 2285" d="M418.571,284.676a2.637,2.637,0,0,1-3.564.2,2.37,2.37,0,0,1-.584-1.726v-4.067h2.151v4.08q0,.8.861.8a1.159,1.159,0,0,0,1.053-.48v-4.4h2.164v6.279h-2.018Z" transform="translate(-381.042 -276.443)" fill="#fff"/>
        <path id="Trazado_2286" data-name="Trazado 2286" d="M421.506,278.223v1.56h1.137v1.358h-1.137v2.872a.677.677,0,0,0,.14.493.8.8,0,0,0,.555.141,3.636,3.636,0,0,0,.536-.035v1.4a4.3,4.3,0,0,1-1.214.168,2.4,2.4,0,0,1-1.64-.474,1.849,1.849,0,0,1-.529-1.445v-3.117h-.881v-1.358h.881v-1.56Z" transform="translate(-377.702 -277.148)" fill="#fff"/>
        <path id="Trazado_2287" data-name="Trazado 2287" d="M421.251,282.213a3.428,3.428,0,0,1,.4-1.675,2.737,2.737,0,0,1,1.155-1.129,3.761,3.761,0,0,1,1.768-.394,3.35,3.35,0,0,1,2.445.874,3.173,3.173,0,0,1,.894,2.376v.069a3.077,3.077,0,0,1-.9,2.33,3.357,3.357,0,0,1-2.429.861,3.414,3.414,0,0,1-2.368-.8,3.01,3.01,0,0,1-.963-2.179Zm2.151.12a2.164,2.164,0,0,0,.3,1.277,1.031,1.031,0,0,0,.887.405q1.15,0,1.175-1.608v-.2q0-1.692-1.188-1.69-1.078,0-1.168,1.456Z" transform="translate(-375.411 -276.496)" fill="#fff"/>
        <path id="Trazado_2288" data-name="Trazado 2288" d="M435.582,286.338h-2.228l-3.294-5.259v5.259H427.82v-8.45h2.241l3.288,5.259v-5.259h2.233Z" transform="translate(-369.994 -277.425)" fill="#fff"/>
        <path id="Trazado_2289" data-name="Trazado 2289" d="M437.109,285.41a.934.934,0,1,0-1.863.115,2.608,2.608,0,0,1-1.66-.536,1.645,1.645,0,0,1-.682-1.35,1.706,1.706,0,0,1,.83-1.542,4.557,4.557,0,0,1,2.412-.524h.664v-.332q0-.868-.825-.868-.764,0-.765.688h-2.151a1.716,1.716,0,0,1,.852-1.478,3.847,3.847,0,0,1,2.173-.567,3.357,3.357,0,0,1,2.087.586,1.965,1.965,0,0,1,.785,1.608v2.779a2.62,2.62,0,0,0,.294,1.323v.1Zm-1.347-1.277a1.321,1.321,0,0,0,.668-.155,1.06,1.06,0,0,0,.38-.356v-1h-.626c-.75,0-1.124.3-1.124.918a.53.53,0,0,0,.2.431A.752.752,0,0,0,435.762,284.132Z" transform="translate(-365.802 -276.496)" fill="#fff"/>
        <path id="Trazado_2290" data-name="Trazado 2290" d="M440.2,284.015a1.021,1.021,0,0,0,.7-.223.781.781,0,0,0,.243-.624h2.018a2.09,2.09,0,0,1-.814,1.7,3.211,3.211,0,0,1-5.341-2.576v-.082a3.533,3.533,0,0,1,.387-1.679,2.658,2.658,0,0,1,1.113-1.12,3.591,3.591,0,0,1,1.724-.392,3.175,3.175,0,0,1,2.139.679,2.3,2.3,0,0,1,.792,1.839h-2.018a1.017,1.017,0,0,0-.261-.748.955.955,0,0,0-.7-.261q-.837,0-.976.969a6,6,0,0,0-.046.847,2.475,2.475,0,0,0,.25,1.312A.887.887,0,0,0,440.2,284.015Z" transform="translate(-362.416 -276.496)" fill="#fff"/>
        <path id="Trazado_2291" data-name="Trazado 2291" d="M441.158,278.62a.841.841,0,0,1,.332-.684,1.525,1.525,0,0,1,1.722,0,.873.873,0,0,1,0,1.37,1.526,1.526,0,0,1-1.722,0A.844.844,0,0,1,441.158,278.62Zm2.285,7.9h-2.157V280.24h2.157Z" transform="translate(-358.994 -277.605)" fill="#fff"/>
        <path id="Trazado_2292" data-name="Trazado 2292" d="M443.274,282.213a3.425,3.425,0,0,1,.4-1.675,2.731,2.731,0,0,1,1.157-1.129,3.762,3.762,0,0,1,1.768-.394,3.353,3.353,0,0,1,2.445.874,3.172,3.172,0,0,1,.892,2.376v.069a3.083,3.083,0,0,1-.9,2.33,3.36,3.36,0,0,1-2.429.861,3.411,3.411,0,0,1-2.368-.8,3,3,0,0,1-.965-2.179Zm2.151.12a2.179,2.179,0,0,0,.3,1.277,1.037,1.037,0,0,0,.889.405q1.147,0,1.173-1.608v-.2q0-1.692-1.186-1.69-1.081,0-1.17,1.456Z" transform="translate(-357.249 -276.496)" fill="#fff"/>
        <path id="Trazado_2293" data-name="Trazado 2293" d="M449.72,279.131l.071.737a2.428,2.428,0,0,1,1.971-.854,2.074,2.074,0,0,1,1.613.586,2.627,2.627,0,0,1,.551,1.764v4.045h-2.157v-3.963a.98.98,0,0,0-.212-.7,1.028,1.028,0,0,0-.766-.224,1.058,1.058,0,0,0-.938.453v4.434H447.7v-6.279Z" transform="translate(-353.597 -276.496)" fill="#fff"/>
        <path id="Trazado_2294" data-name="Trazado 2294" d="M456.078,285.41a2.161,2.161,0,0,1-.2-.564,2.079,2.079,0,0,1-1.659.679,2.608,2.608,0,0,1-1.66-.536,1.65,1.65,0,0,1-.682-1.35,1.709,1.709,0,0,1,.83-1.542,4.553,4.553,0,0,1,2.412-.524h.664v-.332q0-.868-.823-.868-.766,0-.766.688h-2.151a1.716,1.716,0,0,1,.852-1.478,3.851,3.851,0,0,1,2.173-.567,3.357,3.357,0,0,1,2.087.586,1.965,1.965,0,0,1,.785,1.608v2.779a2.639,2.639,0,0,0,.294,1.323v.1Zm-1.347-1.277a1.32,1.32,0,0,0,.668-.155,1.059,1.059,0,0,0,.38-.356v-1h-.626c-.748,0-1.124.3-1.124.918a.531.531,0,0,0,.2.431A.752.752,0,0,0,454.731,284.132Z" transform="translate(-350.158 -276.496)" fill="#fff"/>
        <path id="Trazado_2295" data-name="Trazado 2295" d="M458.347,286.548h-2.159v-8.914h2.159Z" transform="translate(-346.599 -277.634)" fill="#fff"/>
        <path id="Trazado_2296" data-name="Trazado 2296" d="M466.265,282.751h-3.524v2.02h4.16v1.567h-6.4v-8.45h6.416v1.573h-4.175v1.781h3.524Z" transform="translate(-343.042 -277.425)" fill="#fff"/>
        <path id="Trazado_2297" data-name="Trazado 2297" d="M466.961,286.548H464.8v-8.914h2.157Z" transform="translate(-339.494 -277.634)" fill="#fff"/>
        <path id="Trazado_2298" data-name="Trazado 2298" d="M470.436,285.525a3.756,3.756,0,0,1-2.571-.861,2.844,2.844,0,0,1-.984-2.242v-.162a3.554,3.554,0,0,1,.392-1.7,2.72,2.72,0,0,1,1.146-1.14,3.743,3.743,0,0,1,1.786-.4,3.154,3.154,0,0,1,2.3.821,3.041,3.041,0,0,1,.843,2.29v.761h-4.277a1.377,1.377,0,0,0,.506.828,1.586,1.586,0,0,0,1.007.3,2.018,2.018,0,0,0,1.6-.65l.983,1.057a2.73,2.73,0,0,1-1.141.8A4.185,4.185,0,0,1,470.436,285.525Zm-.243-5c-.628,0-1,.38-1.122,1.137h2.17v-.15a.912.912,0,0,0-.261-.728A1.1,1.1,0,0,0,470.193,280.523Z" transform="translate(-337.781 -276.496)" fill="#fff"/>
        <path id="Trazado_2299" data-name="Trazado 2299" d="M474.228,284.015a1.021,1.021,0,0,0,.7-.223.781.781,0,0,0,.243-.624h2.016a2.084,2.084,0,0,1-.814,1.7,3.209,3.209,0,0,1-5.339-2.576v-.082a3.532,3.532,0,0,1,.387-1.679,2.658,2.658,0,0,1,1.113-1.12,3.591,3.591,0,0,1,1.724-.392,3.179,3.179,0,0,1,2.139.679,2.3,2.3,0,0,1,.79,1.839h-2.016a1.01,1.01,0,0,0-.263-.748.949.949,0,0,0-.7-.261c-.556,0-.883.323-.976.969a6.292,6.292,0,0,0-.046.847,2.474,2.474,0,0,0,.25,1.312A.892.892,0,0,0,474.228,284.015Z" transform="translate(-334.353 -276.496)" fill="#fff"/>
        <path id="Trazado_2300" data-name="Trazado 2300" d="M477.937,278.223v1.56h1.137v1.358h-1.137v2.872a.685.685,0,0,0,.141.493.808.808,0,0,0,.557.141,3.672,3.672,0,0,0,.536-.035v1.4a4.314,4.314,0,0,1-1.213.168,2.4,2.4,0,0,1-1.64-.474,1.843,1.843,0,0,1-.529-1.445v-3.117h-.881v-1.358h.881v-1.56Z" transform="translate(-331.163 -277.148)" fill="#fff"/>
        <path id="Trazado_2301" data-name="Trazado 2301" d="M477.684,282.213a3.427,3.427,0,0,1,.4-1.675,2.727,2.727,0,0,1,1.155-1.129,3.761,3.761,0,0,1,1.768-.394,3.35,3.35,0,0,1,2.445.874,3.172,3.172,0,0,1,.892,2.376v.069a3.083,3.083,0,0,1-.9,2.33,3.357,3.357,0,0,1-2.429.861,3.411,3.411,0,0,1-2.368-.8,3,3,0,0,1-.963-2.179Zm2.151.12a2.163,2.163,0,0,0,.3,1.277,1.031,1.031,0,0,0,.887.405q1.149,0,1.173-1.608v-.2q0-1.692-1.186-1.69-1.078,0-1.168,1.456Z" transform="translate(-328.872 -276.496)" fill="#fff"/>
        <path id="Trazado_2302" data-name="Trazado 2302" d="M486.3,280.9l-.708-.046c-.675,0-1.111.193-1.3.58v3.976h-2.151v-6.279h2.016l.069.806a1.679,1.679,0,0,1,1.515-.923,2.34,2.34,0,0,1,.6.069Z" transform="translate(-325.194 -276.496)" fill="#fff"/>
        <path id="Trazado_2303" data-name="Trazado 2303" d="M489.1,285.41a.934.934,0,1,0-1.863.115,2.6,2.6,0,0,1-1.66-.536,1.647,1.647,0,0,1-.684-1.35,1.709,1.709,0,0,1,.83-1.542,4.56,4.56,0,0,1,2.414-.524h.662v-.332q0-.868-.823-.868-.766,0-.766.688h-2.149a1.714,1.714,0,0,1,.85-1.478,3.855,3.855,0,0,1,2.173-.567,3.363,3.363,0,0,1,2.089.586,1.965,1.965,0,0,1,.785,1.608v2.779a2.62,2.62,0,0,0,.294,1.323v.1Zm-1.347-1.277a1.313,1.313,0,0,0,.666-.155,1.045,1.045,0,0,0,.38-.356v-1h-.624c-.75,0-1.124.3-1.124.918a.53.53,0,0,0,.2.431A.752.752,0,0,0,487.752,284.132Z" transform="translate(-322.928 -276.496)" fill="#fff"/>
        <path id="Trazado_2304" data-name="Trazado 2304" d="M491.365,286.548h-2.157v-8.914h2.157Z" transform="translate(-319.368 -277.634)" fill="#fff"/>
      </g>
      <rect id="Rectángulo_3442" data-name="Rectángulo 3442" width="11.787" height="31.372" transform="translate(64.566 7.268)" fill="#fff"/>
      <path id="Trazado_2305" data-name="Trazado 2305" d="M468.839,256.821v31.37H509.78v-5.911H480.82V275.17h28.96v-5.511H481.023V262.51H509.78v-5.689Z" transform="translate(-332.696 -249.553)" fill="#fff" fill-rule="evenodd"/>
      <path id="Trazado_2306" data-name="Trazado 2306" d="M400.054,273.431c2.9-4.038,13.087-17.57,20.1-20.593,5.155,9.576,16.97,18.889,20.564,20.593-4.936,3-8.744,5.516-12.517,9.554H408.1c-2.746-2.6-6.983-7.052-8.041-9.554" transform="translate(-389.422 -252.838)" fill="#fff"/>
    </g>
  </g>
</svg>
