<svg xmlns="http://www.w3.org/2000/svg" width="246.371" height="64.298" viewBox="0 0 246.371 64.298">
  <g id="Grupo_2538" data-name="Grupo 2538" transform="translate(-727 -680)">
    <g id="Grupo_2537" data-name="Grupo 2537">
      <rect id="Rectángulo_3372" data-name="Rectángulo 3372" width="134.546" height="32" rx="16" transform="translate(751.865 680)" fill="#ede4f2"/>
      <g id="Button" transform="translate(535.709 514.33)" style="isolation: isolate">
        <text id="Chip_de_elección" data-name="Chip de elección" transform="translate(228.137 185.758)" fill="#333" font-size="14" font-family="Roboto-Regular, Roboto" letter-spacing="0.033em" style="isolation: isolate"><tspan x="0" y="0">Chip de elección</tspan></text>
      </g>
      <text id="_12" data-name="12" transform="translate(870.877 740.298)" fill="#4199a0" font-size="14" font-family="Roboto-Medium, Roboto" font-weight="500" style="isolation: isolate"><tspan x="0" y="0">12</tspan></text>
      <g id="Grupo_2389" data-name="Grupo 2389" transform="translate(535.709 514.33)">
        <line id="Línea_21" data-name="Línea 21" y1="8" transform="translate(338.512 202.431)" fill="none" stroke="#4199a0" stroke-miterlimit="10" stroke-width="1"/>
        <line id="Línea_23" data-name="Línea 23" y1="8" transform="translate(350.703 202.431)" fill="none" stroke="#4199a0" stroke-miterlimit="10" stroke-width="1"/>
        <line id="Línea_22" data-name="Línea 22" x2="12" transform="translate(338.607 206.431)" fill="none" stroke="#4199a0" stroke-miterlimit="10" stroke-width="1"/>
      </g>
      <text id="_12-2" data-name="12" transform="translate(748.618 740.298)" fill="#4199a0" font-size="14" font-family="Roboto-Medium, Roboto" font-weight="500" style="isolation: isolate"><tspan x="0" y="0">12</tspan></text>
      <g id="Grupo_2390" data-name="Grupo 2390" transform="translate(535.709 514.33)">
        <line id="Línea_21-2" data-name="Línea 21" y1="8" transform="translate(216.252 202.431)" fill="none" stroke="#4199a0" stroke-miterlimit="10" stroke-width="1"/>
        <line id="Línea_23-2" data-name="Línea 23" y1="8" transform="translate(228.444 202.431)" fill="none" stroke="#4199a0" stroke-miterlimit="10" stroke-width="1"/>
        <line id="Línea_22-2" data-name="Línea 22" x2="12" transform="translate(216.348 206.431)" fill="none" stroke="#4199a0" stroke-miterlimit="10" stroke-width="1"/>
      </g>
      <text id="_32" data-name="32" transform="translate(727 701.089)" fill="#e76db6" font-size="14" font-family="Roboto-Medium, Roboto" font-weight="500"><tspan x="0" y="0">32</tspan></text>
      <text id="Centrado" transform="translate(907.135 721.761)" fill="#e76db6" font-size="14" font-family="Roboto-Medium, Roboto" font-weight="500"><tspan x="0" y="0">Centrado</tspan></text>
      <line id="Línea_21-3" data-name="Línea 21" x2="8" transform="translate(742.209 681.001)" fill="none" stroke="#e76db6" stroke-miterlimit="10" stroke-width="1"/>
      <line id="Línea_23-3" data-name="Línea 23" x2="8" transform="translate(742.105 713.001)" fill="none" stroke="#e76db6" stroke-miterlimit="10" stroke-width="1"/>
      <line id="Línea_22-3" data-name="Línea 22" y2="32" transform="translate(746.105 681.001)" fill="none" stroke="#e76db6" stroke-miterlimit="10" stroke-width="0.773"/>
      <line id="Línea_26" data-name="Línea 26" x1="26.868" transform="translate(875.958 697.182)" fill="none" stroke="#e76db6" stroke-miterlimit="10" stroke-width="0.984"/>
      <rect id="Rectángulo_3373" data-name="Rectángulo 3373" width="73.236" height="20.913" rx="9.956" transform="translate(900.135 687.086)" fill="#e76db6"/>
      <g id="Caption" transform="translate(535.709 515.33)">
        <g id="Grupo_2391" data-name="Grupo 2391">
          <text id="Cuerpo_2" data-name="Cuerpo 2" transform="translate(371.425 186.523)" fill="#fff" font-size="14" font-family="Roboto-Medium, Roboto" font-weight="500" style="isolation: isolate"><tspan x="0" y="0">Cuerpo 2</tspan></text>
        </g>
      </g>
    </g>
  </g>
</svg>
