<svg xmlns="http://www.w3.org/2000/svg" xmlns:xlink="http://www.w3.org/1999/xlink" width="367.348" height="714" viewBox="0 0 367.348 714">
  <defs>
    <filter id="Rectángulo_125" x="0.76" y="81.052" width="366" height="54" filterUnits="userSpaceOnUse">
      <feOffset dy="1" input="SourceAlpha"/>
      <feGaussianBlur stdDeviation="1" result="blur"/>
      <feFlood flood-opacity="0.149"/>
      <feComposite operator="in" in2="blur"/>
      <feComposite in="SourceGraphic"/>
    </filter>
    <filter id="Rectángulo_127" x="0.76" y="250.796" width="366" height="54" filterUnits="userSpaceOnUse">
      <feOffset dy="1" input="SourceAlpha"/>
      <feGaussianBlur stdDeviation="1" result="blur-2"/>
      <feFlood flood-opacity="0.149"/>
      <feComposite operator="in" in2="blur-2"/>
      <feComposite in="SourceGraphic"/>
    </filter>
    <filter id="Rectángulo_132" x="0" y="419.55" width="367.348" height="79.349" filterUnits="userSpaceOnUse">
      <feOffset dy="1.225" input="SourceAlpha"/>
      <feGaussianBlur stdDeviation="1.225" result="blur-3"/>
      <feFlood flood-opacity="0.2"/>
      <feComposite operator="in" in2="blur-3"/>
      <feComposite in="SourceGraphic"/>
    </filter>
    <filter id="Rectángulo_136" x="0.76" y="613.557" width="366" height="54" filterUnits="userSpaceOnUse">
      <feOffset dy="1" input="SourceAlpha"/>
      <feGaussianBlur stdDeviation="1" result="blur-4"/>
      <feFlood flood-opacity="0.149"/>
      <feComposite operator="in" in2="blur-4"/>
      <feComposite in="SourceGraphic"/>
    </filter>
  </defs>
  <g id="Grupo_2454" data-name="Grupo 2454" transform="translate(3.674 -140)">
    <g id="Rectángulo_139" data-name="Rectángulo 139" transform="translate(0 140)" fill="#fff" stroke="#e2e2e2" stroke-width="1">
      <rect width="360" height="714" stroke="none"/>
      <rect x="0.5" y="0.5" width="359" height="713" fill="none"/>
    </g>
    <text id="Fixed_solo_etiquetas" data-name="Fixed solo etiquetas" transform="translate(20 199.11)" fill="#333" font-size="16" font-family="Roboto-Regular, Roboto" style="isolation: isolate"><tspan x="0" y="0">Fixed solo etiquetas</tspan></text>
    <text id="Fixed_solo_iconos" data-name="Fixed solo iconos" transform="translate(20 369.11)" fill="#333" font-size="16" font-family="Roboto-Regular, Roboto" style="isolation: isolate"><tspan x="0" y="0">Fixed solo iconos</tspan></text>
    <text id="Fixed_etiqueta_e_icono" data-name="Fixed etiqueta e icono" transform="translate(20 539.11)" fill="#333" font-size="16" font-family="Roboto-Regular, Roboto" style="isolation: isolate"><tspan x="0" y="0">Fixed etiqueta e icono</tspan></text>
    <text id="Scrollable" transform="translate(20 733.11)" fill="#333" font-size="16" font-family="Roboto-Regular, Roboto" style="isolation: isolate"><tspan x="0" y="0">Scrollable</tspan></text>
    <line id="Línea_12" data-name="Línea 12" x2="318" transform="translate(21 312.407)" fill="none" stroke="#000" stroke-width="1" opacity="0.127"/>
    <line id="Línea_22" data-name="Línea 22" x2="318" transform="translate(21 482.407)" fill="none" stroke="#000" stroke-width="1" opacity="0.127"/>
    <line id="Línea_24" data-name="Línea 24" x2="318" transform="translate(21 676.407)" fill="none" stroke="#000" stroke-width="1" opacity="0.127"/>
    <g transform="matrix(1, 0, 0, 1, -3.67, 140)" filter="url(#Rectángulo_125)">
      <rect id="Rectángulo_125-2" data-name="Rectángulo 125" width="360" height="48" transform="translate(3.76 83.05)" fill="#fff"/>
    </g>
    <text id="Pestaña_1" data-name="Pestaña 1" transform="translate(27.123 251.499)" fill="#d5007f" font-size="14" font-family="Roboto-Medium, Roboto" font-weight="500" letter-spacing="0.02em"><tspan x="0" y="0">Pestaña 1</tspan></text>
    <text id="Pestaña_2" data-name="Pestaña 2" transform="translate(147.539 251.499)" fill="#666" font-size="14" font-family="Roboto-Medium, Roboto" font-weight="500" letter-spacing="0.02em"><tspan x="0" y="0">Pestaña 2</tspan></text>
    <text id="Pestaña_3" data-name="Pestaña 3" transform="translate(266.92 251.499)" fill="#666" font-size="14" font-family="Roboto-Medium, Roboto" font-weight="500" letter-spacing="0.02em"><tspan x="0" y="0">Pestaña 3</tspan></text>
    <line id="Línea_17" data-name="Línea 17" x2="120.246" transform="translate(0.086 270.052)" fill="none" stroke="#d5007f" stroke-miterlimit="10" stroke-width="2"/>
    <g transform="matrix(1, 0, 0, 1, -3.67, 140)" filter="url(#Rectángulo_127)">
      <rect id="Rectángulo_127-2" data-name="Rectángulo 127" width="360" height="48" transform="translate(3.76 252.8)" fill="#fff"/>
    </g>
    <line id="Línea_18" data-name="Línea 18" x2="120.246" transform="translate(0.086 439.796)" fill="none" stroke="#d5007f" stroke-miterlimit="10" stroke-width="2"/>
    <path id="Trazado_2266" data-name="Trazado 2266" d="M172.367,329.568,161.218,318.1a.848.848,0,0,0-1.214,0l-11.149,11.473a.849.849,0,0,0-.239.59v10.835a.846.846,0,0,0,.846.846h7.947a.846.846,0,0,0,.846-.846v-7.7h4.715v7.668a.846.846,0,0,0,.846.846h7.944a.846.846,0,0,0,.846-.846V330.158A.849.849,0,0,0,172.367,329.568Z" transform="translate(-101.225 86.958)" fill="#d50b7f"/>
    <g id="Grupo_2434" data-name="Grupo 2434" transform="translate(-101.225 86.958)">
      <g id="Grupo_2433" data-name="Grupo 2433">
        <path id="Trazado_2267" data-name="Trazado 2267" d="M281.417,317.85a11.989,11.989,0,1,0,12,11.989A12.008,12.008,0,0,0,281.417,317.85Zm1.336,18.09a1.329,1.329,0,1,1-2.658,0v-.073a1.329,1.329,0,1,1,2.658,0Zm.04-4.629-.04.012v.731a1.329,1.329,0,0,1-2.658,0v-.842a2.517,2.517,0,0,1,1.844-2.422l.063-.017a1.8,1.8,0,1,0-2.379-1.7,1.328,1.328,0,1,1-2.657,0,4.457,4.457,0,1,1,5.827,4.242Z" fill="#666"/>
      </g>
    </g>
    <path id="Trazado_2268" data-name="Trazado 2268" d="M412.927,340.334l-7.511-7.459a9.2,9.2,0,1,0-1.187,1.2l7.509,7.459a.844.844,0,0,0,1.189-1.2Zm-14.589-5.8a7.475,7.475,0,1,1,7.475-7.475A7.483,7.483,0,0,1,398.338,334.538Z" transform="translate(-101.225 86.958)" fill="#666"/>
    <g id="Grupo_2443" data-name="Grupo 2443" transform="translate(-1775 -2326)">
      <g id="Grupo_2439" data-name="Grupo 2439" transform="translate(1685.476 2337.063)">
        <g transform="matrix(1, 0, 0, 1, 85.85, 128.94)" filter="url(#Rectángulo_132)">
          <rect id="Rectángulo_132-2" data-name="Rectángulo 132" width="360" height="72" transform="translate(3.67 422)" fill="#fff"/>
        </g>
        <line id="Línea_20" data-name="Línea 20" x2="120.246" transform="translate(89.524 621.684)" fill="none" stroke="#d5007f" stroke-miterlimit="10" stroke-width="3"/>
        <path id="Trazado_2272" data-name="Trazado 2272" d="M160.581,575.678l-11.15-11.473a.844.844,0,0,0-1.213,0l-11.149,11.473a.842.842,0,0,0-.239.589V587.1a.846.846,0,0,0,.846.846h7.947a.846.846,0,0,0,.846-.846v-7.694h4.714v7.668a.846.846,0,0,0,.846.846h7.945a.846.846,0,0,0,.846-.846V576.267A.847.847,0,0,0,160.581,575.678Z" fill="#d5007f"/>
        <g id="Grupo_2438" data-name="Grupo 2438">
          <g id="Grupo_2437" data-name="Grupo 2437">
            <path id="Trazado_2273" data-name="Trazado 2273" d="M269.631,563.96a11.988,11.988,0,1,0,12,11.989A12.009,12.009,0,0,0,269.631,563.96Zm1.335,18.09a1.329,1.329,0,1,1-2.657,0v-.073a1.329,1.329,0,1,1,2.657,0Zm.04-4.629-.04.011v.731a1.329,1.329,0,1,1-2.657,0v-.842a2.516,2.516,0,0,1,1.843-2.422l.064-.016a1.8,1.8,0,1,0-2.379-1.705,1.329,1.329,0,1,1-2.657,0,4.457,4.457,0,1,1,5.826,4.243Z" fill="#666"/>
          </g>
        </g>
        <path id="Trazado_2274" data-name="Trazado 2274" d="M401.14,586.444l-7.51-7.46a9.2,9.2,0,1,0-1.188,1.2l7.51,7.458a.843.843,0,1,0,1.188-1.2Zm-14.588-5.8a7.475,7.475,0,1,1,7.475-7.475A7.485,7.485,0,0,1,386.552,580.648Z" fill="#666"/>
        <text id="Pestaña_1-2" data-name="Pestaña 1" transform="translate(116.561 607.629)" fill="#d5007f" font-size="14" font-family="Roboto-Medium, Roboto" font-weight="500" letter-spacing="0.02em"><tspan x="0" y="0">Pestaña 1</tspan></text>
        <text id="Pestaña_2-2" data-name="Pestaña 2" transform="translate(236.977 607.629)" fill="#666" font-size="14" font-family="Roboto-Medium, Roboto" font-weight="500" letter-spacing="0.02em"><tspan x="0" y="0">Pestaña 2</tspan></text>
        <text id="Pestaña_3-2" data-name="Pestaña 3" transform="translate(356.359 607.629)" fill="#666" font-size="14" font-family="Roboto-Medium, Roboto" font-weight="500" letter-spacing="0.02em"><tspan x="0" y="0">Pestaña 3</tspan></text>
      </g>
    </g>
    <g id="Grupo_2445" data-name="Grupo 2445" transform="translate(0 -212)">
      <g transform="matrix(1, 0, 0, 1, -3.67, 352)" filter="url(#Rectángulo_136)">
        <rect id="Rectángulo_136-2" data-name="Rectángulo 136" width="360" height="48" transform="translate(3.76 615.56)" fill="#fff"/>
      </g>
      <text id="Pestaña_1-3" data-name="Pestaña 1" transform="translate(72.391 996.004)" fill="#d50b7f" font-size="14" font-family="Roboto-Medium, Roboto" font-weight="500" letter-spacing="0.02em"><tspan x="0" y="0">Pestaña 1</tspan></text>
      <text id="Pestaña_2-3" data-name="Pestaña 2" transform="translate(184.467 996.004)" fill="#666" font-size="14" font-family="Roboto-Medium, Roboto" font-weight="500" letter-spacing="0.02em"><tspan x="0" y="0">Pestaña 2</tspan></text>
      <text id="Pestaña" transform="translate(303.848 996.004)" fill="#666" font-size="14" font-family="Roboto-Medium, Roboto" font-weight="500" letter-spacing="0.02em"><tspan x="0" y="0">Pestaña</tspan></text>
      <line id="Línea_26" data-name="Línea 26" x2="104.24" transform="translate(52.806 1014.557)" fill="none" stroke="#d5007f" stroke-miterlimit="10" stroke-width="2"/>
    </g>
  </g>
</svg>
