<svg xmlns="http://www.w3.org/2000/svg" xmlns:xlink="http://www.w3.org/1999/xlink" width="1158" height="3024.473" viewBox="0 0 1158 3024.473">
  <defs>
    <filter id="Trazado_1713" x="0" y="0" width="1158" height="3024.473" filterUnits="userSpaceOnUse">
      <feOffset dy="3" input="SourceAlpha"/>
      <feGaussianBlur stdDeviation="3" result="blur"/>
      <feFlood flood-opacity="0.161"/>
      <feComposite operator="in" in2="blur"/>
      <feComposite in="SourceGraphic"/>
    </filter>
  </defs>
  <g id="Grupo_2884" data-name="Grupo 2884" transform="translate(-104 -141.75)">
    <g transform="matrix(1, 0, 0, 1, 104, 141.75)" filter="url(#Trazado_1713)">
      <g id="Trazado_1713-2" data-name="Trazado 1713" transform="translate(9 6)" fill="#fff">
        <path d="M 1133 3005.972900390625 L 7 3005.972900390625 C 3.415769338607788 3005.972900390625 0.5 3003.380615234375 0.5 3000.194091796875 L 0.5 6.27863597869873 C 0.5 3.092482089996338 3.415769338607788 0.5001742839813232 7 0.5001742839813232 L 1133 0.5001742839813232 C 1136.584228515625 0.5001742839813232 1139.5 3.092482089996338 1139.5 6.27863597869873 L 1139.5 3000.194091796875 C 1139.5 3003.380615234375 1136.584228515625 3005.972900390625 1133 3005.972900390625 Z" stroke="none"/>
        <path d="M 7 0.999755859375 C 3.6915283203125 0.999755859375 1 3.367919921875 1 6.2783203125 L 1 3000.194091796875 C 1 3003.1044921875 3.6915283203125 3005.472412109375 7 3005.472412109375 L 1133 3005.472412109375 C 1136.308471679688 3005.472412109375 1139 3003.1044921875 1139 3000.194091796875 L 1139 6.2783203125 C 1139 3.367919921875 1136.308471679688 0.999755859375 1133 0.999755859375 L 7 0.999755859375 M 7 -0.000244140625 L 1133 -0.000244140625 C 1136.86572265625 -0.000244140625 1140 2.81103515625 1140 6.2783203125 L 1140 3000.194091796875 C 1140 3003.66162109375 1136.86572265625 3006.472412109375 1133 3006.472412109375 L 7 3006.472412109375 C 3.1337890625 3006.472412109375 0 3003.66162109375 0 3000.194091796875 L 0 6.2783203125 C 0 2.81103515625 3.1337890625 -0.000244140625 7 -0.000244140625 Z" stroke="none" fill="#707070"/>
      </g>
    </g>
    <line id="Línea_782" data-name="Línea 782" y1="8" transform="translate(226.834 919.5)" fill="none" stroke="#4199a0" stroke-miterlimit="10" stroke-width="1"/>
    <g id="Grupo_1920" data-name="Grupo 1920" transform="translate(1710.517 396.148)">
      <rect id="Rectángulo_3775" data-name="Rectángulo 3775" width="359.429" height="93.491" rx="10.654" transform="translate(-1400.2 -151.808)" fill="#ededed"/>
      <rect id="Rectángulo_3776" data-name="Rectángulo 3776" width="359.429" height="140.814" rx="13.076" transform="translate(-1400.2 -43.312)" fill="#ededed"/>
      <rect id="Rectángulo_3777" data-name="Rectángulo 3777" width="534.869" height="93.491" rx="12.997" transform="translate(-1400.2 435.684)" fill="#ededed"/>
      <rect id="Rectángulo_3778" data-name="Rectángulo 3778" width="534.869" height="93.491" rx="12.997" transform="translate(-1404.385 327.189)" fill="#ededed"/>
      <rect id="Rectángulo_3779" data-name="Rectángulo 3779" width="534.869" height="140.814" rx="15.951" transform="translate(-1400.2 544.18)" fill="#ededed"/>
      <rect id="Rectángulo_3780" data-name="Rectángulo 3780" width="534.869" height="47.323" rx="9.247" transform="translate(-1400.2 901.985)" fill="#ededed"/>
      <rect id="Rectángulo_3781" data-name="Rectángulo 3781" width="534.869" height="93.491" rx="12.997" transform="translate(-1402.077 793.489)" fill="#ededed"/>
      <rect id="Rectángulo_3782" data-name="Rectángulo 3782" width="534.869" height="64.636" rx="10.807" transform="translate(-1397.422 966.621)" fill="#ededed"/>
      <rect id="Rectángulo_3783" data-name="Rectángulo 3783" width="534.869" height="47.323" rx="9.247" transform="translate(-1029.699 1278.257)" fill="#ededed"/>
      <rect id="Rectángulo_3784" data-name="Rectángulo 3784" width="534.869" height="93.491" rx="12.997" transform="translate(-1031.576 1169.761)" fill="#ededed"/>
      <rect id="Rectángulo_3785" data-name="Rectángulo 3785" width="534.869" height="64.636" rx="10.807" transform="translate(-1026.921 1342.893)" fill="#ededed"/>
      <rect id="Rectángulo_3786" data-name="Rectángulo 3786" width="290.78" height="47.323" rx="6.818" transform="translate(-789.174 2035.418)" fill="#ededed"/>
      <rect id="Rectángulo_3787" data-name="Rectángulo 3787" width="290.78" height="93.491" rx="9.583" transform="translate(-790.346 1787.263)" fill="#ededed"/>
      <rect id="Rectángulo_3788" data-name="Rectángulo 3788" width="290.78" height="124.655" rx="11.066" transform="translate(-787.918 1896.913)" fill="#ededed"/>
      <rect id="Rectángulo_3789" data-name="Rectángulo 3789" width="567.785" height="93.491" rx="13.391" transform="translate(-1052.267 2409.382)" fill="#ededed"/>
      <rect id="Rectángulo_3790" data-name="Rectángulo 3790" width="567.785" height="58.865" rx="10.626" transform="translate(-1047.61 2519.032)" fill="#ededed"/>
      <rect id="Rectángulo_3791" data-name="Rectángulo 3791" width="567.785" height="83.103" rx="12.625" transform="translate(-1047.687 2591.747)" fill="#ededed"/>
      <rect id="Rectángulo_3792" data-name="Rectángulo 3792" width="534.869" height="93.491" rx="12.997" transform="translate(-1547.507 1772.259)" fill="#ededed"/>
      <rect id="Rectángulo_3793" data-name="Rectángulo 3793" width="534.869" height="64.636" rx="10.807" transform="translate(-1543.422 1880.754)" fill="#ededed"/>
      <rect id="Rectángulo_3794" data-name="Rectángulo 3794" width="570.605" height="73.869" rx="11.933" transform="translate(-1577.517 2156.61)" fill="#ededed"/>
      <rect id="Rectángulo_3795" data-name="Rectángulo 3795" width="570.605" height="99.262" rx="13.832" transform="translate(-1573.287 2242.022)" fill="#ededed"/>
      <g id="Grupo_1899" data-name="Grupo 1899">
        <line id="Línea_783" data-name="Línea 783" y1="6.925" transform="translate(-1143.24 780.793)" fill="none" stroke="#d3097f" stroke-miterlimit="10" stroke-width="1.154"/>
        <line id="Línea_784" data-name="Línea 784" y1="50.564" transform="translate(-1143.24 715.781)" fill="none" stroke="#d3097f" stroke-miterlimit="10" stroke-width="1.154" stroke-dasharray="14.447 14.447"/>
        <line id="Línea_785" data-name="Línea 785" y1="6.925" transform="translate(-1143.24 701.632)" fill="none" stroke="#d3097f" stroke-miterlimit="10" stroke-width="1.154"/>
        <g id="Grupo_1898" data-name="Grupo 1898">
          <path id="Trazado_1714" data-name="Trazado 1714" d="M-1150.252,702.572h14.022l-7.01-7.009Z" fill="#d3097f"/>
        </g>
      </g>
      <g id="Grupo_1901" data-name="Grupo 1901">
        <line id="Línea_786" data-name="Línea 786" y1="6.925" transform="translate(-1290.656 1765.333)" fill="none" stroke="#d3097f" stroke-miterlimit="10" stroke-width="1.154"/>
        <line id="Línea_787" data-name="Línea 787" y1="692.033" transform="translate(-1290.656 1059.32)" fill="none" stroke="#d3097f" stroke-miterlimit="10" stroke-width="1.154" stroke-dasharray="13.98 13.98"/>
        <line id="Línea_788" data-name="Línea 788" y1="6.925" transform="translate(-1290.656 1045.404)" fill="none" stroke="#d3097f" stroke-miterlimit="10" stroke-width="1.154"/>
        <g id="Grupo_1900" data-name="Grupo 1900">
          <path id="Trazado_1715" data-name="Trazado 1715" d="M-1297.668,1046.344h14.022l-7.01-7.009Z" fill="#d3097f"/>
        </g>
      </g>
      <g id="Grupo_1903" data-name="Grupo 1903">
        <line id="Línea_789" data-name="Línea 789" x2="6.925" transform="translate(-1019.416 1851.899)" fill="none" stroke="#d3097f" stroke-miterlimit="10" stroke-width="1.154"/>
        <line id="Línea_790" data-name="Línea 790" x2="188.27" transform="translate(-998.545 1851.899)" fill="none" stroke="#d3097f" stroke-miterlimit="10" stroke-width="1.154" stroke-dasharray="13.946 13.946"/>
        <line id="Línea_791" data-name="Línea 791" x2="6.925" transform="translate(-803.303 1851.899)" fill="none" stroke="#d3097f" stroke-miterlimit="10" stroke-width="1.154"/>
        <g id="Grupo_1902" data-name="Grupo 1902">
          <path id="Trazado_1716" data-name="Trazado 1716" d="M-797.318,1844.888v14.022l7.009-7.01Z" fill="#d3097f"/>
        </g>
      </g>
      <g id="Grupo_1905" data-name="Grupo 1905">
        <line id="Línea_792" data-name="Línea 792" x1="1.838" y2="6.677" transform="translate(-1290.683 1952.646)" fill="none" stroke="#d3097f" stroke-miterlimit="10" stroke-width="1.154"/>
        <line id="Línea_793" data-name="Línea 793" x1="44.987" y2="163.403" transform="translate(-1339.581 1973.532)" fill="none" stroke="#d3097f" stroke-miterlimit="10" stroke-width="1.154" stroke-dasharray="14.738 14.738"/>
        <line id="Línea_794" data-name="Línea 794" x1="1.838" y2="6.677" transform="translate(-1343.376 2144.039)" fill="none" stroke="#d3097f" stroke-miterlimit="10" stroke-width="1.154"/>
        <g id="Grupo_1904" data-name="Grupo 1904">
          <path id="Trazado_1717" data-name="Trazado 1717" d="M-1336.366,2151.67l-13.519-3.722,4.9,8.618Z" fill="#d3097f"/>
        </g>
      </g>
      <g id="Grupo_1907" data-name="Grupo 1907">
        <line id="Línea_795" data-name="Línea 795" x2="4.163" y2="5.534" transform="translate(-1085.928 1950.37)" fill="none" stroke="#d3097f" stroke-miterlimit="10" stroke-width="1.154"/>
        <line id="Línea_796" data-name="Línea 796" x2="317.269" y2="421.792" transform="translate(-1073.304 1967.152)" fill="none" stroke="#d3097f" stroke-miterlimit="10" stroke-width="1.154" stroke-dasharray="14.075 14.075"/>
        <line id="Línea_797" data-name="Línea 797" x2="4.163" y2="5.534" transform="translate(-751.805 2394.568)" fill="none" stroke="#d3097f" stroke-miterlimit="10" stroke-width="1.154"/>
        <g id="Grupo_1906" data-name="Grupo 1906">
          <path id="Trazado_1718" data-name="Trazado 1718" d="M-742.6,2395.137l-11.206,8.429,9.815,1.387Z" fill="#d3097f"/>
        </g>
      </g>
      <g id="Grupo_1909" data-name="Grupo 1909">
        <line id="Línea_798" data-name="Línea 798" y1="3.902" x2="5.721" transform="translate(-1211.709 1764.228)" fill="none" stroke="#d3097f" stroke-miterlimit="10" stroke-width="1.154"/>
        <line id="Línea_799" data-name="Línea 799" y1="329.95" x2="483.833" transform="translate(-1194.328 1426.327)" fill="none" stroke="#d3097f" stroke-miterlimit="10" stroke-width="1.154" stroke-dasharray="14.112 14.112"/>
        <line id="Línea_800" data-name="Línea 800" y1="3.902" x2="5.721" transform="translate(-704.666 1418.45)" fill="none" stroke="#d3097f" stroke-miterlimit="10" stroke-width="1.154"/>
        <g id="Grupo_1908" data-name="Grupo 1908">
          <path id="Trazado_1719" data-name="Trazado 1719" d="M-703.672,1413.187l7.9,11.585,1.841-9.74Z" fill="#d3097f"/>
        </g>
      </g>
      <text id="Persistencia" transform="translate(-1538.128 212.596)" font-size="20" font-family="Roboto-Medium, Roboto" font-weight="500"><tspan x="0" y="21">Persistencia</tspan></text>
      <text id="Modelo" transform="translate(-1538.128 -197.148)" font-size="20" font-family="Roboto-Medium, Roboto" font-weight="500"><tspan x="0" y="21">Modelo</tspan></text>
      <text id="Servicios" transform="translate(-1538.128 1138.272)" font-size="20" font-family="Roboto-Medium, Roboto" font-weight="500"><tspan x="0" y="21">Servicios</tspan></text>
      <text id="Exposicion" transform="translate(-1538.128 1553.787)" font-size="20" font-family="Roboto-Medium, Roboto" font-weight="500"><tspan x="0" y="21">Exposicion</tspan></text>
      <text id="_serialVersionUID:_long_CAUSED_BY:_String_cause:_Throwable" data-name="+ serialVersionUID: long
+ CAUSED_BY: String
+ cause: Throwable" transform="translate(-1393.306 -137.552)" fill="#1d1d1b" font-size="16.458" font-family="Roboto-Medium, Roboto" font-weight="500"><tspan x="0" y="17">+ serialVersionUID: long</tspan><tspan x="0" y="36.75">+ CAUSED_BY: String</tspan><tspan x="0" y="56.5">+ cause: Throwable</tspan></text>
      <text id="_GeneralException_String_GeneralException_Throwable_GeneralException_String_Throwable_getCause_:_Throwable_toString_:_String" data-name="+ GeneralException(String)
+ GeneralException(Throwable)
+ GeneralException(String, Throwable)
+ getCause(): Throwable
+ toString(): String" transform="translate(-1393.306 -29.056)" fill="#1d1d1b" font-size="16.458" font-family="Roboto-Medium, Roboto" font-weight="500"><tspan x="0" y="17">+ GeneralException(String)</tspan><tspan x="0" y="36.75">+ GeneralException(Throwable)</tspan><tspan x="0" y="56.5">+ GeneralException(String, Throwable)</tspan><tspan x="0" y="76.249">+ getCause(): Throwable</tspan><tspan x="0" y="95.999">+ toString(): String</tspan></text>
      <text id="_CARACTER_COMA:_String_paqueteEntidades:_String_propiedades:_Propeties_orm:_String_" data-name="+ CARACTER_COMA: String
+ paqueteEntidades: String
+ propiedades: Propeties
+ orm: String[]" transform="translate(-1393.306 443.015)" fill="#1d1d1b" font-size="16.458" font-family="Roboto-Medium, Roboto" font-weight="500"><tspan x="0" y="17">+ CARACTER_COMA: String</tspan><tspan x="0" y="36.75">+ paqueteEntidades: String</tspan><tspan x="0" y="56.5">+ propiedades: Propeties</tspan><tspan x="0" y="76.249">+ orm: String[]</tspan></text>
      <text id="_Java_Class_PersistenceBaseApplicationContext" data-name="&lt;&lt;Java Class&gt;&gt;
PersistenceBaseApplicationContext" transform="translate(-1316.43 341.445)" fill="#1d1d1b" font-size="16.458" font-family="Roboto-Medium, Roboto" font-weight="500"><tspan x="122.655" y="17">&lt;&lt;Java Class&gt;&gt;</tspan><tspan x="47.091" y="36.75">PersistenceBaseApplicationContext</tspan></text>
      <text id="_PersistenceBaseApplicationContext_dataSource_:_DataSource_entinyManagerFactory_:_LocalContainerEntityManagerFactoryBean_jpaVendorAdapter_:_AbstractJpaVendorAdapter_persistenceProvider_:_PersistenceProvider" data-name="+ PersistenceBaseApplicationContext()
+ dataSource(): DataSource
+ entinyManagerFactory(): LocalContainerEntityManagerFactoryBean
+ jpaVendorAdapter(): AbstractJpaVendorAdapter
+ persistenceProvider(): PersistenceProvider" transform="translate(-1393.306 558.436)" fill="#1d1d1b" font-size="16.458" font-family="Roboto-Medium, Roboto" font-weight="500"><tspan x="0" y="17">+ PersistenceBaseApplicationContext()</tspan><tspan x="0" y="36.75">+ dataSource(): DataSource</tspan><tspan x="0" y="56.5">+ entinyManagerFactory(): LocalContainerEntityManagerFactoryBean</tspan><tspan x="0" y="76.249">+ jpaVendorAdapter(): AbstractJpaVendorAdapter</tspan><tspan x="0" y="95.999">+ persistenceProvider(): PersistenceProvider</tspan></text>
      <text id="_jndiDataSource:_String" data-name="+ jndiDataSource: String" transform="translate(-1393.306 913.932)" fill="#1d1d1b" font-size="16.458" font-family="Roboto-Medium, Roboto" font-weight="500"><tspan x="0" y="17">+ jndiDataSource: String</tspan></text>
      <text id="_Java_Class_PersistenceBaseApplicationContext-2" data-name="&lt;&lt;Java Class&gt;&gt;
PersistenceBaseApplicationContext" transform="translate(-1314.122 807.744)" fill="#1d1d1b" font-size="16.458" font-family="Roboto-Medium, Roboto" font-weight="500"><tspan x="122.655" y="17">&lt;&lt;Java Class&gt;&gt;</tspan><tspan x="47.091" y="36.75">PersistenceBaseApplicationContext</tspan></text>
      <text id="_PersistenceApplicationContext_dataSource_:_DataSource" data-name="+ PersistenceApplicationContext()
+ dataSource(): DataSource" transform="translate(-1390.528 976.26)" fill="#1d1d1b" font-size="16.458" font-family="Roboto-Medium, Roboto" font-weight="500"><tspan x="0" y="17">+ PersistenceApplicationContext()</tspan><tspan x="0" y="36.75">+ dataSource(): DataSource</tspan></text>
      <text id="_entityManagerFactory:_EntinyManagerFactory" data-name="+ entityManagerFactory: EntinyManagerFactory" transform="translate(-1022.805 1290.204)" fill="#1d1d1b" font-size="16.458" font-family="Roboto-Medium, Roboto" font-weight="500"><tspan x="0" y="17">+ entityManagerFactory: EntinyManagerFactory</tspan></text>
      <text id="_Java_Class_ServiceApplicationContext" data-name="&lt;&lt;Java Class&gt;&gt;
ServiceApplicationContext" transform="translate(-943.621 1184.018)" fill="#1d1d1b" font-size="16.458" font-family="Roboto-Medium, Roboto" font-weight="500"><tspan x="122.655" y="17">&lt;&lt;Java Class&gt;&gt;</tspan><tspan x="81.771" y="36.75">ServiceApplicationContext</tspan></text>
      <text id="_ServiceApplicationContext_transactionManager_:_PlatformTransactionManager" data-name="+ ServiceApplicationContext()
+ transactionManager(): PlatformTransactionManager" transform="translate(-1020.027 1352.532)" fill="#1d1d1b" font-size="16.458" font-family="Roboto-Medium, Roboto" font-weight="500"><tspan x="0" y="17">+ ServiceApplicationContext()</tspan><tspan x="0" y="36.75">+ transactionManager(): PlatformTransactionManager</tspan></text>
      <text id="_PresentacionConstantes_" data-name="+ PresentacionConstantes()" transform="translate(-781.296 2047.365)" fill="#1d1d1b" font-size="16.458" font-family="Roboto-Medium, Roboto" font-weight="500"><tspan x="0" y="17">+ PresentacionConstantes()</tspan></text>
      <text id="_Java_Class_ExposicionConstantes" data-name="&lt;&lt;Java Class&gt;&gt;
ExposicionConstantes" transform="translate(-790.307 1801.519)" fill="#1d1d1b" font-size="16.458" font-family="Roboto-Medium, Roboto" font-weight="500"><tspan x="88.606" y="17">&lt;&lt;Java Class&gt;&gt;</tspan><tspan x="63.256" y="36.75">ExposicionConstantes</tspan></text>
      <text id="_VIEW_PREFIX:_String_PUBLIC_PREFIX:_String_VIEW_SUFFIX:_String_SPRING_SERVELT:_String_CARACTER_DIAGONAL:_String_" data-name="+ VIEW_PREFIX: String
+ PUBLIC_PREFIX: String
+ VIEW_SUFFIX: String
+ SPRING_SERVELT: String
+ CARACTER_DIAGONAL: String
" transform="translate(-780.082 1906.553)" fill="#1d1d1b" font-size="16.458" font-family="Roboto-Medium, Roboto" font-weight="500"><tspan x="0" y="17">+ VIEW_PREFIX: String</tspan><tspan x="0" y="36.75">+ PUBLIC_PREFIX: String</tspan><tspan x="0" y="56.5">+ VIEW_SUFFIX: String</tspan><tspan x="0" y="76.249">+ SPRING_SERVELT: String</tspan><tspan x="0" y="95.999">+ CARACTER_DIAGONAL: String</tspan><tspan font-family="Roboto-Medium"><tspan x="0" y="115.749"></tspan></tspan></text>
      <text id="_Java_Class_PropertiesApplicationContext" data-name="&lt;&lt;Java Class&gt;&gt;
PropertiesApplicationContext" transform="translate(-1052.313 2423.639)" fill="#1d1d1b" font-size="16.458" font-family="Roboto-Medium, Roboto" font-weight="500"><tspan x="227.111" y="17">&lt;&lt;Java Class&gt;&gt;</tspan><tspan x="175.133" y="36.75">PropertiesApplicationContext</tspan></text>
      <text id="_VARIABLE_PROPIEDADES:_String_CARPETA_PROPIEDADES:_String_" data-name="+ VARIABLE_PROPIEDADES: String
+ CARPETA_PROPIEDADES: String
" transform="translate(-1040.991 2528.672)" fill="#1d1d1b" font-size="16.458" font-family="Roboto-Medium, Roboto" font-weight="500"><tspan x="0" y="17">+ VARIABLE_PROPIEDADES: String</tspan><tspan x="0" y="36.75">+ CARPETA_PROPIEDADES: String</tspan></text>
      <text id="_PropertiesApplicationContext_propiedades_:_PropertiesFactoryBean_propetyPlaceholderConfigurer_:_PropertySourcesPlaceholderConfigurer_" data-name="+ PropertiesApplicationContext()
+ propiedades(): PropertiesFactoryBean
+ propetyPlaceholderConfigurer(): PropertySourcesPlaceholderConfigurer
" transform="translate(-1041.063 2601.387)" fill="#1d1d1b" font-size="16.458" font-family="Roboto-Medium, Roboto" font-weight="500"><tspan x="0" y="17">+ PropertiesApplicationContext()</tspan><tspan x="0" y="36.75">+ propiedades(): PropertiesFactoryBean</tspan><tspan x="0" y="56.5">+ propetyPlaceholderConfigurer(): PropertySourcesPlaceholderConfigurer</tspan><tspan font-family="Roboto-Medium"><tspan x="0" y="76.249"></tspan></tspan></text>
      <text id="_Java_Class_Applicationinitializer" data-name="&lt;&lt;Java Class&gt;&gt;
Applicationinitializer" transform="translate(-1459.552 1786.515)" fill="#1d1d1b" font-size="16.458" font-family="Roboto-Medium, Roboto" font-weight="500"><tspan x="122.655" y="17">&lt;&lt;Java Class&gt;&gt;</tspan><tspan x="103.955" y="36.75">Applicationinitializer</tspan></text>
      <text id="_Applicationinitalizer_onStartup_ServietContext_:_vold" data-name="+ Applicationinitalizer()
+ onStartup(ServietContext): vold" transform="translate(-1536.528 1890.394)" fill="#1d1d1b" font-size="16.458" font-family="Roboto-Medium, Roboto" font-weight="500"><tspan x="0" y="17">+ Applicationinitalizer()</tspan><tspan x="0" y="36.75">+ onStartup(ServietContext): vold</tspan></text>
      <text id="_Java_Class_WebApplicationContext" data-name="&lt;&lt;Java Class&gt;&gt;
WebApplicationContext" transform="translate(-1577.478 2170.867)" fill="#1d1d1b" font-size="16.458" font-family="Roboto-Medium, Roboto" font-weight="500"><tspan x="228.266" y="17">&lt;&lt;Java Class&gt;&gt;</tspan><tspan x="198.335" y="36.75">WebApplicationContext</tspan></text>
      <text id="_WebApplicationContext_configureViewResolver_:_ViewResolver_addResourceHandlers_ResourceHandlerResgistry:_void_configureDefaultServietHandling_DefaultServie:_HandlerConfigurer_:_void" data-name="+ WebApplicationContext()
+ configureViewResolver(): ViewResolver
+ addResourceHandlers(ResourceHandlerResgistry: void)
+ configureDefaultServietHandling (DefaultServie: HandlerConfigurer): void" transform="translate(-1566.658 2251.661)" fill="#1d1d1b" font-size="16.458" font-family="Roboto-Medium, Roboto" font-weight="500"><tspan x="0" y="17">+ WebApplicationContext()</tspan><tspan x="0" y="36.75">+ configureViewResolver(): ViewResolver</tspan><tspan x="0" y="56.5">+ addResourceHandlers(ResourceHandlerResgistry: void)</tspan><tspan x="0" y="76.249">+ configureDefaultServietHandling (DefaultServie: HandlerConfigurer): void</tspan></text>
      <rect id="Rectángulo_3796" data-name="Rectángulo 3796" width="1088.419" height="4" transform="translate(-1565.936 175.987)" fill="#d3097f"/>
      <rect id="Rectángulo_3797" data-name="Rectángulo 3797" width="1088.419" height="4" transform="translate(-1565.936 1107.434)" fill="#d3097f"/>
      <rect id="Rectángulo_3798" data-name="Rectángulo 3798" width="1088.419" height="4" transform="translate(-1565.936 1524.104)" fill="#d3097f"/>
      <g id="Grupo_1911" data-name="Grupo 1911">
        <rect id="Rectángulo_3799" data-name="Rectángulo 3799" width="64.636" height="43.86" transform="translate(-1324.489 1321.287)" fill="#fff"/>
        <g id="Grupo_1910" data-name="Grupo 1910">
          <path id="Trazado_1720" data-name="Trazado 1720" d="M-1299.469,1333.651v12.612a6.134,6.134,0,0,1-1.924,4.764,7.314,7.314,0,0,1-5.127,1.756,7.366,7.366,0,0,1-5.146-1.73,6.162,6.162,0,0,1-1.906-4.8v-12.6h3.267v12.625a4.01,4.01,0,0,0,.959,2.891,3.743,3.743,0,0,0,2.826,1q3.785,0,3.785-3.993v-12.521Z"/>
          <path id="Trazado_1721" data-name="Trazado 1721" d="M-1288.412,1348.713a1.425,1.425,0,0,0-.694-1.283,7.371,7.371,0,0,0-2.3-.778,11.83,11.83,0,0,1-2.683-.856,3.58,3.58,0,0,1-2.359-3.305,3.734,3.734,0,0,1,1.529-3.033,6.049,6.049,0,0,1,3.889-1.219,6.293,6.293,0,0,1,4.064,1.245,3.948,3.948,0,0,1,1.548,3.227h-3.149a1.944,1.944,0,0,0-.674-1.51,2.584,2.584,0,0,0-1.789-.6,2.785,2.785,0,0,0-1.691.48,1.512,1.512,0,0,0-.655,1.283,1.277,1.277,0,0,0,.609,1.128,8.366,8.366,0,0,0,2.463.81,11.619,11.619,0,0,1,2.909.972,4.116,4.116,0,0,1,1.569,1.355,3.457,3.457,0,0,1,.512,1.918,3.656,3.656,0,0,1-1.568,3.066,6.691,6.691,0,0,1-4.109,1.173,7.25,7.25,0,0,1-3.072-.622,5.053,5.053,0,0,1-2.1-1.711,4.052,4.052,0,0,1-.752-2.346h3.059a2.217,2.217,0,0,0,.843,1.717,3.271,3.271,0,0,0,2.061.6,3.188,3.188,0,0,0,1.892-.473A1.465,1.465,0,0,0-1288.412,1348.713Z"/>
          <path id="Trazado_1722" data-name="Trazado 1722" d="M-1276.4,1352.783a6.517,6.517,0,0,1-4.854-1.886,6.84,6.84,0,0,1-1.86-5.023v-.389a8.413,8.413,0,0,1,.81-3.752,6.158,6.158,0,0,1,2.275-2.573,6.009,6.009,0,0,1,3.266-.921,5.506,5.506,0,0,1,4.427,1.828,7.728,7.728,0,0,1,1.562,5.172v1.27h-9.164a4.212,4.212,0,0,0,1.159,2.748,3.485,3.485,0,0,0,2.561,1.011,4.262,4.262,0,0,0,3.525-1.75l1.7,1.621a5.684,5.684,0,0,1-2.249,1.951A7.047,7.047,0,0,1-1276.4,1352.783Zm-.376-12.016a2.654,2.654,0,0,0-2.093.907,4.7,4.7,0,0,0-1.018,2.528h6v-.233a3.824,3.824,0,0,0-.843-2.392A2.631,2.631,0,0,0-1276.772,1340.767Z"/>
        </g>
      </g>
      <g id="Grupo_1913" data-name="Grupo 1913">
        <rect id="Rectángulo_3800" data-name="Rectángulo 3800" width="64.636" height="43.86" transform="translate(-895.123 1509.423)" fill="#fff"/>
        <g id="Grupo_1912" data-name="Grupo 1912">
          <path id="Trazado_1723" data-name="Trazado 1723" d="M-870.1,1521.787V1534.4a6.134,6.134,0,0,1-1.924,4.764,7.314,7.314,0,0,1-5.127,1.756,7.365,7.365,0,0,1-5.146-1.73,6.158,6.158,0,0,1-1.906-4.8v-12.6h3.267v12.625a4.01,4.01,0,0,0,.959,2.891,3.744,3.744,0,0,0,2.826,1q3.785,0,3.785-3.993v-12.521Z"/>
          <path id="Trazado_1724" data-name="Trazado 1724" d="M-859.046,1536.849a1.426,1.426,0,0,0-.694-1.283,7.371,7.371,0,0,0-2.3-.778,11.814,11.814,0,0,1-2.683-.856,3.581,3.581,0,0,1-2.36-3.305,3.732,3.732,0,0,1,1.53-3.033,6.048,6.048,0,0,1,3.889-1.219,6.292,6.292,0,0,1,4.064,1.245,3.948,3.948,0,0,1,1.548,3.227h-3.15a1.94,1.94,0,0,0-.674-1.51,2.58,2.58,0,0,0-1.788-.6,2.8,2.8,0,0,0-1.692.479,1.514,1.514,0,0,0-.655,1.283,1.275,1.275,0,0,0,.61,1.128,8.37,8.37,0,0,0,2.463.81,11.683,11.683,0,0,1,2.909.972,4.117,4.117,0,0,1,1.569,1.355,3.457,3.457,0,0,1,.512,1.918,3.656,3.656,0,0,1-1.568,3.066,6.692,6.692,0,0,1-4.11,1.173,7.25,7.25,0,0,1-3.072-.622,5.057,5.057,0,0,1-2.1-1.711,4.053,4.053,0,0,1-.752-2.346h3.059a2.219,2.219,0,0,0,.842,1.717,3.275,3.275,0,0,0,2.061.6,3.189,3.189,0,0,0,1.893-.473A1.464,1.464,0,0,0-859.046,1536.849Z"/>
          <path id="Trazado_1725" data-name="Trazado 1725" d="M-847.03,1540.919a6.517,6.517,0,0,1-4.854-1.886,6.84,6.84,0,0,1-1.86-5.023v-.389a8.428,8.428,0,0,1,.809-3.752,6.167,6.167,0,0,1,2.276-2.573,6.008,6.008,0,0,1,3.266-.921,5.506,5.506,0,0,1,4.427,1.828,7.732,7.732,0,0,1,1.562,5.172v1.27h-9.165a4.218,4.218,0,0,0,1.16,2.748,3.485,3.485,0,0,0,2.561,1.011,4.263,4.263,0,0,0,3.525-1.75l1.7,1.621a5.681,5.681,0,0,1-2.248,1.951A7.047,7.047,0,0,1-847.03,1540.919Zm-.376-12.016a2.654,2.654,0,0,0-2.093.907,4.7,4.7,0,0,0-1.018,2.528h6v-.233a3.833,3.833,0,0,0-.843-2.392A2.631,2.631,0,0,0-847.406,1528.9Z"/>
        </g>
      </g>
      <g id="Grupo_1915" data-name="Grupo 1915">
        <rect id="Rectángulo_3801" data-name="Rectángulo 3801" width="64.636" height="43.86" transform="translate(-936.674 1825.676)" fill="#fff"/>
        <g id="Grupo_1914" data-name="Grupo 1914">
          <path id="Trazado_1726" data-name="Trazado 1726" d="M-911.654,1838.04v12.612a6.131,6.131,0,0,1-1.925,4.764,7.314,7.314,0,0,1-5.127,1.756,7.362,7.362,0,0,1-5.146-1.73,6.161,6.161,0,0,1-1.905-4.8v-12.6h3.266v12.625a4.012,4.012,0,0,0,.959,2.891,3.746,3.746,0,0,0,2.826,1q3.785,0,3.785-3.992V1838.04Z"/>
          <path id="Trazado_1727" data-name="Trazado 1727" d="M-900.6,1853.1a1.429,1.429,0,0,0-.693-1.283,7.373,7.373,0,0,0-2.3-.778,11.833,11.833,0,0,1-2.683-.855,3.581,3.581,0,0,1-2.359-3.306,3.736,3.736,0,0,1,1.529-3.033,6.049,6.049,0,0,1,3.889-1.218,6.289,6.289,0,0,1,4.064,1.244,3.949,3.949,0,0,1,1.549,3.228h-3.15a1.941,1.941,0,0,0-.674-1.51,2.583,2.583,0,0,0-1.789-.6,2.793,2.793,0,0,0-1.691.479,1.512,1.512,0,0,0-.655,1.284,1.275,1.275,0,0,0,.609,1.127,8.39,8.39,0,0,0,2.463.811,11.643,11.643,0,0,1,2.91.972,4.131,4.131,0,0,1,1.569,1.354,3.46,3.46,0,0,1,.511,1.919,3.654,3.654,0,0,1-1.568,3.065,6.68,6.68,0,0,1-4.109,1.173,7.252,7.252,0,0,1-3.072-.622,5.055,5.055,0,0,1-2.1-1.711,4.052,4.052,0,0,1-.752-2.346h3.059a2.223,2.223,0,0,0,.843,1.718,3.277,3.277,0,0,0,2.061.6,3.18,3.18,0,0,0,1.892-.473A1.461,1.461,0,0,0-900.6,1853.1Z"/>
          <path id="Trazado_1728" data-name="Trazado 1728" d="M-888.581,1857.172a6.514,6.514,0,0,1-4.855-1.886,6.84,6.84,0,0,1-1.86-5.023v-.388a8.42,8.42,0,0,1,.81-3.753,6.165,6.165,0,0,1,2.275-2.573,6.023,6.023,0,0,1,3.267-.92,5.5,5.5,0,0,1,4.426,1.827,7.732,7.732,0,0,1,1.562,5.172v1.271h-9.164a4.213,4.213,0,0,0,1.16,2.748,3.481,3.481,0,0,0,2.56,1.011,4.268,4.268,0,0,0,3.526-1.75l1.7,1.62a5.676,5.676,0,0,1-2.249,1.951A7.046,7.046,0,0,1-888.581,1857.172Zm-.376-12.016a2.654,2.654,0,0,0-2.094.908,4.7,4.7,0,0,0-1.017,2.527h6v-.233a3.835,3.835,0,0,0-.842-2.392A2.636,2.636,0,0,0-888.957,1845.156Z"/>
        </g>
      </g>
      <g id="Grupo_1917" data-name="Grupo 1917">
        <rect id="Rectángulo_3802" data-name="Rectángulo 3802" width="64.636" height="43.86" transform="translate(-925.132 2193.869)" fill="#fff"/>
        <g id="Grupo_1916" data-name="Grupo 1916">
          <path id="Trazado_1729" data-name="Trazado 1729" d="M-900.112,2206.233v12.612a6.131,6.131,0,0,1-1.925,4.764,7.314,7.314,0,0,1-5.127,1.756,7.367,7.367,0,0,1-5.146-1.73,6.162,6.162,0,0,1-1.905-4.8v-12.6h3.266v12.625a4.014,4.014,0,0,0,.959,2.891,3.745,3.745,0,0,0,2.826,1q3.785,0,3.785-3.993v-12.521Z"/>
          <path id="Trazado_1730" data-name="Trazado 1730" d="M-889.055,2221.295a1.428,1.428,0,0,0-.694-1.283,7.376,7.376,0,0,0-2.3-.778,11.828,11.828,0,0,1-2.683-.856,3.579,3.579,0,0,1-2.359-3.3,3.734,3.734,0,0,1,1.529-3.033,6.05,6.05,0,0,1,3.889-1.219,6.291,6.291,0,0,1,4.064,1.245,3.946,3.946,0,0,1,1.549,3.227h-3.15a1.944,1.944,0,0,0-.674-1.51,2.581,2.581,0,0,0-1.789-.6,2.8,2.8,0,0,0-1.691.479,1.512,1.512,0,0,0-.655,1.283,1.276,1.276,0,0,0,.609,1.128,8.381,8.381,0,0,0,2.463.81,11.678,11.678,0,0,1,2.91.972,4.131,4.131,0,0,1,1.569,1.355,3.457,3.457,0,0,1,.512,1.918,3.654,3.654,0,0,1-1.569,3.066,6.685,6.685,0,0,1-4.109,1.173,7.25,7.25,0,0,1-3.072-.622,5.053,5.053,0,0,1-2.1-1.711,4.052,4.052,0,0,1-.752-2.346h3.059a2.221,2.221,0,0,0,.843,1.717,3.272,3.272,0,0,0,2.061.6,3.186,3.186,0,0,0,1.892-.473A1.463,1.463,0,0,0-889.055,2221.295Z"/>
          <path id="Trazado_1731" data-name="Trazado 1731" d="M-877.039,2225.365a6.514,6.514,0,0,1-4.854-1.886,6.837,6.837,0,0,1-1.861-5.023v-.389a8.415,8.415,0,0,1,.81-3.752,6.157,6.157,0,0,1,2.275-2.573,6.014,6.014,0,0,1,3.267-.921,5.508,5.508,0,0,1,4.427,1.828,7.732,7.732,0,0,1,1.561,5.172v1.27h-9.164a4.212,4.212,0,0,0,1.16,2.748,3.484,3.484,0,0,0,2.56,1.011,4.267,4.267,0,0,0,3.526-1.749l1.7,1.62a5.685,5.685,0,0,1-2.249,1.951A7.048,7.048,0,0,1-877.039,2225.365Zm-.376-12.016a2.652,2.652,0,0,0-2.093.907,4.7,4.7,0,0,0-1.018,2.528h6v-.233a3.833,3.833,0,0,0-.842-2.392A2.632,2.632,0,0,0-877.415,2213.349Z"/>
        </g>
      </g>
      <g id="Grupo_1919" data-name="Grupo 1919">
        <rect id="Rectángulo_3803" data-name="Rectángulo 3803" width="64.636" height="43.86" transform="translate(-1348.727 2032.28)" fill="#fff"/>
        <g id="Grupo_1918" data-name="Grupo 1918">
          <path id="Trazado_1732" data-name="Trazado 1732" d="M-1323.707,2044.643v12.613a6.127,6.127,0,0,1-1.925,4.763,7.307,7.307,0,0,1-5.127,1.757,7.364,7.364,0,0,1-5.146-1.731,6.157,6.157,0,0,1-1.905-4.8v-12.6h3.266v12.626a4.005,4.005,0,0,0,.96,2.89,3.738,3.738,0,0,0,2.825,1q3.786,0,3.785-3.992v-12.522Z"/>
          <path id="Trazado_1733" data-name="Trazado 1733" d="M-1312.65,2059.706a1.428,1.428,0,0,0-.694-1.284,7.4,7.4,0,0,0-2.3-.777,11.847,11.847,0,0,1-2.684-.856,3.58,3.58,0,0,1-2.359-3.305,3.732,3.732,0,0,1,1.53-3.033,6.039,6.039,0,0,1,3.888-1.219,6.29,6.29,0,0,1,4.064,1.245,3.946,3.946,0,0,1,1.549,3.227h-3.15a1.942,1.942,0,0,0-.674-1.51,2.581,2.581,0,0,0-1.789-.6,2.787,2.787,0,0,0-1.691.48,1.511,1.511,0,0,0-.655,1.283,1.277,1.277,0,0,0,.609,1.128,8.373,8.373,0,0,0,2.463.81,11.638,11.638,0,0,1,2.91.972,4.119,4.119,0,0,1,1.569,1.355,3.456,3.456,0,0,1,.512,1.918,3.654,3.654,0,0,1-1.569,3.066,6.687,6.687,0,0,1-4.109,1.173,7.265,7.265,0,0,1-3.072-.622,5.055,5.055,0,0,1-2.1-1.711,4.052,4.052,0,0,1-.751-2.347h3.059a2.219,2.219,0,0,0,.842,1.718,3.274,3.274,0,0,0,2.061.6,3.192,3.192,0,0,0,1.893-.473A1.465,1.465,0,0,0-1312.65,2059.706Z"/>
          <path id="Trazado_1734" data-name="Trazado 1734" d="M-1300.634,2063.776a6.517,6.517,0,0,1-4.854-1.886,6.84,6.84,0,0,1-1.861-5.023v-.389a8.417,8.417,0,0,1,.81-3.753,6.182,6.182,0,0,1,2.275-2.573,6.022,6.022,0,0,1,3.267-.92,5.505,5.505,0,0,1,4.427,1.828,7.729,7.729,0,0,1,1.562,5.172v1.27h-9.165a4.213,4.213,0,0,0,1.16,2.748,3.484,3.484,0,0,0,2.56,1.011,4.263,4.263,0,0,0,3.526-1.75l1.7,1.621a5.668,5.668,0,0,1-2.249,1.95A7.045,7.045,0,0,1-1300.634,2063.776Zm-.376-12.016a2.651,2.651,0,0,0-2.093.907,4.7,4.7,0,0,0-1.018,2.528h6v-.234a3.829,3.829,0,0,0-.843-2.391A2.632,2.632,0,0,0-1301.01,2051.76Z"/>
        </g>
      </g>
    </g>
  </g>
</svg>
