<svg xmlns="http://www.w3.org/2000/svg" xmlns:xlink="http://www.w3.org/1999/xlink" width="735" height="752.389" viewBox="0 0 735 752.389">
  <defs>
    <filter id="Trazado_1660" x="0" y="6.904" width="735" height="745.485" filterUnits="userSpaceOnUse">
      <feOffset dy="3" input="SourceAlpha"/>
      <feGaussianBlur stdDeviation="3" result="blur"/>
      <feFlood flood-opacity="0.078"/>
      <feComposite operator="in" in2="blur"/>
      <feComposite in="SourceGraphic"/>
    </filter>
  </defs>
  <g id="Grupo_2882" data-name="Grupo 2882" transform="translate(-404 -4740)">
    <g transform="matrix(1, 0, 0, 1, 404, 4740)" filter="url(#Trazado_1660)">
      <path id="Trazado_1660-2" data-name="Trazado 1660" d="M834.708,5480.4H172.988c-15.265,0-27.64-5.29-27.64-11.815V4764.734c0-6.525,12.375-11.815,27.64-11.815h661.72c15.265,0,27.64,5.29,27.64,11.815v703.855C862.348,5475.114,849.973,5480.4,834.708,5480.4Z" transform="translate(-136.35 -4740.01)" fill="#fdf7fa"/>
    </g>
    <rect id="Rectángulo_3673" data-name="Rectángulo 3673" width="243.57" height="43.748" transform="translate(415.42 4740)" fill="#d3097f"/>
    <rect id="Rectángulo_3674" data-name="Rectángulo 3674" width="243.57" height="13.711" transform="translate(415.42 4740)" fill="#98145e"/>
    <rect id="Rectángulo_3675" data-name="Rectángulo 3675" width="471.01" height="43.748" transform="translate(658.99 4740)" fill="#d970a8"/>
    <rect id="Rectángulo_3676" data-name="Rectángulo 3676" width="471.01" height="13.711" transform="translate(658.99 4740)" fill="#b60f6e"/>
    <text id="Caso_de_Uso" data-name="Caso de Uso" transform="translate(416 4756.256)" fill="#fff" font-size="18" font-family="Roboto-Bold, Roboto" font-weight="700"><tspan x="61.731" y="19">Caso de Uso</tspan></text>
    <text id="Consumir_proyecto_rest" data-name="Consumir proyecto rest" transform="translate(683.992 4756.256)" fill="#fff" font-size="18" font-family="Roboto-Bold, Roboto" font-weight="700"><tspan x="0" y="19">Consumir proyecto rest</tspan></text>
    <text id="Versión" transform="translate(473.641 4804.833)" fill="#1d1d1b" font-size="16.937" font-family="Roboto-Bold, Roboto" font-weight="700"><tspan x="0" y="18">Versión</tspan></text>
    <text id="Actor" transform="translate(472.683 4870.161)" fill="#1d1d1b" font-size="16.937" font-family="Roboto-Bold, Roboto" font-weight="700"><tspan x="0" y="18">Actor</tspan></text>
    <text id="_1.0.0" data-name="1.0.0" transform="translate(698.661 4805.808)" fill="#1d1d1b" font-size="14" font-family="Roboto-Regular, Roboto"><tspan x="0" y="15">1.0.0</tspan></text>
    <text id="Descripción" transform="translate(472.683 4921.779)" fill="#1d1d1b" font-size="16.937" font-family="Roboto-Bold, Roboto" font-weight="700"><tspan x="0" y="18">Descripción</tspan></text>
    <text id="Programador_o_desarrollador" data-name="Programador o desarrollador" transform="translate(698.661 4871.137)" fill="#1d1d1b" font-size="14" font-family="Roboto-Regular, Roboto"><tspan x="0" y="15">Programador o desarrollador</tspan></text>
    <text id="Flujo_básico" data-name="Flujo básico" transform="translate(472.683 4988.72)" fill="#1d1d1b" font-size="16.937" font-family="Roboto-Bold, Roboto" font-weight="700"><tspan x="0" y="18">Flujo básico</tspan></text>
    <text id="Permite_hacer_uso_correcto_del_proyecto_rest" data-name="Permite hacer uso correcto del proyecto rest" transform="translate(698.661 4922.754)" fill="#1d1d1b" font-size="14" font-family="Roboto-Regular, Roboto"><tspan x="0" y="15">Permite hacer uso correcto del proyecto rest</tspan></text>
    <text id="Flujos_alternos" data-name="Flujos alternos" transform="translate(472.683 5115.344)" fill="#1d1d1b" font-size="16.937" font-family="Roboto-Bold, Roboto" font-weight="700"><tspan x="0" y="18">Flujos alternos</tspan></text>
    <text id="_1._Para_utilizar_el_proyecto_rest_se_hace_referencia_a_la_url_más_el_contexto_seguido_del_nombre_del_método._2._Dependiendo_del_tipo_de_mensaje_que_se_desee_enviar_se_parametrizará_la_url_esto_depende_si_es_post_get_put_delete._" data-name="1. Para utilizar el proyecto rest se hace referencia a la url más el contexto seguido del nombre del método.
2. Dependiendo del tipo de mensaje que se desee enviar se 			parametrizará la url esto depende si es post, get, put, delete.
" transform="translate(698.661 4989.696)" fill="#1d1d1b" font-size="14" font-family="Roboto-Bold, Roboto" font-weight="700"><tspan x="0" y="15">1. </tspan><tspan y="15" font-family="Roboto-Regular, Roboto" font-weight="400">Para utilizar el proyecto rest se hace referencia a la url más el </tspan><tspan x="0" y="31" font-family="Roboto-Regular, Roboto" font-weight="400">contexto seguido del nombre del método.</tspan><tspan x="0" y="47">2. </tspan><tspan y="47" xml:space="preserve" font-family="Roboto-Regular, Roboto" font-weight="400">Dependiendo del tipo de mensaje que se desee enviar se 			</tspan><tspan x="0" y="63" font-family="Roboto-Regular, Roboto" font-weight="400">parametrizará la url esto depende si es post, get, put, delete.</tspan><tspan font-family="Roboto-Regular" font-weight="400"><tspan x="0" y="79"></tspan></tspan></text>
    <text id="_1._Se_deberá_conocer_la_estructura_de_json_con_la_cual_se_comunicarán_los_servicios" data-name="1. Se deberá conocer la estructura de json con la cual se 				comunicarán los servicios" transform="translate(698.661 5229.233)" fill="#1d1d1b" font-size="14" font-family="Roboto-Bold, Roboto" font-weight="700"><tspan x="0" y="15">1. </tspan><tspan y="15" xml:space="preserve" font-family="Roboto-Regular, Roboto" font-weight="400">Se deberá conocer la estructura de json con la cual se 				</tspan><tspan x="0" y="31" font-family="Roboto-Regular, Roboto" font-weight="400">comunicarán los servicios</tspan></text>
    <text id="Pre-condiciones" transform="translate(472.683 5228.258)" fill="#1d1d1b" font-size="16.937" font-family="Roboto-Bold, Roboto" font-weight="700"><tspan x="0" y="18">Pre-condiciones</tspan></text>
    <text id="Post-condiciones" transform="translate(472.683 5332.299)" fill="#1d1d1b" font-size="16.937" font-family="Roboto-Bold, Roboto" font-weight="700"><tspan x="0" y="18">Post-condiciones</tspan></text>
    <text id="Notas" transform="translate(472.683 5416.178)" fill="#1d1d1b" font-size="16.937" font-family="Roboto-Bold, Roboto" font-weight="700"><tspan x="0" y="18">Notas</tspan></text>
  </g>
</svg>
