<svg xmlns="http://www.w3.org/2000/svg" xmlns:xlink="http://www.w3.org/1999/xlink" width="362" height="335.278" viewBox="0 0 362 335.278">
  <defs>
    <filter id="Rectángulo_4164" x="0" y="0" width="362" height="335.278" filterUnits="userSpaceOnUse">
      <feOffset input="SourceAlpha"/>
      <feGaussianBlur stdDeviation="3" result="blur"/>
      <feFlood flood-opacity="0.161"/>
      <feComposite operator="in" in2="blur"/>
      <feComposite in="SourceGraphic"/>
    </filter>
  </defs>
  <g id="Grupo_2471" data-name="Grupo 2471" transform="translate(-663 -590)">
    <g transform="matrix(1, 0, 0, 1, 663, 590)" filter="url(#Rectángulo_4164)">
      <rect id="Rectángulo_4164-2" data-name="Rectángulo 4164" width="344" height="317.278" transform="translate(9 9)" fill="#fff"/>
    </g>
    <text id="Subtítulo" transform="translate(740.449 655.517)" fill="#666" font-size="12" font-family="Roboto-Regular, Roboto" letter-spacing="0.033em" style="isolation: isolate"><tspan x="0" y="0">Subtítulo</tspan></text>
    <text id="H5_Título_aquí" data-name="H5 Título aquí" transform="translate(739.449 634.241)" fill="#333" font-size="24" font-family="Roboto-Regular, Roboto" style="isolation: isolate"><tspan x="0" y="0">H5 Título aquí</tspan></text>
    <text id="Cuerpo_2_Lorem_Ipsum_is_simply_dummy_text_of_the_printing." data-name="Cuerpo 2 Lorem Ipsum is simply dummy
text of the printing." transform="translate(686.061 822.986)" fill="#333" font-size="16" font-family="Roboto-Regular, Roboto" style="isolation: isolate"><tspan x="0" y="0">Cuerpo 2 Lorem Ipsum is simply dummy</tspan><tspan x="0" y="19.2">text of the printing.</tspan></text>
    <rect id="Rectángulo_4165" data-name="Rectángulo 4165" width="75.95" height="36" rx="15" transform="translate(772.866 865.493)" fill="#b7006d"/>
    <g id="Button" transform="translate(589.039 436.874)" style="isolation: isolate">
      <text id="Botón" transform="translate(200.807 450.708)" fill="#fff" font-size="14" font-family="Roboto-Medium, Roboto" font-weight="500" letter-spacing="0.096em" style="isolation: isolate"><tspan x="0" y="0">Botón</tspan></text>
    </g>
    <rect id="Rectángulo_4166" data-name="Rectángulo 4166" width="75.95" height="36" rx="15" transform="translate(687.1 866.056)" fill="none" stroke="#b7006d" stroke-miterlimit="10" stroke-width="1"/>
    <g id="Button-2" data-name="Button" transform="translate(589.039 436.874)">
      <text id="Botón-2" data-name="Botón" transform="translate(115.041 451.271)" fill="#b7006d" font-size="14" font-family="Roboto-Medium, Roboto" font-weight="500" letter-spacing="0.096em" style="isolation: isolate"><tspan x="0" y="0">Botón</tspan></text>
    </g>
    <rect id="Rectángulo_4167" data-name="Rectángulo 4167" width="40" height="40" transform="translate(687.063 616.044)" fill="#d5007f" opacity="0.1"/>
    <rect id="Rectángulo_4168" data-name="Rectángulo 4168" width="344" height="124" transform="translate(671.726 672.436)" fill="#d5007f" opacity="0.1"/>
    <g id="insert_photo-24px" transform="translate(812.13 703.159)">
      <path id="Trazado_2187" data-name="Trazado 2187" d="M0,0H62.711V62.711H0Z" fill="none"/>
      <path id="Trazado_2188" data-name="Trazado 2188" d="M54.96,49.187V8.773A5.79,5.79,0,0,0,49.187,3H8.773A5.79,5.79,0,0,0,3,8.773V49.187A5.79,5.79,0,0,0,8.773,54.96H49.187A5.79,5.79,0,0,0,54.96,49.187ZM18.877,33.31,26.093,42,36.2,28.98,49.187,46.3H8.773Z" transform="translate(2.375 2.375)" fill="#d50b7f"/>
    </g>
    <g id="insert_photo-24px-2" data-name="insert_photo-24px" transform="translate(697.13 626.044)">
      <path id="Trazado_2187-2" data-name="Trazado 2187" d="M0,0H19.825V19.825H0Z" fill="none"/>
      <path id="Trazado_2188-2" data-name="Trazado 2188" d="M19.427,17.6V4.825A1.831,1.831,0,0,0,17.6,3H4.825A1.831,1.831,0,0,0,3,4.825V17.6a1.831,1.831,0,0,0,1.825,1.825H17.6A1.831,1.831,0,0,0,19.427,17.6ZM8.019,12.582,10.3,15.329l3.194-4.116L17.6,16.689H4.825Z" transform="translate(-1.301 -1.301)" fill="#d50b7f"/>
    </g>
  </g>
</svg>
