<svg xmlns="http://www.w3.org/2000/svg" width="347" height="266" viewBox="0 0 347 266">
  <g id="Grupo_118" data-name="Grupo 118" transform="translate(-452 -52)">
    <g id="Grupo_117" data-name="Grupo 117" transform="translate(324 -366)">
      <g id="Grupo_115" data-name="Grupo 115" transform="translate(-284 418)">
        <rect id="Rectángulo_2" data-name="Rectángulo 2" width="347" height="52" transform="translate(412 23)"/>
        <line id="Línea_3" data-name="Línea 3" x2="26.064" transform="translate(430.742 44.51)" fill="none" stroke="#fff" stroke-width="3"/>
        <line id="Línea_4" data-name="Línea 4" x2="26.064" transform="translate(430.742 52.307)" fill="none" stroke="#fff" stroke-width="3"/>
        <line id="Línea_5" data-name="Línea 5" x2="26.064" transform="translate(430.742 60.318)" fill="none" stroke="#fff" stroke-width="3"/>
        <path id="Trazado_44" data-name="Trazado 44" d="M64.7,73.886s3.09,2.609,4.734,3.023c0,0,2.376-2.76,2.711-3.023Z" transform="translate(487.304 -22.666)" fill="#c2006d"/>
        <g id="Grupo_85" data-name="Grupo 85">
          <path id="Trazado_43" data-name="Trazado 43" d="M49.358,70.689H69.884l1.218.391H48.323Zm-.177-.538L45.5,71.584H73.871L70.2,70.151Z" transform="translate(496.757 -20.828)" fill="#fff"/>
          <path id="Trazado_45" data-name="Trazado 45" d="M121.825,50.8h5.353l11.4,8.613V50.8h5.4V65.549h-5.4L127.217,56.76v8.789h-5.392Z" transform="translate(459.192 -11.307)" fill="#fff"/>
          <text id="Instituto_Nacional_Electoral" data-name="Instituto Nacional Electoral" transform="translate(542.647 64.03)" fill="#fff" font-size="6.3" font-family="Roboto-Black, Roboto" font-weight="800"><tspan x="0" y="0" letter-spacing="0.039em">In</tspan><tspan y="0" letter-spacing="0.04em">s</tspan><tspan y="0" letter-spacing="0.039em">t</tspan><tspan y="0" letter-spacing="0.04em">i</tspan><tspan y="0" letter-spacing="0.039em">tu</tspan><tspan y="0" letter-spacing="0.025em">t</tspan><tspan y="0" letter-spacing="0.039em">o Na</tspan><tspan y="0" letter-spacing="0.04em">ci</tspan><tspan y="0" letter-spacing="0.039em">ona</tspan><tspan y="0" letter-spacing="0.04em">l</tspan><tspan y="0" letter-spacing="0.039em"> </tspan><tspan y="0" letter-spacing="0.04em">Elec</tspan><tspan y="0" letter-spacing="0.025em">t</tspan><tspan y="0" letter-spacing="0.039em">o</tspan><tspan y="0" letter-spacing="0.03em">r</tspan><tspan y="0" letter-spacing="0.039em">a</tspan><tspan y="0">l</tspan></text>
          <rect id="Rectángulo_70" data-name="Rectángulo 70" width="5.541" height="14.747" transform="translate(572.602 39.497)" fill="#fff"/>
          <path id="Trazado_46" data-name="Trazado 46" d="M171.506,50.8V65.549h19.245V62.771H177.138V59.428h13.613v-2.59H177.233V53.477h13.518V50.8Z" transform="translate(434.742 -11.307)" fill="#fff" fill-rule="evenodd"/>
          <path id="Trazado_47" data-name="Trazado 47" d="M55.336,53.756c1.363-1.9,6.151-8.259,9.448-9.68a29.309,29.309,0,0,0,9.667,9.68,25.582,25.582,0,0,0-5.884,4.491H59.116a19.845,19.845,0,0,1-3.78-4.491" transform="translate(491.914 -7.996)" fill="#c2006d"/>
        </g>
        <rect id="Rectángulo_71" data-name="Rectángulo 71" width="94.609" height="30.613" transform="translate(537.251 33.628)" fill="none"/>
        <path id="Trazado_72" data-name="Trazado 72" d="M19.3,18.153l-5.64-5.64a7.7,7.7,0,1,0-1.144,1.144l5.64,5.64a.4.4,0,0,0,.572,0l.572-.572A.4.4,0,0,0,19.3,18.153Zm-11.611-4.4a6.067,6.067,0,1,1,6.067-6.067A6.074,6.074,0,0,1,7.685,13.752Z" transform="translate(713.166 44.554)" fill="#fff"/>
      </g>
    </g>
    <rect id="Rectángulo_378" data-name="Rectángulo 378" width="347" height="8" transform="translate(452 175)" fill="#d8d8d8" opacity="0.651"/>
    <rect id="Rectángulo_351" data-name="Rectángulo 351" width="347" height="23" transform="translate(452 52)"/>
    <rect id="Rectángulo_356" data-name="Rectángulo 356" width="2.333" height="5.831" transform="translate(465.724 63.185)" fill="#fff"/>
    <rect id="Rectángulo_355" data-name="Rectángulo 355" width="2.333" height="6.998" transform="translate(469.223 62.018)" fill="#fff"/>
    <rect id="Rectángulo_354" data-name="Rectángulo 354" width="2.333" height="9.33" transform="translate(472.722 59.686)" fill="#fff"/>
    <rect id="Rectángulo_353" data-name="Rectángulo 353" width="2.333" height="10.496" transform="translate(476.22 58.52)" fill="#fff"/>
    <text id="RED" transform="translate(488.154 67.247)" fill="#fff" font-size="9" font-family="Roboto-Medium, Roboto" font-weight="500"><tspan x="0" y="0">RED</tspan></text>
    <text id="_12:00" data-name="12:00" transform="translate(612.334 67.269)" fill="#fff" font-size="9" font-family="Roboto-Medium, Roboto" font-weight="500"><tspan x="0" y="0">12:00</tspan></text>
    <path id="Trazado_68" data-name="Trazado 68" d="M116,19.135l5.107,9.362,5.107-9.362A12.331,12.331,0,0,0,116,19.135Z" transform="translate(398.995 40.519)" fill="#fff"/>
    <rect id="Rectángulo_352" data-name="Rectángulo 352" width="24.939" height="10.527" transform="translate(757.581 58.131)" fill="#fff"/>
    <text id="_100_" data-name="100%" transform="translate(726.453 66.786)" fill="#fff" font-size="9" font-family="Roboto-Medium, Roboto" font-weight="500"><tspan x="0" y="0">100%</tspan></text>
    <rect id="Rectángulo_347" data-name="Rectángulo 347" width="347" height="52" transform="translate(452 127)" fill="#262626"/>
    <text id="Opción_uno" data-name="Opción uno" transform="translate(468 148)" fill="#fff" font-size="14" font-family="Roboto-Medium, Roboto" font-weight="500"><tspan x="0" y="15">Opción uno</tspan></text>
    <text id="Opción_dos" data-name="Opción dos" transform="translate(562 148)" fill="#fff" font-size="14" font-family="Roboto-Medium, Roboto" font-weight="500" opacity="0.655"><tspan x="0" y="15">Opción dos</tspan></text>
    <text id="Opción_tres" data-name="Opción tres" transform="translate(655 148)" fill="#fff" font-size="14" font-family="Roboto-Medium, Roboto" font-weight="500" opacity="0.655"><tspan x="0" y="15">Opción tres</tspan></text>
    <text id="Opción" transform="translate(748 148)" fill="#fff" font-size="14" font-family="Roboto-Medium, Roboto" font-weight="500" opacity="0.655"><tspan x="0" y="15">Opción</tspan></text>
    <line id="Línea_104" data-name="Línea 104" x2="80" transform="translate(464.5 176.288)" fill="none" stroke="#e593be" stroke-width="6"/>
    <g id="Rectángulo_346" data-name="Rectángulo 346" transform="translate(452 52)" fill="none" stroke="#707070" stroke-width="1">
      <rect width="347" height="266" stroke="none"/>
      <rect x="0.5" y="0.5" width="346" height="265" fill="none"/>
    </g>
  </g>
</svg>
