<svg xmlns="http://www.w3.org/2000/svg" width="187" height="187" viewBox="0 0 187 187">
  <g id="Grupo_871" data-name="Grupo 871" transform="translate(-634 -1231)">
    <path id="Trazado_1413" data-name="Trazado 1413" d="M93.5,0A93.5,93.5,0,1,1,0,93.5,93.5,93.5,0,0,1,93.5,0Z" transform="translate(634 1231)" fill="#fff"/>
    <g id="Grupo_823" data-name="Grupo 823" transform="translate(40.541 377.608)">
      <g id="Grupo_816" data-name="Grupo 816" transform="translate(625.459 949.305)">
        <path id="Trazado_1414" data-name="Trazado 1414" d="M684.517,1042.528a2.074,2.074,0,0,1-2.074,2.075h-54.9a2.076,2.076,0,0,1-2.08-2.075,1.944,1.944,0,0,1,.013-.225,29.606,29.606,0,0,1,59.032,0A2.12,2.12,0,0,1,684.517,1042.528Z" transform="translate(-625.459 -985.447)" fill="#a3005c"/>
        <path id="Trazado_1415" data-name="Trazado 1415" d="M673.717,987.11a12.454,12.454,0,1,1-12.4-12.512A12.455,12.455,0,0,1,673.717,987.11Z" transform="translate(-631.728 -974.598)" fill="#a3005c"/>
      </g>
      <g id="Grupo_818" data-name="Grupo 818" transform="translate(682.113 880.4)">
        <g id="Grupo_817" data-name="Grupo 817">
          <path id="Trazado_1416" data-name="Trazado 1416" d="M752.67,880.4H709.582a6.683,6.683,0,0,0-6.672,6.672v84.951a6.684,6.684,0,0,0,6.672,6.673H752.67a6.684,6.684,0,0,0,6.673-6.673V887.072A6.683,6.683,0,0,0,752.67,880.4Zm-21.544,91.27a3.61,3.61,0,1,1,3.611-3.611A3.613,3.613,0,0,1,731.126,971.67Zm21.425-16.1a3.336,3.336,0,0,1-3.336,3.335H713.706a3.337,3.337,0,0,1-3.337-3.335V891.349a3.338,3.338,0,0,1,3.337-3.336h35.509a3.336,3.336,0,0,1,3.336,3.336Z" transform="translate(-702.91 -880.4)" fill="#272727"/>
        </g>
      </g>
      <g id="Grupo_820" data-name="Grupo 820" transform="translate(651.658 894.749)">
        <g id="Grupo_819" data-name="Grupo 819" transform="translate(0)">
          <path id="Trazado_1417" data-name="Trazado 1417" d="M681.331,900.016a20.054,20.054,0,1,0,20.053,20.053A20.077,20.077,0,0,0,681.331,900.016Zm9.445,15.635-12.028,12.028a2.257,2.257,0,0,1-1.6.661,1.929,1.929,0,0,1-.26-.014,2.255,2.255,0,0,1-1.66-1.053l-3.811-6.145a2.257,2.257,0,1,1,3.836-2.38l2.312,3.723,10.015-10.013a2.258,2.258,0,1,1,3.193,3.192Z" transform="translate(-661.275 -900.016)" fill="#449b23"/>
        </g>
      </g>
      <g id="Grupo_822" data-name="Grupo 822" transform="translate(730.291 925.827)">
        <g id="Grupo_821" data-name="Grupo 821">
          <path id="Trazado_1418" data-name="Trazado 1418" d="M796.171,947.2a16.057,16.057,0,1,0,4.7,11.353A15.953,15.953,0,0,0,796.171,947.2Zm-4.422,18.223a1.807,1.807,0,0,1-2.562,0l-4.358-4.357-4.381,4.38a1.811,1.811,0,0,1-2.562-2.562l4.378-4.381-4.358-4.358a1.812,1.812,0,0,1,2.565-2.562l4.358,4.358,4.335-4.338a1.813,1.813,0,1,1,2.565,2.564l-4.338,4.336,4.358,4.358A1.813,1.813,0,0,1,791.749,965.427Z" transform="translate(-768.773 -942.502)" fill="#d9000d"/>
        </g>
      </g>
    </g>
  </g>
</svg>
