<svg xmlns="http://www.w3.org/2000/svg" xmlns:xlink="http://www.w3.org/1999/xlink" width="384" height="423" viewBox="0 0 384 423">
  <defs>
    <filter id="Rectángulo_4138" x="0" y="0" width="384" height="423" filterUnits="userSpaceOnUse">
      <feOffset input="SourceAlpha"/>
      <feGaussianBlur stdDeviation="3" result="blur"/>
      <feFlood flood-opacity="0.102"/>
      <feComposite operator="in" in2="blur"/>
      <feComposite in="SourceGraphic"/>
    </filter>
  </defs>
  <g id="Grupo_2503" data-name="Grupo 2503" transform="translate(-63 -1837)">
    <g transform="matrix(1, 0, 0, 1, 63, 1837)" filter="url(#Rectángulo_4138)">
      <rect id="Rectángulo_4138-2" data-name="Rectángulo 4138" width="366" height="405" transform="translate(9 9)" fill="#fff"/>
    </g>
    <text id="App" transform="translate(137.235 1878)" font-size="14" font-family="Roboto-Medium, Roboto" font-weight="500"><tspan x="0" y="15">App</tspan></text>
    <text id="res" transform="translate(137.235 1985)" font-size="14" font-family="Roboto-Medium, Roboto" font-weight="500"><tspan x="0" y="15">res</tspan></text>
    <text id="Gradle_Scripts" data-name="Gradle Scripts" transform="translate(137.235 2205)" font-size="14" font-family="Roboto-Medium, Roboto" font-weight="500"><tspan x="0" y="15">Gradle Scripts</tspan></text>
    <text id="manifest" transform="translate(168.426 1904.888)" font-size="14" font-family="Roboto-Medium, Roboto" font-weight="500"><tspan x="0" y="15">manifest</tspan></text>
    <text id="drawable" transform="translate(168.426 2060.888)" font-size="14" font-family="Roboto-Medium, Roboto" font-weight="500"><tspan x="0" y="15">drawable</tspan></text>
    <text id="color" transform="translate(168.426 2010.888)" font-size="14" font-family="Roboto-Medium, Roboto" font-weight="500"><tspan x="0" y="15">color</tspan></text>
    <text id="font" transform="translate(168.426 2085.888)" font-size="14" font-family="Roboto-Medium, Roboto" font-weight="500"><tspan x="0" y="15">font</tspan></text>
    <text id="menu" transform="translate(168.426 2131.888)" font-size="14" font-family="Roboto-Medium, Roboto" font-weight="500"><tspan x="0" y="15">menu</tspan></text>
    <text id="layout" transform="translate(168.426 2108.888)" font-size="14" font-family="Roboto-Medium, Roboto" font-weight="500"><tspan x="0" y="15">layout</tspan></text>
    <text id="mipmap" transform="translate(168.426 2154.888)" font-size="14" font-family="Roboto-Medium, Roboto" font-weight="500"><tspan x="0" y="15">mipmap</tspan></text>
    <text id="values" transform="translate(168.426 2177.888)" font-size="14" font-family="Roboto-Medium, Roboto" font-weight="500"><tspan x="0" y="15">values</tspan></text>
    <text id="java" transform="translate(168.426 1929.888)" font-size="14" font-family="Roboto-Medium, Roboto" font-weight="500"><tspan x="0" y="15">java</tspan></text>
    <text id="java_generated_" data-name="java (generated)" transform="translate(168.426 1954.888)" font-size="14" font-family="Roboto-Medium, Roboto" font-weight="500"><tspan x="0" y="15">java (generated)</tspan></text>
    <path id="Trazado_2163" data-name="Trazado 2163" d="M95.415,699.818l2.936-4.544h3.092l-4.812,6.352h-2.5l-4.812-6.352h3.092Z" transform="translate(11.678 1190.281)" fill="#232324"/>
    <path id="Trazado_2164" data-name="Trazado 2164" d="M95.415,699.818l2.936-4.544h3.092l-4.812,6.352h-2.5l-4.812-6.352h3.092Z" transform="translate(11.678 1297.281)" fill="#232324"/>
    <path id="Trazado_2174" data-name="Trazado 2174" d="M95.415,699.818l2.936-4.544h3.092l-4.812,6.352h-2.5l-4.812-6.352h3.092Z" transform="translate(-591.389 2311.114) rotate(-90)" fill="#232324"/>
    <path id="Trazado_2165" data-name="Trazado 2165" d="M124.454,727.781l2.936-4.543h3.092l-4.812,6.352h-2.5l-4.812-6.352h3.091Z" transform="translate(-590.313 2041.117) rotate(-90)" fill="#232324"/>
    <path id="Trazado_2166" data-name="Trazado 2166" d="M124.454,727.781l2.936-4.543h3.092l-4.812,6.352h-2.5l-4.812-6.352h3.091Z" transform="translate(-590.314 2195.117) rotate(-90)" fill="#232324"/>
    <path id="Trazado_2283" data-name="Trazado 2283" d="M124.454,727.781l2.936-4.543h3.092l-4.812,6.352h-2.5l-4.812-6.352h3.091Z" transform="matrix(1, -0.017, 0.017, 1, -0.981, 1296.563)" fill="#232324"/>
    <path id="Trazado_2169" data-name="Trazado 2169" d="M124.454,727.781l2.936-4.543h3.092l-4.812,6.352h-2.5l-4.812-6.352h3.091Z" transform="translate(-590.313 2220.117) rotate(-90)" fill="#232324"/>
    <path id="Trazado_2171" data-name="Trazado 2171" d="M124.454,727.781l2.936-4.543h3.092l-4.812,6.352h-2.5l-4.812-6.352h3.091Z" transform="translate(-590.313 2266.117) rotate(-90)" fill="#232324"/>
    <path id="Trazado_2170" data-name="Trazado 2170" d="M124.454,727.781l2.936-4.543h3.092l-4.812,6.352h-2.5l-4.812-6.352h3.091Z" transform="translate(-590.313 2243.117) rotate(-90)" fill="#232324"/>
    <path id="Trazado_2172" data-name="Trazado 2172" d="M124.454,727.781l2.936-4.543h3.092l-4.812,6.352h-2.5l-4.812-6.352h3.091Z" transform="translate(-590.313 2289.117) rotate(-90)" fill="#232324"/>
    <path id="Trazado_2173" data-name="Trazado 2173" d="M124.454,727.781l2.936-4.543h3.092l-4.812,6.352h-2.5l-4.812-6.352h3.091Z" transform="translate(-590.313 2312.117) rotate(-90)" fill="#232324"/>
    <path id="Trazado_2167" data-name="Trazado 2167" d="M124.454,727.781l2.936-4.543h3.092l-4.812,6.352h-2.5l-4.812-6.352h3.091Z" transform="translate(-590.313 2066.117) rotate(-90)" fill="#232324"/>
    <path id="Trazado_2168" data-name="Trazado 2168" d="M124.454,727.781l2.936-4.543h3.092l-4.812,6.352h-2.5l-4.812-6.352h3.091Z" transform="translate(-590.313 2091.117) rotate(-90)" fill="#232324"/>
    <path id="Trazado_2094" data-name="Trazado 2094" d="M149.042,722.341v9.772H135.274v-9.772a.845.845,0,0,1,.845-.846H148.2A.846.846,0,0,1,149.042,722.341Z" transform="translate(11.678 1190.281)" fill="#98145e"/>
    <path id="Trazado_2095" data-name="Trazado 2095" d="M141.407,721.367v1.085h-6.133v-1.085a.711.711,0,0,1,.711-.711H140.7A.711.711,0,0,1,141.407,721.367Z" transform="translate(11.678 1190.281)" fill="#98145e"/>
    <path id="Trazado_2096" data-name="Trazado 2096" d="M149.042,722.823v9.771H135.274v-9.771a.845.845,0,0,1,.845-.846H148.2A.846.846,0,0,1,149.042,722.823Z" transform="translate(11.678 1190.281)" fill="#fff"/>
    <path id="Trazado_2097" data-name="Trazado 2097" d="M149.042,723.142v9.771H135.274v-9.771a.845.845,0,0,1,.845-.846H148.2A.846.846,0,0,1,149.042,723.142Z" transform="translate(11.678 1190.281)" fill="#d3097f"/>
    <path id="Trazado_2094-2" data-name="Trazado 2094" d="M149.042,722.341v9.772H135.274v-9.772a.845.845,0,0,1,.845-.846H148.2A.846.846,0,0,1,149.042,722.341Z" transform="translate(11.678 1343.281)" fill="#98145e"/>
    <path id="Trazado_2095-2" data-name="Trazado 2095" d="M141.407,721.367v1.085h-6.133v-1.085a.711.711,0,0,1,.711-.711H140.7A.711.711,0,0,1,141.407,721.367Z" transform="translate(11.678 1343.281)" fill="#98145e"/>
    <path id="Trazado_2096-2" data-name="Trazado 2096" d="M149.042,722.823v9.771H135.274v-9.771a.845.845,0,0,1,.845-.846H148.2A.846.846,0,0,1,149.042,722.823Z" transform="translate(11.678 1343.281)" fill="#fff"/>
    <path id="Trazado_2097-2" data-name="Trazado 2097" d="M149.042,723.142v9.771H135.274v-9.771a.845.845,0,0,1,.845-.846H148.2A.846.846,0,0,1,149.042,723.142Z" transform="translate(11.678 1343.281)" fill="#d3097f"/>
    <path id="Trazado_2284" data-name="Trazado 2284" d="M149.042,723.142v9.771H135.274v-9.771a.845.845,0,0,1,.845-.846H148.2A.846.846,0,0,1,149.042,723.142Z" transform="translate(11.678 1293.281)" fill="#d3097f"/>
    <path id="Trazado_2094-3" data-name="Trazado 2094" d="M149.042,722.341v9.772H135.274v-9.772a.845.845,0,0,1,.845-.846H148.2A.846.846,0,0,1,149.042,722.341Z" transform="translate(11.678 1369.281)" fill="#98145e"/>
    <path id="Trazado_2095-3" data-name="Trazado 2095" d="M141.407,721.367v1.085h-6.133v-1.085a.711.711,0,0,1,.711-.711H140.7A.711.711,0,0,1,141.407,721.367Z" transform="translate(11.678 1369.281)" fill="#98145e"/>
    <path id="Trazado_2096-3" data-name="Trazado 2096" d="M149.042,722.823v9.771H135.274v-9.771a.845.845,0,0,1,.845-.846H148.2A.846.846,0,0,1,149.042,722.823Z" transform="translate(11.678 1369.281)" fill="#fff"/>
    <path id="Trazado_2097-3" data-name="Trazado 2097" d="M149.042,723.142v9.771H135.274v-9.771a.845.845,0,0,1,.845-.846H148.2A.846.846,0,0,1,149.042,723.142Z" transform="translate(11.678 1369.281)" fill="#d3097f"/>
    <path id="Trazado_2094-4" data-name="Trazado 2094" d="M149.042,722.341v9.772H135.274v-9.772a.845.845,0,0,1,.845-.846H148.2A.846.846,0,0,1,149.042,722.341Z" transform="translate(11.678 1415.281)" fill="#98145e"/>
    <path id="Trazado_2095-4" data-name="Trazado 2095" d="M141.407,721.367v1.085h-6.133v-1.085a.711.711,0,0,1,.711-.711H140.7A.711.711,0,0,1,141.407,721.367Z" transform="translate(11.678 1415.281)" fill="#98145e"/>
    <path id="Trazado_2096-4" data-name="Trazado 2096" d="M149.042,722.823v9.771H135.274v-9.771a.845.845,0,0,1,.845-.846H148.2A.846.846,0,0,1,149.042,722.823Z" transform="translate(11.678 1415.281)" fill="#fff"/>
    <path id="Trazado_2097-4" data-name="Trazado 2097" d="M149.042,723.142v9.771H135.274v-9.771a.845.845,0,0,1,.845-.846H148.2A.846.846,0,0,1,149.042,723.142Z" transform="translate(11.678 1415.281)" fill="#d3097f"/>
    <path id="Trazado_2094-5" data-name="Trazado 2094" d="M149.042,722.341v9.772H135.274v-9.772a.845.845,0,0,1,.845-.846H148.2A.846.846,0,0,1,149.042,722.341Z" transform="translate(11.678 1392.281)" fill="#98145e"/>
    <path id="Trazado_2095-5" data-name="Trazado 2095" d="M141.407,721.367v1.085h-6.133v-1.085a.711.711,0,0,1,.711-.711H140.7A.711.711,0,0,1,141.407,721.367Z" transform="translate(11.678 1392.281)" fill="#98145e"/>
    <path id="Trazado_2096-5" data-name="Trazado 2096" d="M149.042,722.823v9.771H135.274v-9.771a.845.845,0,0,1,.845-.846H148.2A.846.846,0,0,1,149.042,722.823Z" transform="translate(11.678 1392.281)" fill="#fff"/>
    <path id="Trazado_2097-5" data-name="Trazado 2097" d="M149.042,723.142v9.771H135.274v-9.771a.845.845,0,0,1,.845-.846H148.2A.846.846,0,0,1,149.042,723.142Z" transform="translate(11.678 1392.281)" fill="#d3097f"/>
    <path id="Trazado_2094-6" data-name="Trazado 2094" d="M149.042,722.341v9.772H135.274v-9.772a.845.845,0,0,1,.845-.846H148.2A.846.846,0,0,1,149.042,722.341Z" transform="translate(11.678 1438.281)" fill="#98145e"/>
    <path id="Trazado_2095-6" data-name="Trazado 2095" d="M141.407,721.367v1.085h-6.133v-1.085a.711.711,0,0,1,.711-.711H140.7A.711.711,0,0,1,141.407,721.367Z" transform="translate(11.678 1438.281)" fill="#98145e"/>
    <path id="Trazado_2096-6" data-name="Trazado 2096" d="M149.042,722.823v9.771H135.274v-9.771a.845.845,0,0,1,.845-.846H148.2A.846.846,0,0,1,149.042,722.823Z" transform="translate(11.678 1438.281)" fill="#fff"/>
    <path id="Trazado_2097-6" data-name="Trazado 2097" d="M149.042,723.142v9.771H135.274v-9.771a.845.845,0,0,1,.845-.846H148.2A.846.846,0,0,1,149.042,723.142Z" transform="translate(11.678 1438.281)" fill="#d3097f"/>
    <path id="Trazado_2094-7" data-name="Trazado 2094" d="M149.042,722.341v9.772H135.274v-9.772a.845.845,0,0,1,.845-.846H148.2A.846.846,0,0,1,149.042,722.341Z" transform="translate(11.678 1461.281)" fill="#98145e"/>
    <path id="Trazado_2095-7" data-name="Trazado 2095" d="M141.407,721.367v1.085h-6.133v-1.085a.711.711,0,0,1,.711-.711H140.7A.711.711,0,0,1,141.407,721.367Z" transform="translate(11.678 1461.281)" fill="#98145e"/>
    <path id="Trazado_2096-7" data-name="Trazado 2096" d="M149.042,722.823v9.771H135.274v-9.771a.845.845,0,0,1,.845-.846H148.2A.846.846,0,0,1,149.042,722.823Z" transform="translate(11.678 1461.281)" fill="#fff"/>
    <path id="Trazado_2097-7" data-name="Trazado 2097" d="M149.042,723.142v9.771H135.274v-9.771a.845.845,0,0,1,.845-.846H148.2A.846.846,0,0,1,149.042,723.142Z" transform="translate(11.678 1461.281)" fill="#d3097f"/>
    <path id="Trazado_2094-8" data-name="Trazado 2094" d="M149.042,722.341v9.772H135.274v-9.772a.845.845,0,0,1,.845-.846H148.2A.846.846,0,0,1,149.042,722.341Z" transform="translate(11.678 1215.281)" fill="#98145e"/>
    <path id="Trazado_2095-8" data-name="Trazado 2095" d="M141.407,721.367v1.085h-6.133v-1.085a.711.711,0,0,1,.711-.711H140.7A.711.711,0,0,1,141.407,721.367Z" transform="translate(11.678 1215.281)" fill="#98145e"/>
    <path id="Trazado_2096-8" data-name="Trazado 2096" d="M149.042,722.823v9.771H135.274v-9.771a.845.845,0,0,1,.845-.846H148.2A.846.846,0,0,1,149.042,722.823Z" transform="translate(11.678 1215.281)" fill="#fff"/>
    <path id="Trazado_2097-8" data-name="Trazado 2097" d="M149.042,723.142v9.771H135.274v-9.771a.845.845,0,0,1,.845-.846H148.2A.846.846,0,0,1,149.042,723.142Z" transform="translate(11.678 1215.281)" fill="#d3097f"/>
    <path id="Trazado_2094-9" data-name="Trazado 2094" d="M149.042,722.341v9.772H135.274v-9.772a.845.845,0,0,1,.845-.846H148.2A.846.846,0,0,1,149.042,722.341Z" transform="translate(11.678 1240.281)" fill="#98145e"/>
    <path id="Trazado_2095-9" data-name="Trazado 2095" d="M141.407,721.367v1.085h-6.133v-1.085a.711.711,0,0,1,.711-.711H140.7A.711.711,0,0,1,141.407,721.367Z" transform="translate(11.678 1240.281)" fill="#98145e"/>
    <path id="Trazado_2096-9" data-name="Trazado 2096" d="M149.042,722.823v9.771H135.274v-9.771a.845.845,0,0,1,.845-.846H148.2A.846.846,0,0,1,149.042,722.823Z" transform="translate(11.678 1240.281)" fill="#fff"/>
    <path id="Trazado_2097-9" data-name="Trazado 2097" d="M149.042,723.142v9.771H135.274v-9.771a.845.845,0,0,1,.845-.846H148.2A.846.846,0,0,1,149.042,723.142Z" transform="translate(11.678 1240.281)" fill="#d3097f"/>
    <path id="Trazado_2103" data-name="Trazado 2103" d="M120,694.377v9.772H106.234v-9.772a.845.845,0,0,1,.846-.845h12.077A.845.845,0,0,1,120,694.377Z" transform="translate(11.678 1190.281)" fill="#390b25"/>
    <path id="Trazado_2104" data-name="Trazado 2104" d="M112.368,693.4v1.085h-6.134V693.4a.712.712,0,0,1,.711-.711h4.712A.711.711,0,0,1,112.368,693.4Z" transform="translate(11.678 1190.281)" fill="#390b25"/>
    <path id="Trazado_2105" data-name="Trazado 2105" d="M120,694.859v9.772H106.234v-9.772a.846.846,0,0,1,.846-.846h12.077A.846.846,0,0,1,120,694.859Z" transform="translate(11.678 1190.281)" fill="#fff"/>
    <path id="Trazado_2106" data-name="Trazado 2106" d="M120,695.178v9.772H106.234v-9.772a.846.846,0,0,1,.846-.846h12.077A.846.846,0,0,1,120,695.178Z" transform="translate(11.678 1190.281)" fill="#79134b"/>
    <path id="Trazado_2103-2" data-name="Trazado 2103" d="M120,694.377v9.772H106.234v-9.772a.845.845,0,0,1,.846-.845h12.077A.845.845,0,0,1,120,694.377Z" transform="translate(11.678 1297.281)" fill="#390b25"/>
    <path id="Trazado_2104-2" data-name="Trazado 2104" d="M112.368,693.4v1.085h-6.134V693.4a.712.712,0,0,1,.711-.711h4.712A.711.711,0,0,1,112.368,693.4Z" transform="translate(11.678 1297.281)" fill="#390b25"/>
    <path id="Trazado_2105-2" data-name="Trazado 2105" d="M120,694.859v9.772H106.234v-9.772a.846.846,0,0,1,.846-.846h12.077A.846.846,0,0,1,120,694.859Z" transform="translate(11.678 1297.281)" fill="#fff"/>
    <path id="Trazado_2106-2" data-name="Trazado 2106" d="M120,695.178v9.772H106.234v-9.772a.846.846,0,0,1,.846-.846h12.077A.846.846,0,0,1,120,695.178Z" transform="translate(11.678 1297.281)" fill="#79134b"/>
    <path id="Trazado_2175" data-name="Trazado 2175" d="M454.228,1166.214c-1.121-.876-.105-3.014-.105-3.014,2.033-5.186-1.484-7.8-2.085-8.14-1.224-.693-4.136-1.373-5.606.493a1.6,1.6,0,0,0-.085,1.641,4.115,4.115,0,0,0,2.951,2.362.769.769,0,0,0,.719-.224c.507-.591.24-2.144.094-2.693a.28.28,0,0,1,.542-.144c.061.231.578,2.285-.21,3.2a1.257,1.257,0,0,1-1,.428,1.9,1.9,0,0,1-.208-.012,4.662,4.662,0,0,1-3.408-2.7,2.749,2.749,0,0,1-.224-.993c-3.21,0-6.874,1.789-7.113,5.008a.226.226,0,0,0,.416.138,4.112,4.112,0,0,1,.686-.856,3.189,3.189,0,0,0,.455,1.434,5.7,5.7,0,0,1,.817,2.935l.005,1.907c.027.234.579.421,1.261.421s1.234-.187,1.261-.421l.005-1.238a1.17,1.17,0,0,1,.374-.857,1.272,1.272,0,0,1,.882-.31h.638a1.188,1.188,0,0,1,.834.359,1.168,1.168,0,0,1,.346.83l.005,1.215c.027.234.579.421,1.261.421s1.234-.187,1.261-.421l.005-1.069a5.517,5.517,0,0,1,2.6-4.758c1.371-.833.762,1.692.762,1.692a3.462,3.462,0,0,0,1.191,4.135l.009-.011c.007.007.008.017.016.023.135.1.38,0,.547-.218a.472.472,0,0,0,.083-.553Z" transform="translate(-322.492 1054.325)" fill="#79134b"/>
    <text id="stroke_color_text_layout.xml" transform="translate(196.316 2034.438)" font-size="14" font-family="Roboto-Medium, Roboto" font-weight="500"><tspan x="0" y="15">stroke_color_text_layout.xml</tspan></text>
    <g id="Grupo_2496" data-name="Grupo 2496" transform="translate(-44.322 1268.281)">
      <g id="Grupo_2274" data-name="Grupo 2274">
        <path id="Trazado_2118" data-name="Trazado 2118" d="M227.112,786.685H212.977V768.419h14.135Zm-13.92-.215H226.9V768.634H213.192Z" fill="#d3097f"/>
      </g>
      <rect id="Rectángulo_4085" data-name="Rectángulo 4085" width="13.92" height="6.865" transform="translate(213.085 779.768)" fill="#b60f6e"/>
      <rect id="Rectángulo_4086" data-name="Rectángulo 4086" width="13.92" height="6.014" transform="translate(213.085 773.754)" fill="#98145e"/>
      <rect id="Rectángulo_4087" data-name="Rectángulo 4087" width="13.92" height="5.155" transform="translate(213.085 768.599)" fill="#5a0f38"/>
      <path id="Trazado_2119" data-name="Trazado 2119" d="M213.085,768.555V786.6h13.92S213.085,786.544,213.085,768.555Z" fill="#fff" opacity="0.27"/>
      <rect id="Rectángulo_4088" data-name="Rectángulo 4088" width="6.759" height="7.233" transform="translate(223.302 773.277)" fill="#e492bd"/>
    </g>
    <rect id="Rectángulo_4204" data-name="Rectángulo 4204" width="366" height="28" transform="translate(72 2031)" fill="#7a4493" opacity="0.102"/>
  </g>
</svg>
