<svg xmlns="http://www.w3.org/2000/svg" width="305.777" height="238.844" viewBox="0 0 305.777 238.844">
  <g id="Grupo_849" data-name="Grupo 849" transform="translate(-553.834 -2961)">
    <g id="Trazado_1412" data-name="Trazado 1412" transform="translate(554 2961)" fill="#f8f8f8">
      <path d="M 254.27734375 162.5 L 6.00000524520874 162.5 C 2.967305183410645 162.5 0.5000051856040955 160.0326995849609 0.5000051856040955 157 L 0.5000051856040955 6 C 0.5000051856040955 2.967299938201904 2.967305183410645 0.5 6.00000524520874 0.5 L 254.27734375 0.5 C 257.3100280761719 0.5 259.77734375 2.967299938201904 259.77734375 6 L 259.77734375 157 C 259.77734375 160.0326995849609 257.3100280761719 162.5 254.27734375 162.5 Z" stroke="none"/>
      <path d="M 6 1 C 3.243011474609375 1 1 3.242996215820312 1 6 L 1 157 C 1 159.7570037841797 3.243011474609375 162 6 162 L 254.27734375 162 C 257.0343322753906 162 259.27734375 159.7570037841797 259.27734375 157 L 259.27734375 6 C 259.27734375 3.242996215820312 257.0343322753906 1 254.27734375 1 L 6 1 M 6 0 L 254.27734375 0 C 257.591064453125 0 260.27734375 2.686294555664062 260.27734375 6 L 260.27734375 157 C 260.27734375 160.3137054443359 257.591064453125 163 254.27734375 163 L 6 163 C 2.686279296875 163 0 160.3137054443359 0 157 L 0 6 C 0 2.686294555664062 2.686279296875 0 6 0 Z" stroke="none" fill="#d9d9d9"/>
    </g>
    <path id="Trazado_1413" data-name="Trazado 1413" d="M9.93,0H8.391L2.914-8.687l-.047.016V0H1.328V-11.375H2.867L8.344-2.7l.047-.016v-8.664H9.93Zm4.117,0H12.508V-8.453h1.539Zm0-10.617H12.508v-1.57h1.539Zm3.742,2.164L17.9-7.2a3.069,3.069,0,0,1,1.059-1.043,2.824,2.824,0,0,1,1.449-.371,2.759,2.759,0,0,1,2.117.8,3.515,3.515,0,0,1,.75,2.473V0H21.734V-5.3a2.287,2.287,0,0,0-.441-1.586,1.768,1.768,0,0,0-1.348-.469,2.386,2.386,0,0,0-1.207.285,2.072,2.072,0,0,0-.785.8V0H16.414V-8.453ZM25.234-4.07a5.641,5.641,0,0,1,.871-3.289,2.8,2.8,0,0,1,2.434-1.25,2.966,2.966,0,0,1,1.414.324,2.845,2.845,0,0,1,1.023.934l.188-1.1h1.227v8.5a3.225,3.225,0,0,1-.945,2.5,3.884,3.884,0,0,1-2.727.871A5.716,5.716,0,0,1,27.4,3.246a5.147,5.147,0,0,1-1.246-.457l.234-1.2a4.45,4.45,0,0,0,1.074.379,5.517,5.517,0,0,0,1.238.145,2.242,2.242,0,0,0,1.637-.512A2.12,2.12,0,0,0,30.852.047V-.914a2.725,2.725,0,0,1-.992.8,3.091,3.091,0,0,1-1.336.273A2.89,2.89,0,0,1,26.105-.957a4.674,4.674,0,0,1-.871-2.949Zm1.539.164A3.592,3.592,0,0,0,27.3-1.859a1.817,1.817,0,0,0,1.617.773A2.034,2.034,0,0,0,30.078-1.4a2.4,2.4,0,0,0,.773-.895V-6.187a2.388,2.388,0,0,0-.773-.855,2.029,2.029,0,0,0-1.148-.316,1.752,1.752,0,0,0-1.629.914,4.718,4.718,0,0,0-.527,2.375Zm13.2,2.656A2.863,2.863,0,0,1,38.945-.2,2.8,2.8,0,0,1,37.5.164a2.716,2.716,0,0,1-2.156-.883,4.1,4.1,0,0,1-.773-2.75V-8.453h1.539v5a3.147,3.147,0,0,0,.4,1.859,1.481,1.481,0,0,0,1.242.508,2.531,2.531,0,0,0,1.355-.332,2.077,2.077,0,0,0,.809-.941V-8.453h1.539V0H40.07Zm5.1-7.2L45.18-7.2a3.069,3.069,0,0,1,1.059-1.043,2.824,2.824,0,0,1,1.449-.371,2.759,2.759,0,0,1,2.117.8,3.515,3.515,0,0,1,.75,2.473V0H49.016V-5.3a2.287,2.287,0,0,0-.441-1.586,1.768,1.768,0,0,0-1.348-.469,2.386,2.386,0,0,0-1.207.285,2.072,2.072,0,0,0-.785.8V0H43.7V-8.453ZM57.984,0q-.078-.383-.121-.676a4.96,4.96,0,0,1-.051-.59,3.589,3.589,0,0,1-1.121,1.02A2.867,2.867,0,0,1,55.2.164a2.763,2.763,0,0,1-2.012-.676A2.486,2.486,0,0,1,52.5-2.375a2.183,2.183,0,0,1,.98-1.895,4.579,4.579,0,0,1,2.66-.684h1.672v-.836a1.551,1.551,0,0,0-.453-1.176A1.779,1.779,0,0,0,56.078-7.4a1.859,1.859,0,0,0-1.211.375,1.125,1.125,0,0,0-.461.9l-1.461.016-.016-.047a2.023,2.023,0,0,1,.863-1.687,3.578,3.578,0,0,1,2.371-.766,3.49,3.49,0,0,1,2.313.73,2.588,2.588,0,0,1,.875,2.105V-1.7a7.923,7.923,0,0,0,.047.875A4.5,4.5,0,0,0,59.57,0ZM55.43-1.125a2.739,2.739,0,0,0,1.508-.43,2.042,2.042,0,0,0,.875-.984V-3.914H56.086a2.24,2.24,0,0,0-1.488.469,1.4,1.4,0,0,0-.559,1.1,1.159,1.159,0,0,0,.352.891A1.472,1.472,0,0,0,55.43-1.125ZM67.227,0H65.688V-8.453h1.539Zm0-10.617H65.688v-1.57h1.539Zm3.742,2.164.109,1.109a2.871,2.871,0,0,1,1.051-.934,3.157,3.157,0,0,1,1.48-.332,2.615,2.615,0,0,1,1.449.391,2.363,2.363,0,0,1,.91,1.172,3.162,3.162,0,0,1,1.059-1.145,2.769,2.769,0,0,1,1.527-.418,2.531,2.531,0,0,1,2.039.887,4.051,4.051,0,0,1,.75,2.668V0H79.8V-5.07a2.81,2.81,0,0,0-.43-1.77,1.567,1.567,0,0,0-1.281-.52,1.631,1.631,0,0,0-1.277.547,2.381,2.381,0,0,0-.574,1.383V0H74.7V-5.07a2.772,2.772,0,0,0-.441-1.738,1.532,1.532,0,0,0-1.27-.551,2.115,2.115,0,0,0-1.156.289,1.867,1.867,0,0,0-.7.813V0H69.594V-8.453ZM88.773,0q-.078-.383-.121-.676a4.96,4.96,0,0,1-.051-.59A3.589,3.589,0,0,1,87.48-.246a2.867,2.867,0,0,1-1.488.41A2.763,2.763,0,0,1,83.98-.512a2.486,2.486,0,0,1-.691-1.863,2.183,2.183,0,0,1,.98-1.895,4.579,4.579,0,0,1,2.66-.684H88.6v-.836a1.551,1.551,0,0,0-.453-1.176A1.779,1.779,0,0,0,86.867-7.4a1.859,1.859,0,0,0-1.211.375,1.125,1.125,0,0,0-.461.9l-1.461.016-.016-.047a2.023,2.023,0,0,1,.863-1.687,3.578,3.578,0,0,1,2.371-.766,3.49,3.49,0,0,1,2.313.73,2.588,2.588,0,0,1,.875,2.105V-1.7a7.923,7.923,0,0,0,.047.875A4.5,4.5,0,0,0,90.359,0ZM86.219-1.125a2.739,2.739,0,0,0,1.508-.43,2.042,2.042,0,0,0,.875-.984V-3.914H86.875a2.24,2.24,0,0,0-1.488.469,1.4,1.4,0,0,0-.559,1.1,1.159,1.159,0,0,0,.352.891A1.472,1.472,0,0,0,86.219-1.125ZM92.1-4.07a5.641,5.641,0,0,1,.871-3.289,2.8,2.8,0,0,1,2.434-1.25,2.966,2.966,0,0,1,1.414.324,2.845,2.845,0,0,1,1.023.934l.188-1.1h1.227v8.5a3.225,3.225,0,0,1-.945,2.5,3.884,3.884,0,0,1-2.727.871,5.716,5.716,0,0,1-1.316-.168,5.147,5.147,0,0,1-1.246-.457l.234-1.2a4.45,4.45,0,0,0,1.074.379,5.517,5.517,0,0,0,1.238.145,2.242,2.242,0,0,0,1.637-.512A2.12,2.12,0,0,0,97.719.047V-.914a2.725,2.725,0,0,1-.992.8,3.091,3.091,0,0,1-1.336.273A2.89,2.89,0,0,1,92.973-.957,4.674,4.674,0,0,1,92.1-3.906Zm1.539.164a3.592,3.592,0,0,0,.523,2.047,1.817,1.817,0,0,0,1.617.773A2.034,2.034,0,0,0,96.945-1.4a2.4,2.4,0,0,0,.773-.895V-6.187a2.388,2.388,0,0,0-.773-.855A2.029,2.029,0,0,0,95.8-7.359a1.752,1.752,0,0,0-1.629.914,4.718,4.718,0,0,0-.527,2.375ZM104.969.164A3.576,3.576,0,0,1,102.129-1a4.48,4.48,0,0,1-1.02-3.062v-.344a4.386,4.386,0,0,1,1.051-3.012,3.3,3.3,0,0,1,2.566-1.191,3.067,3.067,0,0,1,2.543,1.055,4.345,4.345,0,0,1,.848,2.8v.813h-5.406l-.023.039a3.494,3.494,0,0,0,.563,2.066,1.965,1.965,0,0,0,1.719.793,3.872,3.872,0,0,0,1.371-.223,3.061,3.061,0,0,0,1.012-.613l.6,1a3.7,3.7,0,0,1-1.2.738A4.762,4.762,0,0,1,104.969.164ZM104.727-7.4a1.673,1.673,0,0,0-1.332.621,2.938,2.938,0,0,0-.645,1.59l.016.039h3.813v-.125a2.462,2.462,0,0,0-.453-1.523A1.638,1.638,0,0,0,104.727-7.4Zm6.492-1.055.109,1.258a3.069,3.069,0,0,1,1.059-1.043,2.824,2.824,0,0,1,1.449-.371,2.759,2.759,0,0,1,2.117.8,3.515,3.515,0,0,1,.75,2.473V0h-1.539V-5.3a2.287,2.287,0,0,0-.441-1.586,1.768,1.768,0,0,0-1.348-.469,2.386,2.386,0,0,0-1.207.285,2.072,2.072,0,0,0-.785.8V0h-1.539V-8.453Zm16.609,6.18a1.026,1.026,0,0,0-.387-.828,3.732,3.732,0,0,0-1.465-.562,6.146,6.146,0,0,1-2.293-.9,1.814,1.814,0,0,1-.8-1.547,2.229,2.229,0,0,1,.879-1.766,3.433,3.433,0,0,1,2.277-.734,3.4,3.4,0,0,1,2.328.781,2.239,2.239,0,0,1,.852,1.82l-.016.047h-1.469a1.331,1.331,0,0,0-.48-.992,1.717,1.717,0,0,0-1.215-.445,1.751,1.751,0,0,0-1.215.367,1.146,1.146,0,0,0-.4.875.927.927,0,0,0,.348.773,3.848,3.848,0,0,0,1.434.5,6.058,6.058,0,0,1,2.359.93,1.872,1.872,0,0,1,.8,1.57,2.226,2.226,0,0,1-.91,1.836,3.754,3.754,0,0,1-2.379.711,3.715,3.715,0,0,1-2.547-.82,2.341,2.341,0,0,1-.883-1.914l.016-.047h1.469a1.424,1.424,0,0,0,.609,1.2,2.358,2.358,0,0,0,1.336.379,2.1,2.1,0,0,0,1.285-.348A1.063,1.063,0,0,0,127.828-2.273ZM134.781.164A3.576,3.576,0,0,1,131.941-1a4.48,4.48,0,0,1-1.02-3.062v-.344a4.386,4.386,0,0,1,1.051-3.012,3.3,3.3,0,0,1,2.566-1.191,3.067,3.067,0,0,1,2.543,1.055,4.345,4.345,0,0,1,.848,2.8v.813h-5.406L132.5-3.9a3.494,3.494,0,0,0,.563,2.066,1.965,1.965,0,0,0,1.719.793,3.872,3.872,0,0,0,1.371-.223,3.061,3.061,0,0,0,1.012-.613l.6,1a3.7,3.7,0,0,1-1.2.738A4.762,4.762,0,0,1,134.781.164ZM134.539-7.4a1.673,1.673,0,0,0-1.332.621,2.938,2.938,0,0,0-.645,1.59l.016.039h3.813v-.125a2.462,2.462,0,0,0-.453-1.523A1.638,1.638,0,0,0,134.539-7.4ZM141.32,0h-1.539V-12.187h1.539Zm5.867.164A3.576,3.576,0,0,1,144.348-1a4.48,4.48,0,0,1-1.02-3.062v-.344a4.386,4.386,0,0,1,1.051-3.012,3.3,3.3,0,0,1,2.566-1.191,3.067,3.067,0,0,1,2.543,1.055,4.345,4.345,0,0,1,.848,2.8v.813H144.93l-.023.039a3.494,3.494,0,0,0,.563,2.066,1.965,1.965,0,0,0,1.719.793,3.872,3.872,0,0,0,1.371-.223,3.061,3.061,0,0,0,1.012-.613l.6,1a3.7,3.7,0,0,1-1.2.738A4.762,4.762,0,0,1,147.188.164ZM146.945-7.4a1.673,1.673,0,0,0-1.332.621,2.938,2.938,0,0,0-.645,1.59l.016.039H148.8v-.125a2.462,2.462,0,0,0-.453-1.523A1.638,1.638,0,0,0,146.945-7.4Zm8.477,6.359a1.81,1.81,0,0,0,1.242-.473,1.493,1.493,0,0,0,.531-1.16h1.391l.023.047a2.428,2.428,0,0,1-.937,1.941,3.312,3.312,0,0,1-2.25.848,3.319,3.319,0,0,1-2.75-1.211,4.674,4.674,0,0,1-.969-3.016v-.328a4.654,4.654,0,0,1,.973-3,3.317,3.317,0,0,1,2.746-1.215,3.189,3.189,0,0,1,2.316.875,2.775,2.775,0,0,1,.871,2.148l-.016.047h-1.4a1.865,1.865,0,0,0-.5-1.316,1.658,1.658,0,0,0-1.27-.543,1.777,1.777,0,0,0-1.652.879,4.114,4.114,0,0,0-.52,2.129v.328a4.192,4.192,0,0,0,.512,2.148A1.776,1.776,0,0,0,155.422-1.039Zm8.375,0a1.81,1.81,0,0,0,1.242-.473,1.493,1.493,0,0,0,.531-1.16h1.391l.023.047a2.428,2.428,0,0,1-.937,1.941,3.312,3.312,0,0,1-2.25.848,3.319,3.319,0,0,1-2.75-1.211,4.674,4.674,0,0,1-.969-3.016v-.328a4.654,4.654,0,0,1,.973-3A3.317,3.317,0,0,1,163.8-8.609a3.189,3.189,0,0,1,2.316.875,2.775,2.775,0,0,1,.871,2.148l-.016.047h-1.4a1.865,1.865,0,0,0-.5-1.316A1.658,1.658,0,0,0,163.8-7.4a1.777,1.777,0,0,0-1.652.879,4.114,4.114,0,0,0-.52,2.129v.328a4.192,4.192,0,0,0,.512,2.148A1.776,1.776,0,0,0,163.8-1.039ZM170.477,0h-1.539V-8.453h1.539Zm0-10.617h-1.539v-1.57h1.539ZM172.484-4.3a4.654,4.654,0,0,1,1.016-3.09,3.406,3.406,0,0,1,2.758-1.215A3.439,3.439,0,0,1,179.035-7.4a4.639,4.639,0,0,1,1.02,3.094v.172a4.631,4.631,0,0,1-1.016,3.094,3.429,3.429,0,0,1-2.766,1.2,3.436,3.436,0,0,1-2.77-1.207,4.623,4.623,0,0,1-1.02-3.09Zm1.539.172a4.009,4.009,0,0,0,.566,2.219,1.875,1.875,0,0,0,1.684.875,1.87,1.87,0,0,0,1.672-.875,3.988,3.988,0,0,0,.57-2.219V-4.3a3.976,3.976,0,0,0-.574-2.211,1.882,1.882,0,0,0-1.684-.883,1.856,1.856,0,0,0-1.668.883,4.018,4.018,0,0,0-.566,2.211Zm9.289-4.32.109,1.258a3.069,3.069,0,0,1,1.059-1.043,2.824,2.824,0,0,1,1.449-.371,2.759,2.759,0,0,1,2.117.8,3.515,3.515,0,0,1,.75,2.473V0h-1.539V-5.3a2.287,2.287,0,0,0-.441-1.586,1.768,1.768,0,0,0-1.348-.469,2.386,2.386,0,0,0-1.207.285,2.072,2.072,0,0,0-.785.8V0h-1.539V-8.453ZM196.227,0q-.078-.383-.121-.676a4.96,4.96,0,0,1-.051-.59,3.588,3.588,0,0,1-1.121,1.02,2.867,2.867,0,0,1-1.488.41,2.763,2.763,0,0,1-2.012-.676,2.486,2.486,0,0,1-.691-1.863,2.183,2.183,0,0,1,.98-1.895,4.579,4.579,0,0,1,2.66-.684h1.672v-.836a1.551,1.551,0,0,0-.453-1.176A1.779,1.779,0,0,0,194.32-7.4a1.859,1.859,0,0,0-1.211.375,1.125,1.125,0,0,0-.461.9l-1.461.016-.016-.047a2.023,2.023,0,0,1,.863-1.687,3.578,3.578,0,0,1,2.371-.766,3.49,3.49,0,0,1,2.313.73,2.588,2.588,0,0,1,.875,2.105V-1.7a7.923,7.923,0,0,0,.047.875,4.5,4.5,0,0,0,.172.828Zm-2.555-1.125a2.739,2.739,0,0,0,1.508-.43,2.042,2.042,0,0,0,.875-.984V-3.914h-1.727a2.24,2.24,0,0,0-1.488.469,1.4,1.4,0,0,0-.559,1.1,1.159,1.159,0,0,0,.352.891A1.472,1.472,0,0,0,193.672-1.125Zm5.8-2.945a5.641,5.641,0,0,1,.871-3.289,2.807,2.807,0,0,1,2.441-1.25,3.027,3.027,0,0,1,1.316.273,2.7,2.7,0,0,1,.98.8v-4.648h1.539V0h-1.18l-.234-1.07a2.743,2.743,0,0,1-1.023.922,3.058,3.058,0,0,1-1.414.313,2.9,2.9,0,0,1-2.422-1.121,4.659,4.659,0,0,1-.875-2.949Zm1.539.164a3.588,3.588,0,0,0,.523,2.051,1.828,1.828,0,0,0,1.625.77A2.039,2.039,0,0,0,204.32-1.4a2.334,2.334,0,0,0,.766-.875V-6.219a2.37,2.37,0,0,0-.77-.832,2.033,2.033,0,0,0-1.137-.309,1.759,1.759,0,0,0-1.637.914,4.718,4.718,0,0,0-.527,2.375ZM214.117,0q-.078-.383-.121-.676a4.96,4.96,0,0,1-.051-.59,3.588,3.588,0,0,1-1.121,1.02,2.867,2.867,0,0,1-1.488.41,2.763,2.763,0,0,1-2.012-.676,2.486,2.486,0,0,1-.691-1.863,2.183,2.183,0,0,1,.98-1.895,4.579,4.579,0,0,1,2.66-.684h1.672v-.836a1.551,1.551,0,0,0-.453-1.176,1.779,1.779,0,0,0-1.281-.434A1.859,1.859,0,0,0,211-7.023a1.125,1.125,0,0,0-.461.9l-1.461.016-.016-.047a2.023,2.023,0,0,1,.863-1.687,3.578,3.578,0,0,1,2.371-.766,3.49,3.49,0,0,1,2.313.73,2.588,2.588,0,0,1,.875,2.105V-1.7a7.923,7.923,0,0,0,.047.875A4.5,4.5,0,0,0,215.7,0Zm-2.555-1.125a2.739,2.739,0,0,0,1.508-.43,2.042,2.042,0,0,0,.875-.984V-3.914h-1.727a2.24,2.24,0,0,0-1.488.469,1.4,1.4,0,0,0-.559,1.1,1.159,1.159,0,0,0,.352.891A1.472,1.472,0,0,0,211.563-1.125Z" transform="translate(575 3072.556)" fill="#b6b6b6"/>
    <g id="Trazado_1414" data-name="Trazado 1414" transform="translate(642.334 3133)" fill="none">
      <path d="M10,0H162.666a10,10,0,0,1,10,10V25a10,10,0,0,1-10,10H10A10,10,0,0,1,0,25V10A10,10,0,0,1,10,0Z" stroke="none"/>
      <path d="M 10 1 C 5.037384033203125 1 1 5.037385940551758 1 10 L 1 25 C 1 29.96261405944824 5.037384033203125 34 10 34 L 162.6659545898438 34 C 167.6285705566406 34 171.6659545898438 29.96261405944824 171.6659545898438 25 L 171.6659545898438 10 C 171.6659545898438 5.037385940551758 167.6285705566406 1 162.6659545898438 1 L 10 1 M 10 0 L 162.6659545898438 0 C 168.1887969970703 0 172.6659545898438 4.47715950012207 172.6659545898438 10 L 172.6659545898438 25 C 172.6659545898438 30.52284049987793 168.1887969970703 35 162.6659545898438 35 L 10 35 C 4.477157592773438 35 0 30.52284049987793 0 25 L 0 10 C 0 4.47715950012207 4.477157592773438 0 10 0 Z" stroke="none" fill="#b7006d"/>
    </g>
    <path id="Trazado_1415" data-name="Trazado 1415" d="M7.188-2.922a1.5,1.5,0,0,0-.5-1.164A4.639,4.639,0,0,0,4.9-4.9,7.613,7.613,0,0,1,2.066-6.23a2.66,2.66,0,0,1-1-2.152,2.8,2.8,0,0,1,1.094-2.266,4.311,4.311,0,0,1,2.813-.891,4.26,4.26,0,0,1,2.949.988A3.028,3.028,0,0,1,8.992-8.109l-.016.047H7.148a1.817,1.817,0,0,0-.6-1.43,2.3,2.3,0,0,0-1.59-.531,2.184,2.184,0,0,0-1.48.453A1.483,1.483,0,0,0,2.961-8.4a1.3,1.3,0,0,0,.57,1.082,6.2,6.2,0,0,0,1.891.809A6.61,6.61,0,0,1,8.148-5.145a2.867,2.867,0,0,1,.938,2.207A2.693,2.693,0,0,1,7.977-.68,4.688,4.688,0,0,1,5.063.164,5.061,5.061,0,0,1,2.039-.758a2.921,2.921,0,0,1-1.25-2.6L.8-3.406H2.633A1.792,1.792,0,0,0,3.34-1.863a2.829,2.829,0,0,0,1.723.52A2.535,2.535,0,0,0,6.629-1.77,1.373,1.373,0,0,0,7.188-2.922ZM14.422.164A3.681,3.681,0,0,1,11.527-1a4.374,4.374,0,0,1-1.043-3.027v-.312A4.522,4.522,0,0,1,11.527-7.41a3.37,3.37,0,0,1,2.691-1.2A3.163,3.163,0,0,1,16.8-7.559a4.249,4.249,0,0,1,.875,2.809v1.023H12.445l-.016.039A2.77,2.77,0,0,0,12.977-2a1.866,1.866,0,0,0,1.555.648,4.277,4.277,0,0,0,1.34-.187,3.825,3.825,0,0,0,1.051-.539l.617,1.242a4.023,4.023,0,0,1-1.281.711A5.37,5.37,0,0,1,14.422.164Zm-.2-7.25a1.467,1.467,0,0,0-1.187.535,2.652,2.652,0,0,0-.555,1.395l.016.039h3.3v-.148a2.134,2.134,0,0,0-.379-1.316A1.4,1.4,0,0,0,14.219-7.086ZM21.234,0h-1.9V-12.187h1.9Zm5.711.164A3.681,3.681,0,0,1,24.051-1a4.374,4.374,0,0,1-1.043-3.027v-.312A4.522,4.522,0,0,1,24.051-7.41a3.37,3.37,0,0,1,2.691-1.2A3.163,3.163,0,0,1,29.32-7.559,4.249,4.249,0,0,1,30.2-4.75v1.023H24.969l-.016.039A2.77,2.77,0,0,0,25.5-2a1.866,1.866,0,0,0,1.555.648,4.277,4.277,0,0,0,1.34-.187,3.825,3.825,0,0,0,1.051-.539l.617,1.242a4.023,4.023,0,0,1-1.281.711A5.37,5.37,0,0,1,26.945.164Zm-.2-7.25a1.467,1.467,0,0,0-1.187.535A2.652,2.652,0,0,0,25-5.156l.016.039h3.3v-.148a2.134,2.134,0,0,0-.379-1.316A1.4,1.4,0,0,0,26.742-7.086ZM35.18-1.352a1.577,1.577,0,0,0,1.1-.406,1.33,1.33,0,0,0,.449-1.031h1.719l.016.047A2.549,2.549,0,0,1,37.52-.7a3.413,3.413,0,0,1-2.34.859,3.444,3.444,0,0,1-2.82-1.207,4.633,4.633,0,0,1-.992-3.043v-.273A4.637,4.637,0,0,1,32.359-7.4a3.43,3.43,0,0,1,2.813-1.211,3.316,3.316,0,0,1,2.4.887,2.894,2.894,0,0,1,.891,2.254l-.016.047H36.727A1.715,1.715,0,0,0,36.3-6.6a1.432,1.432,0,0,0-1.125-.484,1.549,1.549,0,0,0-1.461.785,3.885,3.885,0,0,0-.445,1.941v.273a3.921,3.921,0,0,0,.441,1.957A1.558,1.558,0,0,0,35.18-1.352Zm8.32,0a1.577,1.577,0,0,0,1.1-.406,1.33,1.33,0,0,0,.449-1.031h1.719l.016.047A2.549,2.549,0,0,1,45.84-.7,3.413,3.413,0,0,1,43.5.164a3.444,3.444,0,0,1-2.82-1.207,4.633,4.633,0,0,1-.992-3.043v-.273A4.637,4.637,0,0,1,40.68-7.4a3.43,3.43,0,0,1,2.813-1.211,3.316,3.316,0,0,1,2.4.887,2.894,2.894,0,0,1,.891,2.254l-.016.047H45.047a1.715,1.715,0,0,0-.43-1.18,1.432,1.432,0,0,0-1.125-.484,1.549,1.549,0,0,0-1.461.785,3.885,3.885,0,0,0-.445,1.941v.273a3.921,3.921,0,0,0,.441,1.957A1.558,1.558,0,0,0,43.5-1.352ZM50.4,0H48.5V-8.453h1.9Zm0-10.523H48.5v-1.664h1.9ZM52.172-4.3a4.59,4.59,0,0,1,1.035-3.1,3.535,3.535,0,0,1,2.832-1.207A3.562,3.562,0,0,1,58.895-7.4,4.59,4.59,0,0,1,59.93-4.3v.164a4.583,4.583,0,0,1-1.035,3.105,3.555,3.555,0,0,1-2.84,1.2,3.558,3.558,0,0,1-2.848-1.2,4.587,4.587,0,0,1-1.035-3.1Zm1.9.164a3.75,3.75,0,0,0,.484,2.016,1.645,1.645,0,0,0,1.5.773,1.648,1.648,0,0,0,1.488-.777,3.684,3.684,0,0,0,.5-2.012V-4.3a3.676,3.676,0,0,0-.5-2,1.658,1.658,0,0,0-1.5-.785,1.626,1.626,0,0,0-1.48.785,3.722,3.722,0,0,0-.488,2ZM63.3-8.453l.109,1.219a3.023,3.023,0,0,1,1.043-1.012,2.783,2.783,0,0,1,1.418-.363,2.64,2.64,0,0,1,2.059.813,3.692,3.692,0,0,1,.738,2.539V0h-1.9V-5.242a2.042,2.042,0,0,0-.383-1.4,1.5,1.5,0,0,0-1.156-.414,2.267,2.267,0,0,0-1.055.23,1.847,1.847,0,0,0-.711.637V0h-1.9V-8.453ZM75.742,0q-.1-.32-.168-.625a4.467,4.467,0,0,1-.09-.609,3.256,3.256,0,0,1-1.023,1,2.633,2.633,0,0,1-1.43.4A2.81,2.81,0,0,1,71-.516,2.468,2.468,0,0,1,70.3-2.383a2.206,2.206,0,0,1,.969-1.91,4.678,4.678,0,0,1,2.727-.684h1.477v-.742a1.38,1.38,0,0,0-.387-1.039,1.547,1.547,0,0,0-1.121-.375,1.6,1.6,0,0,0-1.031.309.981.981,0,0,0-.383.8l-1.828.008-.008-.047a2.094,2.094,0,0,1,.895-1.773,3.79,3.79,0,0,1,2.473-.773,3.616,3.616,0,0,1,2.383.75A2.64,2.64,0,0,1,77.367-5.7v3.758a6.93,6.93,0,0,0,.07,1A5.331,5.331,0,0,0,77.664,0Zm-2.32-1.359a2.373,2.373,0,0,0,1.285-.359,1.81,1.81,0,0,0,.762-.82v-1.25H73.961a1.9,1.9,0,0,0-1.3.41,1.246,1.246,0,0,0-.469.965.984.984,0,0,0,.316.77A1.315,1.315,0,0,0,73.422-1.359ZM83.563-6.742l-.812-.031a1.7,1.7,0,0,0-.926.234,1.543,1.543,0,0,0-.574.664V0h-1.9V-8.453h1.734l.125,1.227a2.711,2.711,0,0,1,.824-1.016,1.919,1.919,0,0,1,1.16-.367,1.769,1.769,0,0,1,.32.027,2.339,2.339,0,0,1,.273.066ZM90.977,0h-1.9V-8.453h1.9Zm0-10.523h-1.9v-1.664h1.9Zm3.859,2.07.1,1.1a2.865,2.865,0,0,1,1.039-.93,3.065,3.065,0,0,1,1.445-.328,2.608,2.608,0,0,1,1.422.375,2.266,2.266,0,0,1,.891,1.125,2.962,2.962,0,0,1,1.031-1.1,2.781,2.781,0,0,1,1.5-.4,2.479,2.479,0,0,1,2.012.887,4.125,4.125,0,0,1,.738,2.684V0h-1.9V-5.047a2.49,2.49,0,0,0-.371-1.559,1.361,1.361,0,0,0-1.113-.449,1.629,1.629,0,0,0-1.031.328,1.828,1.828,0,0,0-.609.883q0,.117.008.2t.008.164V0h-1.9V-5.047a2.462,2.462,0,0,0-.379-1.539,1.347,1.347,0,0,0-1.113-.469,2,2,0,0,0-.98.223A1.642,1.642,0,0,0,95-6.2V0H93.1V-8.453ZM112.109,0q-.1-.32-.168-.625a4.467,4.467,0,0,1-.09-.609,3.256,3.256,0,0,1-1.023,1,2.633,2.633,0,0,1-1.43.4,2.81,2.81,0,0,1-2.027-.68,2.468,2.468,0,0,1-.707-1.867,2.206,2.206,0,0,1,.969-1.91,4.678,4.678,0,0,1,2.727-.684h1.477v-.742a1.38,1.38,0,0,0-.387-1.039,1.547,1.547,0,0,0-1.121-.375,1.6,1.6,0,0,0-1.031.309.981.981,0,0,0-.383.8l-1.828.008-.008-.047a2.094,2.094,0,0,1,.895-1.773,3.79,3.79,0,0,1,2.473-.773,3.616,3.616,0,0,1,2.383.75,2.64,2.64,0,0,1,.906,2.156v3.758a6.93,6.93,0,0,0,.07,1,5.331,5.331,0,0,0,.227.941Zm-2.32-1.359a2.373,2.373,0,0,0,1.285-.359,1.81,1.81,0,0,0,.762-.82v-1.25h-1.508a1.9,1.9,0,0,0-1.3.41,1.246,1.246,0,0,0-.469.965.984.984,0,0,0,.316.77A1.315,1.315,0,0,0,109.789-1.359Zm5.633-2.75a5.574,5.574,0,0,1,.867-3.262,2.8,2.8,0,0,1,2.438-1.238,2.663,2.663,0,0,1,1.332.324,2.815,2.815,0,0,1,.973.934l.188-1.1H122.8V0a3.19,3.19,0,0,1-1.008,2.523,4.179,4.179,0,0,1-2.859.891,5.6,5.6,0,0,1-1.332-.176,6.188,6.188,0,0,1-1.293-.465l.3-1.492a4.81,4.81,0,0,0,1.082.379,5.465,5.465,0,0,0,1.223.137,2.169,2.169,0,0,0,1.508-.441A1.762,1.762,0,0,0,120.9,0V-.867a2.656,2.656,0,0,1-.941.77,2.836,2.836,0,0,1-1.246.262,2.876,2.876,0,0,1-2.422-1.133,4.766,4.766,0,0,1-.867-2.977Zm1.891.164a3.381,3.381,0,0,0,.453,1.867,1.583,1.583,0,0,0,1.43.7,1.945,1.945,0,0,0,1.027-.254,1.874,1.874,0,0,0,.676-.73v-3.7a2.029,2.029,0,0,0-.684-.723,1.854,1.854,0,0,0-1-.262,1.537,1.537,0,0,0-1.437.816,4.308,4.308,0,0,0-.461,2.129ZM128.367.164A3.681,3.681,0,0,1,125.473-1a4.374,4.374,0,0,1-1.043-3.027v-.312a4.522,4.522,0,0,1,1.043-3.066,3.37,3.37,0,0,1,2.691-1.2,3.163,3.163,0,0,1,2.578,1.051,4.249,4.249,0,0,1,.875,2.809v1.023h-5.227l-.016.039A2.77,2.77,0,0,0,126.922-2a1.866,1.866,0,0,0,1.555.648,4.277,4.277,0,0,0,1.34-.187,3.825,3.825,0,0,0,1.051-.539l.617,1.242a4.023,4.023,0,0,1-1.281.711A5.37,5.37,0,0,1,128.367.164Zm-.2-7.25a1.467,1.467,0,0,0-1.187.535,2.652,2.652,0,0,0-.555,1.395l.016.039h3.3v-.148a2.134,2.134,0,0,0-.379-1.316A1.4,1.4,0,0,0,128.164-7.086Zm6.711-1.367.109,1.219a3.024,3.024,0,0,1,1.043-1.012,2.783,2.783,0,0,1,1.418-.363A2.64,2.64,0,0,1,139.5-7.8a3.692,3.692,0,0,1,.738,2.539V0h-1.9V-5.242a2.042,2.042,0,0,0-.383-1.4,1.5,1.5,0,0,0-1.156-.414,2.267,2.267,0,0,0-1.055.23,1.847,1.847,0,0,0-.711.637V0h-1.9V-8.453Z" transform="translate(658.166 3156.478)" fill="#b7006d"/>
    <g id="Grupo_803" data-name="Grupo 803" transform="translate(-2261.071 2483.002)">
      <path id="Trazado_1138" data-name="Trazado 1138" d="M2968.9,549.782a11.282,11.282,0,1,0,11.281,11.282A11.295,11.295,0,0,0,2968.9,549.782Z" transform="translate(-24.763 -17.146)" fill="#b6b6b6"/>
      <path id="Trazado_1139" data-name="Trazado 1139" d="M2966.393,530.373h-5.513a4.78,4.78,0,0,1-3.574-1.385,4.691,4.691,0,0,1-1.292-3.151,2.721,2.721,0,0,0-2.683-2.748h-18.475a2.721,2.721,0,0,0-2.686,2.752,4.539,4.539,0,0,1-4.81,4.532h-5.611a2.721,2.721,0,0,0-2.678,2.752v26.212a2.719,2.719,0,0,0,2.678,2.752h44.643a2.72,2.72,0,0,0,2.679-2.752V533.125A2.722,2.722,0,0,0,2966.393,530.373Zm-22.585,28.17a14.343,14.343,0,1,1,13.955-14.338A14.166,14.166,0,0,1,2943.808,558.543Zm20.014-21.775a1.413,1.413,0,1,1,1.375-1.412A1.394,1.394,0,0,1,2963.822,536.768Z" transform="translate(0)" fill="#b6b6b6"/>
    </g>
    <path id="Trazado_1409" data-name="Trazado 1409" d="M5.134,0H3.473V-8.422H1.36V-9.741L5.134-10.1Zm3.9-4.4.574-5.551h5.25v1.436H10.992l-.3,2.536a2.765,2.765,0,0,1,.7-.355,2.8,2.8,0,0,1,.9-.15,2.682,2.682,0,0,1,2.16.868,3.579,3.579,0,0,1,.772,2.44,3.5,3.5,0,0,1-.813,2.4,3.074,3.074,0,0,1-2.434.923A3.494,3.494,0,0,1,9.758-.564a2.329,2.329,0,0,1-.872-2.02L8.9-2.618l1.559-.048a1.42,1.42,0,0,0,.42,1.09,1.542,1.542,0,0,0,1.1.393,1.4,1.4,0,0,0,1.183-.526,2.343,2.343,0,0,0,.4-1.456A2.3,2.3,0,0,0,13.146-4.6a1.41,1.41,0,0,0-1.189-.543,1.871,1.871,0,0,0-1.015.219,1.236,1.236,0,0,0-.482.643Zm14.232.95a4.17,4.17,0,0,1-.759,2.6A2.51,2.51,0,0,1,20.4.144a2.616,2.616,0,0,1-1.114-.226,2.293,2.293,0,0,1-.834-.663V2.844H16.789V-7.4h1.4l.164.93a2.467,2.467,0,0,1,.858-.793,2.4,2.4,0,0,1,1.166-.273A2.456,2.456,0,0,1,22.507-6.45,4.861,4.861,0,0,1,23.27-3.6ZM21.615-3.6a3.6,3.6,0,0,0-.427-1.856,1.389,1.389,0,0,0-1.275-.721,1.656,1.656,0,0,0-.882.222,1.636,1.636,0,0,0-.581.619v3.343a1.545,1.545,0,0,0,.581.6,1.771,1.771,0,0,0,.9.208,1.425,1.425,0,0,0,1.268-.625,2.9,2.9,0,0,0,.42-1.644ZM27.269-4.86,28.636-7.4h1.907L28.219-3.739,30.611,0H28.725L27.3-2.6,25.867,0h-1.9l2.393-3.739L24.035-7.4h1.887Z" transform="translate(782 3197)" fill="#4199a0"/>
    <path id="Trazado_1416" data-name="Trazado 1416" d="M5.134,0H3.473V-8.422H1.36V-9.741L5.134-10.1Zm3.9-4.4.574-5.551h5.25v1.436H10.992l-.3,2.536a2.765,2.765,0,0,1,.7-.355,2.8,2.8,0,0,1,.9-.15,2.682,2.682,0,0,1,2.16.868,3.579,3.579,0,0,1,.772,2.44,3.5,3.5,0,0,1-.813,2.4,3.074,3.074,0,0,1-2.434.923A3.494,3.494,0,0,1,9.758-.564a2.329,2.329,0,0,1-.872-2.02L8.9-2.618l1.559-.048a1.42,1.42,0,0,0,.42,1.09,1.542,1.542,0,0,0,1.1.393,1.4,1.4,0,0,0,1.183-.526,2.343,2.343,0,0,0,.4-1.456A2.3,2.3,0,0,0,13.146-4.6a1.41,1.41,0,0,0-1.189-.543,1.871,1.871,0,0,0-1.015.219,1.236,1.236,0,0,0-.482.643Zm14.232.95a4.17,4.17,0,0,1-.759,2.6A2.51,2.51,0,0,1,20.4.144a2.616,2.616,0,0,1-1.114-.226,2.293,2.293,0,0,1-.834-.663V2.844H16.789V-7.4h1.4l.164.93a2.467,2.467,0,0,1,.858-.793,2.4,2.4,0,0,1,1.166-.273A2.456,2.456,0,0,1,22.507-6.45,4.861,4.861,0,0,1,23.27-3.6ZM21.615-3.6a3.6,3.6,0,0,0-.427-1.856,1.389,1.389,0,0,0-1.275-.721,1.656,1.656,0,0,0-.882.222,1.636,1.636,0,0,0-.581.619v3.343a1.545,1.545,0,0,0,.581.6,1.771,1.771,0,0,0,.9.208,1.425,1.425,0,0,0,1.268-.625,2.9,2.9,0,0,0,.42-1.644ZM27.269-4.86,28.636-7.4h1.907L28.219-3.739,30.611,0H28.725L27.3-2.6,25.867,0h-1.9l2.393-3.739L24.035-7.4h1.887Z" transform="translate(626 3197)" fill="#4199a0"/>
    <path id="Trazado_1417" data-name="Trazado 1417" d="M5.134,0H3.473V-8.422H1.36V-9.741L5.134-10.1Zm3.9-4.4.574-5.551h5.25v1.436H10.992l-.3,2.536a2.765,2.765,0,0,1,.7-.355,2.8,2.8,0,0,1,.9-.15,2.682,2.682,0,0,1,2.16.868,3.579,3.579,0,0,1,.772,2.44,3.5,3.5,0,0,1-.813,2.4,3.074,3.074,0,0,1-2.434.923A3.494,3.494,0,0,1,9.758-.564a2.329,2.329,0,0,1-.872-2.02L8.9-2.618l1.559-.048a1.42,1.42,0,0,0,.42,1.09,1.542,1.542,0,0,0,1.1.393,1.4,1.4,0,0,0,1.183-.526,2.343,2.343,0,0,0,.4-1.456A2.3,2.3,0,0,0,13.146-4.6a1.41,1.41,0,0,0-1.189-.543,1.871,1.871,0,0,0-1.015.219,1.236,1.236,0,0,0-.482.643Zm14.232.95a4.17,4.17,0,0,1-.759,2.6A2.51,2.51,0,0,1,20.4.144a2.616,2.616,0,0,1-1.114-.226,2.293,2.293,0,0,1-.834-.663V2.844H16.789V-7.4h1.4l.164.93a2.467,2.467,0,0,1,.858-.793,2.4,2.4,0,0,1,1.166-.273A2.456,2.456,0,0,1,22.507-6.45,4.861,4.861,0,0,1,23.27-3.6ZM21.615-3.6a3.6,3.6,0,0,0-.427-1.856,1.389,1.389,0,0,0-1.275-.721,1.656,1.656,0,0,0-.882.222,1.636,1.636,0,0,0-.581.619v3.343a1.545,1.545,0,0,0,.581.6,1.771,1.771,0,0,0,.9.208,1.425,1.425,0,0,0,1.268-.625,2.9,2.9,0,0,0,.42-1.644ZM27.269-4.86,28.636-7.4h1.907L28.219-3.739,30.611,0H28.725L27.3-2.6,25.867,0h-1.9l2.393-3.739L24.035-7.4h1.887Z" transform="translate(829 3059)" fill="#4199a0"/>
    <path id="Trazado_1418" data-name="Trazado 1418" d="M7.055-7.383a2.265,2.265,0,0,1-.4,1.33,2.632,2.632,0,0,1-1.094.892,3,3,0,0,1,1.309.95,2.3,2.3,0,0,1,.489,1.449A2.618,2.618,0,0,1,6.429-.615,3.594,3.594,0,0,1,4.074.144,3.877,3.877,0,0,1,1.6-.615a2.578,2.578,0,0,1-.96-2.146,2.256,2.256,0,0,1,.5-1.449A3.072,3.072,0,0,1,2.5-5.161,2.693,2.693,0,0,1,1.36-6.053a2.213,2.213,0,0,1-.417-1.33A2.443,2.443,0,0,1,1.8-9.4a3.474,3.474,0,0,1,2.256-.7,3.247,3.247,0,0,1,2.157.7A2.477,2.477,0,0,1,7.055-7.383ZM5.7-2.823a1.618,1.618,0,0,0-.472-1.2,1.593,1.593,0,0,0-1.169-.468A1.775,1.775,0,0,0,2.8-4.023a1.572,1.572,0,0,0-.5,1.2,1.529,1.529,0,0,0,.5,1.193,1.839,1.839,0,0,0,1.282.448A1.609,1.609,0,0,0,5.236-1.63,1.58,1.58,0,0,0,5.7-2.823Zm-.308-4.5a1.46,1.46,0,0,0-.376-1.042,1.256,1.256,0,0,0-.957-.4A1.456,1.456,0,0,0,3-8.377a1.4,1.4,0,0,0-.4,1.056,1.472,1.472,0,0,0,.41,1.083,1.427,1.427,0,0,0,1.06.414,1.218,1.218,0,0,0,.947-.414A1.557,1.557,0,0,0,5.394-7.321Zm9.919,3.869a4.17,4.17,0,0,1-.759,2.6,2.51,2.51,0,0,1-2.112.991,2.616,2.616,0,0,1-1.114-.226,2.293,2.293,0,0,1-.834-.663V2.844H8.832V-7.4h1.4l.164.93a2.467,2.467,0,0,1,.858-.793,2.4,2.4,0,0,1,1.166-.273A2.456,2.456,0,0,1,14.55-6.45,4.861,4.861,0,0,1,15.313-3.6ZM13.658-3.6a3.6,3.6,0,0,0-.427-1.856,1.389,1.389,0,0,0-1.275-.721,1.656,1.656,0,0,0-.882.222,1.636,1.636,0,0,0-.581.619v3.343a1.545,1.545,0,0,0,.581.6,1.771,1.771,0,0,0,.9.208,1.425,1.425,0,0,0,1.268-.625,2.9,2.9,0,0,0,.42-1.644ZM19.312-4.86,20.679-7.4h1.907L20.262-3.739,22.654,0H20.768L19.339-2.6,17.91,0h-1.9L18.4-3.739,16.078-7.4h1.887Z" transform="translate(829 3134)" fill="#4199a0"/>
    <path id="Trazado_1410" data-name="Trazado 1410" d="M0,8V0" transform="translate(812.334 3173.522)" fill="none" stroke="#4199a0" stroke-width="1"/>
    <path id="Trazado_1419" data-name="Trazado 1419" d="M0,8V0" transform="translate(656.334 3173.522)" fill="none" stroke="#4199a0" stroke-width="1"/>
    <path id="Trazado_1420" data-name="Trazado 1420" d="M0,8V0" transform="translate(819.167 3046.355) rotate(-90)" fill="none" stroke="#4199a0" stroke-width="1"/>
    <path id="Trazado_1421" data-name="Trazado 1421" d="M0,8V0" transform="translate(817.167 3124.355) rotate(-90)" fill="none" stroke="#4199a0" stroke-width="1"/>
    <path id="Trazado_1411" data-name="Trazado 1411" d="M0,8V0" transform="translate(798.334 3173.522)" fill="none" stroke="#4199a0" stroke-width="1"/>
    <path id="Trazado_1422" data-name="Trazado 1422" d="M0,8V0" transform="translate(642.334 3173.522)" fill="none" stroke="#4199a0" stroke-width="1"/>
    <path id="Trazado_1423" data-name="Trazado 1423" d="M0,8V0" transform="translate(819.167 3060.355) rotate(-90)" fill="none" stroke="#4199a0" stroke-width="1"/>
    <path id="Trazado_1424" data-name="Trazado 1424" d="M0,8V0" transform="translate(817.167 3133.355) rotate(-90)" fill="none" stroke="#4199a0" stroke-width="1"/>
    <path id="Trazado_1425" data-name="Trazado 1425" d="M0,0H14.665" transform="translate(797.835 3177.607)" fill="none" stroke="#4199a0" stroke-width="1"/>
    <path id="Trazado_1426" data-name="Trazado 1426" d="M0,0H14.665" transform="translate(641.835 3177.607)" fill="none" stroke="#4199a0" stroke-width="1"/>
    <path id="Trazado_1427" data-name="Trazado 1427" d="M0,0H14.665" transform="translate(823.252 3060.855) rotate(-90)" fill="none" stroke="#4199a0" stroke-width="1"/>
    <path id="Trazado_1428" data-name="Trazado 1428" d="M0,9.311V0" transform="translate(821.252 3124.189)" fill="none" stroke="#4199a0" stroke-width="1"/>
    <path id="Trazado_1429" data-name="Trazado 1429" d="M0,0H15V35H0Z" transform="translate(798.834 3133.522)" fill="#4199a0" opacity="0.81"/>
    <path id="Trazado_1430" data-name="Trazado 1430" d="M0,0H15V35H0Z" transform="translate(642.834 3133.522)" fill="#4199a0" opacity="0.81"/>
    <path id="Trazado_1431" data-name="Trazado 1431" d="M0,0H260V9H0Z" transform="translate(553.834 3124.522)" fill="#4199a0" opacity="0.81"/>
    <path id="Trazado_1432" data-name="Trazado 1432" d="M0,0H15V259H0Z" transform="translate(554.834 3060.522) rotate(-90)" fill="#4199a0" opacity="0.81"/>
  </g>
</svg>
