<svg xmlns="http://www.w3.org/2000/svg" width="361.383" height="632.148" viewBox="0 0 361.383 632.148">
  <g id="Grupo_2508" data-name="Grupo 2508" transform="translate(-70.309 -2431.309)">
    <rect id="Rectángulo_115" data-name="Rectángulo 115" width="360" height="630.766" transform="translate(71 2432)" fill="#fff" stroke="#d9d9d9" stroke-miterlimit="10" stroke-width="1.383"/>
    <g id="Headline_5" data-name="Headline 5" transform="translate(116.257 3010.379)">
      <text id="Cuerpo_2_lorem_Ipsum_is_simply_dummy_text_of_the_printing_text_simulation." data-name="Cuerpo 2 lorem Ipsum is simply dummy text of the
printing text simulation." transform="translate(134 13)" fill="#333" font-size="12" font-family="Roboto-Regular, Roboto" style="isolation: isolate"><tspan x="-134.039" y="0">Cuerpo 2 lorem Ipsum is simply dummy text of the</tspan><tspan x="-62.862" y="16">printing text simulation.</tspan></text>
    </g>
    <path id="Trazado_2231" data-name="Trazado 2231" d="M276.9,545.778h51.784l3.072.986H274.293Zm-.446-1.357-9.3,3.614h71.586l-9.253-3.614Z" transform="translate(-121.496 2186.7)" fill="#242424"/>
    <path id="Trazado_2232" data-name="Trazado 2232" d="M282.882,547.478s7.8,6.581,11.942,7.627c0,0,6-6.962,6.84-7.627Z" transform="translate(-112.61 2188.871)" fill="#d2067f"/>
    <path id="Trazado_2233" data-name="Trazado 2233" d="M329.642,528.583h13.5l28.763,21.728V528.583h13.63v37.2h-13.63l-28.664-22.173v22.173h-13.6Z" transform="translate(-86.184 2177.138)" fill="#242424"/>
    <path id="Trazado_2234" data-name="Trazado 2234" d="M272.438,567.728h-2.65V557.709h2.65Z" transform="translate(-120.011 2195.793)" fill="#242424"/>
    <path id="Trazado_2235" data-name="Trazado 2235" d="M275.333,559.4l.083.875a2.881,2.881,0,0,1,2.338-1.013,2.459,2.459,0,0,1,1.913.695,3.1,3.1,0,0,1,.654,2.091v4.8h-2.559v-4.7a1.178,1.178,0,0,0-.249-.829,1.229,1.229,0,0,0-.909-.266,1.254,1.254,0,0,0-1.113.537v5.257h-2.55V559.4Z" transform="translate(-118.229 2196.75)" fill="#242424"/>
    <path id="Trazado_2236" data-name="Trazado 2236" d="M283.395,564.757a.537.537,0,0,0-.34-.476,5.579,5.579,0,0,0-1.3-.371,6.291,6.291,0,0,1-1.573-.505,2.574,2.574,0,0,1-.947-.761,1.7,1.7,0,0,1-.326-1.025,2,2,0,0,1,.931-1.689,4.1,4.1,0,0,1,2.437-.665,4.566,4.566,0,0,1,2.6.667,2.039,2.039,0,0,1,.984,1.756h-2.559q0-.894-1.038-.9a1.091,1.091,0,0,0-.673.2.609.609,0,0,0-.272.506.571.571,0,0,0,.333.5,3.339,3.339,0,0,0,1.063.316,9.9,9.9,0,0,1,1.283.3q1.845.578,1.847,2.071a1.909,1.909,0,0,1-1,1.658,4.689,4.689,0,0,1-2.578.64,4.822,4.822,0,0,1-1.877-.344,3.1,3.1,0,0,1-1.287-.934,1.994,1.994,0,0,1-.462-1.246h2.384a.869.869,0,0,0,.379.753,1.675,1.675,0,0,0,.931.238,1.314,1.314,0,0,0,.783-.193A.593.593,0,0,0,283.395,564.757Z" transform="translate(-114.998 2196.755)" fill="#242424"/>
    <path id="Trazado_2237" data-name="Trazado 2237" d="M287.61,558.171v1.85h1.348v1.611H287.61v3.406a.805.805,0,0,0,.167.585.954.954,0,0,0,.657.166,4.016,4.016,0,0,0,.637-.042V567.4a5.091,5.091,0,0,1-1.438.2,2.849,2.849,0,0,1-1.945-.563,2.187,2.187,0,0,1-.629-1.714v-3.7h-1.044v-1.611h1.044v-1.85Z" transform="translate(-111.97 2196.082)" fill="#242424"/>
    <path id="Trazado_2238" data-name="Trazado 2238" d="M288.188,558.534a.991.991,0,0,1,.394-.811,1.8,1.8,0,0,1,2.043,0,1.034,1.034,0,0,1,0,1.625,1.815,1.815,0,0,1-2.043,0A1,1,0,0,1,288.188,558.534ZM290.9,567.9H288.34v-7.445H290.9Z" transform="translate(-109.611 2195.606)" fill="#242424"/>
    <path id="Trazado_2239" data-name="Trazado 2239" d="M294.517,558.171v1.85h1.348v1.611h-1.348v3.406a.812.812,0,0,0,.166.585.958.958,0,0,0,.659.166,3.994,3.994,0,0,0,.635-.042V567.4a5.074,5.074,0,0,1-1.438.2,2.851,2.851,0,0,1-1.945-.563,2.192,2.192,0,0,1-.628-1.714v-3.7H290.92v-1.611h1.046v-1.85Z" transform="translate(-108.067 2196.082)" fill="#242424"/>
    <path id="Trazado_2240" data-name="Trazado 2240" d="M300,565.994a3.133,3.133,0,0,1-4.229.23,2.817,2.817,0,0,1-.692-2.048v-4.824h2.551v4.838q0,.956,1.022.956a1.375,1.375,0,0,0,1.249-.57v-5.224h2.565V566.8h-2.392Z" transform="translate(-105.717 2196.809)" fill="#242424"/>
    <path id="Trazado_2241" data-name="Trazado 2241" d="M304.274,558.171v1.85h1.348v1.611h-1.348v3.406a.8.8,0,0,0,.167.585.953.953,0,0,0,.657.166,3.993,3.993,0,0,0,.635-.042V567.4a5.071,5.071,0,0,1-1.437.2,2.846,2.846,0,0,1-1.945-.563,2.188,2.188,0,0,1-.629-1.714v-3.7h-1.044v-1.611h1.044v-1.85Z" transform="translate(-102.552 2196.082)" fill="#242424"/>
    <path id="Trazado_2242" data-name="Trazado 2242" d="M304.52,563.057a4.043,4.043,0,0,1,.477-1.985,3.24,3.24,0,0,1,1.37-1.34,4.46,4.46,0,0,1,2.1-.468,3.97,3.97,0,0,1,2.9,1.036,3.76,3.76,0,0,1,1.06,2.817v.083a3.649,3.649,0,0,1-1.063,2.762,3.979,3.979,0,0,1-2.88,1.022,4.042,4.042,0,0,1-2.809-.953,3.56,3.56,0,0,1-1.143-2.584Zm2.551.144a2.558,2.558,0,0,0,.355,1.513,1.224,1.224,0,0,0,1.053.482q1.362,0,1.391-1.906v-.233q0-2-1.407-2-1.28,0-1.385,1.728Z" transform="translate(-100.381 2196.755)" fill="#242424"/>
    <path id="Trazado_2243" data-name="Trazado 2243" d="M322.807,567.728h-2.642l-3.907-6.234v6.234H313.6V557.709h2.658l3.9,6.234v-6.234h2.65Z" transform="translate(-95.249 2195.793)" fill="#242424"/>
    <path id="Trazado_2244" data-name="Trazado 2244" d="M325.616,566.848a2.441,2.441,0,0,1-.243-.667,2.473,2.473,0,0,1-1.967.8,3.092,3.092,0,0,1-1.969-.637,1.952,1.952,0,0,1-.809-1.6,2.026,2.026,0,0,1,.985-1.83,5.406,5.406,0,0,1,2.861-.62h.787v-.395q0-1.031-.977-1.03-.908,0-.908.815h-2.551a2.033,2.033,0,0,1,1.01-1.753,4.574,4.574,0,0,1,2.578-.673,3.984,3.984,0,0,1,2.476.695,2.331,2.331,0,0,1,.931,1.906v3.3a3.1,3.1,0,0,0,.347,1.568v.117Zm-1.6-1.513a1.551,1.551,0,0,0,.79-.185,1.231,1.231,0,0,0,.451-.421v-1.191h-.742q-1.334,0-1.332,1.089a.641.641,0,0,0,.233.512A.9.9,0,0,0,324.02,565.335Z" transform="translate(-91.277 2196.755)" fill="#242424"/>
    <path id="Trazado_2245" data-name="Trazado 2245" d="M330.09,565.2a1.209,1.209,0,0,0,.833-.264.922.922,0,0,0,.288-.74H333.6a2.476,2.476,0,0,1-.966,2.01,3.807,3.807,0,0,1-6.333-3.055v-.1a4.185,4.185,0,0,1,.459-1.991,3.154,3.154,0,0,1,1.321-1.329,4.244,4.244,0,0,1,2.044-.465,3.773,3.773,0,0,1,2.536.8,2.733,2.733,0,0,1,.939,2.182H331.21a1.2,1.2,0,0,0-.31-.887,1.129,1.129,0,0,0-.833-.31q-.993,0-1.158,1.15a7.244,7.244,0,0,0-.053,1,2.942,2.942,0,0,0,.3,1.557A1.056,1.056,0,0,0,330.09,565.2Z" transform="translate(-88.069 2196.755)" fill="#242424"/>
    <path id="Trazado_2246" data-name="Trazado 2246" d="M332.041,558.534a.994.994,0,0,1,.393-.811,1.8,1.8,0,0,1,2.044,0,1.034,1.034,0,0,1,0,1.625,1.818,1.818,0,0,1-2.044,0A1,1,0,0,1,332.041,558.534Zm2.709,9.366h-2.558v-7.445h2.558Z" transform="translate(-84.827 2195.606)" fill="#242424"/>
    <path id="Trazado_2247" data-name="Trazado 2247" d="M334.966,563.057a4.06,4.06,0,0,1,.477-1.985,3.235,3.235,0,0,1,1.371-1.34,4.454,4.454,0,0,1,2.1-.468,3.974,3.974,0,0,1,2.9,1.036,3.76,3.76,0,0,1,1.06,2.817v.083a3.65,3.65,0,0,1-1.064,2.762,3.976,3.976,0,0,1-2.88,1.022,4.045,4.045,0,0,1-2.81-.953,3.566,3.566,0,0,1-1.142-2.584Zm2.551.144a2.557,2.557,0,0,0,.357,1.513,1.219,1.219,0,0,0,1.052.482q1.362,0,1.393-1.906v-.233q0-2-1.409-2-1.279,0-1.385,1.728Z" transform="translate(-83.174 2196.755)" fill="#242424"/>
    <path id="Trazado_2248" data-name="Trazado 2248" d="M343.481,559.4l.083.875a2.885,2.885,0,0,1,2.34-1.013,2.456,2.456,0,0,1,1.911.695,3.1,3.1,0,0,1,.654,2.091v4.8H345.91v-4.7a1.163,1.163,0,0,0-.25-.829,1.221,1.221,0,0,0-.908-.266,1.258,1.258,0,0,0-1.113.537v5.257h-2.551V559.4Z" transform="translate(-79.714 2196.75)" fill="#242424"/>
    <path id="Trazado_2249" data-name="Trazado 2249" d="M351.841,566.848a2.55,2.55,0,0,1-.243-.667,2.473,2.473,0,0,1-1.967.8,3.088,3.088,0,0,1-1.969-.637,1.956,1.956,0,0,1-.809-1.6,2.026,2.026,0,0,1,.985-1.83,5.4,5.4,0,0,1,2.859-.62h.789v-.395q0-1.031-.975-1.03-.909,0-.909.815h-2.553a2.035,2.035,0,0,1,1.011-1.753,4.57,4.57,0,0,1,2.578-.673,3.976,3.976,0,0,1,2.474.695,2.337,2.337,0,0,1,.933,1.906v3.3a3.12,3.12,0,0,0,.348,1.568v.117Zm-1.6-1.513a1.551,1.551,0,0,0,.79-.185,1.219,1.219,0,0,0,.451-.421v-1.191h-.742q-1.334,0-1.332,1.089a.633.633,0,0,0,.235.512A.894.894,0,0,0,350.245,565.335Z" transform="translate(-76.456 2196.755)" fill="#242424"/>
    <path id="Trazado_2250" data-name="Trazado 2250" d="M355.379,567.927H352.82v-10.57h2.559Z" transform="translate(-73.084 2195.577)" fill="#242424"/>
    <path id="Trazado_2251" data-name="Trazado 2251" d="M365.619,563.475H361.44v2.395h4.935v1.858h-7.593V557.709h7.61v1.864H361.44v2.113h4.179Z" transform="translate(-69.714 2195.793)" fill="#242424"/>
    <path id="Trazado_2252" data-name="Trazado 2252" d="M367.288,567.927h-2.558v-10.57h2.558Z" transform="translate(-66.352 2195.577)" fill="#242424"/>
    <path id="Trazado_2253" data-name="Trazado 2253" d="M371.82,566.986a4.454,4.454,0,0,1-3.051-1.022A3.37,3.37,0,0,1,367.6,563.3v-.193a4.229,4.229,0,0,1,.465-2.016,3.226,3.226,0,0,1,1.359-1.352,4.434,4.434,0,0,1,2.121-.479,3.737,3.737,0,0,1,2.725.974,3.609,3.609,0,0,1,1,2.715v.9H370.2a1.636,1.636,0,0,0,.6.985,1.894,1.894,0,0,0,1.2.357,2.4,2.4,0,0,0,1.892-.77l1.166,1.252a3.229,3.229,0,0,1-1.352.953A4.955,4.955,0,0,1,371.82,566.986Zm-.288-5.932c-.745,0-1.191.449-1.33,1.349h2.572v-.178a1.085,1.085,0,0,0-.31-.864A1.313,1.313,0,0,0,371.532,561.054Z" transform="translate(-64.729 2196.755)" fill="#242424"/>
    <path id="Trazado_2254" data-name="Trazado 2254" d="M377.134,565.2a1.212,1.212,0,0,0,.833-.264.927.927,0,0,0,.288-.74h2.391a2.472,2.472,0,0,1-.966,2.01,3.806,3.806,0,0,1-6.331-3.055v-.1a4.184,4.184,0,0,1,.459-1.991,3.159,3.159,0,0,1,1.319-1.329,4.253,4.253,0,0,1,2.044-.465,3.78,3.78,0,0,1,2.537.8,2.732,2.732,0,0,1,.938,2.182h-2.391a1.2,1.2,0,0,0-.312-.887,1.127,1.127,0,0,0-.833-.31q-.991,0-1.157,1.15a7.194,7.194,0,0,0-.055,1,2.942,2.942,0,0,0,.3,1.557A1.061,1.061,0,0,0,377.134,565.2Z" transform="translate(-61.481 2196.755)" fill="#242424"/>
    <path id="Trazado_2255" data-name="Trazado 2255" d="M382.293,558.171v1.85h1.348v1.611h-1.348v3.406a.812.812,0,0,0,.166.585.961.961,0,0,0,.659.166,3.994,3.994,0,0,0,.635-.042V567.4a5.074,5.074,0,0,1-1.438.2,2.846,2.846,0,0,1-1.944-.563,2.187,2.187,0,0,1-.629-1.714v-3.7H378.7v-1.611h1.044v-1.85Z" transform="translate(-58.458 2196.082)" fill="#242424"/>
    <path id="Trazado_2256" data-name="Trazado 2256" d="M382.539,563.057a4.043,4.043,0,0,1,.477-1.985,3.232,3.232,0,0,1,1.37-1.34,4.456,4.456,0,0,1,2.1-.468,3.973,3.973,0,0,1,2.9,1.036,3.76,3.76,0,0,1,1.06,2.817v.083a3.65,3.65,0,0,1-1.064,2.762,3.976,3.976,0,0,1-2.88,1.022,4.038,4.038,0,0,1-2.808-.953,3.554,3.554,0,0,1-1.143-2.584Zm2.55.144a2.557,2.557,0,0,0,.357,1.513,1.221,1.221,0,0,0,1.052.482q1.364,0,1.393-1.906v-.233q0-2-1.407-2-1.282,0-1.385,1.728Z" transform="translate(-56.287 2196.755)" fill="#242424"/>
    <path id="Trazado_2257" data-name="Trazado 2257" d="M393.639,561.5l-.841-.055q-1.2,0-1.543.687v4.714H388.7V559.4H391.1l.083.958a1.989,1.989,0,0,1,1.794-1.1,2.737,2.737,0,0,1,.712.083Z" transform="translate(-52.803 2196.75)" fill="#242424"/>
    <path id="Trazado_2258" data-name="Trazado 2258" d="M397.491,566.848a2.394,2.394,0,0,1-.241-.667,2.481,2.481,0,0,1-1.969.8,3.084,3.084,0,0,1-1.967-.637,1.95,1.95,0,0,1-.811-1.6,2.023,2.023,0,0,1,.984-1.83,5.406,5.406,0,0,1,2.861-.62h.787v-.395q0-1.031-.977-1.03-.909,0-.909.815H392.7a2.033,2.033,0,0,1,1.01-1.753,4.57,4.57,0,0,1,2.578-.673,3.984,3.984,0,0,1,2.476.695,2.331,2.331,0,0,1,.931,1.906v3.3a3.1,3.1,0,0,0,.348,1.568v.117Zm-1.6-1.513a1.551,1.551,0,0,0,.79-.185,1.244,1.244,0,0,0,.451-.421v-1.191h-.742q-1.334,0-1.334,1.089a.639.639,0,0,0,.236.512A.9.9,0,0,0,395.895,565.335Z" transform="translate(-50.656 2196.755)" fill="#242424"/>
    <path id="Trazado_2259" data-name="Trazado 2259" d="M401.028,567.927h-2.557v-10.57h2.557Z" transform="translate(-47.283 2195.577)" fill="#242424"/>
    <rect id="Rectángulo_116" data-name="Rectángulo 116" width="13.978" height="37.204" transform="translate(222.229 2705.722)" fill="#242424"/>
    <path id="Trazado_2260" data-name="Trazado 2260" d="M370.31,528.583v37.2h48.551v-7.009H384.518v-8.432h34.343v-6.535h-34.1V535.33h34.1v-6.746Z" transform="translate(-63.199 2177.138)" fill="#242424" fill-rule="evenodd"/>
    <path id="Trazado_2261" data-name="Trazado 2261" d="M275.215,547.5c3.439-4.788,15.517-20.836,23.836-24.421,6.112,11.355,20.123,22.4,24.387,24.421-5.854,3.562-10.369,6.544-14.844,11.33H284.75c-3.257-3.079-8.281-8.363-9.535-11.33" transform="translate(-116.943 2173.381)" fill="#d2067f"/>
  </g>
</svg>
