<svg xmlns="http://www.w3.org/2000/svg" width="346.677" height="265.881" viewBox="0 0 346.677 265.881">
  <g id="Grupo_886" data-name="Grupo 886" transform="translate(-569 -3089)">
    <g id="Trazado_1382" data-name="Trazado 1382" transform="translate(569 3089)" fill="#fff">
      <path d="M 346.177001953125 265.3809814453125 L 0.5000009536743164 265.3809814453125 L 0.5000009536743164 0.5000209212303162 L 346.177001953125 0.5000209212303162 L 346.177001953125 265.3809814453125 Z" stroke="none"/>
      <path d="M 1 0.999969482421875 L 1 264.8809204101562 L 345.677001953125 264.8809204101562 L 345.677001953125 0.999969482421875 L 1 0.999969482421875 M 0 -3.0517578125e-05 L 346.677001953125 -3.0517578125e-05 L 346.677001953125 265.8809204101562 L 0 265.8809204101562 L 0 -3.0517578125e-05 Z" stroke="none" fill="#707070"/>
    </g>
    <path id="Trazado_1383" data-name="Trazado 1383" d="M0,0H346.677V25.882H0Z" transform="translate(569 3089)" fill="#333"/>
    <g id="Grupo_874" data-name="Grupo 874" transform="translate(20 34.294)" opacity="0.196">
      <g id="Rectángulo_1467" data-name="Rectángulo 1467" transform="translate(654 3140.764)" fill="#fff" stroke="#707070" stroke-width="1">
        <rect width="136.98" height="155.526" rx="11" stroke="none"/>
        <rect x="0.5" y="0.5" width="135.98" height="154.526" rx="10.5" fill="none"/>
      </g>
      <rect id="Rectángulo_1468" data-name="Rectángulo 1468" width="79.026" height="22.44" rx="4" transform="translate(682.655 3260.987)" fill="#b7006d"/>
      <path id="Trazado_1289" data-name="Trazado 1289" d="M2.179-2.233H1.206V-9.391h.973ZM4.687-7.553l.069.791a1.931,1.931,0,0,1,.666-.656,1.777,1.777,0,0,1,.912-.234,1.736,1.736,0,0,1,1.332.5,2.212,2.212,0,0,1,.472,1.556v3.358H7.169V-5.571a1.439,1.439,0,0,0-.278-1,1.113,1.113,0,0,0-.848-.295,1.5,1.5,0,0,0-.76.179,1.3,1.3,0,0,0-.494.5v3.948H3.821V-7.553Zm5.9,5.319H9.622V-7.553h.968Zm0-6.681H9.622V-9.9h.968Zm3.6,6.027a1.139,1.139,0,0,0,.782-.3.94.94,0,0,0,.334-.73h.875l.015.029a1.528,1.528,0,0,1-.59,1.222,2.084,2.084,0,0,1-1.416.533,2.088,2.088,0,0,1-1.73-.762,2.941,2.941,0,0,1-.61-1.9V-5a2.928,2.928,0,0,1,.612-1.89,2.087,2.087,0,0,1,1.728-.764,2.007,2.007,0,0,1,1.458.551A1.746,1.746,0,0,1,16.2-5.748l-.01.029h-.88a1.174,1.174,0,0,0-.317-.828,1.043,1.043,0,0,0-.8-.342,1.118,1.118,0,0,0-1.04.553A2.589,2.589,0,0,0,12.827-5v.206a2.638,2.638,0,0,0,.322,1.352A1.117,1.117,0,0,0,14.194-2.887Zm4.2.654h-.968V-7.553H18.4Zm0-6.681h-.968V-9.9H18.4Zm4.759,6.681q-.049-.241-.076-.425a3.121,3.121,0,0,1-.032-.371,2.258,2.258,0,0,1-.705.642,1.8,1.8,0,0,1-.936.258,1.739,1.739,0,0,1-1.266-.425A1.564,1.564,0,0,1,19.7-3.728a1.374,1.374,0,0,1,.617-1.192A2.881,2.881,0,0,1,22-5.35h1.052v-.526a.976.976,0,0,0-.285-.74,1.12,1.12,0,0,0-.806-.273,1.17,1.17,0,0,0-.762.236.708.708,0,0,0-.29.565l-.919.01-.01-.029a1.273,1.273,0,0,1,.543-1.062,2.251,2.251,0,0,1,1.492-.482,2.2,2.2,0,0,1,1.455.46,1.628,1.628,0,0,1,.551,1.325v2.561a4.985,4.985,0,0,0,.029.551,2.831,2.831,0,0,0,.108.521Zm-1.608-.708a1.724,1.724,0,0,0,.949-.27,1.285,1.285,0,0,0,.551-.619V-4.7H21.961a1.409,1.409,0,0,0-.936.295.882.882,0,0,0-.351.693.729.729,0,0,0,.221.56A.926.926,0,0,0,21.548-2.941ZM27.939-6.7l-.5-.029a1.109,1.109,0,0,0-.646.182,1.167,1.167,0,0,0-.406.511v3.8h-.968V-7.553h.865l.093.777a1.846,1.846,0,0,1,.558-.644,1.3,1.3,0,0,1,.764-.231,1.2,1.2,0,0,1,.206.017,1.368,1.368,0,0,1,.162.037Zm6.6,3.033a.645.645,0,0,0-.243-.521,2.349,2.349,0,0,0-.922-.354A3.868,3.868,0,0,1,31.933-5.1a1.142,1.142,0,0,1-.5-.973,1.4,1.4,0,0,1,.553-1.111,2.16,2.16,0,0,1,1.433-.462,2.141,2.141,0,0,1,1.465.492,1.409,1.409,0,0,1,.536,1.145l-.01.029h-.924a.837.837,0,0,0-.3-.624,1.081,1.081,0,0,0-.764-.28,1.1,1.1,0,0,0-.764.231.721.721,0,0,0-.253.551.583.583,0,0,0,.219.487,2.421,2.421,0,0,0,.9.315A3.812,3.812,0,0,1,35-4.721a1.178,1.178,0,0,1,.506.988,1.4,1.4,0,0,1-.573,1.155,2.362,2.362,0,0,1-1.5.447,2.338,2.338,0,0,1-1.6-.516,1.473,1.473,0,0,1-.556-1.2l.01-.029h.924a.9.9,0,0,0,.383.755,1.484,1.484,0,0,0,.841.238,1.324,1.324,0,0,0,.809-.219A.669.669,0,0,0,34.541-3.664ZM38.916-2.13a2.25,2.25,0,0,1-1.787-.732,2.819,2.819,0,0,1-.642-1.927v-.216a2.76,2.76,0,0,1,.661-1.9,2.073,2.073,0,0,1,1.615-.75,1.93,1.93,0,0,1,1.6.664A2.734,2.734,0,0,1,40.9-5.222v.511H37.5l-.015.025a2.2,2.2,0,0,0,.354,1.3,1.237,1.237,0,0,0,1.082.5,2.436,2.436,0,0,0,.863-.14,1.926,1.926,0,0,0,.637-.386l.379.629a2.328,2.328,0,0,1-.752.465A3,3,0,0,1,38.916-2.13Zm-.152-4.759a1.053,1.053,0,0,0-.838.391,1.849,1.849,0,0,0-.406,1l.01.025h2.4v-.079a1.549,1.549,0,0,0-.285-.959A1.03,1.03,0,0,0,38.764-6.889Zm6.312,3.225a.645.645,0,0,0-.243-.521,2.349,2.349,0,0,0-.922-.354A3.868,3.868,0,0,1,42.468-5.1a1.142,1.142,0,0,1-.5-.973,1.4,1.4,0,0,1,.553-1.111,2.16,2.16,0,0,1,1.433-.462,2.14,2.14,0,0,1,1.465.492,1.409,1.409,0,0,1,.536,1.145l-.01.029h-.924a.837.837,0,0,0-.3-.624,1.081,1.081,0,0,0-.764-.28,1.1,1.1,0,0,0-.764.231.721.721,0,0,0-.253.551.583.583,0,0,0,.219.487,2.421,2.421,0,0,0,.9.315,3.812,3.812,0,0,1,1.485.585,1.178,1.178,0,0,1,.506.988,1.4,1.4,0,0,1-.573,1.155,2.362,2.362,0,0,1-1.5.447,2.338,2.338,0,0,1-1.6-.516,1.473,1.473,0,0,1-.556-1.2l.01-.029h.924a.9.9,0,0,0,.383.755,1.484,1.484,0,0,0,.841.238,1.324,1.324,0,0,0,.809-.219A.669.669,0,0,0,45.076-3.664ZM48.3-2.233h-.968V-7.553H48.3Zm0-6.681h-.968V-9.9H48.3Zm1.263,3.972A2.928,2.928,0,0,1,50.2-6.886a2.143,2.143,0,0,1,1.735-.764,2.164,2.164,0,0,1,1.748.762,2.919,2.919,0,0,1,.642,1.947v.108a2.914,2.914,0,0,1-.639,1.947,2.158,2.158,0,0,1-1.74.757A2.162,2.162,0,0,1,50.2-2.89a2.909,2.909,0,0,1-.642-1.944Zm.968.108a2.523,2.523,0,0,0,.356,1.4,1.18,1.18,0,0,0,1.059.551A1.177,1.177,0,0,0,53-3.438a2.51,2.51,0,0,0,.359-1.4v-.108a2.5,2.5,0,0,0-.361-1.391,1.184,1.184,0,0,0-1.059-.556,1.168,1.168,0,0,0-1.05.556,2.528,2.528,0,0,0-.356,1.391Zm1.883-4.975h1.131l.01.029L52.229-8.5H51.5Zm3.962,2.256.069.791a1.931,1.931,0,0,1,.666-.656,1.777,1.777,0,0,1,.912-.234,1.736,1.736,0,0,1,1.332.5,2.212,2.212,0,0,1,.472,1.556v3.358h-.968V-5.571a1.439,1.439,0,0,0-.278-1,1.113,1.113,0,0,0-.848-.295,1.5,1.5,0,0,0-.76.179,1.3,1.3,0,0,0-.494.5v3.948h-.968V-7.553Z" transform="translate(691.517 3277.935)" fill="#fff"/>
      <g id="Elipse_6" data-name="Elipse 6" transform="translate(699.693 3150.619)" fill="#fff" stroke="#888889" stroke-width="1">
        <ellipse cx="22.557" cy="22.557" rx="22.557" ry="22.557" stroke="none"/>
        <ellipse cx="22.557" cy="22.557" rx="22.057" ry="22.057" fill="none"/>
      </g>
      <path id="Trazado_637" data-name="Trazado 637" d="M547.408-303.289a1.059,1.059,0,0,1-1.058,1.059H518.331a1.059,1.059,0,0,1-1.061-1.059.925.925,0,0,1,.007-.115,15.109,15.109,0,0,1,15.064-13.933A15.109,15.109,0,0,1,547.4-303.4,1.058,1.058,0,0,1,547.408-303.289Z" transform="translate(190.167 3488.707)" fill="#888889"/>
      <path id="Trazado_638" data-name="Trazado 638" d="M593.281-420.487a6.356,6.356,0,0,1-6.385,6.326,6.355,6.355,0,0,1-6.326-6.385,6.356,6.356,0,0,1,6.385-6.327A6.356,6.356,0,0,1,593.281-420.487Z" transform="translate(135.386 3583.159)" fill="#888889"/>
      <ellipse id="Elipse_7" data-name="Elipse 7" cx="22.526" cy="22.526" rx="22.526" ry="22.526" transform="translate(699.693 3147.521)" fill="none"/>
      <rect id="Rectángulo_1469" data-name="Rectángulo 1469" width="112.736" height="13.334" transform="translate(665.617 3208.365)" fill="#f0f0f0"/>
      <rect id="Rectángulo_1470" data-name="Rectángulo 1470" width="112.736" height="13.334" transform="translate(665.617 3234.75)" fill="#f0f0f0"/>
    </g>
    <path id="Trazado_1384" data-name="Trazado 1384" d="M4,0H317.081a4,4,0,0,1,4,4V20.121a4,4,0,0,1-4,4H4a4,4,0,0,1-4-4V4A4,4,0,0,1,4,0Z" transform="translate(581.995 3120.879)" fill="#ddf3f8"/>
    <path id="Trazado_1385" data-name="Trazado 1385" d="M4.609,0H316.47a4.609,4.609,0,0,1,4.609,4.609v14.9a4.609,4.609,0,0,1-4.609,4.609H4.609A4.609,4.609,0,0,1,0,19.513V4.609A4.609,4.609,0,0,1,4.609,0Z" transform="translate(581.998 3120.879)" fill="#f8e1f2" stroke="#ddb5d2" stroke-width="0.7"/>
    <path id="Trazado_1386" data-name="Trazado 1386" d="M4.619-1.792A1.07,1.07,0,0,0,4.272-2.6a2.887,2.887,0,0,0-1.221-.557A4.065,4.065,0,0,1,1.36-3.95,1.659,1.659,0,0,1,.752-5.264a1.753,1.753,0,0,1,.654-1.392,2.531,2.531,0,0,1,1.7-.557,2.482,2.482,0,0,1,1.79.637,1.93,1.93,0,0,1,.647,1.487l-.015.029H4.609a1.312,1.312,0,0,0-.422-1,1.519,1.519,0,0,0-1.082-.4,1.481,1.481,0,0,0-1.033.327,1.1,1.1,0,0,0-.359.85.949.949,0,0,0,.393.774,3.625,3.625,0,0,0,1.277.544,3.625,3.625,0,0,1,1.636.82A1.786,1.786,0,0,1,5.581-1.8,1.661,1.661,0,0,1,4.9-.42,2.807,2.807,0,0,1,3.14.1,3,3,0,0,1,1.321-.474,1.756,1.756,0,0,1,.557-2.017l.01-.029h.918a1.2,1.2,0,0,0,.508,1.033A1.922,1.922,0,0,0,3.14-.649,1.725,1.725,0,0,0,4.221-.957,1,1,0,0,0,4.619-1.792ZM9,.1A2.235,2.235,0,0,1,7.224-.625a2.8,2.8,0,0,1-.637-1.914v-.215a2.741,2.741,0,0,1,.657-1.882,2.059,2.059,0,0,1,1.6-.745,1.917,1.917,0,0,1,1.589.659,2.716,2.716,0,0,1,.53,1.753v.508H7.588l-.015.024a2.184,2.184,0,0,0,.352,1.292A1.228,1.228,0,0,0,9-.649a2.42,2.42,0,0,0,.857-.139,1.913,1.913,0,0,0,.632-.383l.376.625a2.312,2.312,0,0,1-.747.461A2.976,2.976,0,0,1,9,.1ZM8.848-4.624a1.046,1.046,0,0,0-.833.388,1.837,1.837,0,0,0-.4.994l.01.024H10V-3.3a1.538,1.538,0,0,0-.283-.952A1.023,1.023,0,0,0,8.848-4.624Zm6.646.049a1.949,1.949,0,0,1,.671-.593,1.842,1.842,0,0,1,.881-.212,1.706,1.706,0,0,1,1.316.508,2.234,2.234,0,0,1,.471,1.563V0h-.962V-3.32a1.414,1.414,0,0,0-.281-.967,1.068,1.068,0,0,0-.837-.312,1.572,1.572,0,0,0-.747.168,1.359,1.359,0,0,0-.513.471V0h-.962V-7.617h.962ZM23.462,0q-.049-.239-.076-.422a3.1,3.1,0,0,1-.032-.369,2.243,2.243,0,0,1-.7.637,1.792,1.792,0,0,1-.93.256A1.727,1.727,0,0,1,20.466-.32a1.554,1.554,0,0,1-.432-1.165,1.364,1.364,0,0,1,.613-1.184A2.862,2.862,0,0,1,22.31-3.1h1.045v-.522a.969.969,0,0,0-.283-.735,1.112,1.112,0,0,0-.8-.271,1.162,1.162,0,0,0-.757.234.7.7,0,0,0-.288.562l-.913.01-.01-.029a1.265,1.265,0,0,1,.54-1.055,2.236,2.236,0,0,1,1.482-.479,2.182,2.182,0,0,1,1.445.457,1.617,1.617,0,0,1,.547,1.316v2.544a4.952,4.952,0,0,0,.029.547A2.812,2.812,0,0,0,24.453,0Zm-1.6-.7a1.712,1.712,0,0,0,.942-.269,1.277,1.277,0,0,0,.547-.615v-.859H22.275a1.4,1.4,0,0,0-.93.293A.876.876,0,0,0,21-1.465a.725.725,0,0,0,.22.557A.92.92,0,0,0,21.865-.7ZM30.7-4.434l-.493-.029a1.1,1.1,0,0,0-.642.181,1.159,1.159,0,0,0-.4.508V0H28.2V-5.283h.859l.093.771a1.834,1.834,0,0,1,.554-.64,1.3,1.3,0,0,1,.759-.229,1.189,1.189,0,0,1,.205.017,1.359,1.359,0,0,1,.161.037ZM33.794.1a2.235,2.235,0,0,1-1.775-.728,2.8,2.8,0,0,1-.637-1.914v-.215a2.741,2.741,0,0,1,.657-1.882,2.059,2.059,0,0,1,1.6-.745,1.917,1.917,0,0,1,1.589.659,2.716,2.716,0,0,1,.53,1.753v.508H32.383l-.015.024a2.184,2.184,0,0,0,.352,1.292,1.228,1.228,0,0,0,1.074.5,2.42,2.42,0,0,0,.857-.139,1.913,1.913,0,0,0,.632-.383l.376.625a2.312,2.312,0,0,1-.747.461A2.976,2.976,0,0,1,33.794.1Zm-.151-4.727a1.046,1.046,0,0,0-.833.388,1.837,1.837,0,0,0-.4.994l.01.024H34.8V-3.3a1.538,1.538,0,0,0-.283-.952A1.023,1.023,0,0,0,33.643-4.624ZM37.881,0h-.962V-5.283h.962Zm0-6.636h-.962v-.981h.962ZM40.22-5.283l.068.786a1.918,1.918,0,0,1,.662-.652,1.765,1.765,0,0,1,.906-.232,1.724,1.724,0,0,1,1.323.5,2.2,2.2,0,0,1,.469,1.545V0h-.962V-3.315a1.429,1.429,0,0,0-.276-.991,1.105,1.105,0,0,0-.842-.293,1.491,1.491,0,0,0-.754.178,1.3,1.3,0,0,0-.491.5V0H39.36V-5.283ZM46.084,0h-.962V-5.283h.962Zm0-6.636h-.962v-.981h.962ZM49.663-.649a1.131,1.131,0,0,0,.776-.3.933.933,0,0,0,.332-.725h.869l.015.029a1.517,1.517,0,0,1-.586,1.213A2.07,2.07,0,0,1,49.663.1a2.074,2.074,0,0,1-1.719-.757,2.921,2.921,0,0,1-.605-1.885v-.205a2.909,2.909,0,0,1,.608-1.877,2.073,2.073,0,0,1,1.716-.759,1.993,1.993,0,0,1,1.448.547,1.734,1.734,0,0,1,.544,1.343l-.01.029h-.874a1.166,1.166,0,0,0-.315-.823,1.036,1.036,0,0,0-.793-.339,1.111,1.111,0,0,0-1.033.549,2.571,2.571,0,0,0-.325,1.331v.205a2.62,2.62,0,0,0,.32,1.343A1.11,1.11,0,0,0,49.663-.649ZM53.838,0h-.962V-5.283h.962Zm0-6.636h-.962v-.981h.962ZM58.564,0q-.049-.239-.076-.422a3.1,3.1,0,0,1-.032-.369,2.243,2.243,0,0,1-.7.637,1.792,1.792,0,0,1-.93.256A1.727,1.727,0,0,1,55.569-.32a1.554,1.554,0,0,1-.432-1.165,1.364,1.364,0,0,1,.613-1.184A2.862,2.862,0,0,1,57.412-3.1h1.045v-.522a.969.969,0,0,0-.283-.735,1.112,1.112,0,0,0-.8-.271,1.162,1.162,0,0,0-.757.234.7.7,0,0,0-.288.562l-.913.01-.01-.029a1.265,1.265,0,0,1,.54-1.055,2.236,2.236,0,0,1,1.482-.479,2.182,2.182,0,0,1,1.445.457,1.617,1.617,0,0,1,.547,1.316v2.544a4.952,4.952,0,0,0,.029.547A2.812,2.812,0,0,0,59.556,0Zm-1.6-.7a1.712,1.712,0,0,0,.942-.269,1.277,1.277,0,0,0,.547-.615v-.859H57.378a1.4,1.4,0,0,0-.93.293.876.876,0,0,0-.349.688.725.725,0,0,0,.22.557A.92.92,0,0,0,56.968-.7ZM60.6-2.544A3.526,3.526,0,0,1,61.14-4.6a1.754,1.754,0,0,1,1.526-.781,1.892,1.892,0,0,1,.823.171,1.686,1.686,0,0,1,.613.5V-7.617h.962V0h-.737L64.18-.669a1.715,1.715,0,0,1-.64.576,1.911,1.911,0,0,1-.884.2,1.813,1.813,0,0,1-1.514-.7A2.912,2.912,0,0,1,60.6-2.441Zm.962.1a2.243,2.243,0,0,0,.327,1.282A1.142,1.142,0,0,0,62.9-.679a1.274,1.274,0,0,0,.723-.2,1.459,1.459,0,0,0,.479-.547V-3.887a1.481,1.481,0,0,0-.481-.52,1.271,1.271,0,0,0-.71-.193,1.1,1.1,0,0,0-1.023.571,2.949,2.949,0,0,0-.33,1.484Zm4.717-.249a2.909,2.909,0,0,1,.635-1.931,2.129,2.129,0,0,1,1.724-.759,2.15,2.15,0,0,1,1.736.757,2.9,2.9,0,0,1,.637,1.934v.107a2.894,2.894,0,0,1-.635,1.934A2.143,2.143,0,0,1,68.643.1a2.147,2.147,0,0,1-1.731-.754,2.89,2.89,0,0,1-.637-1.931Zm.962.107A2.506,2.506,0,0,0,67.59-1.2a1.172,1.172,0,0,0,1.052.547A1.169,1.169,0,0,0,69.688-1.2a2.493,2.493,0,0,0,.356-1.387V-2.69a2.485,2.485,0,0,0-.359-1.382,1.176,1.176,0,0,0-1.052-.552,1.16,1.16,0,0,0-1.042.552,2.511,2.511,0,0,0-.354,1.382ZM76.855.1a2.235,2.235,0,0,1-1.775-.728,2.8,2.8,0,0,1-.637-1.914v-.215A2.741,2.741,0,0,1,75.1-4.636a2.059,2.059,0,0,1,1.6-.745,1.917,1.917,0,0,1,1.589.659,2.716,2.716,0,0,1,.53,1.753v.508H75.444l-.015.024a2.184,2.184,0,0,0,.352,1.292,1.228,1.228,0,0,0,1.074.5,2.42,2.42,0,0,0,.857-.139,1.913,1.913,0,0,0,.632-.383l.376.625a2.312,2.312,0,0,1-.747.461A2.976,2.976,0,0,1,76.855.1ZM76.7-4.624a1.046,1.046,0,0,0-.833.388,1.837,1.837,0,0,0-.4.994l.01.024h2.383V-3.3a1.538,1.538,0,0,0-.283-.952A1.023,1.023,0,0,0,76.7-4.624ZM80.942,0H79.98V-7.617h.962Zm7.036-1.421a.641.641,0,0,0-.242-.518,2.333,2.333,0,0,0-.916-.352,3.841,3.841,0,0,1-1.433-.562,1.134,1.134,0,0,1-.5-.967,1.393,1.393,0,0,1,.549-1.1,2.145,2.145,0,0,1,1.423-.459,2.126,2.126,0,0,1,1.455.488,1.4,1.4,0,0,1,.532,1.138l-.01.029H87.92a.832.832,0,0,0-.3-.62,1.073,1.073,0,0,0-.759-.278,1.1,1.1,0,0,0-.759.229.716.716,0,0,0-.251.547.579.579,0,0,0,.217.483,2.4,2.4,0,0,0,.9.313,3.786,3.786,0,0,1,1.475.581,1.17,1.17,0,0,1,.5.981,1.391,1.391,0,0,1-.569,1.147A2.346,2.346,0,0,1,86.885.1,2.322,2.322,0,0,1,85.293-.41a1.463,1.463,0,0,1-.552-1.2l.01-.029h.918a.89.89,0,0,0,.381.75,1.474,1.474,0,0,0,.835.237,1.315,1.315,0,0,0,.8-.217A.665.665,0,0,0,87.979-1.421ZM91.177,0h-.962V-5.283h.962Zm0-6.636h-.962v-.981h.962Zm4.551,5.215a.641.641,0,0,0-.242-.518,2.333,2.333,0,0,0-.916-.352,3.841,3.841,0,0,1-1.433-.562,1.134,1.134,0,0,1-.5-.967,1.393,1.393,0,0,1,.549-1.1,2.145,2.145,0,0,1,1.423-.459,2.126,2.126,0,0,1,1.455.488A1.4,1.4,0,0,1,96.6-3.755l-.01.029h-.918a.832.832,0,0,0-.3-.62,1.073,1.073,0,0,0-.759-.278,1.1,1.1,0,0,0-.759.229.716.716,0,0,0-.251.547.579.579,0,0,0,.217.483,2.4,2.4,0,0,0,.9.313,3.786,3.786,0,0,1,1.475.581,1.17,1.17,0,0,1,.5.981,1.391,1.391,0,0,1-.569,1.147A2.346,2.346,0,0,1,94.634.1,2.322,2.322,0,0,1,93.042-.41a1.463,1.463,0,0,1-.552-1.2l.01-.029h.918a.89.89,0,0,0,.381.75,1.474,1.474,0,0,0,.835.237,1.315,1.315,0,0,0,.8-.217A.665.665,0,0,0,95.728-1.421Zm3.5-5.137v1.274h1v.713h-1v3.208a.718.718,0,0,0,.154.522.556.556,0,0,0,.408.151.893.893,0,0,0,.186-.022,1.376,1.376,0,0,0,.171-.046l.132.659a.85.85,0,0,1-.317.144A1.6,1.6,0,0,1,99.541.1a1.246,1.246,0,0,1-.933-.354,1.538,1.538,0,0,1-.347-1.111V-4.57h-.84v-.713h.84V-6.558ZM103.442.1a2.235,2.235,0,0,1-1.775-.728,2.8,2.8,0,0,1-.637-1.914v-.215a2.741,2.741,0,0,1,.657-1.882,2.059,2.059,0,0,1,1.6-.745,1.917,1.917,0,0,1,1.589.659,2.716,2.716,0,0,1,.53,1.753v.508h-3.379l-.015.024a2.184,2.184,0,0,0,.352,1.292,1.228,1.228,0,0,0,1.074.5,2.42,2.42,0,0,0,.857-.139,1.913,1.913,0,0,0,.632-.383l.376.625a2.312,2.312,0,0,1-.747.461A2.976,2.976,0,0,1,103.442.1Zm-.151-4.727a1.046,1.046,0,0,0-.833.388,1.837,1.837,0,0,0-.4.994l.01.024h2.383V-3.3a1.538,1.538,0,0,0-.283-.952A1.023,1.023,0,0,0,103.291-4.624Zm4.058-.659.068.693a1.794,1.794,0,0,1,.657-.583A1.973,1.973,0,0,1,109-5.381a1.635,1.635,0,0,1,.906.244,1.477,1.477,0,0,1,.569.732,1.976,1.976,0,0,1,.662-.715,1.731,1.731,0,0,1,.955-.261,1.582,1.582,0,0,1,1.274.554,2.532,2.532,0,0,1,.469,1.667V0h-.962V-3.169a1.756,1.756,0,0,0-.269-1.106.979.979,0,0,0-.8-.325,1.019,1.019,0,0,0-.8.342,1.488,1.488,0,0,0-.359.864V0h-.967V-3.169a1.732,1.732,0,0,0-.276-1.086.957.957,0,0,0-.793-.344,1.322,1.322,0,0,0-.723.181,1.167,1.167,0,0,0-.435.508V0h-.962V-5.283ZM118.477,0q-.049-.239-.076-.422a3.1,3.1,0,0,1-.032-.369,2.243,2.243,0,0,1-.7.637,1.792,1.792,0,0,1-.93.256,1.727,1.727,0,0,1-1.257-.422,1.554,1.554,0,0,1-.432-1.165,1.364,1.364,0,0,1,.613-1.184,2.862,2.862,0,0,1,1.663-.427h1.045v-.522a.969.969,0,0,0-.283-.735,1.112,1.112,0,0,0-.8-.271,1.162,1.162,0,0,0-.757.234.7.7,0,0,0-.288.562l-.913.01-.01-.029a1.265,1.265,0,0,1,.54-1.055,2.236,2.236,0,0,1,1.482-.479,2.182,2.182,0,0,1,1.445.457,1.617,1.617,0,0,1,.547,1.316v2.544a4.952,4.952,0,0,0,.029.547,2.812,2.812,0,0,0,.107.518Zm-1.6-.7a1.712,1.712,0,0,0,.942-.269,1.277,1.277,0,0,0,.547-.615v-.859H117.29a1.4,1.4,0,0,0-.93.293.876.876,0,0,0-.349.688.725.725,0,0,0,.22.557A.92.92,0,0,0,116.88-.7Zm4.688.469-.732,1.494h-.571l.342-1.543v-.8h.962ZM125.405,0V-4.282h-.786v-1h.786v-.586a1.787,1.787,0,0,1,.513-1.37,2.024,2.024,0,0,1,1.44-.481,2.605,2.605,0,0,1,.369.027q.188.027.413.076l-.122,1.06q-.117-.02-.227-.034a1.965,1.965,0,0,0-.256-.015.685.685,0,0,0-.525.19.771.771,0,0,0-.178.547v.586h1.016v1h-1.016V0Zm6.23,0a3,3,0,0,1-.134-.381,2.651,2.651,0,0,1-.081-.41,1.954,1.954,0,0,1-.581.64A1.456,1.456,0,0,1,129.98.1,1.784,1.784,0,0,1,128.7-.325a1.531,1.531,0,0,1-.449-1.165,1.393,1.393,0,0,1,.6-1.2A2.987,2.987,0,0,1,130.6-3.12h.8v-.42a.822.822,0,0,0-.2-.591.786.786,0,0,0-.6-.21.774.774,0,0,0-.535.168.588.588,0,0,0-.188.461h-1.372l-.01-.029A1.34,1.34,0,0,1,129.08-4.9a2.534,2.534,0,0,1,1.614-.486,2.365,2.365,0,0,1,1.541.479,1.667,1.667,0,0,1,.588,1.372v2.183a4.129,4.129,0,0,0,.056.7,3.5,3.5,0,0,0,.178.649Zm-1.3-.952A1.215,1.215,0,0,0,131-1.138a1,1,0,0,0,.4-.43v-.747h-.8a.949.949,0,0,0-.686.225.738.738,0,0,0-.232.552.551.551,0,0,0,.173.427A.686.686,0,0,0,130.332-.952Zm5.4-1.016.093.488h.029l.1-.488.869-3.315h1.489L136.509,0h-1.362l-1.8-5.283h1.489Zm2.905-.723a2.835,2.835,0,0,1,.659-1.936,2.3,2.3,0,0,1,1.826-.754,2.322,2.322,0,0,1,1.836.752,2.82,2.82,0,0,1,.664,1.938v.1a2.824,2.824,0,0,1-.662,1.941,2.312,2.312,0,0,1-1.829.75,2.318,2.318,0,0,1-1.833-.75,2.824,2.824,0,0,1-.662-1.941Zm1.421.1a2.3,2.3,0,0,0,.254,1.16.877.877,0,0,0,.82.437.868.868,0,0,0,.808-.439,2.283,2.283,0,0,0,.256-1.157v-.1a2.26,2.26,0,0,0-.259-1.147.876.876,0,0,0-.815-.444.865.865,0,0,0-.808.447,2.28,2.28,0,0,0-.256,1.145Zm7.222-1.47-.522-.015a.95.95,0,0,0-.522.132.836.836,0,0,0-.312.371V0H144.5V-5.283h1.323l.063.781a1.667,1.667,0,0,1,.481-.647,1.072,1.072,0,0,1,.681-.232,1.066,1.066,0,0,1,.2.017q.09.017.183.042Zm3.013,1.46a3.433,3.433,0,0,1,.54-2.017,1.752,1.752,0,0,1,1.521-.767,1.479,1.479,0,0,1,.713.171,1.715,1.715,0,0,1,.557.488v-2.9h1.431V0h-1.216l-.122-.649a1.766,1.766,0,0,1-.591.559,1.562,1.562,0,0,1-.781.193,1.786,1.786,0,0,1-1.511-.713,3.044,3.044,0,0,1-.54-1.885Zm1.421.1a2.152,2.152,0,0,0,.234,1.091.816.816,0,0,0,.762.4,1.109,1.109,0,0,0,.537-.125.993.993,0,0,0,.376-.364V-3.745a1.1,1.1,0,0,0-.374-.388.993.993,0,0,0-.53-.139.8.8,0,0,0-.764.464,2.621,2.621,0,0,0-.242,1.211ZM158.442.1A2.377,2.377,0,0,1,156.6-.623a2.658,2.658,0,0,1-.664-1.868v-.2a2.893,2.893,0,0,1,.645-1.943,2.191,2.191,0,0,1,1.772-.752,2.051,2.051,0,0,1,1.633.652,2.576,2.576,0,0,1,.569,1.755v.737H157.4l-.015.029a1.427,1.427,0,0,0,.33.879,1.1,1.1,0,0,0,.876.337,2.933,2.933,0,0,0,.813-.1,3.317,3.317,0,0,0,.691-.3l.386.879a2.646,2.646,0,0,1-.859.435A3.811,3.811,0,0,1,158.442.1Zm-.093-4.385a.792.792,0,0,0-.662.3,1.482,1.482,0,0,0-.281.784l.01.024h1.738v-.107a1.234,1.234,0,0,0-.19-.73A.7.7,0,0,0,158.35-4.282ZM165.371,0h-1.426V-5.283h1.426Zm0-6.548h-1.426V-7.617h1.426Zm2.476,1.265.063.757a1.932,1.932,0,0,1,.649-.63,1.686,1.686,0,0,1,.864-.225,1.571,1.571,0,0,1,1.25.515,2.442,2.442,0,0,1,.449,1.628V0h-1.431V-3.232a1.265,1.265,0,0,0-.2-.8.729.729,0,0,0-.593-.237,1.245,1.245,0,0,0-.559.12,1.091,1.091,0,0,0-.4.33V0h-1.426V-5.283ZM171.978-2.6a3.422,3.422,0,0,1,.542-2.017,1.758,1.758,0,0,1,1.523-.767,1.5,1.5,0,0,1,.781.2,1.753,1.753,0,0,1,.576.571l.112-.674h1.226V-.024a1.963,1.963,0,0,1-.674,1.594,2.845,2.845,0,0,1-1.88.564,3.581,3.581,0,0,1-.85-.11,3.945,3.945,0,0,1-.83-.3l.239-1.064A3.272,3.272,0,0,0,173.42.9a3.351,3.351,0,0,0,.754.081,1.276,1.276,0,0,0,.862-.244.966.966,0,0,0,.276-.762V-.508a1.6,1.6,0,0,1-.552.454,1.627,1.627,0,0,1-.728.156A1.793,1.793,0,0,1,172.52-.61a3.034,3.034,0,0,1-.542-1.885Zm1.426.1a2.171,2.171,0,0,0,.232,1.091.81.81,0,0,0,.759.4,1.177,1.177,0,0,0,.554-.12.914.914,0,0,0,.364-.349v-2.29a.974.974,0,0,0-.364-.376,1.066,1.066,0,0,0-.544-.132.8.8,0,0,0-.762.464A2.644,2.644,0,0,0,173.4-2.6Zm7.207-1.562-.522-.015a.95.95,0,0,0-.522.132.836.836,0,0,0-.312.371V0h-1.421V-5.283h1.323l.063.781a1.667,1.667,0,0,1,.481-.647,1.072,1.072,0,0,1,.681-.232,1.066,1.066,0,0,1,.2.017q.09.017.183.042ZM183.55.1A2.377,2.377,0,0,1,181.7-.623a2.658,2.658,0,0,1-.664-1.868v-.2a2.893,2.893,0,0,1,.645-1.943,2.191,2.191,0,0,1,1.772-.752,2.051,2.051,0,0,1,1.633.652,2.576,2.576,0,0,1,.569,1.755v.737H182.51l-.015.029a1.427,1.427,0,0,0,.33.879,1.1,1.1,0,0,0,.876.337,2.933,2.933,0,0,0,.813-.1,3.317,3.317,0,0,0,.691-.3l.386.879a2.646,2.646,0,0,1-.859.435A3.811,3.811,0,0,1,183.55.1Zm-.093-4.385a.792.792,0,0,0-.662.3,1.482,1.482,0,0,0-.281.784l.01.024h1.738v-.107a1.234,1.234,0,0,0-.19-.73A.7.7,0,0,0,183.457-4.282Zm5.889,2.817a.492.492,0,0,0-.227-.4,2.306,2.306,0,0,0-.842-.3,3.36,3.36,0,0,1-1.409-.562,1.226,1.226,0,0,1-.481-1.021,1.456,1.456,0,0,1,.576-1.157,2.323,2.323,0,0,1,1.533-.479,2.507,2.507,0,0,1,1.6.479,1.4,1.4,0,0,1,.579,1.191l-.01.029h-1.377a.691.691,0,0,0-.205-.518.812.812,0,0,0-.591-.2.807.807,0,0,0-.542.171.532.532,0,0,0-.2.42.474.474,0,0,0,.208.4,2.31,2.31,0,0,0,.842.276,3.428,3.428,0,0,1,1.448.574,1.258,1.258,0,0,1,.476,1.042,1.394,1.394,0,0,1-.61,1.167A2.634,2.634,0,0,1,188.506.1a2.449,2.449,0,0,1-1.667-.535,1.5,1.5,0,0,1-.583-1.218l.01-.029h1.3a.741.741,0,0,0,.278.615,1.149,1.149,0,0,0,.688.19.979.979,0,0,0,.6-.159A.515.515,0,0,0,189.346-1.465ZM194.761,0a3,3,0,0,1-.134-.381,2.651,2.651,0,0,1-.081-.41,1.954,1.954,0,0,1-.581.64,1.456,1.456,0,0,1-.859.254,1.784,1.784,0,0,1-1.279-.427,1.531,1.531,0,0,1-.449-1.165,1.393,1.393,0,0,1,.6-1.2,2.987,2.987,0,0,1,1.746-.427h.8v-.42a.822.822,0,0,0-.2-.591.786.786,0,0,0-.6-.21.774.774,0,0,0-.535.168.588.588,0,0,0-.188.461h-1.372l-.01-.029A1.34,1.34,0,0,1,192.2-4.9a2.534,2.534,0,0,1,1.614-.486,2.365,2.365,0,0,1,1.541.479,1.667,1.667,0,0,1,.588,1.372v2.183a4.129,4.129,0,0,0,.056.7,3.5,3.5,0,0,0,.178.649Zm-1.3-.952a1.215,1.215,0,0,0,.664-.186,1,1,0,0,0,.4-.43v-.747h-.8a.949.949,0,0,0-.686.225.738.738,0,0,0-.232.552.551.551,0,0,0,.173.427A.686.686,0,0,0,193.457-.952Zm6.338-3.105-.522-.015a.95.95,0,0,0-.522.132.836.836,0,0,0-.312.371V0h-1.421V-5.283h1.323l.063.781a1.667,1.667,0,0,1,.481-.647,1.072,1.072,0,0,1,.681-.232,1.066,1.066,0,0,1,.2.017q.09.017.183.042Zm4.536-1.226.063.757a1.932,1.932,0,0,1,.649-.63,1.686,1.686,0,0,1,.864-.225,1.571,1.571,0,0,1,1.25.515,2.442,2.442,0,0,1,.449,1.628V0h-1.431V-3.232a1.265,1.265,0,0,0-.2-.8.729.729,0,0,0-.593-.237,1.245,1.245,0,0,0-.559.12,1.091,1.091,0,0,0-.4.33V0H203V-5.283Zm7.578,4.5a1.794,1.794,0,0,1-.62.654,1.644,1.644,0,0,1-.874.229,1.606,1.606,0,0,1-1.306-.566,2.717,2.717,0,0,1-.471-1.758V-5.283h1.421v3.071a1.706,1.706,0,0,0,.188.95.675.675,0,0,0,.583.256,1.421,1.421,0,0,0,.586-.11.988.988,0,0,0,.4-.325V-5.283h1.426V0h-1.182Zm4.7.884a2.377,2.377,0,0,1-1.846-.725A2.658,2.658,0,0,1,214.1-2.49v-.2a2.893,2.893,0,0,1,.645-1.943,2.191,2.191,0,0,1,1.772-.752,2.051,2.051,0,0,1,1.633.652,2.576,2.576,0,0,1,.569,1.755v.737h-3.149l-.015.029a1.427,1.427,0,0,0,.33.879,1.1,1.1,0,0,0,.876.337,2.933,2.933,0,0,0,.813-.1,3.317,3.317,0,0,0,.691-.3l.386.879a2.646,2.646,0,0,1-.859.435A3.811,3.811,0,0,1,216.606.1Zm-.093-4.385a.792.792,0,0,0-.662.3,1.482,1.482,0,0,0-.281.784l.01.024h1.738v-.107a1.234,1.234,0,0,0-.19-.73A.7.7,0,0,0,216.514-4.282Zm4.878,2.314.093.488h.029l.1-.488.869-3.315h1.489L222.173,0h-1.362l-1.8-5.283H220.5ZM227.632,0a3,3,0,0,1-.134-.381,2.651,2.651,0,0,1-.081-.41,1.954,1.954,0,0,1-.581.64,1.456,1.456,0,0,1-.859.254A1.784,1.784,0,0,1,224.7-.325a1.531,1.531,0,0,1-.449-1.165,1.393,1.393,0,0,1,.6-1.2,2.987,2.987,0,0,1,1.746-.427h.8v-.42a.822.822,0,0,0-.2-.591.786.786,0,0,0-.6-.21.774.774,0,0,0-.535.168.588.588,0,0,0-.188.461H224.5l-.01-.029a1.34,1.34,0,0,1,.583-1.155,2.534,2.534,0,0,1,1.614-.486,2.365,2.365,0,0,1,1.541.479,1.667,1.667,0,0,1,.588,1.372v2.183a4.129,4.129,0,0,0,.056.7,3.5,3.5,0,0,0,.178.649Zm-1.3-.952a1.215,1.215,0,0,0,.664-.186,1,1,0,0,0,.4-.43v-.747h-.8a.949.949,0,0,0-.686.225.738.738,0,0,0-.232.552.991.991,0,0,0,.173.427A1.234,1.234,0,0,0,226.328-.952Zm4.883-4.331.059.7a1.775,1.775,0,0,1,.637-.588,1.832,1.832,0,0,1,.886-.208,1.614,1.614,0,0,1,.869.225,1.386,1.386,0,0,1,.547.679,1.831,1.831,0,0,1,.635-.664,1.722,1.722,0,0,1,.918-.239,1.505,1.505,0,0,1,1.233.554,2.646,2.646,0,0,1,.452,1.692V0h-1.426V-3.14a1.481,1.481,0,0,0-.2-.884.693.693,0,0,0-.581-.249,1,1,0,0,0-.525.134.978.978,0,0,0-.354.374q0,.093,0,.159t0,.134V0h-1.421V-3.14a1.485,1.485,0,0,0-.2-.876.69.69,0,0,0-.586-.256,1.106,1.106,0,0,0-.505.11.969.969,0,0,0-.359.31V0h-1.421V-5.283ZM240.83.1a2.377,2.377,0,0,1-1.846-.725,2.658,2.658,0,0,1-.664-1.868v-.2a2.893,2.893,0,0,1,.645-1.943,2.191,2.191,0,0,1,1.772-.752,2.051,2.051,0,0,1,1.633.652,2.576,2.576,0,0,1,.569,1.755v.737H239.79l-.015.029a1.427,1.427,0,0,0,.33.879,1.1,1.1,0,0,0,.876.337,2.933,2.933,0,0,0,.813-.1,3.317,3.317,0,0,0,.691-.3l.386.879a2.646,2.646,0,0,1-.859.435A3.811,3.811,0,0,1,240.83.1Zm-.093-4.385a.792.792,0,0,0-.662.3,1.482,1.482,0,0,0-.281.784l.01.024h1.738v-.107a1.234,1.234,0,0,0-.19-.73A.7.7,0,0,0,240.737-4.282Zm4.336-1,.063.757a1.932,1.932,0,0,1,.649-.63,1.686,1.686,0,0,1,.864-.225,1.571,1.571,0,0,1,1.25.515,2.442,2.442,0,0,1,.449,1.628V0h-1.431V-3.232a1.265,1.265,0,0,0-.2-.8.729.729,0,0,0-.593-.237,1.245,1.245,0,0,0-.559.12,1.091,1.091,0,0,0-.4.33V0h-1.426V-5.283Zm6.05-1.294v1.294h.894v1h-.894v2.69a.614.614,0,0,0,.129.439.454.454,0,0,0,.339.132,1.361,1.361,0,0,0,.2-.012,1.645,1.645,0,0,0,.19-.042l.117,1.03a2.887,2.887,0,0,1-.417.11,2.489,2.489,0,0,1-.442.037A1.52,1.52,0,0,1,250.1-.3a1.777,1.777,0,0,1-.4-1.284v-2.7h-.771v-1h.771V-6.577ZM255.186.1a2.377,2.377,0,0,1-1.846-.725,2.658,2.658,0,0,1-.664-1.868v-.2a2.893,2.893,0,0,1,.645-1.943,2.191,2.191,0,0,1,1.772-.752,2.051,2.051,0,0,1,1.633.652,2.576,2.576,0,0,1,.569,1.755v.737h-3.149l-.015.029a1.427,1.427,0,0,0,.33.879,1.1,1.1,0,0,0,.876.337,2.933,2.933,0,0,0,.813-.1,3.317,3.317,0,0,0,.691-.3l.386.879a2.646,2.646,0,0,1-.859.435A3.811,3.811,0,0,1,255.186.1Zm-.093-4.385a.792.792,0,0,0-.662.3,1.482,1.482,0,0,0-.281.784l.01.024H255.9v-.107a1.234,1.234,0,0,0-.19-.73A.7.7,0,0,0,255.093-4.282ZM259.707,0h-1.426V-1.25h1.426Z" transform="translate(609.189 3137)" fill="#333"/>
    <g id="Grupo_877" data-name="Grupo 877" transform="translate(-143.81 -1669.623)">
      <g id="Grupo_864" data-name="Grupo 864" transform="translate(735.81 4797.773)">
        <path id="Trazado_1121" data-name="Trazado 1121" d="M740.9,4797.773a5.085,5.085,0,1,0,5.085,5.085A5.091,5.091,0,0,0,740.9,4797.773Zm.566,7.673a.563.563,0,1,1-1.126,0v-.031a.563.563,0,1,1,1.126,0Zm.017-1.963-.017,0v.31a.563.563,0,1,1-1.126,0v-.357a1.068,1.068,0,0,1,.781-1.027l.027-.006a.763.763,0,1,0-1.008-.724.563.563,0,1,1-1.126,0,1.889,1.889,0,1,1,2.469,1.8Z" transform="translate(-735.81 -4797.773)" fill="#b7006d"/>
      </g>
    </g>
  </g>
</svg>
