<svg xmlns="http://www.w3.org/2000/svg" xmlns:xlink="http://www.w3.org/1999/xlink" width="698" height="313" viewBox="0 0 698 313">
  <defs>
    <filter id="Rectángulo_3579" x="0" y="0" width="698" height="313" filterUnits="userSpaceOnUse">
      <feOffset input="SourceAlpha"/>
      <feGaussianBlur stdDeviation="3" result="blur"/>
      <feFlood flood-opacity="0.102"/>
      <feComposite operator="in" in2="blur"/>
      <feComposite in="SourceGraphic"/>
    </filter>
  </defs>
  <g id="Grupo_2941" data-name="Grupo 2941" transform="translate(-427 -12720)">
    <g transform="matrix(1, 0, 0, 1, 427, 12720)" filter="url(#Rectángulo_3579)">
      <rect id="Rectángulo_3579-2" data-name="Rectángulo 3579" width="680" height="295" transform="translate(9 9)" fill="#fff"/>
    </g>
    <text id="_Controller_public_class_UsuarioController_RequestMapping_value_uri_ResponseBody_public_UsuarioPeriodo_guardaUsuarioPeriodo_RequestBody_DatoUsuarioPeriodo_usuariosPeriodo_..._return_usuarioPeriodo_" data-name="@Controller 
public class UsuarioController{ 

	@RequestMapping(value={&quot;/uri&quot;}) 
	@ResponseBody 
	public UsuarioPeriodo guardaUsuarioPeriodo (@RequestBody DatoUsuarioPeriodo usuariosPeriodo){ 
	//... 
	return usuarioPeriodo; 

   } 

} " transform="translate(467.5 12759.011)" fill="#1d1d1b" font-size="14" font-family="Monaco"><tspan x="0" y="14">@Controller </tspan><tspan x="0" y="32">public class UsuarioController{ </tspan><tspan x="0" y="50"></tspan><tspan x="0" y="68" xml:space="preserve">	@RequestMapping(value={&quot;/uri&quot;}) </tspan><tspan x="0" y="86" xml:space="preserve">	@ResponseBody </tspan><tspan x="0" y="104" xml:space="preserve">	public UsuarioPeriodo guardaUsuarioPeriodo (@RequestBody </tspan><tspan x="0" y="122">DatoUsuarioPeriodo usuariosPeriodo){ </tspan><tspan x="0" y="140" xml:space="preserve">	//... </tspan><tspan x="0" y="158" xml:space="preserve">	return usuarioPeriodo; </tspan><tspan x="0" y="176"></tspan><tspan x="0" y="194" xml:space="preserve">   } </tspan><tspan x="0" y="212"></tspan><tspan x="0" y="230">} </tspan></text>
  </g>
</svg>
