<svg xmlns="http://www.w3.org/2000/svg" xmlns:xlink="http://www.w3.org/1999/xlink" width="698" height="176" viewBox="0 0 698 176">
  <defs>
    <filter id="Rectángulo_3572" x="0" y="0" width="698" height="176" filterUnits="userSpaceOnUse">
      <feOffset input="SourceAlpha"/>
      <feGaussianBlur stdDeviation="3" result="blur"/>
      <feFlood flood-opacity="0.102"/>
      <feComposite operator="in" in2="blur"/>
      <feComposite in="SourceGraphic"/>
    </filter>
  </defs>
  <g id="Grupo_2938" data-name="Grupo 2938" transform="translate(-427 -10524)">
    <g transform="matrix(1, 0, 0, 1, 427, 10524)" filter="url(#Rectángulo_3572)">
      <rect id="Rectángulo_3572-2" data-name="Rectángulo 3572" width="680" height="158" transform="translate(9 9)" fill="#fff"/>
    </g>
    <text id="_Override_public_void_configureDefaultServletHandling_DefaultServletHandlerConfigurer_configurer_configurer.enable_" data-name="@Override 
	public void configureDefaultServletHandling(DefaultServletHandlerConfigurer 
configurer) { 
	configurer.enable(); 
	} " transform="translate(468 10561.795)" fill="#3a3a39" font-size="14" font-family="Monaco"><tspan x="0" y="14">@Override </tspan><tspan fill="#d3097f"><tspan x="0" y="32" xml:space="preserve">	public void</tspan><tspan y="32" fill="#1d1d1b"> </tspan><tspan x="0" y="50" fill="#1d1d1b">configureDefaultServletHandling(DefaultServletHandlerConfigurer </tspan></tspan><tspan fill="#1d1d1b"><tspan x="0" y="68">configurer) { </tspan><tspan x="0" y="86" xml:space="preserve">	configurer.enable(); </tspan><tspan x="0" y="104" xml:space="preserve">	} </tspan></tspan></text>
  </g>
</svg>
