<svg xmlns="http://www.w3.org/2000/svg" xmlns:xlink="http://www.w3.org/1999/xlink" width="698" height="260" viewBox="0 0 698 260">
  <defs>
    <filter id="Rectángulo_3590" x="0" y="0" width="698" height="260" filterUnits="userSpaceOnUse">
      <feOffset input="SourceAlpha"/>
      <feGaussianBlur stdDeviation="3" result="blur"/>
      <feFlood flood-opacity="0.102"/>
      <feComposite operator="in" in2="blur"/>
      <feComposite in="SourceGraphic"/>
    </filter>
  </defs>
  <g id="Grupo_2944" data-name="Grupo 2944" transform="translate(-427 -14460)">
    <g transform="matrix(1, 0, 0, 1, 427, 14460)" filter="url(#Rectángulo_3590)">
      <rect id="Rectángulo_3590-2" data-name="Rectángulo 3590" width="680" height="242" transform="translate(9 9)" fill="#fff"/>
    </g>
    <text id="_GetMapping_showViewPage_public_String_consultaUsuarioPeriodo_Model_model_Map_String_String_map_new_HashMap_map.put_spring_mvc_model.addAttribute_message_Hola_mundo_model.mergeAttributes_map_return_" data-name="@GetMapping(“/showViewPage”)
public String consultaUsuarioPeriodo(Model model) {
    …
    Map&lt;String, String&gt; map = new HashMap&lt;&gt;();
    map.put(“spring”, “mvc”);
    model.addAttribute(“message”, “Hola mundo”);
    model.mergeAttributes(map);
    return " transform="translate(466 14497.629)" fill="#1d1d1b" font-size="14" font-family="Monaco"><tspan x="0" y="14">@GetMapping(“/showViewPage”)</tspan><tspan x="0" y="32">public String </tspan><tspan y="32" fill="#d5007f">consultaUsuarioPeriodo</tspan><tspan y="32">(Model model) {</tspan><tspan x="0" y="50" xml:space="preserve">    …</tspan><tspan x="0" y="68" xml:space="preserve">    Map&lt;String, String&gt; map = new HashMap&lt;&gt;();</tspan><tspan x="0" y="86" xml:space="preserve">    map.put(“spring”, “mvc”);</tspan><tspan x="0" y="104" xml:space="preserve">    model.addAttribute(“message”, “Hola mundo”);</tspan><tspan x="0" y="122" xml:space="preserve">    model.mergeAttributes(map);</tspan><tspan x="0" y="140" xml:space="preserve">    return “viewPage”;</tspan><tspan x="0" y="158"></tspan><tspan x="0" y="176" xml:space="preserve">	} </tspan></text>
  </g>
</svg>
