<svg xmlns="http://www.w3.org/2000/svg" xmlns:xlink="http://www.w3.org/1999/xlink" width="732.58" height="736.259" viewBox="0 0 732.58 736.259">
  <defs>
    <filter id="Rectángulo_3804" x="0" y="3.678" width="732.58" height="732.581" filterUnits="userSpaceOnUse">
      <feOffset dy="3" input="SourceAlpha"/>
      <feGaussianBlur stdDeviation="3" result="blur"/>
      <feFlood flood-opacity="0.078"/>
      <feComposite operator="in" in2="blur"/>
      <feComposite in="SourceGraphic"/>
    </filter>
  </defs>
  <g id="Grupo_1921" data-name="Grupo 1921" transform="translate(-135.42 -285.871)">
    <g transform="matrix(1, 0, 0, 1, 135.42, 285.87)" filter="url(#Rectángulo_3804)">
      <rect id="Rectángulo_3804-2" data-name="Rectángulo 3804" width="714.58" height="714.58" rx="26.971" transform="translate(9 9.68)" fill="#fdf7fa"/>
    </g>
    <rect id="Rectángulo_3805" data-name="Rectángulo 3805" width="243.57" height="43.748" transform="translate(144.42 285.871)" fill="#d3097f"/>
    <rect id="Rectángulo_3806" data-name="Rectángulo 3806" width="243.57" height="13.711" transform="translate(144.42 285.871)" fill="#98145e"/>
    <rect id="Rectángulo_3807" data-name="Rectángulo 3807" width="471.01" height="43.748" transform="translate(387.99 285.871)" fill="#d970a8"/>
    <rect id="Rectángulo_3808" data-name="Rectángulo 3808" width="471.01" height="13.711" transform="translate(387.99 285.871)" fill="#b60f6e"/>
    <text id="Caso_de_Uso" data-name="Caso de Uso" transform="translate(144 302.127)" fill="#fff" font-size="18" font-family="Roboto-Bold, Roboto" font-weight="700"><tspan x="62.231" y="19">Caso de Uso</tspan></text>
    <text id="Generar_proyecto_con_arquetipo_de_aplicación" data-name="Generar proyecto con arquetipo de aplicación" transform="translate(412.992 302.127)" fill="#fff" font-size="18" font-family="Roboto-Bold, Roboto" font-weight="700"><tspan x="26.553" y="19">Generar proyecto con arquetipo de aplicación</tspan></text>
    <text id="Versión" transform="translate(202.641 350.703)" fill="#1d1d1b" font-size="16.937" font-family="Roboto-Bold, Roboto" font-weight="700"><tspan x="0" y="18">Versión</tspan></text>
    <text id="Actor" transform="translate(201.683 416.032)" fill="#1d1d1b" font-size="16.937" font-family="Roboto-Bold, Roboto" font-weight="700"><tspan x="0" y="18">Actor</tspan></text>
    <text id="_1.0.0" data-name="1.0.0" transform="translate(427.661 351.679)" fill="#1d1d1b" font-size="14" font-family="Roboto-Regular, Roboto"><tspan x="0" y="15">1.0.0</tspan></text>
    <text id="Descripción" transform="translate(201.683 467.649)" fill="#1d1d1b" font-size="16.937" font-family="Roboto-Bold, Roboto" font-weight="700"><tspan x="0" y="18">Descripción</tspan></text>
    <text id="Desarrollador" transform="translate(427.661 417.008)" fill="#1d1d1b" font-size="14" font-family="Roboto-Regular, Roboto"><tspan x="0" y="15">Desarrollador</tspan></text>
    <text id="Flujo_básico" data-name="Flujo básico" transform="translate(201.683 534.591)" fill="#1d1d1b" font-size="16.937" font-family="Roboto-Bold, Roboto" font-weight="700"><tspan x="0" y="18">Flujo básico</tspan></text>
    <text id="Permite_realizar_la_estructura_de_un_proyecto_a_partir_del_arquetipo_de_aplicación." data-name="Permite realizar la estructura de un proyecto a partir del arquetipo de aplicación." transform="translate(427.661 468.625)" fill="#1d1d1b" font-size="14" font-family="Roboto-Regular, Roboto"><tspan x="0" y="15">Permite realizar la estructura de un </tspan><tspan x="0" y="30.485">proyecto a partir del arquetipo de </tspan><tspan x="0" y="45.971">aplicación.</tspan></text>
    <text id="Flujos_alternos" data-name="Flujos alternos" transform="translate(201.683 661.215)" fill="#1d1d1b" font-size="16.937" font-family="Roboto-Bold, Roboto" font-weight="700"><tspan x="0" y="18">Flujos alternos</tspan></text>
    <text id="_1._El_desarrollador_crea_nuevo_proyecto_maven._2._Se_selecciona_arquetipo_de_aplicación_del_catálogo_de_arquetipos._3._Se_agregan_las_características_del_nuevo_proyecto_group_id_artifact_id_versión_y_paquete_._4._Se_esperamos_a_que_se_genere_el_p" data-name="1. El desarrollador crea nuevo proyecto maven.
2. Se selecciona arquetipo de aplicación del catálogo de 				arquetipos.
3. Se agregan las características del nuevo proyecto (group id, 			artifact id, versión y paquete).
4. Se esperamos a que se genere el p" transform="translate(427.661 535.566)" fill="#1d1d1b" font-size="14" font-family="Roboto-Bold, Roboto" font-weight="700"><tspan x="0" y="15">1.</tspan><tspan y="15" xml:space="preserve" font-family="Roboto-Regular, Roboto" font-weight="400"> El desarrollador crea nuevo proyecto maven.</tspan><tspan x="0" y="30.485">2.</tspan><tspan y="30.485" xml:space="preserve" font-family="Roboto-Regular, Roboto" font-weight="400"> Se selecciona arquetipo de aplicación del catálogo de 				</tspan><tspan x="0" y="45.971" font-family="Roboto-Regular, Roboto" font-weight="400">arquetipos.</tspan><tspan x="0" y="61.456">3.</tspan><tspan y="61.456" xml:space="preserve" font-family="Roboto-Regular, Roboto" font-weight="400"> Se agregan las características del nuevo proyecto (group id, 			</tspan><tspan x="0" y="76.941" font-family="Roboto-Regular, Roboto" font-weight="400">artifact id, versión y paquete).</tspan><tspan x="0" y="92.426">4.</tspan><tspan y="92.426" xml:space="preserve" font-family="Roboto-Regular, Roboto" font-weight="400"> Se esperamos a que se genere el proyecto.</tspan><tspan font-family="Roboto-Regular" font-weight="400"><tspan x="0" y="107.912"></tspan></tspan></text>
    <text id="_1._En_el_paso_2_el_arquetipo_puede_ser_diferente_al_de_aplicación_comunes_REST_o_SOAP_El_desarrollador_no_necesariamente_necesita_el_arquetipo_de_aplicación_este_se_debe_de_elegir_de_acuerdo_a_las_necesidades_del_proyecto._" data-name="1. En el paso 2, el arquetipo puede ser diferente al de aplicación (comunes, REST o SOAP)
El desarrollador no necesariamente necesita el arquetipo de 			aplicación, este se debe de elegir de acuerdo a las necesidades del proyecto. " transform="translate(427.661 662.19)" fill="#1d1d1b" font-size="14" font-family="Roboto-Bold, Roboto" font-weight="700"><tspan x="0" y="15">1. </tspan><tspan y="15" font-family="Roboto-Regular, Roboto" font-weight="400">En el paso 2, el arquetipo puede ser diferente al de </tspan><tspan x="0" y="30.485" font-family="Roboto-Regular, Roboto" font-weight="400">aplicación (comunes, REST o SOAP)</tspan><tspan font-family="Roboto-Regular, Roboto" font-weight="400"><tspan x="0" y="45.971" xml:space="preserve">El desarrollador no necesariamente necesita el arquetipo de 			</tspan><tspan x="0" y="61.456">aplicación, este se debe de elegir de acuerdo a las </tspan><tspan x="0" y="76.941">necesidades del proyecto. </tspan></tspan></text>
    <text id="_1._Que_haya_un_repositorio_artifactory_con_dependencias_necesarias_para_generar_el_arquetipo._2._Agregar_catálogo_de_arquetipos_en_el_IDE_Spring_tool_suite_._" data-name="1. Que haya un repositorio (artifactory) con dependencias 				necesarias para generar el arquetipo.
2. Agregar catálogo de arquetipos en el IDE (Spring tool suite).  
" transform="translate(427.661 775.104)" fill="#1d1d1b" font-size="14" font-family="Roboto-Bold, Roboto" font-weight="700"><tspan x="0" y="15">1.</tspan><tspan y="15" xml:space="preserve" font-family="Roboto-Regular, Roboto" font-weight="400"> Que haya un repositorio (artifactory) con dependencias 				</tspan><tspan x="0" y="30.485" font-family="Roboto-Regular, Roboto" font-weight="400">necesarias para generar el arquetipo.</tspan><tspan x="0" y="45.971">2.</tspan><tspan y="45.971" xml:space="preserve" font-family="Roboto-Regular, Roboto" font-weight="400"> Agregar catálogo de arquetipos en el IDE (Spring tool suite).  </tspan></text>
    <text id="_1._El_arquetipo_generado_está_listo_para_poder_iniciar_el_desarrollo_de_un_nuevo_proyecto." data-name="1. El arquetipo generado está listo para poder iniciar el desarrollo de un nuevo proyecto." transform="translate(427.661 879.146)" fill="#1d1d1b" font-size="14" font-family="Roboto-Bold, Roboto" font-weight="700"><tspan x="0" y="15">1.</tspan><tspan y="15" xml:space="preserve" font-family="Roboto-Regular, Roboto" font-weight="400"> El arquetipo generado está listo para poder iniciar el </tspan><tspan x="0" y="30.485" font-family="Roboto-Regular, Roboto" font-weight="400">desarrollo de un nuevo proyecto.</tspan></text>
    <text id="Pre-condiciones" transform="translate(201.683 774.129)" fill="#1d1d1b" font-size="16.937" font-family="Roboto-Bold, Roboto" font-weight="700"><tspan x="0" y="18">Pre-condiciones</tspan></text>
    <text id="Post-condiciones" transform="translate(201.683 878.17)" fill="#1d1d1b" font-size="16.937" font-family="Roboto-Bold, Roboto" font-weight="700"><tspan x="0" y="18">Post-condiciones</tspan></text>
    <text id="Notas" transform="translate(201.683 962.049)" fill="#1d1d1b" font-size="16.937" font-family="Roboto-Bold, Roboto" font-weight="700"><tspan x="0" y="18">Notas</tspan></text>
  </g>
</svg>
