<svg xmlns="http://www.w3.org/2000/svg" width="346.677" height="265.881" viewBox="0 0 346.677 265.881">
  <g id="Grupo_950" data-name="Grupo 950" transform="translate(-552 -918)">
    <g id="Grupo_946" data-name="Grupo 946">
      <g id="Trazado_1125" data-name="Trazado 1125" transform="translate(552 918)" fill="#fff" opacity="0.298">
        <path d="M 346.177001953125 265.3809814453125 L 0.5000009536743164 265.3809814453125 L 0.5000009536743164 0.5000209212303162 L 82.1529541015625 0.5000209212303162 L 346.177001953125 0.5000209212303162 L 346.177001953125 265.3809814453125 Z" stroke="none"/>
        <path d="M 1 0.999969482421875 L 1 264.8809204101562 L 345.677001953125 264.8809204101562 L 345.677001953125 0.999969482421875 L 82.1529541015625 0.999969482421875 L 1 0.999969482421875 M 0 -3.0517578125e-05 L 82.1529541015625 -3.0517578125e-05 L 346.677001953125 -3.0517578125e-05 L 346.677001953125 265.8809204101562 L 0 265.8809204101562 L 0 -3.0517578125e-05 Z" stroke="none" fill="#707070"/>
      </g>
      <rect id="Rectángulo_1466" data-name="Rectángulo 1466" width="346.677" height="25.882" transform="translate(552 918)" fill="#333"/>
    </g>
    <rect id="Rectángulo_1579" data-name="Rectángulo 1579" width="158" height="26" transform="translate(573 964)" fill="#e8e7e7"/>
    <rect id="Rectángulo_1580" data-name="Rectángulo 1580" width="302" height="146" transform="translate(573 1010)" fill="#e8e7e7"/>
    <g id="Grupo_941" data-name="Grupo 941" transform="translate(121.426 142)">
      <rect id="Rectángulo_1559" data-name="Rectángulo 1559" width="19.05" height="19.05" transform="translate(601.985 883.589) rotate(45)" fill="#b7006d"/>
      <rect id="Rectángulo_1560" data-name="Rectángulo 1560" width="18.575" height="18.575" transform="translate(616.127 897.731) rotate(45)" fill="#b7006d"/>
      <rect id="Rectángulo_1561" data-name="Rectángulo 1561" width="20" height="20" transform="translate(632.284 909.858) rotate(45)" fill="#b7006d"/>
      <rect id="Rectángulo_1562" data-name="Rectángulo 1562" width="18.609" height="18.609" transform="translate(587.891 897.682) rotate(45)" fill="#b7006d"/>
      <rect id="Rectángulo_1563" data-name="Rectángulo 1563" width="19.05" height="19.05" transform="translate(601.985 910.53) rotate(45)" fill="#b7006d"/>
      <rect id="Rectángulo_1564" data-name="Rectángulo 1564" width="18.575" height="18.575" transform="translate(616.127 924) rotate(45)" fill="#b7006d"/>
      <rect id="Rectángulo_1565" data-name="Rectángulo 1565" width="20" height="20" transform="translate(575.716 909.858) rotate(45)" fill="#b7006d"/>
      <rect id="Rectángulo_1566" data-name="Rectángulo 1566" width="18.609" height="18.609" transform="translate(587.891 924) rotate(45)" fill="#b7006d"/>
      <rect id="Rectángulo_1567" data-name="Rectángulo 1567" width="19.05" height="19.05" transform="translate(601.985 937.47) rotate(45)" fill="#b7006d"/>
    </g>
  </g>
</svg>
