<svg xmlns="http://www.w3.org/2000/svg" xmlns:xlink="http://www.w3.org/1999/xlink" width="347" height="266" viewBox="0 0 347 266">
  <defs>
    <filter id="Rectángulo_136" x="28" y="37" width="291" height="196" filterUnits="userSpaceOnUse">
      <feOffset dy="3" input="SourceAlpha"/>
      <feGaussianBlur stdDeviation="3" result="blur"/>
      <feFlood flood-opacity="0.161"/>
      <feComposite operator="in" in2="blur"/>
      <feComposite in="SourceGraphic"/>
    </filter>
  </defs>
  <g id="Grupo_35" data-name="Grupo 35" transform="translate(-431 -42)">
    <rect id="Rectángulo_72" data-name="Rectángulo 72" width="347" height="266" transform="translate(431 42)" fill="#d5d5d5"/>
    <g transform="matrix(1, 0, 0, 1, 431, 42)" filter="url(#Rectángulo_136)">
      <rect id="Rectángulo_136-2" data-name="Rectángulo 136" width="273" height="178" transform="translate(37 43)" fill="#fff"/>
    </g>
    <rect id="Rectángulo_138" data-name="Rectángulo 138" width="205" height="11" transform="translate(491 144)" fill="#e5e5e5"/>
    <rect id="Rectángulo_137" data-name="Rectángulo 137" width="99" height="19" transform="translate(491 111)" fill="#adadad"/>
    <rect id="Rectángulo_139" data-name="Rectángulo 139" width="181" height="13" transform="translate(491 167)" fill="#e5e5e5"/>
    <g id="Rectángulo_22" data-name="Rectángulo 22" transform="translate(613 207)" fill="none" stroke="#b60f6f" stroke-width="1">
      <rect width="99" height="33" rx="5" stroke="none"/>
      <rect x="0.5" y="0.5" width="98" height="32" rx="4.5" fill="none"/>
    </g>
    <text id="Continuar" transform="translate(631.227 228.819)" fill="#b60f6f" font-size="14" font-family="Roboto-Regular, Roboto"><tspan x="0" y="0">Continuar</tspan></text>
    <text id="Cancelar" transform="translate(536.525 228.819)" fill="#b60f6f" font-size="14" font-family="Roboto-Regular, Roboto"><tspan x="0" y="0">Cancelar</tspan></text>
  </g>
</svg>
