<svg xmlns="http://www.w3.org/2000/svg" width="127" height="45" viewBox="0 0 127 45">
  <g id="Grupo_837" data-name="Grupo 837" transform="translate(-1366 -2787)">
    <g id="Grupo_816" data-name="Grupo 816">
      <path id="Trazado_1253" data-name="Trazado 1253" d="M15.018,0h96.964A15.018,15.018,0,0,1,127,15.018V29.982A15.018,15.018,0,0,1,111.982,45H15.018A15.018,15.018,0,0,1,0,29.982V15.018A15.018,15.018,0,0,1,15.018,0Z" transform="translate(1366 2787)" fill="#b7006d"/>
      <path id="Trazado_1265" data-name="Trazado 1265" d="M8.49-5.757H3.48v4.052H9.387V0H1.345V-12.8h7.98v1.714H3.48v3.612H8.49ZM13.025-9.51l.123,1.371a3.4,3.4,0,0,1,1.173-1.138,3.131,3.131,0,0,1,1.6-.409,2.97,2.97,0,0,1,2.316.914,4.153,4.153,0,0,1,.831,2.856V0H16.928V-5.9A2.3,2.3,0,0,0,16.5-7.471a1.687,1.687,0,0,0-1.3-.466,2.55,2.55,0,0,0-1.187.259,2.078,2.078,0,0,0-.8.716V0H11.074V-9.51ZM24.592-3.217l.158.773H24.8l.167-.773,1.89-6.293h2.206L25.69,0H23.836L20.443-9.51h2.206ZM32.687,0H30.551V-9.51h2.136Zm0-11.839H30.551v-1.872h2.136ZM40.808,0q-.114-.36-.189-.7a5.026,5.026,0,0,1-.1-.686A3.663,3.663,0,0,1,39.366-.268a2.962,2.962,0,0,1-1.608.453A3.161,3.161,0,0,1,35.477-.58a2.777,2.777,0,0,1-.8-2.1,2.481,2.481,0,0,1,1.09-2.149A5.262,5.262,0,0,1,38.839-5.6H40.5v-.835A1.553,1.553,0,0,0,40.065-7.6,1.74,1.74,0,0,0,38.8-8.024a1.8,1.8,0,0,0-1.16.347,1.1,1.1,0,0,0-.431.9l-2.057.009-.009-.053a2.355,2.355,0,0,1,1.006-2,4.264,4.264,0,0,1,2.782-.87,4.069,4.069,0,0,1,2.681.844,2.97,2.97,0,0,1,1.02,2.426v4.228a7.8,7.8,0,0,0,.079,1.129A6,6,0,0,0,42.97,0ZM38.2-1.529a2.669,2.669,0,0,0,1.446-.4,2.036,2.036,0,0,0,.857-.923V-4.263H38.8a2.141,2.141,0,0,0-1.459.461,1.4,1.4,0,0,0-.527,1.085,1.107,1.107,0,0,0,.356.866A1.479,1.479,0,0,0,38.2-1.529ZM49.605-7.585l-.914-.035a1.915,1.915,0,0,0-1.042.264A1.736,1.736,0,0,0,47-6.609V0H44.868V-9.51h1.951l.141,1.38a3.05,3.05,0,0,1,.927-1.143,2.158,2.158,0,0,1,1.305-.413,1.99,1.99,0,0,1,.36.031,2.631,2.631,0,0,1,.308.075Z" transform="translate(1422.234 2814.478)" fill="#fff"/>
      <path id="Trazado_1119" data-name="Trazado 1119" d="M798.369,845.027l-20.411-10.194c-.842-.421-1.2-.071-.789.776l3.168,6.59a3.911,3.911,0,0,0,2.416,1.885l6.753,1.388c.92.19.92.5,0,.689l-6.757,1.39a3.911,3.911,0,0,0-2.417,1.884l-3.161,6.555c-.408.847-.055,1.2.786.776l20.412-10.21C799.21,846.135,799.21,845.447,798.369,845.027Z" transform="translate(610.239 1964)" fill="#fff"/>
    </g>
  </g>
</svg>
