<svg id="add_circle-black-18dp" xmlns="http://www.w3.org/2000/svg" width="35" height="35" viewBox="0 0 35 35">
  <path id="Trazado_2150" data-name="Trazado 2150" d="M0,0H35V35H0Z" fill="none"/>
  <path id="Trazado_2151" data-name="Trazado 2151" d="M17.5,2A15.5,15.5,0,1,0,33,17.5,15.506,15.506,0,0,0,17.5,2Zm7.75,17.05h-6.2v6.2h-3.1v-6.2H9.75v-3.1h6.2V9.75h3.1v6.2h6.2Z" transform="translate(0 0)"/>
</svg>
