<svg id="delete-24px" xmlns="http://www.w3.org/2000/svg" width="35" height="35" viewBox="0 0 35 35">
  <path id="Trazado_2154" data-name="Trazado 2154" d="M0,0H35V35H0Z" fill="none"/>
  <path id="Trazado_2155" data-name="Trazado 2155" d="M6.786,28.778A3.42,3.42,0,0,0,10.357,32H24.643a3.42,3.42,0,0,0,3.571-3.222V9.444H6.786ZM30,4.611H23.75L21.964,3H13.036L11.25,4.611H5V7.833H30Z" transform="translate(0)"/>
</svg>
