<svg xmlns="http://www.w3.org/2000/svg" xmlns:xlink="http://www.w3.org/1999/xlink" width="369" height="162" viewBox="0 0 369 162">
  <defs>
    <filter id="Trazado_73" x="0" y="19.614" width="369" height="65" filterUnits="userSpaceOnUse">
      <feOffset dy="1" input="SourceAlpha"/>
      <feGaussianBlur stdDeviation="1.5" result="blur"/>
      <feFlood flood-opacity="0.302"/>
      <feComposite operator="in" in2="blur"/>
      <feComposite in="SourceGraphic"/>
    </filter>
  </defs>
  <g id="Grupo_2555" data-name="Grupo 2555" transform="translate(-66.628 -4889)">
    <g id="Grupo_2554" data-name="Grupo 2554">
      <g id="Rectángulo_4219" data-name="Rectángulo 4219" transform="translate(71 4889)" fill="#fff" stroke="#e2e2e2" stroke-width="1">
        <rect width="360" height="162" stroke="none"/>
        <rect x="0.5" y="0.5" width="359" height="161" fill="none"/>
      </g>
      <g id="Grupo_19" data-name="Grupo 19" transform="translate(71 4889)">
        <rect id="Rectángulo_1" data-name="Rectángulo 1" width="360" height="23.862" transform="translate(0)"/>
        <rect id="Rectángulo_4" data-name="Rectángulo 4" width="2" height="6.049" transform="translate(14.449 11.604)" fill="#fff"/>
        <rect id="Rectángulo_5" data-name="Rectángulo 5" width="2" height="7.26" transform="translate(18.079 10.393)" fill="#fff"/>
        <rect id="Rectángulo_6" data-name="Rectángulo 6" width="2" height="9.68" transform="translate(21.709 7.974)" fill="#fff"/>
        <rect id="Rectángulo_7" data-name="Rectángulo 7" width="2" height="10.889" transform="translate(25.338 6.764)" fill="#fff"/>
        <text id="RED" transform="translate(36.509 16.819)" fill="#fff" font-size="10" font-family="Roboto-Medium, Roboto" font-weight="500" style="isolation: isolate"><tspan x="0" y="0">RED</tspan></text>
        <text id="_12:00" data-name="12:00" transform="translate(166.342 16.842)" fill="#fff" font-size="10" font-family="Roboto-Medium, Roboto" font-weight="500" style="isolation: isolate"><tspan x="0" y="0">12:00</tspan></text>
        <path id="Trazado_1" data-name="Trazado 1" d="M147.9,313.962l5.3,9.713,5.3-9.713A12.8,12.8,0,0,0,147.9,313.962Z" transform="translate(-82.542 -306.022)" fill="#fff"/>
        <rect id="Rectángulo_3" data-name="Rectángulo 3" width="25.873" height="10.921" transform="translate(317.029 6.361)" fill="#fff"/>
        <text id="_100_" data-name="100%" transform="translate(284.736 16.341)" fill="#fff" font-size="10" font-family="Roboto-Medium, Roboto" font-weight="500" style="isolation: isolate"><tspan x="0" y="0">100%</tspan></text>
      </g>
      <g transform="matrix(1, 0, 0, 1, 66.63, 4889)" filter="url(#Trazado_73)">
        <path id="Trazado_73-2" data-name="Trazado 73" d="M84.253,173.893h360v56h-360Z" transform="translate(-79.75 -150.78)" fill="#242424"/>
      </g>
      <text id="_2_Seleccionados" data-name="2 Seleccionados" transform="translate(142.781 4948.114)" fill="snow" font-size="20" font-family="Roboto-Medium, Roboto" font-weight="500" style="isolation: isolate"><tspan x="0" y="0">2 Seleccionados</tspan></text>
      <path id="Trazado_32" data-name="Trazado 32" d="M18,16.08a2.912,2.912,0,0,0-1.96.77L8.91,12.7A3.274,3.274,0,0,0,9,12a3.274,3.274,0,0,0-.09-.7l7.05-4.11A2.993,2.993,0,1,0,15,5a3.274,3.274,0,0,0,.09.7L8.04,9.81a3,3,0,1,0,0,4.38l7.12,4.16a2.821,2.821,0,0,0-.08.65A2.92,2.92,0,1,0,18,16.08Z" transform="translate(343 4927)" fill="#fff"/>
      <g id="delete-24px" transform="translate(388 4927)">
        <path id="Trazado_35" data-name="Trazado 35" d="M0,0H24V24H0Z" fill="none"/>
        <path id="Trazado_36" data-name="Trazado 36" d="M6,19a2.006,2.006,0,0,0,2,2h8a2.006,2.006,0,0,0,2-2V7H6ZM19,4H15.5l-1-1h-5l-1,1H5V6H19Z" fill="#fff"/>
      </g>
      <g id="keyboard_backspace-24px_1_" data-name="keyboard_backspace-24px (1)" transform="translate(85 4929)">
        <path id="Trazado_29" data-name="Trazado 29" d="M0,0H24V24H0Z" fill="none"/>
        <path id="Trazado_30" data-name="Trazado 30" d="M21,11H6.83l3.58-3.59L9,6,3,12l6,6,1.41-1.41L6.83,13H21Z" fill="#fff"/>
      </g>
    </g>
  </g>
</svg>
