<svg xmlns="http://www.w3.org/2000/svg" xmlns:xlink="http://www.w3.org/1999/xlink" width="698" height="600" viewBox="0 0 698 600">
  <defs>
    <filter id="Rectángulo_4473" x="0" y="0" width="698" height="600" filterUnits="userSpaceOnUse">
      <feOffset input="SourceAlpha"/>
      <feGaussianBlur stdDeviation="3" result="blur"/>
      <feFlood flood-opacity="0.102"/>
      <feComposite operator="in" in2="blur"/>
      <feComposite in="SourceGraphic"/>
    </filter>
  </defs>
  <g id="Grupo_2971" data-name="Grupo 2971" transform="translate(-419 -24783)">
    <g transform="matrix(1, 0, 0, 1, 419, 24783)" filter="url(#Rectángulo_4473)">
      <rect id="Rectángulo_4473-2" data-name="Rectángulo 4473" width="680" height="582" transform="translate(9 9)" fill="#fff"/>
    </g>
    <g id="Grupo_2789" data-name="Grupo 2789" transform="translate(287.943 9628.424)">
      <line id="Línea_1371" data-name="Línea 1371" x2="3.548" transform="translate(183.009 15433.913)" fill="none" stroke="#79134b" stroke-miterlimit="10" stroke-width="0.71"/>
      <line id="Línea_1372" data-name="Línea 1372" x2="9.844" transform="translate(193.12 15433.913)" fill="none" stroke="#79134b" stroke-miterlimit="10" stroke-width="0.71" stroke-dasharray="6.563 6.563"/>
      <line id="Línea_1373" data-name="Línea 1373" x2="3.548" transform="translate(206.246 15433.913)" fill="none" stroke="#79134b" stroke-miterlimit="10" stroke-width="0.71"/>
      <g id="Grupo_2788" data-name="Grupo 2788">
        <path id="Trazado_2683" data-name="Trazado 2683" d="M209.216,15429.6v8.622l4.309-4.311Z" fill="#79134b"/>
      </g>
    </g>
    <g id="Grupo_2791" data-name="Grupo 2791" transform="translate(287.943 9628.424)">
      <line id="Línea_1374" data-name="Línea 1374" y2="3.548" transform="translate(182.654 15320.717)" fill="none" stroke="#79134b" stroke-miterlimit="10" stroke-width="0.71"/>
      <line id="Línea_1375" data-name="Línea 1375" y2="259.653" transform="translate(182.654 15331.189)" fill="none" stroke="#79134b" stroke-miterlimit="10" stroke-width="0.71" stroke-dasharray="6.924 6.924"/>
      <path id="Trazado_2684" data-name="Trazado 2684" d="M182.654,15594.3v3.548l3.548-.013" fill="none" stroke="#79134b" stroke-miterlimit="10" stroke-width="0.71"/>
      <line id="Línea_1376" data-name="Línea 1376" y1="0.034" x2="9.667" transform="translate(192.647 15597.783)" fill="none" stroke="#79134b" stroke-miterlimit="10" stroke-width="0.71" stroke-dasharray="6.445 6.445"/>
      <line id="Línea_1377" data-name="Línea 1377" y1="0.013" x2="3.548" transform="translate(205.536 15597.759)" fill="none" stroke="#79134b" stroke-miterlimit="10" stroke-width="0.71"/>
      <g id="Grupo_2790" data-name="Grupo 2790">
        <path id="Trazado_2685" data-name="Trazado 2685" d="M208.491,15593.449l.031,8.622,4.294-4.325Z" fill="#79134b"/>
      </g>
    </g>
    <rect id="Rectángulo_4474" data-name="Rectángulo 4474" width="203.559" height="38.578" rx="12.373" transform="translate(673.832 24833)" fill="#acd3d7"/>
    <path id="Trazado_2686" data-name="Trazado 2686" d="M387.359,15236.588a12.34,12.34,0,0,0,10.9,6.566H577.075a12.337,12.337,0,0,0,10.9-6.566Z" transform="translate(287.943 9628.424)" fill="#26595d"/>
    <text id="business.xsd" transform="translate(674.189 24836.902)" fill="#fff" font-size="18" font-family="Roboto-Medium, Roboto" font-weight="500"><tspan x="49.289" y="19">business.xsd</tspan></text>
    <g id="Grupo_2792" data-name="Grupo 2792" transform="translate(287.943 9628.424)">
      <rect id="Rectángulo_4475" data-name="Rectángulo 4475" width="91.203" height="20.887" rx="8.52" transform="translate(317.931 15466.63)" fill="#c8acd2"/>
      <path id="Trazado_2687" data-name="Trazado 2687" d="M318.944,15483a8.5,8.5,0,0,0,7.507,4.521h74.164a8.5,8.5,0,0,0,7.506-4.521Z" fill="#4a245b"/>
    </g>
    <g id="Grupo_2793" data-name="Grupo 2793" transform="translate(287.943 9628.424)">
      <rect id="Rectángulo_4476" data-name="Rectángulo 4476" width="91.203" height="20.887" rx="8.52" transform="translate(360.513 15492.18)" fill="#c8acd2"/>
      <path id="Trazado_2688" data-name="Trazado 2688" d="M361.526,15508.545a8.5,8.5,0,0,0,7.507,4.522H443.2a8.5,8.5,0,0,0,7.507-4.522Z" fill="#4a245b"/>
    </g>
    <g id="Grupo_2794" data-name="Grupo 2794" transform="translate(287.943 9628.424)">
      <rect id="Rectángulo_4477" data-name="Rectángulo 4477" width="91.203" height="20.887" rx="8.52" transform="translate(360.513 15515.6)" fill="#c8acd2"/>
      <path id="Trazado_2689" data-name="Trazado 2689" d="M361.526,15531.965a8.5,8.5,0,0,0,7.507,4.522H443.2a8.5,8.5,0,0,0,7.507-4.522Z" fill="#4a245b"/>
    </g>
    <g id="Grupo_2795" data-name="Grupo 2795" transform="translate(287.943 9628.424)">
      <path id="Trazado_2690" data-name="Trazado 2690" d="M296.355,15443.517H222.061a8.527,8.527,0,0,1-8.535-8.52v-3.848a8.528,8.528,0,0,1,8.535-8.521h74.294a8.528,8.528,0,0,1,8.535,8.521V15435A8.527,8.527,0,0,1,296.355,15443.517Z" fill="#c8acd2"/>
      <path id="Trazado_2691" data-name="Trazado 2691" d="M214.541,15439a8.514,8.514,0,0,0,7.52,4.521h74.294a8.515,8.515,0,0,0,7.52-4.521Z" fill="#4a245b"/>
    </g>
    <g id="Grupo_2796" data-name="Grupo 2796" transform="translate(287.943 9628.424)">
      <rect id="Rectángulo_4478" data-name="Rectángulo 4478" width="68.493" height="17.339" rx="8.52" transform="translate(415.869 15422.629)" fill="#d3097f"/>
      <path id="Trazado_2692" data-name="Trazado 2692" d="M416.882,15435.446a8.5,8.5,0,0,0,7.507,4.521h51.453a8.5,8.5,0,0,0,7.507-4.521Z" fill="#98145e"/>
    </g>
    <g id="Grupo_2797" data-name="Grupo 2797" transform="translate(287.943 9628.424)">
      <rect id="Rectángulo_4479" data-name="Rectángulo 4479" width="68.493" height="17.339" rx="8.52" transform="translate(459.87 15468.76)" fill="#d3097f"/>
      <path id="Trazado_2693" data-name="Trazado 2693" d="M460.883,15481.577a8.5,8.5,0,0,0,7.507,4.521h51.453a8.5,8.5,0,0,0,7.507-4.521Z" fill="#98145e"/>
    </g>
    <g id="Grupo_2798" data-name="Grupo 2798" transform="translate(287.943 9628.424)">
      <rect id="Rectángulo_4480" data-name="Rectángulo 4480" width="68.493" height="17.339" rx="8.52" transform="translate(493.226 15494.309)" fill="#d3097f"/>
      <path id="Trazado_2694" data-name="Trazado 2694" d="M494.239,15507.126a8.5,8.5,0,0,0,7.507,4.521H553.2a8.5,8.5,0,0,0,7.507-4.521Z" fill="#98145e"/>
    </g>
    <g id="Grupo_2799" data-name="Grupo 2799" transform="translate(287.943 9628.424)">
      <rect id="Rectángulo_4481" data-name="Rectángulo 4481" width="68.493" height="17.339" rx="8.52" transform="translate(493.226 15517.019)" fill="#d3097f"/>
      <path id="Trazado_2695" data-name="Trazado 2695" d="M494.239,15529.836a8.5,8.5,0,0,0,7.507,4.521H553.2a8.5,8.5,0,0,0,7.507-4.521Z" fill="#98145e"/>
    </g>
    <text id="xs:simpleType" transform="translate(510.43 25051.602)" fill="#1d1d1b" font-size="12" font-family="Roboto-Medium, Roboto" font-weight="500"><tspan x="0" y="13">xs:simpleType</tspan></text>
    <text id="name" transform="translate(712.692 25049.473)" fill="#fff" font-size="12" font-family="Roboto-Medium, Roboto" font-weight="500"><tspan x="0" y="13">name</tspan></text>
    <text id="idSistema" transform="translate(846.825 25053.602)" fill="#1d1d1b" font-size="11.5" font-family="Roboto-MediumItalic, Roboto" font-weight="500" font-style="italic"><tspan x="0" y="12">idSistema</tspan></text>
    <text id="xs:restriction" transform="translate(614.884 25095.604)" fill="#1d1d1b" font-size="12" font-family="Roboto-Medium, Roboto" font-weight="500"><tspan x="0" y="13">xs:restriction</tspan></text>
    <text id="base" transform="translate(762.371 25096.604)" fill="#fff" font-size="12" font-family="Roboto-Medium, Roboto" font-weight="500"><tspan x="0" y="13">base</tspan></text>
    <text id="xs:minInclusive" transform="translate(653.046 25121.734)" fill="#1d1d1b" font-size="12" font-family="Roboto-Medium, Roboto" font-weight="500"><tspan x="0" y="13">xs:minInclusive</tspan></text>
    <text id="value" transform="translate(803.533 25121.734)" fill="#fff" font-size="12" font-family="Roboto-Medium, Roboto" font-weight="500"><tspan x="0" y="13">value</tspan></text>
    <text id="xs:minInclusive-2" data-name="xs:minInclusive" transform="translate(653.046 25145.863)" fill="#1d1d1b" font-size="12" font-family="Roboto-Medium, Roboto" font-weight="500"><tspan x="0" y="13">xs:minInclusive</tspan></text>
    <text id="value-2" data-name="value" transform="translate(803.533 25145.863)" fill="#fff" font-size="12" font-family="Roboto-Medium, Roboto" font-weight="500"><tspan x="0" y="13">value</tspan></text>
    <text id="_0" data-name="0" transform="translate(978.828 25121.734)" fill="#1d1d1b" font-size="11.5" font-family="Roboto-MediumItalic, Roboto" font-weight="500" font-style="italic"><tspan x="0" y="12">0</tspan></text>
    <text id="_2147483647" data-name="2147483647" transform="translate(978.828 25148.701)" fill="#1d1d1b" font-size="11.5" font-family="Roboto-MediumItalic, Roboto" font-weight="500" font-style="italic"><tspan x="0" y="12">2147483647</tspan></text>
    <g id="Grupo_2800" data-name="Grupo 2800" transform="translate(287.943 9628.424)">
      <rect id="Rectángulo_4482" data-name="Rectángulo 4482" width="91.203" height="20.887" rx="8.52" transform="translate(360.513 15539.729)" fill="#c8acd2"/>
      <path id="Trazado_2696" data-name="Trazado 2696" d="M361.526,15556.095a8.5,8.5,0,0,0,7.507,4.521H443.2a8.5,8.5,0,0,0,7.507-4.521Z" fill="#4a245b"/>
    </g>
    <g id="Grupo_2801" data-name="Grupo 2801" transform="translate(287.943 9628.424)">
      <rect id="Rectángulo_4483" data-name="Rectángulo 4483" width="68.493" height="17.339" rx="8.52" transform="translate(493.226 15541.148)" fill="#d3097f"/>
      <path id="Trazado_2697" data-name="Trazado 2697" d="M494.239,15553.965a8.5,8.5,0,0,0,7.507,4.522H553.2a8.5,8.5,0,0,0,7.507-4.522Z" fill="#98145e"/>
    </g>
    <text id="xs:pattern" transform="translate(658.046 25167.992)" fill="#1d1d1b" font-size="12" font-family="Roboto-Medium, Roboto" font-weight="500"><tspan x="0" y="13">xs:pattern</tspan></text>
    <text id="value-3" data-name="value" transform="translate(803.533 25169.992)" fill="#fff" font-size="12" font-family="Roboto-Medium, Roboto" font-weight="500"><tspan x="0" y="13">value</tspan></text>
    <text id="_0_1-9_0-9_:_." data-name="(0([1-9][0-9]:))." transform="translate(978.828 25172.832)" fill="#1d1d1b" font-size="11.5" font-family="Roboto-MediumItalic, Roboto" font-weight="500" font-style="italic"><tspan x="0" y="12">(0([1-9][0-9]:)).</tspan></text>
    <text id="tns:integer" transform="translate(870.245 25097.604)" fill="#1d1d1b" font-size="11.5" font-family="Roboto-Medium, Roboto" font-weight="500"><tspan x="0" y="12">tns:integer</tspan></text>
    <g id="Grupo_2803" data-name="Grupo 2803" transform="translate(287.943 9628.424)">
      <line id="Línea_1378" data-name="Línea 1378" x2="0.031" y2="2.129" transform="translate(271.2 15442.238)" fill="none" stroke="#79134b" stroke-miterlimit="10" stroke-width="0.71"/>
      <line id="Línea_1379" data-name="Línea 1379" x2="0.348" y2="23.971" transform="translate(271.294 15448.726)" fill="none" stroke="#79134b" stroke-miterlimit="10" stroke-width="0.71" stroke-dasharray="4.359 4.359"/>
      <path id="Trazado_2698" data-name="Trazado 2698" d="M271.674,15474.876l.031,2.129,2.129-.031" fill="none" stroke="#79134b" stroke-miterlimit="10" stroke-width="0.71"/>
      <line id="Línea_1380" data-name="Línea 1380" y1="0.474" x2="31.998" transform="translate(278.1 15476.436)" fill="none" stroke="#79134b" stroke-miterlimit="10" stroke-width="0.71" stroke-dasharray="4.267 4.267"/>
      <line id="Línea_1381" data-name="Línea 1381" y1="0.032" x2="2.129" transform="translate(312.231 15476.373)" fill="none" stroke="#79134b" stroke-miterlimit="10" stroke-width="0.71"/>
      <g id="Grupo_2802" data-name="Grupo 2802">
        <path id="Trazado_2699" data-name="Trazado 2699" d="M313.718,15472.07l.128,8.622,4.245-4.374Z" fill="#79134b"/>
      </g>
    </g>
    <g id="Grupo_2805" data-name="Grupo 2805" transform="translate(287.943 9628.424)">
      <line id="Línea_1382" data-name="Línea 1382" x2="0.031" y2="2.129" transform="translate(331.254 15486.9)" fill="none" stroke="#79134b" stroke-miterlimit="10" stroke-width="0.71"/>
      <line id="Línea_1383" data-name="Línea 1383" x2="0.091" y2="6.288" transform="translate(331.346 15493.221)" fill="none" stroke="#79134b" stroke-miterlimit="10" stroke-width="0.71" stroke-dasharray="4.192 4.192"/>
      <path id="Trazado_2700" data-name="Trazado 2700" d="M331.468,15501.6l.031,2.129,2.129-.031" fill="none" stroke="#79134b" stroke-miterlimit="10" stroke-width="0.71"/>
      <line id="Línea_1384" data-name="Línea 1384" y1="0.218" x2="14.75" transform="translate(337.842 15503.422)" fill="none" stroke="#79134b" stroke-miterlimit="10" stroke-width="0.71" stroke-dasharray="4.215 4.215"/>
      <line id="Línea_1385" data-name="Línea 1385" y1="0.032" x2="2.129" transform="translate(354.699 15503.36)" fill="none" stroke="#79134b" stroke-miterlimit="10" stroke-width="0.71"/>
      <g id="Grupo_2804" data-name="Grupo 2804">
        <path id="Trazado_2701" data-name="Trazado 2701" d="M356.187,15499.058l.127,8.621,4.245-4.373Z" fill="#79134b"/>
      </g>
    </g>
    <g id="Grupo_2807" data-name="Grupo 2807" transform="translate(287.943 9628.424)">
      <line id="Línea_1386" data-name="Línea 1386" x1="3.548" transform="translate(407.982 15433.204)" fill="none" stroke="#79134b" stroke-miterlimit="10" stroke-width="0.71"/>
      <line id="Línea_1387" data-name="Línea 1387" x1="82.708" transform="translate(318.082 15433.204)" fill="none" stroke="#79134b" stroke-miterlimit="10" stroke-width="0.71" stroke-dasharray="7.192 7.192"/>
      <line id="Línea_1388" data-name="Línea 1388" x1="3.548" transform="translate(310.938 15433.204)" fill="none" stroke="#79134b" stroke-miterlimit="10" stroke-width="0.71"/>
      <g id="Grupo_2806" data-name="Grupo 2806">
        <path id="Trazado_2702" data-name="Trazado 2702" d="M311.516,15437.516v-8.622l-4.309,4.311Z" fill="#79134b"/>
      </g>
    </g>
    <g id="Grupo_2809" data-name="Grupo 2809" transform="translate(287.943 9628.424)">
      <line id="Línea_1389" data-name="Línea 1389" x1="3.548" transform="translate(553.468 15433.203)" fill="none" stroke="#79134b" stroke-miterlimit="10" stroke-width="0.71"/>
      <line id="Línea_1390" data-name="Línea 1390" x1="50.708" transform="translate(495.999 15433.203)" fill="none" stroke="#79134b" stroke-miterlimit="10" stroke-width="0.71" stroke-dasharray="6.761 6.761"/>
      <line id="Línea_1391" data-name="Línea 1391" x1="3.548" transform="translate(489.07 15433.203)" fill="none" stroke="#79134b" stroke-miterlimit="10" stroke-width="0.71"/>
      <g id="Grupo_2808" data-name="Grupo 2808">
        <path id="Trazado_2703" data-name="Trazado 2703" d="M489.648,15437.515v-8.622l-4.309,4.311Z" fill="#79134b"/>
      </g>
    </g>
    <g id="Grupo_2810" data-name="Grupo 2810" transform="translate(287.943 9628.424)">
      <path id="Trazado_2704" data-name="Trazado 2704" d="M296.355,15608.166H222.061a8.528,8.528,0,0,1-8.535-8.52v-3.849a8.527,8.527,0,0,1,8.535-8.52h74.294a8.527,8.527,0,0,1,8.535,8.52v3.849A8.528,8.528,0,0,1,296.355,15608.166Z" fill="#c8acd2"/>
      <path id="Trazado_2705" data-name="Trazado 2705" d="M214.541,15603.644a8.513,8.513,0,0,0,7.52,4.522h74.294a8.514,8.514,0,0,0,7.52-4.522Z" fill="#4a245b"/>
    </g>
    <g id="Grupo_2811" data-name="Grupo 2811" transform="translate(287.943 9628.424)">
      <rect id="Rectángulo_4484" data-name="Rectángulo 4484" width="68.493" height="17.339" rx="8.52" transform="translate(415.869 15587.278)" fill="#d3097f"/>
      <path id="Trazado_2706" data-name="Trazado 2706" d="M416.882,15600.1a8.5,8.5,0,0,0,7.507,4.521h51.453a8.5,8.5,0,0,0,7.507-4.521Z" fill="#98145e"/>
    </g>
    <text id="xs:simpleType-2" data-name="xs:simpleType" transform="translate(509.43 25215.252)" fill="#1d1d1b" font-size="12" font-family="Roboto-Medium, Roboto" font-weight="500"><tspan x="0" y="13">xs:simpleType</tspan></text>
    <text id="name-2" data-name="name" transform="translate(721.692 25214.123)" fill="#fff" font-size="12" font-family="Roboto-Medium, Roboto" font-weight="500"><tspan x="0" y="13">name</tspan></text>
    <text id="exampleNegocio" transform="translate(846.825 25218.252)" fill="#1d1d1b" font-size="11.5" font-family="Roboto-MediumItalic, Roboto" font-weight="500" font-style="italic"><tspan x="0" y="12">exampleNegocio</tspan></text>
    <g id="Grupo_2813" data-name="Grupo 2813" transform="translate(287.943 9628.424)">
      <line id="Línea_1392" data-name="Línea 1392" x1="3.548" transform="translate(407.982 15597.854)" fill="none" stroke="#79134b" stroke-miterlimit="10" stroke-width="0.71"/>
      <line id="Línea_1393" data-name="Línea 1393" x1="82.708" transform="translate(318.082 15597.854)" fill="none" stroke="#79134b" stroke-miterlimit="10" stroke-width="0.71" stroke-dasharray="7.192 7.192"/>
      <line id="Línea_1394" data-name="Línea 1394" x1="3.548" transform="translate(310.938 15597.854)" fill="none" stroke="#79134b" stroke-miterlimit="10" stroke-width="0.71"/>
      <g id="Grupo_2812" data-name="Grupo 2812">
        <path id="Trazado_2707" data-name="Trazado 2707" d="M311.516,15602.165v-8.622l-4.309,4.311Z" fill="#79134b"/>
      </g>
    </g>
    <g id="Grupo_2815" data-name="Grupo 2815" transform="translate(287.943 9628.424)">
      <line id="Línea_1395" data-name="Línea 1395" x1="3.548" transform="translate(553.468 15597.853)" fill="none" stroke="#79134b" stroke-miterlimit="10" stroke-width="0.71"/>
      <line id="Línea_1396" data-name="Línea 1396" x1="50.708" transform="translate(495.999 15597.853)" fill="none" stroke="#79134b" stroke-miterlimit="10" stroke-width="0.71" stroke-dasharray="6.761 6.761"/>
      <line id="Línea_1397" data-name="Línea 1397" x1="3.548" transform="translate(489.07 15597.853)" fill="none" stroke="#79134b" stroke-miterlimit="10" stroke-width="0.71"/>
      <g id="Grupo_2814" data-name="Grupo 2814">
        <path id="Trazado_2708" data-name="Trazado 2708" d="M489.648,15602.164v-8.622l-4.309,4.311Z" fill="#79134b"/>
      </g>
    </g>
    <g id="Grupo_2817" data-name="Grupo 2817" transform="translate(287.943 9628.424)">
      <line id="Línea_1398" data-name="Línea 1398" x1="3.548" transform="translate(459.789 15476.494)" fill="none" stroke="#79134b" stroke-miterlimit="10" stroke-width="0.71"/>
      <line id="Línea_1399" data-name="Línea 1399" x1="33.871" transform="translate(419.759 15476.494)" fill="none" stroke="#79134b" stroke-miterlimit="10" stroke-width="0.71" stroke-dasharray="6.158 6.158"/>
      <line id="Línea_1400" data-name="Línea 1400" x1="3.548" transform="translate(413.131 15476.494)" fill="none" stroke="#79134b" stroke-miterlimit="10" stroke-width="0.71"/>
      <g id="Grupo_2816" data-name="Grupo 2816">
        <path id="Trazado_2709" data-name="Trazado 2709" d="M413.709,15480.806v-8.622l-4.309,4.311Z" fill="#79134b"/>
      </g>
    </g>
    <g id="Grupo_2819" data-name="Grupo 2819" transform="translate(287.943 9628.424)">
      <line id="Línea_1401" data-name="Línea 1401" x1="3.548" transform="translate(574.76 15476.494)" fill="none" stroke="#79134b" stroke-miterlimit="10" stroke-width="0.71"/>
      <line id="Línea_1402" data-name="Línea 1402" x1="24.711" transform="translate(542.988 15476.494)" fill="none" stroke="#79134b" stroke-miterlimit="10" stroke-width="0.71" stroke-dasharray="7.06 7.06"/>
      <line id="Línea_1403" data-name="Línea 1403" x1="3.548" transform="translate(535.909 15476.494)" fill="none" stroke="#79134b" stroke-miterlimit="10" stroke-width="0.71"/>
      <g id="Grupo_2818" data-name="Grupo 2818">
        <path id="Trazado_2710" data-name="Trazado 2710" d="M536.487,15480.806v-8.622l-4.309,4.311Z" fill="#79134b"/>
      </g>
    </g>
    <g id="Grupo_2820" data-name="Grupo 2820" transform="translate(287.943 9628.424)">
      <rect id="Rectángulo_4485" data-name="Rectángulo 4485" width="91.203" height="20.887" rx="8.52" transform="translate(317.931 15633.408)" fill="#c8acd2"/>
      <path id="Trazado_2711" data-name="Trazado 2711" d="M318.944,15649.774a8.5,8.5,0,0,0,7.507,4.521h74.164a8.495,8.495,0,0,0,7.506-4.521Z" fill="#4a245b"/>
    </g>
    <g id="Grupo_2821" data-name="Grupo 2821" transform="translate(287.943 9628.424)">
      <rect id="Rectángulo_4486" data-name="Rectángulo 4486" width="68.493" height="17.339" rx="8.52" transform="translate(459.87 15635.538)" fill="#d3097f"/>
      <path id="Trazado_2712" data-name="Trazado 2712" d="M460.883,15648.355a8.5,8.5,0,0,0,7.507,4.521h51.453a8.5,8.5,0,0,0,7.507-4.521Z" fill="#98145e"/>
    </g>
    <text id="xs:restriction-2" data-name="xs:restriction" transform="translate(615.884 25262.383)" fill="#1d1d1b" font-size="12" font-family="Roboto-Medium, Roboto" font-weight="500"><tspan x="0" y="13">xs:restriction</tspan></text>
    <text id="base-2" data-name="base" transform="translate(770.371 25261.383)" fill="#fff" font-size="12" font-family="Roboto-Medium, Roboto" font-weight="500"><tspan x="0" y="13">base</tspan></text>
    <text id="tns:string" transform="translate(870.245 25264.383)" fill="#1d1d1b" font-size="11.5" font-family="Roboto-Medium, Roboto" font-weight="500"><tspan x="0" y="12">tns:string</tspan></text>
    <g id="Grupo_2823" data-name="Grupo 2823" transform="translate(287.943 9628.424)">
      <line id="Línea_1404" data-name="Línea 1404" x2="0.031" y2="2.129" transform="translate(271.2 15609.017)" fill="none" stroke="#79134b" stroke-miterlimit="10" stroke-width="0.71"/>
      <line id="Línea_1405" data-name="Línea 1405" x2="0.348" y2="23.971" transform="translate(271.294 15615.504)" fill="none" stroke="#79134b" stroke-miterlimit="10" stroke-width="0.71" stroke-dasharray="4.359 4.359"/>
      <path id="Trazado_2713" data-name="Trazado 2713" d="M271.674,15641.654l.031,2.129,2.129-.031" fill="none" stroke="#79134b" stroke-miterlimit="10" stroke-width="0.71"/>
      <line id="Línea_1406" data-name="Línea 1406" y1="0.474" x2="31.998" transform="translate(278.1 15643.215)" fill="none" stroke="#79134b" stroke-miterlimit="10" stroke-width="0.71" stroke-dasharray="4.267 4.267"/>
      <line id="Línea_1407" data-name="Línea 1407" y1="0.031" x2="2.129" transform="translate(312.231 15643.151)" fill="none" stroke="#79134b" stroke-miterlimit="10" stroke-width="0.71"/>
      <g id="Grupo_2822" data-name="Grupo 2822">
        <path id="Trazado_2714" data-name="Trazado 2714" d="M313.718,15638.849l.128,8.621,4.245-4.374Z" fill="#79134b"/>
      </g>
    </g>
    <g id="Grupo_2825" data-name="Grupo 2825" transform="translate(287.943 9628.424)">
      <line id="Línea_1408" data-name="Línea 1408" x1="3.548" transform="translate(459.789 15643.272)" fill="none" stroke="#79134b" stroke-miterlimit="10" stroke-width="0.71"/>
      <line id="Línea_1409" data-name="Línea 1409" x1="33.871" transform="translate(419.759 15643.272)" fill="none" stroke="#79134b" stroke-miterlimit="10" stroke-width="0.71" stroke-dasharray="6.158 6.158"/>
      <line id="Línea_1410" data-name="Línea 1410" x1="3.548" transform="translate(413.131 15643.272)" fill="none" stroke="#79134b" stroke-miterlimit="10" stroke-width="0.71"/>
      <g id="Grupo_2824" data-name="Grupo 2824">
        <path id="Trazado_2715" data-name="Trazado 2715" d="M413.709,15647.584v-8.623l-4.309,4.312Z" fill="#79134b"/>
      </g>
    </g>
    <g id="Grupo_2827" data-name="Grupo 2827" transform="translate(287.943 9628.424)">
      <line id="Línea_1411" data-name="Línea 1411" x1="3.548" transform="translate(574.76 15643.272)" fill="none" stroke="#79134b" stroke-miterlimit="10" stroke-width="0.71"/>
      <line id="Línea_1412" data-name="Línea 1412" x1="24.711" transform="translate(542.988 15643.272)" fill="none" stroke="#79134b" stroke-miterlimit="10" stroke-width="0.71" stroke-dasharray="7.06 7.06"/>
      <line id="Línea_1413" data-name="Línea 1413" x1="3.548" transform="translate(535.909 15643.272)" fill="none" stroke="#79134b" stroke-miterlimit="10" stroke-width="0.71"/>
      <g id="Grupo_2826" data-name="Grupo 2826">
        <path id="Trazado_2716" data-name="Trazado 2716" d="M536.487,15647.584v-8.622l-4.309,4.311Z" fill="#79134b"/>
      </g>
    </g>
    <g id="Grupo_2828" data-name="Grupo 2828" transform="translate(287.943 9628.424)">
      <rect id="Rectángulo_4487" data-name="Rectángulo 4487" width="91.203" height="20.887" rx="8.52" transform="translate(405.933 15679.539)" fill="#c8acd2"/>
      <path id="Trazado_2717" data-name="Trazado 2717" d="M406.946,15695.9a8.5,8.5,0,0,0,7.507,4.521h74.164a8.5,8.5,0,0,0,7.507-4.521Z" fill="#4a245b"/>
    </g>
    <g id="Grupo_2829" data-name="Grupo 2829" transform="translate(287.943 9628.424)">
      <rect id="Rectángulo_4488" data-name="Rectángulo 4488" width="68.493" height="17.339" rx="8.52" transform="translate(547.872 15681.668)" fill="#d3097f"/>
      <path id="Trazado_2718" data-name="Trazado 2718" d="M548.885,15694.485a8.5,8.5,0,0,0,7.507,4.521h51.454a8.5,8.5,0,0,0,7.506-4.521Z" fill="#98145e"/>
    </g>
    <text id="xs:pattern-2" data-name="xs:pattern" transform="translate(712.886 25308.512)" fill="#1d1d1b" font-size="12" font-family="Roboto-Medium, Roboto" font-weight="500"><tspan x="0" y="13">xs:pattern</tspan></text>
    <text id="value-4" data-name="value" transform="translate(854.373 25308.512)" fill="#fff" font-size="12" font-family="Roboto-Medium, Roboto" font-weight="500"><tspan x="0" y="13">value</tspan></text>
    <text id="_A-Z_4_d_6_A-Z0_9_3_" data-name="({A-Z}{4}d{6}{A-Z0_9}{3})?" transform="translate(958.247 25310.512)" fill="#1d1d1b" font-size="11.5" font-family="Roboto-Medium, Roboto" font-weight="500"><tspan x="0" y="12">({A-Z}{4}d{6}{A-Z0_9}{3})?</tspan></text>
    <g id="Grupo_2831" data-name="Grupo 2831" transform="translate(287.943 9628.424)">
      <line id="Línea_1414" data-name="Línea 1414" x2="0.031" y2="2.129" transform="translate(359.202 15655.146)" fill="none" stroke="#79134b" stroke-miterlimit="10" stroke-width="0.71"/>
      <line id="Línea_1415" data-name="Línea 1415" x2="0.348" y2="23.971" transform="translate(359.296 15661.634)" fill="none" stroke="#79134b" stroke-miterlimit="10" stroke-width="0.71" stroke-dasharray="4.359 4.359"/>
      <path id="Trazado_2719" data-name="Trazado 2719" d="M359.676,15687.784l.031,2.129,2.129-.031" fill="none" stroke="#79134b" stroke-miterlimit="10" stroke-width="0.71"/>
      <line id="Línea_1416" data-name="Línea 1416" y1="0.474" x2="31.998" transform="translate(366.102 15689.345)" fill="none" stroke="#79134b" stroke-miterlimit="10" stroke-width="0.71" stroke-dasharray="4.267 4.267"/>
      <line id="Línea_1417" data-name="Línea 1417" y1="0.031" x2="2.129" transform="translate(400.233 15689.281)" fill="none" stroke="#79134b" stroke-miterlimit="10" stroke-width="0.71"/>
      <g id="Grupo_2830" data-name="Grupo 2830">
        <path id="Trazado_2720" data-name="Trazado 2720" d="M401.72,15684.979l.128,8.62,4.245-4.373Z" fill="#79134b"/>
      </g>
    </g>
    <g id="Grupo_2833" data-name="Grupo 2833" transform="translate(287.943 9628.424)">
      <line id="Línea_1418" data-name="Línea 1418" x1="3.548" transform="translate(547.791 15689.402)" fill="none" stroke="#79134b" stroke-miterlimit="10" stroke-width="0.71"/>
      <line id="Línea_1419" data-name="Línea 1419" x1="33.871" transform="translate(507.761 15689.402)" fill="none" stroke="#79134b" stroke-miterlimit="10" stroke-width="0.71" stroke-dasharray="6.158 6.158"/>
      <line id="Línea_1420" data-name="Línea 1420" x1="3.548" transform="translate(501.134 15689.402)" fill="none" stroke="#79134b" stroke-miterlimit="10" stroke-width="0.71"/>
      <g id="Grupo_2832" data-name="Grupo 2832">
        <path id="Trazado_2721" data-name="Trazado 2721" d="M501.712,15693.714v-8.622l-4.309,4.311Z" fill="#79134b"/>
      </g>
    </g>
    <g id="Grupo_2835" data-name="Grupo 2835" transform="translate(287.943 9628.424)">
      <line id="Línea_1421" data-name="Línea 1421" x1="3.548" transform="translate(662.762 15689.403)" fill="none" stroke="#79134b" stroke-miterlimit="10" stroke-width="0.71"/>
      <line id="Línea_1422" data-name="Línea 1422" x1="24.711" transform="translate(630.99 15689.403)" fill="none" stroke="#79134b" stroke-miterlimit="10" stroke-width="0.71" stroke-dasharray="7.06 7.06"/>
      <line id="Línea_1423" data-name="Línea 1423" x1="3.548" transform="translate(623.912 15689.403)" fill="none" stroke="#79134b" stroke-miterlimit="10" stroke-width="0.71"/>
      <g id="Grupo_2834" data-name="Grupo 2834">
        <path id="Trazado_2722" data-name="Trazado 2722" d="M624.49,15693.715v-8.623l-4.309,4.312Z" fill="#79134b"/>
      </g>
    </g>
    <g id="Grupo_2837" data-name="Grupo 2837" transform="translate(287.943 9628.424)">
      <line id="Línea_1424" data-name="Línea 1424" x1="3.548" transform="translate(486.758 15502.752)" fill="none" stroke="#79134b" stroke-miterlimit="10" stroke-width="0.71"/>
      <line id="Línea_1425" data-name="Línea 1425" x1="19.247" transform="translate(462.011 15502.752)" fill="none" stroke="#79134b" stroke-miterlimit="10" stroke-width="0.71" stroke-dasharray="5.499 5.499"/>
      <line id="Línea_1426" data-name="Línea 1426" x1="3.548" transform="translate(455.713 15502.752)" fill="none" stroke="#79134b" stroke-miterlimit="10" stroke-width="0.71"/>
      <g id="Grupo_2836" data-name="Grupo 2836">
        <path id="Trazado_2723" data-name="Trazado 2723" d="M456.291,15507.063v-8.622l-4.309,4.311Z" fill="#79134b"/>
      </g>
    </g>
    <g id="Grupo_2839" data-name="Grupo 2839" transform="translate(287.943 9628.424)">
      <line id="Línea_1427" data-name="Línea 1427" x1="3.548" transform="translate(684.061 15502.76)" fill="none" stroke="#79134b" stroke-miterlimit="10" stroke-width="0.71"/>
      <line id="Línea_1428" data-name="Línea 1428" x1="104.659" transform="translate(572.649 15502.76)" fill="none" stroke="#79134b" stroke-miterlimit="10" stroke-width="0.71" stroke-dasharray="6.752 6.752"/>
      <line id="Línea_1429" data-name="Línea 1429" x1="3.548" transform="translate(565.725 15502.76)" fill="none" stroke="#79134b" stroke-miterlimit="10" stroke-width="0.71"/>
      <g id="Grupo_2838" data-name="Grupo 2838">
        <path id="Trazado_2724" data-name="Trazado 2724" d="M566.3,15507.07v-8.622l-4.309,4.311Z" fill="#79134b"/>
      </g>
    </g>
    <g id="Grupo_2841" data-name="Grupo 2841" transform="translate(287.943 9628.424)">
      <line id="Línea_1430" data-name="Línea 1430" x2="0.031" y2="2.129" transform="translate(331.142 15504.038)" fill="none" stroke="#79134b" stroke-miterlimit="10" stroke-width="0.71"/>
      <line id="Línea_1431" data-name="Línea 1431" x2="0.206" y2="14.194" transform="translate(331.232 15510.222)" fill="none" stroke="#79134b" stroke-miterlimit="10" stroke-width="0.71" stroke-dasharray="4.056 4.056"/>
      <path id="Trazado_2725" data-name="Trazado 2725" d="M331.468,15526.444l.031,2.129,2.129-.032" fill="none" stroke="#79134b" stroke-miterlimit="10" stroke-width="0.71"/>
      <line id="Línea_1432" data-name="Línea 1432" y1="0.219" x2="14.75" transform="translate(337.842 15528.26)" fill="none" stroke="#79134b" stroke-miterlimit="10" stroke-width="0.71" stroke-dasharray="4.215 4.215"/>
      <line id="Línea_1433" data-name="Línea 1433" y1="0.032" x2="2.129" transform="translate(354.699 15528.197)" fill="none" stroke="#79134b" stroke-miterlimit="10" stroke-width="0.71"/>
      <g id="Grupo_2840" data-name="Grupo 2840">
        <path id="Trazado_2726" data-name="Trazado 2726" d="M356.186,15523.895l.128,8.621,4.245-4.374Z" fill="#79134b"/>
      </g>
    </g>
    <g id="Grupo_2843" data-name="Grupo 2843" transform="translate(287.943 9628.424)">
      <line id="Línea_1434" data-name="Línea 1434" x2="0.031" y2="2.129" transform="translate(331.184 15528.866)" fill="none" stroke="#79134b" stroke-miterlimit="10" stroke-width="0.71"/>
      <line id="Línea_1435" data-name="Línea 1435" x2="0.177" y2="12.215" transform="translate(331.265 15534.485)" fill="none" stroke="#79134b" stroke-miterlimit="10" stroke-width="0.71" stroke-dasharray="3.49 3.49"/>
      <path id="Trazado_2727" data-name="Trazado 2727" d="M331.468,15548.444l.031,2.129,2.129-.031" fill="none" stroke="#79134b" stroke-miterlimit="10" stroke-width="0.71"/>
      <line id="Línea_1436" data-name="Línea 1436" y1="0.219" x2="14.75" transform="translate(337.842 15550.261)" fill="none" stroke="#79134b" stroke-miterlimit="10" stroke-width="0.71" stroke-dasharray="4.215 4.215"/>
      <line id="Línea_1437" data-name="Línea 1437" y1="0.032" x2="2.129" transform="translate(354.699 15550.198)" fill="none" stroke="#79134b" stroke-miterlimit="10" stroke-width="0.71"/>
      <g id="Grupo_2842" data-name="Grupo 2842">
        <path id="Trazado_2728" data-name="Trazado 2728" d="M356.186,15545.9l.128,8.622,4.245-4.374Z" fill="#79134b"/>
      </g>
    </g>
    <g id="Grupo_2845" data-name="Grupo 2845" transform="translate(287.943 9628.424)">
      <line id="Línea_1438" data-name="Línea 1438" x1="3.548" transform="translate(486.758 15527.591)" fill="none" stroke="#79134b" stroke-miterlimit="10" stroke-width="0.71"/>
      <line id="Línea_1439" data-name="Línea 1439" x1="19.247" transform="translate(462.011 15527.591)" fill="none" stroke="#79134b" stroke-miterlimit="10" stroke-width="0.71" stroke-dasharray="5.499 5.499"/>
      <line id="Línea_1440" data-name="Línea 1440" x1="3.548" transform="translate(455.713 15527.591)" fill="none" stroke="#79134b" stroke-miterlimit="10" stroke-width="0.71"/>
      <g id="Grupo_2844" data-name="Grupo 2844">
        <path id="Trazado_2729" data-name="Trazado 2729" d="M456.291,15531.9v-8.622l-4.309,4.311Z" fill="#79134b"/>
      </g>
    </g>
    <g id="Grupo_2847" data-name="Grupo 2847" transform="translate(287.943 9628.424)">
      <line id="Línea_1441" data-name="Línea 1441" x1="3.548" transform="translate(684.061 15527.599)" fill="none" stroke="#79134b" stroke-miterlimit="10" stroke-width="0.71"/>
      <line id="Línea_1442" data-name="Línea 1442" x1="104.659" transform="translate(572.649 15527.599)" fill="none" stroke="#79134b" stroke-miterlimit="10" stroke-width="0.71" stroke-dasharray="6.752 6.752"/>
      <line id="Línea_1443" data-name="Línea 1443" x1="3.548" transform="translate(565.725 15527.599)" fill="none" stroke="#79134b" stroke-miterlimit="10" stroke-width="0.71"/>
      <g id="Grupo_2846" data-name="Grupo 2846">
        <path id="Trazado_2730" data-name="Trazado 2730" d="M566.3,15531.91v-8.622l-4.309,4.311Z" fill="#79134b"/>
      </g>
    </g>
    <g id="Grupo_2849" data-name="Grupo 2849" transform="translate(287.943 9628.424)">
      <line id="Línea_1444" data-name="Línea 1444" x1="3.548" transform="translate(486.758 15550.301)" fill="none" stroke="#79134b" stroke-miterlimit="10" stroke-width="0.71"/>
      <line id="Línea_1445" data-name="Línea 1445" x1="19.247" transform="translate(462.011 15550.301)" fill="none" stroke="#79134b" stroke-miterlimit="10" stroke-width="0.71" stroke-dasharray="5.499 5.499"/>
      <line id="Línea_1446" data-name="Línea 1446" x1="3.548" transform="translate(455.713 15550.301)" fill="none" stroke="#79134b" stroke-miterlimit="10" stroke-width="0.71"/>
      <g id="Grupo_2848" data-name="Grupo 2848">
        <path id="Trazado_2731" data-name="Trazado 2731" d="M456.291,15554.612v-8.622l-4.309,4.311Z" fill="#79134b"/>
      </g>
    </g>
    <g id="Grupo_2851" data-name="Grupo 2851" transform="translate(287.943 9628.424)">
      <line id="Línea_1447" data-name="Línea 1447" x1="3.548" transform="translate(684.061 15550.309)" fill="none" stroke="#79134b" stroke-miterlimit="10" stroke-width="0.71"/>
      <line id="Línea_1448" data-name="Línea 1448" x1="104.659" transform="translate(572.649 15550.309)" fill="none" stroke="#79134b" stroke-miterlimit="10" stroke-width="0.71" stroke-dasharray="6.752 6.752"/>
      <line id="Línea_1449" data-name="Línea 1449" x1="3.548" transform="translate(565.725 15550.309)" fill="none" stroke="#79134b" stroke-miterlimit="10" stroke-width="0.71"/>
      <g id="Grupo_2850" data-name="Grupo 2850">
        <path id="Trazado_2732" data-name="Trazado 2732" d="M566.3,15554.62V15546l-4.309,4.311Z" fill="#79134b"/>
      </g>
    </g>
    <g id="Grupo_2852" data-name="Grupo 2852" transform="translate(287.943 9628.424)">
      <rect id="Rectángulo_4489" data-name="Rectángulo 4489" width="91.203" height="20.887" rx="8.52" transform="translate(166.057 15299.853)" fill="#c8acd2"/>
      <path id="Trazado_2733" data-name="Trazado 2733" d="M167.07,15316.218a8.495,8.495,0,0,0,7.506,4.521H248.74a8.5,8.5,0,0,0,7.507-4.521Z" fill="#4a245b"/>
    </g>
    <g id="Grupo_2853" data-name="Grupo 2853" transform="translate(287.943 9628.424)">
      <rect id="Rectángulo_4490" data-name="Rectángulo 4490" width="68.493" height="17.339" rx="8.52" transform="translate(346.319 15279.98)" fill="#d3097f"/>
      <path id="Trazado_2734" data-name="Trazado 2734" d="M347.332,15292.8a8.5,8.5,0,0,0,7.507,4.521h51.453a8.5,8.5,0,0,0,7.507-4.521Z" fill="#98145e"/>
    </g>
    <g id="Grupo_2854" data-name="Grupo 2854" transform="translate(287.943 9628.424)">
      <rect id="Rectángulo_4491" data-name="Rectángulo 4491" width="68.493" height="17.339" rx="8.52" transform="translate(346.319 15302.69)" fill="#d3097f"/>
      <path id="Trazado_2735" data-name="Trazado 2735" d="M347.332,15315.508a8.5,8.5,0,0,0,7.507,4.522h51.453a8.5,8.5,0,0,0,7.507-4.522Z" fill="#98145e"/>
    </g>
    <g id="Grupo_2855" data-name="Grupo 2855" transform="translate(287.943 9628.424)">
      <rect id="Rectángulo_4492" data-name="Rectángulo 4492" width="136.624" height="17.339" rx="8.52" transform="translate(346.319 15326.82)" fill="#d3097f"/>
      <path id="Trazado_2736" data-name="Trazado 2736" d="M347.332,15339.638a8.5,8.5,0,0,0,7.507,4.521H474.423a8.5,8.5,0,0,0,7.507-4.521Z" fill="#98145e"/>
    </g>
    <text id="xs:schema" transform="translate(468.815 24928.535)" fill="#1d1d1b" font-size="12" font-family="Roboto-Medium, Roboto" font-weight="500"><tspan x="0" y="13">xs:schema</tspan></text>
    <text id="xmlns:tns" transform="translate(641.594 24929.535)" fill="#fff" font-size="12" font-family="Roboto-Medium, Roboto" font-weight="500"><tspan x="0" y="13">xmlns:tns</tspan></text>
    <text id="schetargetNamespace" transform="translate(641.594 24953.246)" fill="#fff" font-size="12" font-family="Roboto-Medium, Roboto" font-weight="500"><tspan x="0" y="13">schetargetNamespace</tspan></text>
    <text id="xmlns:xs" transform="translate(641.594 24906.824)" fill="#fff" font-size="12" font-family="Roboto-Medium, Roboto" font-weight="500"><tspan x="0" y="13">xmlns:xs</tspan></text>
    <text id="http:_www.w3.org_2001_XMLSchema" data-name="http://www.w3.org/2001/XMLSchema" transform="translate(831.906 24908.988)" fill="#1d1d1b" font-size="11.5" font-family="Roboto-MediumItalic, Roboto" font-weight="500" font-style="italic"><tspan x="0" y="12">http://www.w3.org/2001/XMLSchema</tspan></text>
    <text id="_rootArtifacdd_-exposicion-_version_ws_comunes_" data-name="/${rootArtifacdd}-exposicion-${version}/ws/comunes/" transform="translate(831.906 24931.697)" fill="#1d1d1b" font-size="11.5" font-family="Roboto-MediumItalic, Roboto" font-weight="500" font-style="italic"><tspan x="0" y="12">/${rootArtifacdd}-exposicion-${version}/ws/</tspan><tspan x="0" y="24.144">comunes/</tspan></text>
    <text id="_rootArtifacdd_-exposicion-_version_ws_business_" data-name="/${rootArtifacdd}-exposicion-${version}/ws/business/" transform="translate(831.906 24955.117)" fill="#1d1d1b" font-size="11.5" font-family="Roboto-MediumItalic, Roboto" font-weight="500" font-style="italic"><tspan x="0" y="12">/${rootArtifacdd}-exposicion-${version}/ws/</tspan><tspan x="0" y="24.144">business/</tspan></text>
    <g id="Grupo_2857" data-name="Grupo 2857" transform="translate(287.943 9628.424)">
      <line id="Línea_1450" data-name="Línea 1450" x1="3.548" transform="translate(342.693 15309.719)" fill="none" stroke="#79134b" stroke-miterlimit="10" stroke-width="0.71"/>
      <line id="Línea_1451" data-name="Línea 1451" x1="66.037" transform="translate(269.704 15309.719)" fill="none" stroke="#79134b" stroke-miterlimit="10" stroke-width="0.71" stroke-dasharray="6.951 6.951"/>
      <line id="Línea_1452" data-name="Línea 1452" x1="3.548" transform="translate(262.68 15309.719)" fill="none" stroke="#79134b" stroke-miterlimit="10" stroke-width="0.71"/>
      <g id="Grupo_2856" data-name="Grupo 2856">
        <path id="Trazado_2737" data-name="Trazado 2737" d="M263.258,15314.03v-8.622l-4.309,4.311Z" fill="#79134b"/>
      </g>
    </g>
    <g id="Grupo_2859" data-name="Grupo 2859" transform="translate(287.943 9628.424)">
      <line id="Línea_1453" data-name="Línea 1453" x1="3.548" transform="translate(537.148 15309.719)" fill="none" stroke="#79134b" stroke-miterlimit="10" stroke-width="0.71"/>
      <line id="Línea_1454" data-name="Línea 1454" x1="104.659" transform="translate(425.737 15309.719)" fill="none" stroke="#79134b" stroke-miterlimit="10" stroke-width="0.71" stroke-dasharray="6.752 6.752"/>
      <line id="Línea_1455" data-name="Línea 1455" x1="3.548" transform="translate(418.812 15309.719)" fill="none" stroke="#79134b" stroke-miterlimit="10" stroke-width="0.71"/>
      <g id="Grupo_2858" data-name="Grupo 2858">
        <path id="Trazado_2738" data-name="Trazado 2738" d="M419.39,15314.029v-8.622l-4.309,4.311Z" fill="#79134b"/>
      </g>
    </g>
    <g id="Grupo_2861" data-name="Grupo 2861" transform="translate(287.943 9628.424)">
      <line id="Línea_1456" data-name="Línea 1456" x1="3.548" transform="translate(537.145 15334.556)" fill="none" stroke="#79134b" stroke-miterlimit="10" stroke-width="0.71"/>
      <line id="Línea_1457" data-name="Línea 1457" x1="36.66" transform="translate(493.82 15334.556)" fill="none" stroke="#79134b" stroke-miterlimit="10" stroke-width="0.71" stroke-dasharray="6.665 6.665"/>
      <line id="Línea_1458" data-name="Línea 1458" x1="3.548" transform="translate(486.939 15334.556)" fill="none" stroke="#79134b" stroke-miterlimit="10" stroke-width="0.71"/>
      <g id="Grupo_2860" data-name="Grupo 2860">
        <path id="Trazado_2739" data-name="Trazado 2739" d="M487.517,15338.867v-8.622l-4.309,4.311Z" fill="#79134b"/>
      </g>
    </g>
    <g id="Grupo_2863" data-name="Grupo 2863" transform="translate(287.943 9628.424)">
      <line id="Línea_1459" data-name="Línea 1459" x1="3.548" transform="translate(538.567 15287.008)" fill="none" stroke="#79134b" stroke-miterlimit="10" stroke-width="0.71"/>
      <line id="Línea_1460" data-name="Línea 1460" x1="104.659" transform="translate(427.156 15287.008)" fill="none" stroke="#79134b" stroke-miterlimit="10" stroke-width="0.71" stroke-dasharray="6.752 6.752"/>
      <line id="Línea_1461" data-name="Línea 1461" x1="3.548" transform="translate(420.232 15287.008)" fill="none" stroke="#79134b" stroke-miterlimit="10" stroke-width="0.71"/>
      <g id="Grupo_2862" data-name="Grupo 2862">
        <path id="Trazado_2740" data-name="Trazado 2740" d="M420.81,15291.319v-8.622l-4.309,4.311Z" fill="#79134b"/>
      </g>
    </g>
    <path id="Trazado_2741" data-name="Trazado 2741" d="M346.05,15287.255h-51.1v48.366H345.34" transform="translate(287.943 9628.424)" fill="none" stroke="#79134b" stroke-miterlimit="10" stroke-width="0.71" stroke-dasharray="7.097"/>
  </g>
</svg>
