<svg xmlns="http://www.w3.org/2000/svg" xmlns:xlink="http://www.w3.org/1999/xlink" width="698" height="564" viewBox="0 0 698 564">
  <defs>
    <filter id="Rectángulo_4377" x="0" y="0" width="698" height="564" filterUnits="userSpaceOnUse">
      <feOffset input="SourceAlpha"/>
      <feGaussianBlur stdDeviation="3" result="blur"/>
      <feFlood flood-opacity="0.102"/>
      <feComposite operator="in" in2="blur"/>
      <feComposite in="SourceGraphic"/>
    </filter>
  </defs>
  <g id="Grupo_2968" data-name="Grupo 2968" transform="translate(-424 -21292)">
    <g transform="matrix(1, 0, 0, 1, 424, 21292)" filter="url(#Rectángulo_4377)">
      <rect id="Rectángulo_4377-2" data-name="Rectángulo 4377" width="680" height="546" transform="translate(9 9)" fill="#fff"/>
    </g>
    <text id="_xs_:_schema_xmlns_:xs_http:_www.w3.org_2001_XMLSchema_xmln:hr_http:_mycompany.com_hr_schemas_elementFormDefault_qualified_targetNamespace_http:_mycompany.com_hr_schemas_xs:element_name_HolidayRequest_xs:complexType_" data-name="&lt;xs : schema xmlns :xs=”http://www.w3.org/2001/XMLSchema”	
				xmln:hr=”http://mycompany.com/hr/schemas”
				elementFormDefault=”qualified”
				targetNamespace=”http://mycompany.com/hr/schemas”&gt;
			&lt;xs:element name=”HolidayRequest”&gt;
				&lt;xs:complexType&gt;
		" transform="translate(462 21347)" fill="#3f99a0" font-size="13.5" font-family="Monaco"><tspan x="0" y="14" fill="#3f99a0">&lt;xs : schema</tspan><tspan y="14" fill="#000"> </tspan><tspan y="14" fill="#5d2e73">xmlns :xs</tspan><tspan y="14" fill="#000">=</tspan><tspan y="14" fill="#26595d">”http://www.w3.org/2001/XMLSchema”	</tspan><tspan x="0" y="32" xml:space="preserve" fill="#000">				</tspan><tspan y="32" fill="#5d2e73">xmln:hr</tspan><tspan y="32" fill="#000">=</tspan><tspan y="32" fill="#26595d">”http://mycompany.com/hr/schemas”</tspan><tspan x="0" y="50" xml:space="preserve" fill="#000">				</tspan><tspan y="50" fill="#5d2e73">elementFormDefault</tspan><tspan y="50" fill="#000">=</tspan><tspan y="50" fill="#26595d">”qualified”</tspan><tspan x="0" y="68" xml:space="preserve" fill="#000">				</tspan><tspan y="68" fill="#5d2e73">targetNamespace</tspan><tspan y="68" fill="#000">=</tspan><tspan y="68" fill="#26595d">”http://mycompany.com/hr/schemas”</tspan><tspan y="68" fill="#3f99a0">&gt;</tspan><tspan x="0" y="86" xml:space="preserve" fill="#000">			</tspan><tspan y="86" fill="#3f99a0">&lt;xs:element</tspan><tspan y="86" fill="#000"> </tspan><tspan y="86" fill="#5d2e73">name</tspan><tspan y="86" fill="#000">=</tspan><tspan y="86" fill="#26595d">”HolidayRequest”</tspan><tspan y="86" fill="#3f99a0">&gt;</tspan><tspan x="0" y="104" xml:space="preserve" fill="#000">				</tspan><tspan y="104" fill="#3f99a0">&lt;xs:complexType&gt;</tspan><tspan x="0" y="122" xml:space="preserve">					&lt;xs:all&gt;</tspan><tspan x="0" y="140" xml:space="preserve" fill="#3f99a0">						&lt;xs:element</tspan><tspan y="140" fill="#000"> </tspan><tspan y="140" fill="#5d2e73">name</tspan><tspan y="140" fill="#000">=</tspan><tspan y="140" fill="#26595d">”Holiday”</tspan><tspan y="140" fill="#000"> </tspan><tspan y="140" fill="#5d2e73">type</tspan><tspan y="140" fill="#000">=</tspan><tspan y="140" fill="#26595d">”hr:HolidayType”</tspan><tspan y="140" fill="#3f99a0">/&gt;</tspan><tspan x="0" y="158" xml:space="preserve" fill="#000">						</tspan><tspan y="158" fill="#3f99a0">&lt;xs:element</tspan><tspan y="158" fill="#000"> </tspan><tspan y="158" fill="#5d2e73">name</tspan><tspan y="158" fill="#000">=</tspan><tspan y="158" fill="#26595d">”Employee”</tspan><tspan y="158" fill="#000"> </tspan><tspan y="158" fill="#5d2e73">type</tspan><tspan y="158" fill="#000">=</tspan><tspan y="158" fill="#26595d">”hr:EmployeeType”</tspan><tspan y="158" fill="#3f99a0">/&gt;</tspan><tspan x="0" y="176" xml:space="preserve" fill="#000">					</tspan><tspan y="176" fill="#3f99a0">&lt;/xs:all&gt;</tspan><tspan x="0" y="194" xml:space="preserve">				&lt;/xs:complexType&gt;</tspan><tspan x="0" y="212" xml:space="preserve">			&lt;/xs:element&gt;</tspan><tspan x="0" y="230" xml:space="preserve" fill="#3f99a0">			&lt;xs:complexType</tspan><tspan y="230" fill="#000"> </tspan><tspan y="230" fill="#5d2e73">name</tspan><tspan y="230" fill="#000">=</tspan><tspan y="230" fill="#26595d">”HolidayType”</tspan><tspan y="230" fill="#3f99a0">&gt;</tspan><tspan x="0" y="248" xml:space="preserve" fill="#000">				</tspan><tspan y="248" fill="#3f99a0">&lt;xs:sequence&gt;</tspan><tspan x="0" y="266" xml:space="preserve" fill="#3f99a0">					&lt;xs:element</tspan><tspan y="266" fill="#000"> </tspan><tspan y="266" fill="#5d2e73">name</tspan><tspan y="266" fill="#000">=</tspan><tspan y="266" fill="#26595d">”StartDate”</tspan><tspan y="266" fill="#000"> </tspan><tspan y="266" fill="#5d2e73">type</tspan><tspan y="266" fill="#000">=</tspan><tspan y="266" fill="#26595d">”xs:date”</tspan><tspan y="266" fill="#3f99a0">/&gt;</tspan><tspan x="0" y="284" xml:space="preserve" fill="#000">					</tspan><tspan y="284" fill="#3f99a0">&lt;xs:element</tspan><tspan y="284" fill="#000"> </tspan><tspan y="284" fill="#5d2e73">name</tspan><tspan y="284" fill="#000">=</tspan><tspan y="284" fill="#26595d">”EndDate”</tspan><tspan y="284" fill="#000"> </tspan><tspan y="284" fill="#5d2e73">type</tspan><tspan y="284" fill="#000">=</tspan><tspan y="284" fill="#26595d">”xs:date”</tspan><tspan y="284" fill="#3f99a0">/&gt;</tspan><tspan x="0" y="302" xml:space="preserve" fill="#000">				</tspan><tspan y="302" fill="#3f99a0">&lt;/xs:sequence&gt;</tspan><tspan x="0" y="320" xml:space="preserve">			&lt;/xs:complexType&gt;</tspan><tspan x="0" y="338" xml:space="preserve" fill="#3f99a0">			&lt;xs:complexType</tspan><tspan y="338" fill="#000"> </tspan><tspan y="338" fill="#5d2e73">name</tspan><tspan y="338" fill="#000">=</tspan><tspan y="338" fill="#26595d">”EmployeeType”</tspan><tspan y="338" fill="#3f99a0">&gt;</tspan><tspan x="0" y="356" xml:space="preserve" fill="#000">				</tspan><tspan y="356" fill="#3f99a0">&lt;xs:sequence&gt;</tspan><tspan x="0" y="374" xml:space="preserve" fill="#000">					</tspan><tspan y="374" fill="#3f99a0">&lt;xs:element</tspan><tspan y="374" fill="#000"> </tspan><tspan y="374" fill="#5d2e73">name</tspan><tspan y="374" fill="#000">=</tspan><tspan y="374" fill="#26595d">”Number”</tspan><tspan y="374" fill="#000"> </tspan><tspan y="374" fill="#5d2e73">type</tspan><tspan y="374" fill="#000">=</tspan><tspan y="374" fill="#26595d">”xs:integer”</tspan><tspan y="374" fill="#3f99a0">/&gt;</tspan><tspan x="0" y="392" xml:space="preserve" fill="#000">					</tspan><tspan y="392" fill="#3f99a0">&lt;xs:element</tspan><tspan y="392" fill="#000"> </tspan><tspan y="392" fill="#5d2e73">name</tspan><tspan y="392" fill="#000">=</tspan><tspan y="392" fill="#26595d">”FirstName”</tspan><tspan y="392" fill="#000"> </tspan><tspan y="392" fill="#5d2e73">type</tspan><tspan y="392" fill="#000">=</tspan><tspan y="392" fill="#26595d">”xs:string”</tspan><tspan y="392" fill="#3f99a0">/&gt;</tspan><tspan x="0" y="410" xml:space="preserve" fill="#000">					</tspan><tspan y="410" fill="#3f99a0">&lt;xs:element</tspan><tspan y="410" fill="#000"> </tspan><tspan y="410" fill="#5d2e73">name</tspan><tspan y="410" fill="#000">=</tspan><tspan y="410" fill="#26595d">”LastName”</tspan><tspan y="410" fill="#000"> </tspan><tspan y="410" fill="#5d2e73">type</tspan><tspan y="410" fill="#000">=</tspan><tspan y="410" fill="#26595d">”xs:string”</tspan><tspan y="410" fill="#3f99a0">/&gt;</tspan><tspan x="0" y="428" xml:space="preserve" fill="#000">				</tspan><tspan y="428" fill="#3f99a0">&lt;/xs:sequence&gt;</tspan><tspan x="0" y="446" xml:space="preserve">			&lt;/xs:complexType&gt;</tspan><tspan x="0" y="464" xml:space="preserve">		&lt;/xs:schema&gt;</tspan></text>
    <g id="Grupo_2449" data-name="Grupo 2449" transform="translate(1047.018 21470.285)">
      <circle id="Elipse_327" data-name="Elipse 327" cx="8.932" cy="8.932" r="8.932" stroke="#000" stroke-miterlimit="10" stroke-width="0.675"/>
      <path id="Trazado_2415" data-name="Trazado 2415" d="M749.765,9897.918v-5.963a7.185,7.185,0,0,1-.813.564,6.3,6.3,0,0,1-1.08.477v-.837a6.563,6.563,0,0,0,1.893-1.2h.926v6.96h1.859v.772h-4.678v-.772Z" transform="translate(-741.279 -9885.893)" fill="#fff" stroke="#fff" stroke-miterlimit="10" stroke-width="0.675"/>
    </g>
    <g id="Grupo_2450" data-name="Grupo 2450" transform="translate(1061.876 21489.195)">
      <circle id="Elipse_328" data-name="Elipse 328" cx="8.932" cy="8.932" r="8.932" stroke="#000" stroke-miterlimit="10" stroke-width="0.675"/>
      <path id="Trazado_2416" data-name="Trazado 2416" d="M764.622,9916.827v-5.963a7.139,7.139,0,0,1-.812.564,6.209,6.209,0,0,1-1.081.477v-.837a6.513,6.513,0,0,0,1.893-1.2h.927v6.959h1.858v.771h-4.678v-.771Z" transform="translate(-756.136 -9904.802)" fill="#fff" stroke="#fff" stroke-miterlimit="10" stroke-width="0.675"/>
    </g>
    <g id="Grupo_2451" data-name="Grupo 2451" transform="translate(975.133 21603.359)">
      <circle id="Elipse_329" data-name="Elipse 329" cx="8.932" cy="8.932" r="8.932" stroke="#000" stroke-miterlimit="10" stroke-width="0.675"/>
      <path id="Trazado_2417" data-name="Trazado 2417" d="M683.665,10021.878h-4.678v-.852a2.082,2.082,0,0,1,.135-.7,3.031,3.031,0,0,1,.512-.846q.38-.467.8-.9l.527-.538q.159-.164.7-.762a5.462,5.462,0,0,0,.708-.916,1.316,1.316,0,0,0,.172-.628.876.876,0,0,0-.4-.77,1.547,1.547,0,0,0-.9-.271,3.549,3.549,0,0,0-.635.064,4.565,4.565,0,0,0-.614.152q-.264.086-.855.355v-.821a4.94,4.94,0,0,1,1.257-.411,6.131,6.131,0,0,1,1.039-.112,3.024,3.024,0,0,1,1.109.2,1.46,1.46,0,0,1,.752.609,1.7,1.7,0,0,1,.246.882,2.128,2.128,0,0,1-.318,1.071,7.528,7.528,0,0,1-1.193,1.41l-.568.563-.478.469a5.645,5.645,0,0,0-.731.886,2.018,2.018,0,0,0-.308,1.021h3.716Z" transform="translate(-672.394 -10008.967)" fill="#fff" stroke="#fff" stroke-miterlimit="10" stroke-width="0.675"/>
    </g>
    <g id="Grupo_2452" data-name="Grupo 2452" transform="translate(957.574 21622.27)">
      <circle id="Elipse_330" data-name="Elipse 330" cx="8.932" cy="8.932" r="8.932" stroke="#000" stroke-miterlimit="10" stroke-width="0.675"/>
      <path id="Trazado_2418" data-name="Trazado 2418" d="M666.106,10040.788h-4.678v-.853a2.092,2.092,0,0,1,.135-.7,3,3,0,0,1,.513-.845q.378-.467.8-.9l.527-.538q.159-.164.7-.763a5.342,5.342,0,0,0,.708-.917,1.307,1.307,0,0,0,.172-.627.878.878,0,0,0-.4-.77,1.555,1.555,0,0,0-.895-.272,3.558,3.558,0,0,0-.635.065,4.761,4.761,0,0,0-.614.152c-.175.059-.461.177-.855.355v-.821a4.914,4.914,0,0,1,1.257-.411,6.232,6.232,0,0,1,1.039-.112,3.023,3.023,0,0,1,1.109.2,1.456,1.456,0,0,1,.752.609,1.7,1.7,0,0,1,.246.882,2.125,2.125,0,0,1-.317,1.071,7.521,7.521,0,0,1-1.194,1.41l-.568.563-.478.469a5.7,5.7,0,0,0-.731.887,2.024,2.024,0,0,0-.308,1.021h3.716Z" transform="translate(-654.835 -10027.876)" fill="#fff" stroke="#fff" stroke-miterlimit="10" stroke-width="0.675"/>
    </g>
    <g id="Grupo_2453" data-name="Grupo 2453" transform="translate(990.445 21727.684)">
      <circle id="Elipse_331" data-name="Elipse 331" cx="8.932" cy="8.932" r="8.932" stroke="#000" stroke-miterlimit="10" stroke-width="0.675"/>
      <path id="Trazado_2419" data-name="Trazado 2419" d="M703.262,10139.946v-.977a4.52,4.52,0,0,0,1.978.578,1.79,1.79,0,0,0,1.267-.466,1.563,1.563,0,0,0,.5-1.2,1.5,1.5,0,0,0-.55-1.2,2.939,2.939,0,0,0-1.871-.463h-.513v-.772h.713a1.922,1.922,0,0,0,1.4-.436,1.347,1.347,0,0,0,.434-.969,1.075,1.075,0,0,0-.354-.814,1.539,1.539,0,0,0-1.086-.331,4.051,4.051,0,0,0-1.769.463v-.883a5.023,5.023,0,0,1,1.734-.353,2.664,2.664,0,0,1,1.945.556,1.775,1.775,0,0,1,.536,1.268,1.875,1.875,0,0,1-.284.992,2.384,2.384,0,0,1-1.046.825,2.859,2.859,0,0,1,1.016.489,1.916,1.916,0,0,1,.521.682,2.153,2.153,0,0,1,.177.883,2.285,2.285,0,0,1-.8,1.793,3.036,3.036,0,0,1-2.08.708,6.582,6.582,0,0,1-.8-.056A4.236,4.236,0,0,1,703.262,10139.946Z" transform="translate(-696.706 -10127.291)" fill="#fff" stroke="#fff" stroke-miterlimit="10" stroke-width="0.675"/>
    </g>
    <g id="Grupo_2454" data-name="Grupo 2454" transform="translate(978.289 21745.918)">
      <circle id="Elipse_332" data-name="Elipse 332" cx="8.932" cy="8.932" r="8.932" stroke="#000" stroke-miterlimit="10" stroke-width="0.675"/>
      <path id="Trazado_2420" data-name="Trazado 2420" d="M691.106,10158.18v-.976a4.533,4.533,0,0,0,1.977.578,1.787,1.787,0,0,0,1.268-.466,1.563,1.563,0,0,0,.5-1.2,1.493,1.493,0,0,0-.551-1.2,2.934,2.934,0,0,0-1.87-.463h-.513v-.772h.712a1.923,1.923,0,0,0,1.4-.436,1.346,1.346,0,0,0,.433-.969,1.07,1.07,0,0,0-.354-.814,1.54,1.54,0,0,0-1.085-.332,4.05,4.05,0,0,0-1.769.464v-.882a4.981,4.981,0,0,1,1.734-.354,2.665,2.665,0,0,1,1.945.556,1.776,1.776,0,0,1,.536,1.267,1.86,1.86,0,0,1-.285.992,2.375,2.375,0,0,1-1.045.826,2.867,2.867,0,0,1,1.016.489,1.919,1.919,0,0,1,.521.682,2.144,2.144,0,0,1,.176.882,2.282,2.282,0,0,1-.8,1.793,3.031,3.031,0,0,1-2.08.708,6.382,6.382,0,0,1-.8-.055A4.164,4.164,0,0,1,691.106,10158.18Z" transform="translate(-684.55 -10145.524)" fill="#fff" stroke="#fff" stroke-miterlimit="10" stroke-width="0.675"/>
    </g>
  </g>
</svg>
