<svg xmlns="http://www.w3.org/2000/svg" xmlns:xlink="http://www.w3.org/1999/xlink" width="367.349" height="79.349" viewBox="0 0 367.349 79.349">
  <defs>
    <filter id="Rectángulo_3458" x="0" y="0" width="367.349" height="79.349" filterUnits="userSpaceOnUse">
      <feOffset dy="1.225" input="SourceAlpha"/>
      <feGaussianBlur stdDeviation="1.225" result="blur"/>
      <feFlood flood-opacity="0.2"/>
      <feComposite operator="in" in2="blur"/>
      <feComposite in="SourceGraphic"/>
    </filter>
  </defs>
  <g id="Grupo_2576" data-name="Grupo 2576" transform="translate(-584.326 -2352.193)">
    <g id="Grupo_2572" data-name="Grupo 2572">
      <g transform="matrix(1, 0, 0, 1, 584.33, 2352.19)" filter="url(#Rectángulo_3458)">
        <rect id="Rectángulo_3458-2" data-name="Rectángulo 3458" width="360" height="72" transform="translate(3.67 2.45)" fill="#fff"/>
      </g>
      <line id="Línea_629" data-name="Línea 629" x2="120.246" transform="translate(588 2425.39)" fill="none" stroke="#d5007f" stroke-miterlimit="10" stroke-width="3"/>
      <path id="Trazado_2350" data-name="Trazado 2350" d="M160.581,575.678l-11.15-11.473a.844.844,0,0,0-1.213,0l-11.149,11.473a.842.842,0,0,0-.239.589V587.1a.846.846,0,0,0,.846.846h7.947a.846.846,0,0,0,.846-.846v-7.694h4.714v7.668a.846.846,0,0,0,.846.846h7.945a.846.846,0,0,0,.846-.846V576.267A.847.847,0,0,0,160.581,575.678Z" transform="translate(498.476 1803.706)" fill="#d5007f"/>
      <g id="Grupo_2488" data-name="Grupo 2488" transform="translate(498.476 1803.706)">
        <path id="Trazado_2351" data-name="Trazado 2351" d="M269.631,563.96a11.988,11.988,0,1,0,12,11.989A12.009,12.009,0,0,0,269.631,563.96Zm1.335,18.09a1.329,1.329,0,1,1-2.657,0v-.073a1.329,1.329,0,1,1,2.657,0Zm.04-4.629-.04.011v.731a1.329,1.329,0,1,1-2.657,0v-.842a2.516,2.516,0,0,1,1.843-2.422l.064-.016a1.8,1.8,0,1,0-2.379-1.705,1.329,1.329,0,1,1-2.657,0,4.457,4.457,0,1,1,5.826,4.243Z" fill="#666"/>
      </g>
      <path id="Trazado_2352" data-name="Trazado 2352" d="M401.14,586.444l-7.51-7.46a9.2,9.2,0,1,0-1.188,1.2l7.51,7.458a.843.843,0,1,0,1.188-1.2Zm-14.588-5.8a7.475,7.475,0,1,1,7.475-7.475A7.485,7.485,0,0,1,386.552,580.648Z" transform="translate(498.476 1803.706)" fill="#666"/>
      <text id="Pestaña_1" data-name="Pestaña 1" transform="translate(615.037 2411.335)" fill="#d5007f" font-size="14" font-family="Roboto-Medium, Roboto" font-weight="500" letter-spacing="0.02em"><tspan x="0" y="0">Pestaña 1</tspan></text>
      <text id="Pestaña_2" data-name="Pestaña 2" transform="translate(735.453 2411.335)" fill="#666" font-size="14" font-family="Roboto-Medium, Roboto" font-weight="500" letter-spacing="0.02em"><tspan x="0" y="0">Pestaña 2</tspan></text>
      <text id="Pestaña_3" data-name="Pestaña 3" transform="translate(854.834 2411.335)" fill="#666" font-size="14" font-family="Roboto-Medium, Roboto" font-weight="500" letter-spacing="0.02em"><tspan x="0" y="0">Pestaña 3</tspan></text>
    </g>
  </g>
</svg>
