<svg xmlns="http://www.w3.org/2000/svg" width="360" height="1" viewBox="0 0 360 1">
  <g id="Grupo_2555" data-name="Grupo 2555" transform="translate(-574 -935.5)">
    <line id="Línea_597" data-name="Línea 597" x2="360" transform="translate(574 936)" fill="none" stroke="#242424" stroke-miterlimit="10" stroke-width="1" opacity="0.15"/>
  </g>
</svg>
