<svg xmlns="http://www.w3.org/2000/svg" width="360" height="27.957" viewBox="0 0 360 27.957">
  <g id="Grupo_2556" data-name="Grupo 2556" transform="translate(-574 -1174.858)">
    <rect id="Rectángulo_3421" data-name="Rectángulo 3421" width="360" height="27.957" transform="translate(574 1174.858)" fill="#333"/>
    <line id="Línea_599" data-name="Línea 599" x2="360" transform="translate(574 1187.927)" fill="none" stroke="#fff" stroke-miterlimit="10" stroke-width="1" opacity="0.15"/>
  </g>
</svg>
