<svg xmlns="http://www.w3.org/2000/svg" width="398" height="90.522" viewBox="0 0 398 90.522">
  <g id="Grupo_770" data-name="Grupo 770" transform="translate(-968 -1240)">
    <rect id="Rectángulo_1826" data-name="Rectángulo 1826" width="347.543" height="45" rx="6" transform="translate(968 1284)" fill="#f8f8f8"/>
    <text id="Etiqueta" transform="translate(995 1268.556)" fill="#494949" font-size="14" font-family="Roboto-Regular, Roboto"><tspan x="-26.202" y="0">Etiqueta</tspan></text>
    <text id="Buscar_" data-name="Buscar…" transform="translate(982 1313.556)" fill="#b6b6b6" font-size="16" font-family="Roboto-Regular, Roboto"><tspan x="0" y="0">Buscar…</tspan></text>
    <g id="Rectángulo_1828" data-name="Rectángulo 1828" transform="translate(968 1284)" fill="none" stroke="#d9d9d9" stroke-width="1">
      <rect width="347.543" height="45" rx="6" stroke="none"/>
      <rect x="0.5" y="0.5" width="346.543" height="44" rx="5.5" fill="none"/>
    </g>
    <path id="Trazado_1133" data-name="Trazado 1133" d="M2735.362,5035.184l-5.32-5.312a6.481,6.481,0,1,0-5.013,2.385,6.442,6.442,0,0,0,4.172-1.531l5.319,5.31a.593.593,0,0,0,.845,0A.6.6,0,0,0,2735.362,5035.184Zm-10.333-4.127a5.322,5.322,0,1,1,5.295-5.321A5.314,5.314,0,0,1,2725.029,5031.056Z" transform="translate(-1431.455 -3758.088)" fill="#4199a0"/>
    <path id="Trazado_1131" data-name="Trazado 1131" d="M2735.362,5035.184l-5.32-5.312a6.481,6.481,0,1,0-5.013,2.385,6.442,6.442,0,0,0,4.172-1.531l5.319,5.31a.593.593,0,0,0,.845,0A.6.6,0,0,0,2735.362,5035.184Zm-10.333-4.127a5.322,5.322,0,1,1,5.295-5.321A5.314,5.314,0,0,1,2725.029,5031.056Z" transform="translate(-1429.455 -3721.088)" fill="#b7006d"/>
    <text id="_17px" data-name="17px" transform="translate(1282 1253)" fill="#4199a0" font-size="12" font-family="Roboto-Medium, Roboto" font-weight="500"><tspan x="0" y="0">17px</tspan></text>
    <text id="_17px-2" data-name="17px" transform="translate(1256 1272)" fill="#4199a0" font-size="12" font-family="Roboto-Medium, Roboto" font-weight="500"><tspan x="0" y="0">17px</tspan></text>
    <text id="_45px" data-name="45px" transform="translate(1335 1312)" fill="#4199a0" font-size="14" font-family="Roboto-Medium, Roboto" font-weight="500"><tspan x="0" y="0">45px</tspan></text>
    <line id="Línea_22" data-name="Línea 22" x2="8" transform="translate(1325.834 1283.522)" fill="none" stroke="#4199a0" stroke-miterlimit="10" stroke-width="1"/>
    <line id="Línea_23" data-name="Línea 23" x2="8" transform="translate(1325.834 1330.022)" fill="none" stroke="#4199a0" stroke-miterlimit="10" stroke-width="1"/>
    <line id="Línea_24" data-name="Línea 24" y2="45" transform="translate(1329.834 1284.522)" fill="none" stroke="#4199a0" stroke-miterlimit="10" stroke-width="1"/>
    <g id="Rectángulo_1839" data-name="Rectángulo 1839" transform="translate(1287 1261)" fill="none" stroke="#4199a0" stroke-width="0.5">
      <rect width="17" height="17" stroke="none"/>
      <rect x="0.25" y="0.25" width="16.5" height="16.5" fill="none"/>
    </g>
  </g>
</svg>
