<svg xmlns="http://www.w3.org/2000/svg" width="290.672" height="84.255" viewBox="0 0 290.672 84.255">
  <g id="Grupo_860" data-name="Grupo 860" transform="translate(-1023.328 -2428.482)">
    <path id="Trazado_1409" data-name="Trazado 1409" d="M5,0H203a5,5,0,0,1,5,5V79.255a5,5,0,0,1-5,5H5a5,5,0,0,1-5-5V5A5,5,0,0,1,5,0Z" transform="translate(1106 2428.482)" fill="#333"/>
    <path id="Trazado_1412" data-name="Trazado 1412" d="M8.5,0,17,8H0Z" transform="translate(1098.5 2478.236) rotate(-90)" fill="#333"/>
    <path id="Trazado_1411" data-name="Trazado 1411" d="M8.5,0,17,8H0Z" transform="translate(1197 2471) rotate(180)" fill="#333"/>
    <path id="Trazado_1410" data-name="Trazado 1410" d="M2.509,11.947H7.362V13h-6.2V3.047H2.509ZM8.36,9.233a4.072,4.072,0,0,1,.889-2.7,2.98,2.98,0,0,1,2.413-1.063,3.009,3.009,0,0,1,2.43,1.06,4.059,4.059,0,0,1,.892,2.707v.15a4.052,4.052,0,0,1-.889,2.707,3,3,0,0,1-2.42,1.053,3.006,3.006,0,0,1-2.423-1.056,4.045,4.045,0,0,1-.892-2.7Zm1.347.15a3.508,3.508,0,0,0,.5,1.941,1.641,1.641,0,0,0,1.473.766,1.636,1.636,0,0,0,1.463-.766,3.49,3.49,0,0,0,.5-1.941v-.15a3.479,3.479,0,0,0-.5-1.935,1.647,1.647,0,0,0-1.473-.772A1.624,1.624,0,0,0,10.2,7.3a3.516,3.516,0,0,0-.5,1.935ZM20.132,6.793l-.69-.041a1.542,1.542,0,0,0-.9.253,1.623,1.623,0,0,0-.564.711V13H16.632V5.6h1.2l.13,1.08a2.567,2.567,0,0,1,.776-.9A1.814,1.814,0,0,1,19.8,5.467a1.664,1.664,0,0,1,.287.024,1.9,1.9,0,0,1,.226.051Zm4.334,6.351a3.129,3.129,0,0,1-2.485-1.019,3.92,3.92,0,0,1-.892-2.68v-.3a3.838,3.838,0,0,1,.919-2.635,2.883,2.883,0,0,1,2.246-1.042,2.684,2.684,0,0,1,2.225.923,3.8,3.8,0,0,1,.742,2.454v.711H22.49l-.021.034a3.057,3.057,0,0,0,.492,1.808,1.72,1.72,0,0,0,1.5.694,3.388,3.388,0,0,0,1.2-.195,2.678,2.678,0,0,0,.885-.537l.526.875a3.237,3.237,0,0,1-1.046.646A4.167,4.167,0,0,1,24.466,13.144Zm-.212-6.617a1.464,1.464,0,0,0-1.166.543,2.571,2.571,0,0,0-.564,1.391l.014.034h3.336V8.386a2.154,2.154,0,0,0-.4-1.333A1.433,1.433,0,0,0,24.254,6.526ZM29.935,5.6l.1.971a2.512,2.512,0,0,1,.919-.817,2.763,2.763,0,0,1,1.3-.291,2.288,2.288,0,0,1,1.268.342,2.068,2.068,0,0,1,.8,1.025,2.767,2.767,0,0,1,.926-1,2.423,2.423,0,0,1,1.336-.366,2.214,2.214,0,0,1,1.784.776,3.545,3.545,0,0,1,.656,2.334V13H37.666V8.563a2.459,2.459,0,0,0-.376-1.548,1.371,1.371,0,0,0-1.121-.455,1.427,1.427,0,0,0-1.118.479,2.083,2.083,0,0,0-.5,1.21V13H33.2V8.563a2.425,2.425,0,0,0-.386-1.521A1.34,1.34,0,0,0,31.7,6.561a1.85,1.85,0,0,0-1.012.253,1.634,1.634,0,0,0-.608.711V13H28.731V5.6ZM46.122,13H44.769V3.047h1.354Zm8.586-3.418a4.077,4.077,0,0,1-.766,2.581,2.531,2.531,0,0,1-2.112.981,2.935,2.935,0,0,1-1.2-.229,2.294,2.294,0,0,1-.878-.687v3.616H48.405V5.6h1.032l.212.957a2.443,2.443,0,0,1,.9-.813,2.694,2.694,0,0,1,1.258-.28,2.458,2.458,0,0,1,2.136,1.09,4.933,4.933,0,0,1,.762,2.881Zm-1.347-.144a3.908,3.908,0,0,0-.5-2.068,1.606,1.606,0,0,0-1.459-.81,1.8,1.8,0,0,0-.991.263,1.968,1.968,0,0,0-.663.721V11.12a1.912,1.912,0,0,0,.663.714,1.86,1.86,0,0,0,1,.256,1.657,1.657,0,0,0,1.449-.7,3.077,3.077,0,0,0,.492-1.808Zm7.3,1.572a.9.9,0,0,0-.338-.725,3.266,3.266,0,0,0-1.282-.492,5.378,5.378,0,0,1-2.006-.786,1.588,1.588,0,0,1-.7-1.354A1.95,1.95,0,0,1,57.1,6.109a3.394,3.394,0,0,1,4.03.041,1.959,1.959,0,0,1,.745,1.593l-.014.041H60.58a1.165,1.165,0,0,0-.42-.868,1.5,1.5,0,0,0-1.063-.39,1.532,1.532,0,0,0-1.063.321,1,1,0,0,0-.352.766.811.811,0,0,0,.3.677,3.367,3.367,0,0,0,1.254.438,5.3,5.3,0,0,1,2.064.813,1.638,1.638,0,0,1,.7,1.374,1.947,1.947,0,0,1-.8,1.606,3.285,3.285,0,0,1-2.082.622,3.251,3.251,0,0,1-2.229-.718,2.048,2.048,0,0,1-.772-1.675l.014-.041h1.285a1.246,1.246,0,0,0,.533,1.049,2.063,2.063,0,0,0,1.169.332,1.841,1.841,0,0,0,1.125-.3A.93.93,0,0,0,60.662,11.011Zm7.718.9a2.505,2.505,0,0,1-.9.916,2.45,2.45,0,0,1-1.265.321,2.376,2.376,0,0,1-1.887-.772,3.587,3.587,0,0,1-.677-2.406V5.6H65V9.979a2.754,2.754,0,0,0,.349,1.627,1.3,1.3,0,0,0,1.087.444,2.215,2.215,0,0,0,1.186-.291,1.818,1.818,0,0,0,.708-.824V5.6h1.347V13h-1.21Zm4.464-6.3.1.971a2.512,2.512,0,0,1,.919-.817,2.763,2.763,0,0,1,1.3-.291,2.288,2.288,0,0,1,1.268.342,2.068,2.068,0,0,1,.8,1.025,2.767,2.767,0,0,1,.926-1,2.423,2.423,0,0,1,1.336-.366,2.214,2.214,0,0,1,1.784.776,3.545,3.545,0,0,1,.656,2.334V13H80.575V8.563A2.459,2.459,0,0,0,80.2,7.015a1.371,1.371,0,0,0-1.121-.455,1.427,1.427,0,0,0-1.118.479,2.083,2.083,0,0,0-.5,1.21V13H76.1V8.563a2.425,2.425,0,0,0-.386-1.521,1.34,1.34,0,0,0-1.111-.482,1.85,1.85,0,0,0-1.012.253,1.634,1.634,0,0,0-.608.711V13H71.641V5.6ZM88.813,13H87.466V5.6h1.347Zm0-9.29H87.466V2.336h1.347Zm6.371,7.3a.9.9,0,0,0-.338-.725,3.266,3.266,0,0,0-1.282-.492,5.378,5.378,0,0,1-2.006-.786,1.588,1.588,0,0,1-.7-1.354,1.95,1.95,0,0,1,.769-1.545,3.394,3.394,0,0,1,4.03.041A1.959,1.959,0,0,1,96.4,7.743l-.014.041H95.1a1.165,1.165,0,0,0-.42-.868,1.5,1.5,0,0,0-1.063-.39,1.532,1.532,0,0,0-1.063.321,1,1,0,0,0-.352.766.811.811,0,0,0,.3.677,3.367,3.367,0,0,0,1.254.438,5.3,5.3,0,0,1,2.064.813,1.638,1.638,0,0,1,.7,1.374,1.947,1.947,0,0,1-.8,1.606,3.285,3.285,0,0,1-2.082.622,3.251,3.251,0,0,1-2.229-.718,2.048,2.048,0,0,1-.772-1.675l.014-.041H91.95a1.246,1.246,0,0,0,.533,1.049,2.063,2.063,0,0,0,1.169.332,1.841,1.841,0,0,0,1.125-.3A.93.93,0,0,0,95.184,11.011Zm10.8,0a.9.9,0,0,0-.338-.725,3.266,3.266,0,0,0-1.282-.492,5.378,5.378,0,0,1-2.006-.786,1.588,1.588,0,0,1-.7-1.354,1.95,1.95,0,0,1,.769-1.545,3.394,3.394,0,0,1,4.03.041,1.959,1.959,0,0,1,.745,1.593l-.014.041H105.9a1.165,1.165,0,0,0-.42-.868,1.5,1.5,0,0,0-1.063-.39,1.532,1.532,0,0,0-1.063.321,1,1,0,0,0-.352.766.811.811,0,0,0,.3.677,3.367,3.367,0,0,0,1.254.438,5.3,5.3,0,0,1,2.064.813,1.638,1.638,0,0,1,.7,1.374,1.947,1.947,0,0,1-.8,1.606,3.285,3.285,0,0,1-2.082.622,3.251,3.251,0,0,1-2.229-.718,2.048,2.048,0,0,1-.772-1.675l.014-.041h1.285a1.246,1.246,0,0,0,.533,1.049,2.063,2.063,0,0,0,1.169.332,1.841,1.841,0,0,0,1.125-.3A.93.93,0,0,0,105.984,11.011ZM110.462,13h-1.347V5.6h1.347Zm0-9.29h-1.347V2.336h1.347ZM113.736,5.6l.1.971a2.512,2.512,0,0,1,.919-.817,2.763,2.763,0,0,1,1.3-.291,2.288,2.288,0,0,1,1.268.342,2.068,2.068,0,0,1,.8,1.025,2.767,2.767,0,0,1,.926-1,2.423,2.423,0,0,1,1.336-.366,2.214,2.214,0,0,1,1.784.776,3.545,3.545,0,0,1,.656,2.334V13h-1.347V8.563a2.459,2.459,0,0,0-.376-1.548,1.371,1.371,0,0,0-1.121-.455,1.427,1.427,0,0,0-1.118.479,2.083,2.083,0,0,0-.5,1.21V13H117V8.563a2.425,2.425,0,0,0-.386-1.521,1.34,1.34,0,0,0-1.111-.482,1.85,1.85,0,0,0-1.012.253,1.634,1.634,0,0,0-.608.711V13h-1.347V5.6Zm17.336,3.979a4.077,4.077,0,0,1-.766,2.581,2.531,2.531,0,0,1-2.112.981,2.935,2.935,0,0,1-1.2-.229,2.294,2.294,0,0,1-.878-.687v3.616H124.77V5.6H125.8l.212.957a2.443,2.443,0,0,1,.9-.813,2.694,2.694,0,0,1,1.258-.28,2.458,2.458,0,0,1,2.136,1.09,4.933,4.933,0,0,1,.762,2.881Zm-1.347-.144a3.908,3.908,0,0,0-.5-2.068,1.606,1.606,0,0,0-1.459-.81,1.8,1.8,0,0,0-.991.263,1.968,1.968,0,0,0-.663.721V11.12a1.912,1.912,0,0,0,.663.714,1.86,1.86,0,0,0,1,.256,1.658,1.658,0,0,0,1.449-.7,3.077,3.077,0,0,0,.492-1.808ZM134.183,13h-1.347V2.336h1.347Zm4.334-2.741.239.93h.041L140.615,5.6h1.5L139,14.135a3.835,3.835,0,0,1-.8,1.3,1.849,1.849,0,0,1-1.412.554,2.943,2.943,0,0,1-.417-.038q-.253-.038-.39-.072l.137-1.06a1.8,1.8,0,0,1,.243.014q.284.021.359.021a.831.831,0,0,0,.7-.383,3.974,3.974,0,0,0,.458-.848l.321-.772L135.454,5.6h1.5ZM.67,25.438a4.936,4.936,0,0,1,.762-2.878,2.456,2.456,0,0,1,2.136-1.094,2.649,2.649,0,0,1,1.152.239,2.361,2.361,0,0,1,.858.7V18.336H6.925V29H5.893l-.205-.937a2.4,2.4,0,0,1-.9.807,2.675,2.675,0,0,1-1.237.273,2.538,2.538,0,0,1-2.119-.981A4.077,4.077,0,0,1,.67,25.582Zm1.347.144a3.14,3.14,0,0,0,.458,1.794A1.6,1.6,0,0,0,3.9,28.05a1.784,1.784,0,0,0,1.012-.273,2.042,2.042,0,0,0,.67-.766V23.559a2.074,2.074,0,0,0-.673-.728,1.779,1.779,0,0,0-.995-.27,1.539,1.539,0,0,0-1.432.8,4.128,4.128,0,0,0-.461,2.078Zm11.614,2.324a2.505,2.505,0,0,1-.9.916,2.45,2.45,0,0,1-1.265.321,2.376,2.376,0,0,1-1.887-.772,3.587,3.587,0,0,1-.677-2.406V21.6h1.347v4.375a2.754,2.754,0,0,0,.349,1.627,1.3,1.3,0,0,0,1.087.444,2.215,2.215,0,0,0,1.186-.291,1.818,1.818,0,0,0,.708-.824V21.6H14.93V29H13.72Zm4.464-6.3.1.971a2.512,2.512,0,0,1,.919-.817,2.763,2.763,0,0,1,1.3-.291,2.288,2.288,0,0,1,1.268.342,2.068,2.068,0,0,1,.8,1.025,2.767,2.767,0,0,1,.926-1,2.423,2.423,0,0,1,1.336-.366,2.214,2.214,0,0,1,1.784.776,3.545,3.545,0,0,1,.656,2.334V29H25.826V24.563a2.459,2.459,0,0,0-.376-1.548,1.371,1.371,0,0,0-1.121-.455,1.427,1.427,0,0,0-1.118.479,2.083,2.083,0,0,0-.5,1.21V29H21.355V24.563a2.425,2.425,0,0,0-.386-1.521,1.34,1.34,0,0,0-1.111-.482,1.85,1.85,0,0,0-1.012.253,1.634,1.634,0,0,0-.608.711V29H16.892V21.6Zm12.236,0,.1.971a2.512,2.512,0,0,1,.919-.817,2.763,2.763,0,0,1,1.3-.291,2.288,2.288,0,0,1,1.268.342,2.068,2.068,0,0,1,.8,1.025,2.767,2.767,0,0,1,.926-1,2.423,2.423,0,0,1,1.336-.366,2.214,2.214,0,0,1,1.784.776,3.545,3.545,0,0,1,.656,2.334V29H38.063V24.563a2.459,2.459,0,0,0-.376-1.548,1.371,1.371,0,0,0-1.121-.455,1.427,1.427,0,0,0-1.118.479,2.083,2.083,0,0,0-.5,1.21V29H33.592V24.563a2.425,2.425,0,0,0-.386-1.521,1.34,1.34,0,0,0-1.111-.482,1.85,1.85,0,0,0-1.012.253,1.634,1.634,0,0,0-.608.711V29H29.128V21.6Zm13.3,4.655.239.93h.041L45.726,21.6h1.5l-3.11,8.531a3.835,3.835,0,0,1-.8,1.3,1.849,1.849,0,0,1-1.412.554,2.943,2.943,0,0,1-.417-.038q-.253-.038-.39-.072l.137-1.06a1.8,1.8,0,0,1,.243.014q.284.021.359.021a.831.831,0,0,0,.7-.383,3.975,3.975,0,0,0,.458-.848l.321-.772L40.564,21.6h1.5Zm10.131-6.439V21.6h1.4v1h-1.4v4.491a1.006,1.006,0,0,0,.215.731.779.779,0,0,0,.571.212,1.251,1.251,0,0,0,.26-.031,1.927,1.927,0,0,0,.239-.065l.185.923a1.19,1.19,0,0,1-.444.2,2.242,2.242,0,0,1-.581.079,1.744,1.744,0,0,1-1.306-.5,2.153,2.153,0,0,1-.485-1.555V22.6H51.235v-1h1.176V19.819Zm5.906,9.324a3.129,3.129,0,0,1-2.485-1.019,3.92,3.92,0,0,1-.892-2.68v-.3a3.838,3.838,0,0,1,.919-2.635,2.883,2.883,0,0,1,2.246-1.042,2.684,2.684,0,0,1,2.225.923,3.8,3.8,0,0,1,.742,2.454v.711h-4.73l-.021.034A3.057,3.057,0,0,0,58.16,27.4a1.72,1.72,0,0,0,1.5.694,3.388,3.388,0,0,0,1.2-.195,2.678,2.678,0,0,0,.885-.537l.526.875a3.237,3.237,0,0,1-1.046.646A4.167,4.167,0,0,1,59.664,29.144Zm-.212-6.617a1.464,1.464,0,0,0-1.166.543,2.571,2.571,0,0,0-.564,1.391l.014.034h3.336v-.109a2.154,2.154,0,0,0-.4-1.333A1.433,1.433,0,0,0,59.452,22.526Zm6.986,1.8L68.011,21.6h1.572l-2.4,3.657L69.651,29H68.106l-1.641-2.8L64.825,29H63.267l2.468-3.739-2.4-3.657h1.552Zm6.405-4.512V21.6h1.4v1h-1.4v4.491a1.006,1.006,0,0,0,.215.731.779.779,0,0,0,.571.212,1.251,1.251,0,0,0,.26-.031,1.927,1.927,0,0,0,.239-.065l.185.923a1.19,1.19,0,0,1-.444.2,2.242,2.242,0,0,1-.581.079,1.744,1.744,0,0,1-1.306-.5,2.152,2.152,0,0,1-.485-1.555V22.6H70.321v-1H71.5V19.819Zm6.009,5.414a4.072,4.072,0,0,1,.889-2.7,3.293,3.293,0,0,1,4.843,0,4.059,4.059,0,0,1,.892,2.707v.15a4.052,4.052,0,0,1-.889,2.707,3.308,3.308,0,0,1-4.843,0,4.045,4.045,0,0,1-.892-2.7Zm1.347.15a3.508,3.508,0,0,0,.5,1.941,1.79,1.79,0,0,0,2.936,0,3.49,3.49,0,0,0,.5-1.941v-.15a3.479,3.479,0,0,0-.5-1.935,1.647,1.647,0,0,0-1.473-.772,1.624,1.624,0,0,0-1.459.772,3.516,3.516,0,0,0-.5,1.935ZM87.685,29V22.6H86.529v-1h1.155v-.937a2.538,2.538,0,0,1,.619-1.829,2.277,2.277,0,0,1,1.726-.646,2.97,2.97,0,0,1,.468.038q.236.038.523.106l-.164,1.025q-.123-.027-.3-.048a3.131,3.131,0,0,0-.366-.021,1.063,1.063,0,0,0-.875.352,1.583,1.583,0,0,0-.287,1.022V21.6h1.34v1h-1.34V29Zm9.4-9.181V21.6h1.4v1h-1.4v4.491a1.006,1.006,0,0,0,.215.731.779.779,0,0,0,.571.212,1.251,1.251,0,0,0,.26-.031,1.927,1.927,0,0,0,.239-.065l.185.923a1.19,1.19,0,0,1-.444.2,2.242,2.242,0,0,1-.581.079,1.744,1.744,0,0,1-1.306-.5,2.152,2.152,0,0,1-.485-1.555V22.6H94.562v-1h1.176V19.819Zm4.19,2.775a2.729,2.729,0,0,1,.94-.831,2.579,2.579,0,0,1,1.234-.3,2.389,2.389,0,0,1,1.842.711,3.128,3.128,0,0,1,.66,2.188V29H104.6V24.352A1.98,1.98,0,0,0,104.21,23a1.5,1.5,0,0,0-1.172-.437,2.2,2.2,0,0,0-1.046.236,1.9,1.9,0,0,0-.718.66V29H99.928V18.336h1.347Zm9.673,6.549a3.129,3.129,0,0,1-2.485-1.019,3.92,3.92,0,0,1-.892-2.68v-.3a3.838,3.838,0,0,1,.919-2.635,2.883,2.883,0,0,1,2.246-1.042,2.684,2.684,0,0,1,2.225.923,3.8,3.8,0,0,1,.742,2.454v.711h-4.73l-.021.034a3.057,3.057,0,0,0,.492,1.808,1.72,1.72,0,0,0,1.5.694,3.388,3.388,0,0,0,1.2-.195,2.678,2.678,0,0,0,.885-.537l.526.875a3.237,3.237,0,0,1-1.046.646A4.167,4.167,0,0,1,110.947,29.144Zm-.212-6.617a1.464,1.464,0,0,0-1.166.543,2.571,2.571,0,0,0-.564,1.391l.014.034h3.336v-.109a2.154,2.154,0,0,0-.4-1.333A1.433,1.433,0,0,0,110.735,22.526ZM125,25.582a4.077,4.077,0,0,1-.766,2.581,2.531,2.531,0,0,1-2.112.981,2.935,2.935,0,0,1-1.2-.229,2.294,2.294,0,0,1-.878-.687v3.616h-1.347V21.6h1.032l.212.957a2.443,2.443,0,0,1,.9-.813,2.694,2.694,0,0,1,1.258-.28,2.458,2.458,0,0,1,2.136,1.09A4.933,4.933,0,0,1,125,25.438Zm-1.347-.144a3.908,3.908,0,0,0-.5-2.068,1.606,1.606,0,0,0-1.459-.81,1.8,1.8,0,0,0-.991.263,1.968,1.968,0,0,0-.663.721V27.12a1.912,1.912,0,0,0,.663.714,1.86,1.86,0,0,0,1,.256,1.657,1.657,0,0,0,1.449-.7,3.077,3.077,0,0,0,.492-1.808Zm6.5-2.646-.69-.041a1.542,1.542,0,0,0-.9.253,1.623,1.623,0,0,0-.564.711V29h-1.347V21.6h1.2l.13,1.08a2.568,2.568,0,0,1,.776-.9,1.814,1.814,0,0,1,1.063-.321,1.664,1.664,0,0,1,.287.024,1.9,1.9,0,0,1,.226.051ZM133.007,29H131.66V21.6h1.347Zm0-9.29H131.66V18.336h1.347Zm3.274,1.894.1,1.1a2.686,2.686,0,0,1,.926-.913,2.471,2.471,0,0,1,1.268-.325,2.414,2.414,0,0,1,1.853.7,3.076,3.076,0,0,1,.656,2.164V29h-1.347V24.358a2,2,0,0,0-.386-1.388,1.547,1.547,0,0,0-1.179-.41,2.088,2.088,0,0,0-1.056.25,1.813,1.813,0,0,0-.687.7V29h-1.347V21.6Zm8.627-1.784V21.6h1.4v1h-1.4v4.491a1.006,1.006,0,0,0,.215.731.778.778,0,0,0,.571.212,1.251,1.251,0,0,0,.26-.031,1.926,1.926,0,0,0,.239-.065l.185.923a1.19,1.19,0,0,1-.444.2,2.242,2.242,0,0,1-.581.079,1.744,1.744,0,0,1-1.306-.5,2.153,2.153,0,0,1-.485-1.555V22.6h-1.176v-1h1.176V19.819Zm4.3,9.181h-1.347V21.6h1.347Zm0-9.29h-1.347V18.336h1.347Zm3.274,1.894.1,1.1a2.686,2.686,0,0,1,.926-.913,2.471,2.471,0,0,1,1.268-.325,2.414,2.414,0,0,1,1.853.7,3.076,3.076,0,0,1,.656,2.164V29h-1.347V24.358a2,2,0,0,0-.386-1.388,1.547,1.547,0,0,0-1.179-.41,2.088,2.088,0,0,0-1.056.25,1.813,1.813,0,0,0-.687.7V29h-1.347V21.6ZM159,25.438a4.936,4.936,0,0,1,.762-2.878,2.45,2.45,0,0,1,2.129-1.094,2.6,2.6,0,0,1,1.237.284,2.489,2.489,0,0,1,.9.817l.164-.964h1.073v7.438a2.822,2.822,0,0,1-.827,2.184,3.4,3.4,0,0,1-2.386.762,5,5,0,0,1-1.152-.147,4.5,4.5,0,0,1-1.09-.4l.205-1.046a3.894,3.894,0,0,0,.94.332,4.827,4.827,0,0,0,1.083.126,1.961,1.961,0,0,0,1.432-.448,1.855,1.855,0,0,0,.448-1.364V28.2a2.385,2.385,0,0,1-.868.7,2.7,2.7,0,0,1-1.169.239,2.529,2.529,0,0,1-2.116-.981A4.089,4.089,0,0,1,159,25.582Zm1.347.144a3.143,3.143,0,0,0,.458,1.791,1.59,1.59,0,0,0,1.415.677,1.78,1.78,0,0,0,1.019-.277,2.1,2.1,0,0,0,.677-.783v-3.4a2.089,2.089,0,0,0-.677-.749,1.775,1.775,0,0,0-1-.277,1.533,1.533,0,0,0-1.425.8,4.128,4.128,0,0,0-.461,2.078ZM5.523,45q-.068-.335-.106-.591a4.34,4.34,0,0,1-.044-.516,3.14,3.14,0,0,1-.981.892,2.509,2.509,0,0,1-1.3.359,2.418,2.418,0,0,1-1.76-.591,2.175,2.175,0,0,1-.6-1.63,1.91,1.91,0,0,1,.858-1.658,4.007,4.007,0,0,1,2.328-.6H5.373v-.731a1.357,1.357,0,0,0-.4-1.029,1.557,1.557,0,0,0-1.121-.379,1.627,1.627,0,0,0-1.06.328.985.985,0,0,0-.4.786l-1.278.014L1.1,39.613a1.77,1.77,0,0,1,.755-1.477,3.131,3.131,0,0,1,2.075-.67,3.054,3.054,0,0,1,2.023.639,2.264,2.264,0,0,1,.766,1.842V43.51a6.933,6.933,0,0,0,.041.766,3.937,3.937,0,0,0,.15.725Zm-2.235-.984a2.4,2.4,0,0,0,1.319-.376,1.787,1.787,0,0,0,.766-.861v-1.2H3.862a1.96,1.96,0,0,0-1.3.41,1.227,1.227,0,0,0-.489.964,1.014,1.014,0,0,0,.308.779A1.288,1.288,0,0,0,3.288,44.016ZM9.878,37.6l.1,1.1a2.686,2.686,0,0,1,.926-.913,2.471,2.471,0,0,1,1.268-.325,2.414,2.414,0,0,1,1.853.7,3.076,3.076,0,0,1,.656,2.164V45H13.33V40.358a2,2,0,0,0-.386-1.388,1.547,1.547,0,0,0-1.179-.41,2.088,2.088,0,0,0-1.056.25,1.813,1.813,0,0,0-.687.7V45H8.675V37.6Zm6.446,3.835a4.936,4.936,0,0,1,.762-2.878,2.456,2.456,0,0,1,2.136-1.094,2.649,2.649,0,0,1,1.152.239,2.361,2.361,0,0,1,.858.7V34.336h1.347V45H21.547l-.205-.937a2.4,2.4,0,0,1-.9.807,2.675,2.675,0,0,1-1.237.273,2.538,2.538,0,0,1-2.119-.981,4.077,4.077,0,0,1-.766-2.581Zm1.347.144a3.14,3.14,0,0,0,.458,1.794,1.6,1.6,0,0,0,1.422.673,1.784,1.784,0,0,0,1.012-.273,2.042,2.042,0,0,0,.67-.766V39.559a2.073,2.073,0,0,0-.673-.728,1.779,1.779,0,0,0-.995-.27,1.539,1.539,0,0,0-1.432.8,4.128,4.128,0,0,0-.461,2.078Zm12.271-5.763V37.6h1.4v1h-1.4v4.491a1.006,1.006,0,0,0,.215.731.778.778,0,0,0,.571.212,1.251,1.251,0,0,0,.26-.031,1.927,1.927,0,0,0,.239-.065l.185.923a1.19,1.19,0,0,1-.444.2,2.242,2.242,0,0,1-.581.079,1.744,1.744,0,0,1-1.306-.5,2.152,2.152,0,0,1-.485-1.555V38.6H27.419v-1h1.176V35.819Zm5.106,6.439.239.93h.041L37.146,37.6h1.5l-3.11,8.531a3.835,3.835,0,0,1-.8,1.3,1.849,1.849,0,0,1-1.412.554,2.942,2.942,0,0,1-.417-.038q-.253-.038-.39-.072l.137-1.06a1.8,1.8,0,0,1,.243.014q.284.021.359.021a.831.831,0,0,0,.7-.383,3.975,3.975,0,0,0,.458-.848l.321-.772L31.985,37.6h1.5Zm11.081-.677a4.077,4.077,0,0,1-.766,2.581,2.531,2.531,0,0,1-2.112.981,2.935,2.935,0,0,1-1.2-.229,2.294,2.294,0,0,1-.878-.687v3.616H39.826V37.6h1.032l.212.957a2.443,2.443,0,0,1,.9-.813,2.694,2.694,0,0,1,1.258-.28,2.458,2.458,0,0,1,2.136,1.09,4.933,4.933,0,0,1,.762,2.881Zm-1.347-.144a3.908,3.908,0,0,0-.5-2.068,1.606,1.606,0,0,0-1.459-.81,1.8,1.8,0,0,0-.991.263,1.968,1.968,0,0,0-.663.721V43.12a1.912,1.912,0,0,0,.663.714,1.86,1.86,0,0,0,1,.256,1.657,1.657,0,0,0,1.449-.7,3.077,3.077,0,0,0,.492-1.808Zm6.063,3.705a3.129,3.129,0,0,1-2.485-1.019,3.92,3.92,0,0,1-.892-2.68v-.3a3.838,3.838,0,0,1,.919-2.635,2.883,2.883,0,0,1,2.246-1.042,2.684,2.684,0,0,1,2.225.923,3.8,3.8,0,0,1,.742,2.454v.711H48.87l-.021.034a3.057,3.057,0,0,0,.492,1.808,1.72,1.72,0,0,0,1.5.694,3.388,3.388,0,0,0,1.2-.195,2.678,2.678,0,0,0,.885-.537l.526.875a3.237,3.237,0,0,1-1.046.646A4.166,4.166,0,0,1,50.846,45.144Zm-.212-6.617a1.464,1.464,0,0,0-1.166.543,2.571,2.571,0,0,0-.564,1.391l.014.034h3.336v-.109a2.154,2.154,0,0,0-.4-1.333A1.433,1.433,0,0,0,50.634,38.526Zm8.777,4.484a.9.9,0,0,0-.338-.725,3.266,3.266,0,0,0-1.282-.492,5.378,5.378,0,0,1-2.006-.786,1.588,1.588,0,0,1-.7-1.354,1.95,1.95,0,0,1,.769-1.545,3.394,3.394,0,0,1,4.03.041,1.959,1.959,0,0,1,.745,1.593l-.014.041H59.329a1.165,1.165,0,0,0-.42-.868,1.5,1.5,0,0,0-1.063-.39,1.532,1.532,0,0,0-1.063.321,1,1,0,0,0-.352.766.811.811,0,0,0,.3.677,3.367,3.367,0,0,0,1.254.438,5.3,5.3,0,0,1,2.064.813,1.638,1.638,0,0,1,.7,1.374,1.947,1.947,0,0,1-.8,1.606,3.285,3.285,0,0,1-2.082.622,3.251,3.251,0,0,1-2.229-.718,2.048,2.048,0,0,1-.772-1.675l.014-.041h1.285a1.246,1.246,0,0,0,.533,1.049,2.063,2.063,0,0,0,1.169.332,1.841,1.841,0,0,0,1.125-.3A.93.93,0,0,0,59.411,43.011ZM65.5,45.144a3.129,3.129,0,0,1-2.485-1.019,3.92,3.92,0,0,1-.892-2.68v-.3a3.838,3.838,0,0,1,.919-2.635,2.883,2.883,0,0,1,2.246-1.042,2.684,2.684,0,0,1,2.225.923,3.8,3.8,0,0,1,.742,2.454v.711H63.52l-.021.034a3.057,3.057,0,0,0,.492,1.808,1.72,1.72,0,0,0,1.5.694,3.388,3.388,0,0,0,1.2-.195,2.678,2.678,0,0,0,.885-.537l.526.875a3.237,3.237,0,0,1-1.046.646A4.166,4.166,0,0,1,65.5,45.144Zm-.212-6.617a1.464,1.464,0,0,0-1.166.543,2.571,2.571,0,0,0-.564,1.391l.014.034H66.9v-.109a2.154,2.154,0,0,0-.4-1.333A1.433,1.433,0,0,0,65.283,38.526Zm6.351-2.707V37.6h1.4v1h-1.4v4.491a1.006,1.006,0,0,0,.215.731.779.779,0,0,0,.571.212,1.251,1.251,0,0,0,.26-.031,1.927,1.927,0,0,0,.239-.065l.185.923a1.19,1.19,0,0,1-.444.2,2.242,2.242,0,0,1-.581.079,1.744,1.744,0,0,1-1.306-.5,2.152,2.152,0,0,1-.485-1.555V38.6H69.111v-1h1.176V35.819Zm4.717,0V37.6h1.4v1h-1.4v4.491a1.006,1.006,0,0,0,.215.731.779.779,0,0,0,.571.212,1.251,1.251,0,0,0,.26-.031,1.927,1.927,0,0,0,.239-.065l.185.923a1.19,1.19,0,0,1-.444.2,2.242,2.242,0,0,1-.581.079,1.744,1.744,0,0,1-1.306-.5A2.152,2.152,0,0,1,75,43.093V38.6H73.828v-1H75V35.819ZM80.65,45H79.3V37.6H80.65Zm0-9.29H79.3V34.336H80.65ZM83.925,37.6l.1,1.1a2.686,2.686,0,0,1,.926-.913,2.471,2.471,0,0,1,1.268-.325,2.414,2.414,0,0,1,1.853.7,3.076,3.076,0,0,1,.656,2.164V45H87.377V40.358a2,2,0,0,0-.386-1.388,1.547,1.547,0,0,0-1.179-.41,2.088,2.088,0,0,0-1.056.25,1.813,1.813,0,0,0-.687.7V45H82.722V37.6Zm6.515,3.835a4.936,4.936,0,0,1,.762-2.878,2.45,2.45,0,0,1,2.129-1.094,2.6,2.6,0,0,1,1.237.284,2.49,2.49,0,0,1,.9.817l.164-.964H96.7v7.438a2.822,2.822,0,0,1-.827,2.184,3.4,3.4,0,0,1-2.386.762,5,5,0,0,1-1.152-.147,4.5,4.5,0,0,1-1.09-.4l.205-1.046a3.894,3.894,0,0,0,.94.332,4.827,4.827,0,0,0,1.083.126,1.961,1.961,0,0,0,1.432-.448,1.855,1.855,0,0,0,.448-1.364V44.2a2.385,2.385,0,0,1-.868.7,2.7,2.7,0,0,1-1.169.239,2.529,2.529,0,0,1-2.116-.981,4.089,4.089,0,0,1-.762-2.581Zm1.347.144a3.143,3.143,0,0,0,.458,1.791,1.59,1.59,0,0,0,1.415.677,1.78,1.78,0,0,0,1.019-.277,2.1,2.1,0,0,0,.677-.783v-3.4a2.089,2.089,0,0,0-.677-.749,1.775,1.775,0,0,0-1-.277,1.533,1.533,0,0,0-1.425.8,4.128,4.128,0,0,0-.461,2.078ZM103.571,45h-1.347V37.6h1.347Zm0-9.29h-1.347V34.336h1.347Zm3.274,1.894.1,1.1a2.686,2.686,0,0,1,.926-.913,2.471,2.471,0,0,1,1.268-.325,2.414,2.414,0,0,1,1.853.7,3.076,3.076,0,0,1,.656,2.164V45H110.3V40.358a2,2,0,0,0-.386-1.388,1.547,1.547,0,0,0-1.179-.41,2.088,2.088,0,0,0-1.056.25,1.813,1.813,0,0,0-.687.7V45h-1.347V37.6Zm6.446,3.835a4.936,4.936,0,0,1,.762-2.878,2.456,2.456,0,0,1,2.136-1.094,2.649,2.649,0,0,1,1.152.239,2.361,2.361,0,0,1,.858.7V34.336h1.347V45h-1.032l-.205-.937a2.4,2.4,0,0,1-.9.807,2.675,2.675,0,0,1-1.237.273,2.538,2.538,0,0,1-2.119-.981,4.077,4.077,0,0,1-.766-2.581Zm1.347.144a3.14,3.14,0,0,0,.458,1.794,1.6,1.6,0,0,0,1.422.673,1.784,1.784,0,0,0,1.012-.273,2.042,2.042,0,0,0,.67-.766V39.559a2.073,2.073,0,0,0-.673-.728,1.779,1.779,0,0,0-.995-.27,1.539,1.539,0,0,0-1.432.8,4.128,4.128,0,0,0-.461,2.078Zm11.614,2.324a2.505,2.505,0,0,1-.9.916,2.45,2.45,0,0,1-1.265.321,2.376,2.376,0,0,1-1.887-.772,3.587,3.587,0,0,1-.677-2.406V37.6h1.347v4.375a2.754,2.754,0,0,0,.349,1.627,1.3,1.3,0,0,0,1.087.444,2.215,2.215,0,0,0,1.186-.291,1.818,1.818,0,0,0,.708-.824V37.6h1.347V45h-1.21Zm7.561-.9a.9.9,0,0,0-.338-.725,3.266,3.266,0,0,0-1.282-.492,5.378,5.378,0,0,1-2.006-.786,1.588,1.588,0,0,1-.7-1.354,1.95,1.95,0,0,1,.769-1.545,3.394,3.394,0,0,1,4.03.041,1.959,1.959,0,0,1,.745,1.593l-.014.041h-1.285a1.165,1.165,0,0,0-.42-.868,1.5,1.5,0,0,0-1.063-.39,1.532,1.532,0,0,0-1.063.321,1,1,0,0,0-.352.766.811.811,0,0,0,.3.677,3.367,3.367,0,0,0,1.254.438,5.3,5.3,0,0,1,2.064.813,1.638,1.638,0,0,1,.7,1.374,1.947,1.947,0,0,1-.8,1.606,3.285,3.285,0,0,1-2.082.622,3.251,3.251,0,0,1-2.229-.718,2.048,2.048,0,0,1-.772-1.675l.014-.041h1.285a1.246,1.246,0,0,0,.533,1.049,2.063,2.063,0,0,0,1.169.332,1.841,1.841,0,0,0,1.125-.3A.93.93,0,0,0,133.813,43.011Zm4.895-7.191V37.6h1.4v1h-1.4v4.491a1.006,1.006,0,0,0,.215.731.778.778,0,0,0,.571.212,1.251,1.251,0,0,0,.26-.031,1.927,1.927,0,0,0,.239-.065l.185.923a1.19,1.19,0,0,1-.444.2,2.242,2.242,0,0,1-.581.079,1.744,1.744,0,0,1-1.306-.5,2.153,2.153,0,0,1-.485-1.555V38.6h-1.176v-1h1.176V35.819Zm6.344,2.974-.69-.041a1.542,1.542,0,0,0-.9.253,1.623,1.623,0,0,0-.564.711V45h-1.347V37.6h1.2l.13,1.08a2.568,2.568,0,0,1,.776-.9,1.814,1.814,0,0,1,1.063-.321,1.664,1.664,0,0,1,.287.024,1.9,1.9,0,0,1,.226.051Zm3.787,3.466.239.93h.041l1.818-5.585h1.5l-3.11,8.531a3.835,3.835,0,0,1-.8,1.3,1.849,1.849,0,0,1-1.412.554,2.942,2.942,0,0,1-.417-.038q-.253-.038-.39-.072l.137-1.06a1.8,1.8,0,0,1,.243.014q.284.021.359.021a.832.832,0,0,0,.7-.383,3.974,3.974,0,0,0,.458-.848l.321-.772L145.776,37.6h1.5ZM154.355,45h-1.347V43.619h1.347Z" transform="translate(1120 2439)" fill="#fff"/>
    <path id="Trazado_1413" data-name="Trazado 1413" d="M7.539-5.273H2.867V-1.2H8.336V0H1.328V-11.375H8.25v1.211H2.867v3.68H7.539ZM11.609,0H10.07V-12.187h1.539Zm5.867.164A3.576,3.576,0,0,1,14.637-1a4.48,4.48,0,0,1-1.02-3.062v-.344a4.386,4.386,0,0,1,1.051-3.012,3.3,3.3,0,0,1,2.566-1.191,3.067,3.067,0,0,1,2.543,1.055,4.345,4.345,0,0,1,.848,2.8v.813H15.219L15.2-3.9a3.494,3.494,0,0,0,.563,2.066,1.965,1.965,0,0,0,1.719.793,3.872,3.872,0,0,0,1.371-.223,3.061,3.061,0,0,0,1.012-.613l.6,1a3.7,3.7,0,0,1-1.2.738A4.762,4.762,0,0,1,17.477.164ZM17.234-7.4a1.673,1.673,0,0,0-1.332.621,2.938,2.938,0,0,0-.645,1.59l.016.039h3.813v-.125A2.462,2.462,0,0,0,18.633-6.8,1.638,1.638,0,0,0,17.234-7.4Zm6.492-1.055.109,1.109a2.871,2.871,0,0,1,1.051-.934,3.157,3.157,0,0,1,1.48-.332,2.615,2.615,0,0,1,1.449.391,2.363,2.363,0,0,1,.91,1.172,3.162,3.162,0,0,1,1.059-1.145,2.769,2.769,0,0,1,1.527-.418,2.531,2.531,0,0,1,2.039.887,4.051,4.051,0,0,1,.75,2.668V0H32.563V-5.07a2.81,2.81,0,0,0-.43-1.77,1.567,1.567,0,0,0-1.281-.52,1.631,1.631,0,0,0-1.277.547A2.381,2.381,0,0,0,29-5.43V0H27.453V-5.07a2.772,2.772,0,0,0-.441-1.738,1.532,1.532,0,0,0-1.27-.551,2.115,2.115,0,0,0-1.156.289,1.867,1.867,0,0,0-.7.813V0H22.352V-8.453ZM39.836.164A3.576,3.576,0,0,1,37-1a4.48,4.48,0,0,1-1.02-3.062v-.344a4.386,4.386,0,0,1,1.051-3.012,3.3,3.3,0,0,1,2.566-1.191,3.067,3.067,0,0,1,2.543,1.055,4.345,4.345,0,0,1,.848,2.8v.813H37.578l-.023.039a3.494,3.494,0,0,0,.563,2.066,1.965,1.965,0,0,0,1.719.793,3.872,3.872,0,0,0,1.371-.223,3.061,3.061,0,0,0,1.012-.613l.6,1a3.7,3.7,0,0,1-1.2.738A4.762,4.762,0,0,1,39.836.164ZM39.594-7.4a1.673,1.673,0,0,0-1.332.621,2.938,2.938,0,0,0-.645,1.59l.016.039h3.813v-.125A2.462,2.462,0,0,0,40.992-6.8,1.638,1.638,0,0,0,39.594-7.4Zm6.492-1.055L46.2-7.2a3.069,3.069,0,0,1,1.059-1.043A2.824,2.824,0,0,1,48.7-8.609a2.759,2.759,0,0,1,2.117.8,3.515,3.515,0,0,1,.75,2.473V0H50.031V-5.3a2.287,2.287,0,0,0-.441-1.586,1.768,1.768,0,0,0-1.348-.469,2.386,2.386,0,0,0-1.207.285,2.072,2.072,0,0,0-.785.8V0H44.711V-8.453Zm9.859-2.039v2.039h1.6v1.141h-1.6V-2.18a1.149,1.149,0,0,0,.246.836.89.89,0,0,0,.652.242,1.429,1.429,0,0,0,.3-.035,2.2,2.2,0,0,0,.273-.074l.211,1.055a1.36,1.36,0,0,1-.508.23,2.562,2.562,0,0,1-.664.09A1.993,1.993,0,0,1,54.961-.4a2.46,2.46,0,0,1-.555-1.777V-7.312H53.063V-8.453h1.344v-2.039ZM58.836-4.3a4.654,4.654,0,0,1,1.016-3.09,3.406,3.406,0,0,1,2.758-1.215A3.439,3.439,0,0,1,65.387-7.4,4.639,4.639,0,0,1,66.406-4.3v.172a4.631,4.631,0,0,1-1.016,3.094,3.429,3.429,0,0,1-2.766,1.2,3.436,3.436,0,0,1-2.77-1.207,4.623,4.623,0,0,1-1.02-3.09Zm1.539.172a4.009,4.009,0,0,0,.566,2.219,1.875,1.875,0,0,0,1.684.875A1.87,1.87,0,0,0,64.3-1.914a3.988,3.988,0,0,0,.57-2.219V-4.3a3.976,3.976,0,0,0-.574-2.211A1.882,1.882,0,0,0,62.609-7.4a1.856,1.856,0,0,0-1.668.883A4.018,4.018,0,0,0,60.375-4.3Z" transform="translate(1022 2474)" fill="#595959"/>
  </g>
</svg>
