<svg xmlns="http://www.w3.org/2000/svg" width="544.684" height="64.711" viewBox="0 0 544.684 64.711">
  <g id="Grupo_859" data-name="Grupo 859" transform="translate(-830 -2708.021)">
    <g id="Trazado_1147" data-name="Trazado 1147" transform="translate(830 2709)" fill="#f8f8f8">
      <path d="M 456.2773742675781 44.5 L 6.000024795532227 44.5 C 2.967319011688232 44.5 0.5000247955322266 42.03270721435547 0.5000247955322266 39 L 0.5000247955322266 6 C 0.5000247955322266 2.967294216156006 2.967319011688232 0.5 6.000024795532227 0.5 L 456.2773742675781 0.5 C 459.3100891113281 0.5 461.7773742675781 2.967294216156006 461.7773742675781 6 L 461.7773742675781 39 C 461.7773742675781 42.03270721435547 459.3100891113281 44.5 456.2773742675781 44.5 Z" stroke="none"/>
      <path d="M 5.999969482421875 1 C 3.24298095703125 1 0.999969482421875 3.243000030517578 0.999969482421875 6 L 0.999969482421875 39 C 0.999969482421875 41.75699996948242 3.24298095703125 44 5.999969482421875 44 L 456.2773132324219 44 C 459.0343322753906 44 461.2773132324219 41.75699996948242 461.2773132324219 39 L 461.2773132324219 6 C 461.2773132324219 3.243000030517578 459.0343322753906 1 456.2773132324219 1 L 5.999969482421875 1 M 5.999969482421875 0 L 456.2773132324219 0 C 459.5910949707031 0 462.2773132324219 2.686294555664062 462.2773132324219 6 L 462.2773132324219 39 C 462.2773132324219 42.31370544433594 459.5910949707031 45 456.2773132324219 45 L 5.999969482421875 45 C 2.686248779296875 45 -3.0517578125e-05 42.31370544433594 -3.0517578125e-05 39 L -3.0517578125e-05 6 C -3.0517578125e-05 2.686294555664062 2.686248779296875 0 5.999969482421875 0 Z" stroke="none" fill="#d9d9d9"/>
    </g>
    <path id="Trazado_1148" data-name="Trazado 1148" d="M9.281-10.164H5.531V0H3.992V-10.164H.289v-1.211H9.281ZM13.414.164A3.576,3.576,0,0,1,10.574-1a4.48,4.48,0,0,1-1.02-3.062v-.344a4.386,4.386,0,0,1,1.051-3.012,3.3,3.3,0,0,1,2.566-1.191,3.067,3.067,0,0,1,2.543,1.055,4.345,4.345,0,0,1,.848,2.8v.813H11.156l-.023.039A3.494,3.494,0,0,0,11.7-1.832a1.965,1.965,0,0,0,1.719.793,3.872,3.872,0,0,0,1.371-.223A3.061,3.061,0,0,0,15.8-1.875l.6,1a3.7,3.7,0,0,1-1.2.738A4.762,4.762,0,0,1,13.414.164ZM13.172-7.4a1.673,1.673,0,0,0-1.332.621,2.938,2.938,0,0,0-.645,1.59l.016.039h3.813v-.125A2.462,2.462,0,0,0,14.57-6.8,1.638,1.638,0,0,0,13.172-7.4Zm7.984,2.063,1.8-3.117h1.8l-2.742,4.18L24.828,0H23.063L21.188-3.2,19.313,0H17.531l2.82-4.273-2.742-4.18h1.773Zm7.32-5.156v2.039h1.6v1.141h-1.6V-2.18a1.149,1.149,0,0,0,.246.836.89.89,0,0,0,.652.242,1.429,1.429,0,0,0,.3-.035,2.2,2.2,0,0,0,.273-.074l.211,1.055a1.36,1.36,0,0,1-.508.23,2.562,2.562,0,0,1-.664.09A1.993,1.993,0,0,1,27.492-.4a2.46,2.46,0,0,1-.555-1.777V-7.312H25.594V-8.453h1.344v-2.039ZM31.367-4.3a4.654,4.654,0,0,1,1.016-3.09,3.406,3.406,0,0,1,2.758-1.215A3.439,3.439,0,0,1,37.918-7.4,4.639,4.639,0,0,1,38.938-4.3v.172a4.631,4.631,0,0,1-1.016,3.094,3.429,3.429,0,0,1-2.766,1.2,3.436,3.436,0,0,1-2.77-1.207,4.623,4.623,0,0,1-1.02-3.09Zm1.539.172a4.009,4.009,0,0,0,.566,2.219,1.875,1.875,0,0,0,1.684.875,1.87,1.87,0,0,0,1.672-.875,3.988,3.988,0,0,0,.57-2.219V-4.3a3.976,3.976,0,0,0-.574-2.211A1.882,1.882,0,0,0,35.141-7.4a1.856,1.856,0,0,0-1.668.883A4.018,4.018,0,0,0,32.906-4.3Zm11.539.063a5.641,5.641,0,0,1,.871-3.289,2.807,2.807,0,0,1,2.441-1.25,3.027,3.027,0,0,1,1.316.273,2.7,2.7,0,0,1,.98.8v-4.648h1.539V0h-1.18L50.18-1.07a2.743,2.743,0,0,1-1.023.922,3.058,3.058,0,0,1-1.414.313A2.9,2.9,0,0,1,45.32-.957a4.659,4.659,0,0,1-.875-2.949Zm1.539.164a3.588,3.588,0,0,0,.523,2.051,1.828,1.828,0,0,0,1.625.77A2.039,2.039,0,0,0,49.289-1.4a2.334,2.334,0,0,0,.766-.875V-6.219a2.37,2.37,0,0,0-.77-.832,2.033,2.033,0,0,0-1.137-.309,1.759,1.759,0,0,0-1.637.914,4.718,4.718,0,0,0-.527,2.375ZM57.391.164A3.576,3.576,0,0,1,54.551-1a4.48,4.48,0,0,1-1.02-3.062v-.344a4.386,4.386,0,0,1,1.051-3.012,3.3,3.3,0,0,1,2.566-1.191,3.067,3.067,0,0,1,2.543,1.055,4.345,4.345,0,0,1,.848,2.8v.813H55.133l-.023.039a3.494,3.494,0,0,0,.563,2.066,1.965,1.965,0,0,0,1.719.793,3.872,3.872,0,0,0,1.371-.223,3.061,3.061,0,0,0,1.012-.613l.6,1a3.7,3.7,0,0,1-1.2.738A4.762,4.762,0,0,1,57.391.164ZM57.148-7.4a1.673,1.673,0,0,0-1.332.621,2.938,2.938,0,0,0-.645,1.59l.016.039H59v-.125A2.462,2.462,0,0,0,58.547-6.8,1.638,1.638,0,0,0,57.148-7.4ZM69.742.164A3.576,3.576,0,0,1,66.9-1a4.48,4.48,0,0,1-1.02-3.062v-.344a4.386,4.386,0,0,1,1.051-3.012A3.3,3.3,0,0,1,69.5-8.609a3.067,3.067,0,0,1,2.543,1.055,4.345,4.345,0,0,1,.848,2.8v.813H67.484l-.023.039a3.494,3.494,0,0,0,.563,2.066,1.965,1.965,0,0,0,1.719.793,3.872,3.872,0,0,0,1.371-.223,3.061,3.061,0,0,0,1.012-.613l.6,1a3.7,3.7,0,0,1-1.2.738A4.762,4.762,0,0,1,69.742.164ZM69.5-7.4a1.673,1.673,0,0,0-1.332.621,2.938,2.938,0,0,0-.645,1.59l.016.039h3.813v-.125A2.462,2.462,0,0,0,70.9-6.8,1.638,1.638,0,0,0,69.5-7.4Zm6.492-1.055L76.1-7.2A3.069,3.069,0,0,1,77.16-8.238a2.824,2.824,0,0,1,1.449-.371,2.759,2.759,0,0,1,2.117.8,3.515,3.515,0,0,1,.75,2.473V0H79.938V-5.3A2.287,2.287,0,0,0,79.5-6.891a1.768,1.768,0,0,0-1.348-.469,2.386,2.386,0,0,0-1.207.285,2.072,2.072,0,0,0-.785.8V0H74.617V-8.453Zm9.859-2.039v2.039h1.6v1.141h-1.6V-2.18a1.149,1.149,0,0,0,.246.836.89.89,0,0,0,.652.242,1.43,1.43,0,0,0,.3-.035,2.2,2.2,0,0,0,.273-.074l.211,1.055a1.36,1.36,0,0,1-.508.23,2.562,2.562,0,0,1-.664.09A1.993,1.993,0,0,1,84.867-.4a2.46,2.46,0,0,1-.555-1.777V-7.312H82.969V-8.453h1.344v-2.039Zm7.25,3.4-.789-.047a1.762,1.762,0,0,0-1.027.289,1.854,1.854,0,0,0-.645.813V0H89.1V-8.453h1.375l.148,1.234a2.934,2.934,0,0,1,.887-1.023,2.073,2.073,0,0,1,1.215-.367,1.9,1.9,0,0,1,.328.027,2.175,2.175,0,0,1,.258.059ZM99.9,0q-.078-.383-.121-.676a4.96,4.96,0,0,1-.051-.59,3.589,3.589,0,0,1-1.121,1.02,2.867,2.867,0,0,1-1.488.41,2.763,2.763,0,0,1-2.012-.676,2.486,2.486,0,0,1-.691-1.863,2.183,2.183,0,0,1,.98-1.895,4.579,4.579,0,0,1,2.66-.684h1.672v-.836a1.551,1.551,0,0,0-.453-1.176A1.779,1.779,0,0,0,97.992-7.4a1.859,1.859,0,0,0-1.211.375,1.125,1.125,0,0,0-.461.9l-1.461.016-.016-.047a2.023,2.023,0,0,1,.863-1.687,3.578,3.578,0,0,1,2.371-.766,3.49,3.49,0,0,1,2.313.73,2.588,2.588,0,0,1,.875,2.105V-1.7a7.923,7.923,0,0,0,.047.875,4.5,4.5,0,0,0,.172.828ZM97.344-1.125a2.739,2.739,0,0,0,1.508-.43,2.042,2.042,0,0,0,.875-.984V-3.914H98a2.24,2.24,0,0,0-1.488.469,1.4,1.4,0,0,0-.559,1.1,1.159,1.159,0,0,0,.352.891A1.472,1.472,0,0,0,97.344-1.125Zm5.8-2.945a5.641,5.641,0,0,1,.871-3.289,2.807,2.807,0,0,1,2.441-1.25,3.027,3.027,0,0,1,1.316.273,2.7,2.7,0,0,1,.98.8v-4.648H110.3V0h-1.18l-.234-1.07a2.743,2.743,0,0,1-1.023.922,3.058,3.058,0,0,1-1.414.313,2.9,2.9,0,0,1-2.422-1.121,4.659,4.659,0,0,1-.875-2.949Zm1.539.164a3.588,3.588,0,0,0,.523,2.051,1.828,1.828,0,0,0,1.625.77,2.039,2.039,0,0,0,1.156-.312,2.334,2.334,0,0,0,.766-.875V-6.219a2.37,2.37,0,0,0-.77-.832,2.033,2.033,0,0,0-1.137-.309,1.759,1.759,0,0,0-1.637.914,4.718,4.718,0,0,0-.527,2.375ZM117.789,0q-.078-.383-.121-.676a4.96,4.96,0,0,1-.051-.59A3.589,3.589,0,0,1,116.5-.246a2.867,2.867,0,0,1-1.488.41A2.763,2.763,0,0,1,113-.512a2.486,2.486,0,0,1-.691-1.863,2.183,2.183,0,0,1,.98-1.895,4.579,4.579,0,0,1,2.66-.684h1.672v-.836a1.551,1.551,0,0,0-.453-1.176,1.779,1.779,0,0,0-1.281-.434,1.859,1.859,0,0,0-1.211.375,1.125,1.125,0,0,0-.461.9l-1.461.016-.016-.047a2.023,2.023,0,0,1,.863-1.687,3.578,3.578,0,0,1,2.371-.766,3.49,3.49,0,0,1,2.313.73,2.588,2.588,0,0,1,.875,2.105V-1.7a7.923,7.923,0,0,0,.047.875,4.5,4.5,0,0,0,.172.828Zm-2.555-1.125a2.739,2.739,0,0,0,1.508-.43,2.042,2.042,0,0,0,.875-.984V-3.914h-1.727a2.24,2.24,0,0,0-1.488.469,1.4,1.4,0,0,0-.559,1.1,1.159,1.159,0,0,0,.352.891A1.472,1.472,0,0,0,115.234-1.125Z" transform="translate(844 2738.555)" fill="#b6b6b6"/>
    <path id="Trazado_1151" data-name="Trazado 1151" d="M6.3-3.548H7.561v1.34H6.3V0H4.648V-2.208H.485L.444-3.227,4.6-9.953H6.3Zm-4.238,0H4.648V-7.608l-.041-.007-.157.383ZM9.037-4.4l.574-5.551h5.25v1.436H10.992l-.3,2.536a2.765,2.765,0,0,1,.7-.355,2.8,2.8,0,0,1,.9-.15,2.682,2.682,0,0,1,2.16.868,3.579,3.579,0,0,1,.772,2.44,3.5,3.5,0,0,1-.813,2.4,3.074,3.074,0,0,1-2.434.923A3.494,3.494,0,0,1,9.758-.564a2.329,2.329,0,0,1-.872-2.02L8.9-2.618l1.559-.048a1.42,1.42,0,0,0,.42,1.09,1.542,1.542,0,0,0,1.1.393,1.4,1.4,0,0,0,1.183-.526,2.343,2.343,0,0,0,.4-1.456A2.3,2.3,0,0,0,13.146-4.6a1.41,1.41,0,0,0-1.189-.543,1.871,1.871,0,0,0-1.015.219,1.236,1.236,0,0,0-.482.643Zm14.232.95a4.17,4.17,0,0,1-.759,2.6A2.51,2.51,0,0,1,20.4.144a2.616,2.616,0,0,1-1.114-.226,2.293,2.293,0,0,1-.834-.663V2.844H16.789V-7.4h1.4l.164.93a2.467,2.467,0,0,1,.858-.793,2.4,2.4,0,0,1,1.166-.273A2.456,2.456,0,0,1,22.507-6.45,4.861,4.861,0,0,1,23.27-3.6ZM21.615-3.6a3.6,3.6,0,0,0-.427-1.856,1.389,1.389,0,0,0-1.275-.721,1.656,1.656,0,0,0-.882.222,1.636,1.636,0,0,0-.581.619v3.343a1.545,1.545,0,0,0,.581.6,1.771,1.771,0,0,0,.9.208,1.425,1.425,0,0,0,1.268-.625,2.9,2.9,0,0,0,.42-1.644ZM27.269-4.86,28.636-7.4h1.907L28.219-3.739,30.611,0H28.725L27.3-2.6,25.867,0h-1.9l2.393-3.739L24.035-7.4h1.887ZM36.969,0H35.308V-7.4h1.661Zm0-9.208H35.308v-1.456h1.661ZM40.332-7.4l.1,1.066a2.646,2.646,0,0,1,.913-.885,2.435,2.435,0,0,1,1.241-.318,2.31,2.31,0,0,1,1.8.711A3.23,3.23,0,0,1,45.028-4.6V0H43.367V-4.587a1.786,1.786,0,0,0-.335-1.224,1.312,1.312,0,0,0-1.012-.362,1.983,1.983,0,0,0-.923.2,1.616,1.616,0,0,0-.622.557V0H38.814V-7.4Zm8.2,7.4H46.867V-7.4h1.661Zm0-9.208H46.867v-1.456h1.661ZM53.4-1.183a1.38,1.38,0,0,0,.96-.355,1.163,1.163,0,0,0,.393-.9h1.5l.014.041A2.23,2.23,0,0,1,55.45-.608,2.986,2.986,0,0,1,53.4.144,3.014,3.014,0,0,1,50.935-.913a4.054,4.054,0,0,1-.868-2.663v-.239a4.058,4.058,0,0,1,.868-2.659A3,3,0,0,1,53.4-7.533a2.9,2.9,0,0,1,2.1.776,2.533,2.533,0,0,1,.779,1.972l-.014.041h-1.5a1.5,1.5,0,0,0-.376-1.032A1.253,1.253,0,0,0,53.4-6.2a1.355,1.355,0,0,0-1.278.687,3.4,3.4,0,0,0-.39,1.7v.239a3.431,3.431,0,0,0,.386,1.712A1.363,1.363,0,0,0,53.4-1.183ZM59.438,0H57.777V-7.4h1.661Zm0-9.208H57.777v-1.456h1.661ZM65.755,0q-.089-.28-.147-.547a3.91,3.91,0,0,1-.079-.533,2.849,2.849,0,0,1-.9.872,2.3,2.3,0,0,1-1.251.352,2.459,2.459,0,0,1-1.774-.595,2.16,2.16,0,0,1-.619-1.634,1.93,1.93,0,0,1,.848-1.671,4.093,4.093,0,0,1,2.386-.6h1.292V-5a1.208,1.208,0,0,0-.338-.909,1.354,1.354,0,0,0-.981-.328,1.4,1.4,0,0,0-.9.27.858.858,0,0,0-.335.7l-1.6.007L61.353-5.3a1.832,1.832,0,0,1,.783-1.552A3.317,3.317,0,0,1,64.3-7.533a3.164,3.164,0,0,1,2.085.656,2.31,2.31,0,0,1,.793,1.887V-1.7a6.064,6.064,0,0,0,.062.878,4.664,4.664,0,0,0,.2.824Zm-2.03-1.189A2.076,2.076,0,0,0,64.849-1.5a1.583,1.583,0,0,0,.667-.718V-3.315H64.2a1.666,1.666,0,0,0-1.135.359,1.09,1.09,0,0,0-.41.844.861.861,0,0,0,.277.673A1.151,1.151,0,0,0,63.725-1.189ZM70.684,0H69.022V-10.664h1.661Z" transform="translate(1304 2728)" fill="#4199a0"/>
    <path id="Trazado_1152" data-name="Trazado 1152" d="M6.228-2.324H2.7L1.935,0H.219L3.691-9.953H5.271L8.7,0H6.986ZM3.158-3.712H5.776L4.5-7.636H4.457ZM14.3-1.094a2.481,2.481,0,0,1-.878.916,2.368,2.368,0,0,1-1.241.321,2.316,2.316,0,0,1-1.859-.783,3.68,3.68,0,0,1-.67-2.43V-7.4h1.654v4.341A2.472,2.472,0,0,0,11.614-1.6a1.14,1.14,0,0,0,.957.393,2.136,2.136,0,0,0,1.008-.215,1.564,1.564,0,0,0,.639-.625V-7.4H15.88V0H14.451Zm5.441-8.1v1.8h1.326v1.23H19.742v4.088a.891.891,0,0,0,.2.653.718.718,0,0,0,.526.195,1.469,1.469,0,0,0,.267-.024,1.621,1.621,0,0,0,.246-.065L21.157-.1a1.909,1.909,0,0,1-.5.181,2.766,2.766,0,0,1-.6.065,1.916,1.916,0,0,1-1.439-.537,2.34,2.34,0,0,1-.523-1.685V-6.166H16.96V-7.4h1.128v-1.8ZM22.1-3.767a4.016,4.016,0,0,1,.906-2.71,3.093,3.093,0,0,1,2.478-1.056,3.117,3.117,0,0,1,2.5,1.056,4.016,4.016,0,0,1,.906,2.71v.144a4.01,4.01,0,0,1-.906,2.717A3.11,3.11,0,0,1,25.5.144,3.114,3.114,0,0,1,23.006-.909,4.013,4.013,0,0,1,22.1-3.623Zm1.661.144a3.281,3.281,0,0,0,.424,1.764,1.439,1.439,0,0,0,1.313.677,1.442,1.442,0,0,0,1.3-.68,3.223,3.223,0,0,0,.434-1.76v-.144A3.217,3.217,0,0,0,26.8-5.513,1.451,1.451,0,0,0,25.484-6.2a1.423,1.423,0,0,0-1.3.687,3.257,3.257,0,0,0-.427,1.747Z" transform="translate(1304 2744)" fill="#4199a0"/>
    <path id="Trazado_1149" data-name="Trazado 1149" d="M0,0H8" transform="translate(1294.834 2708.521)" fill="none" stroke="#4199a0" stroke-width="1"/>
    <path id="Trazado_1155" data-name="Trazado 1155" d="M0,0H8" transform="translate(1294.834 2754.021)" fill="none" stroke="#4199a0" stroke-width="1"/>
    <path id="Trazado_1153" data-name="Trazado 1153" d="M0,0V45" transform="translate(1298.834 2708.521)" fill="none" stroke="#4199a0" stroke-width="1"/>
    <path id="Trazado_1156" data-name="Trazado 1156" d="M-25.8-3.088a3.344,3.344,0,0,1-.788,2.355,2.7,2.7,0,0,1-2.089.855,2.728,2.728,0,0,1-2.1-.855,3.336,3.336,0,0,1-.791-2.355v-2.35a3.357,3.357,0,0,1,.788-2.355,2.7,2.7,0,0,1,2.095-.861,2.714,2.714,0,0,1,2.095.861A3.341,3.341,0,0,1-25.8-5.437ZM-27.51-5.613a2.208,2.208,0,0,0-.313-1.271,1,1,0,0,0-.87-.451.992.992,0,0,0-.87.451,2.241,2.241,0,0,0-.308,1.271v2.689a2.246,2.246,0,0,0,.311,1.286,1.007,1.007,0,0,0,.879.448.989.989,0,0,0,.864-.448,2.263,2.263,0,0,0,.308-1.286ZM-24.17.732h-.984l3.563-9.264h.979Zm4.928-4.523.492-4.74h4.271v1.025h-3.3l-.275,2.455a2.633,2.633,0,0,1,.609-.337,2.143,2.143,0,0,1,.762-.138,2.323,2.323,0,0,1,1.854.741,2.994,2.994,0,0,1,.671,2.065,3,3,0,0,1-.688,2.063,2.536,2.536,0,0,1-2.007.779,2.75,2.75,0,0,1-1.8-.592,2.048,2.048,0,0,1-.691-1.74l.012-.035h1.043a1.425,1.425,0,0,0,.4,1.081,1.443,1.443,0,0,0,1.04.384,1.362,1.362,0,0,0,1.137-.516,2.232,2.232,0,0,0,.4-1.412,2.033,2.033,0,0,0-.407-1.318,1.377,1.377,0,0,0-1.134-.5,1.812,1.812,0,0,0-.984.205,1.2,1.2,0,0,0-.451.633Zm11.824.779A3.367,3.367,0,0,1-8.153-.721a2.49,2.49,0,0,1-1.978.844,2.5,2.5,0,0,1-1.978-.844,3.349,3.349,0,0,1-.741-2.291V-5.52A3.371,3.371,0,0,1-12.114-7.8a2.476,2.476,0,0,1,1.972-.85,2.5,2.5,0,0,1,1.983.85A3.354,3.354,0,0,1-7.418-5.52ZM-8.572-5.76a2.327,2.327,0,0,0-.41-1.453,1.378,1.378,0,0,0-1.16-.533,1.356,1.356,0,0,0-1.148.533,2.351,2.351,0,0,0-.4,1.453v2.982a2.341,2.341,0,0,0,.413,1.459,1.368,1.368,0,0,0,1.151.539,1.359,1.359,0,0,0,1.154-.536,2.375,2.375,0,0,0,.4-1.462Zm7.91,2.748A3.367,3.367,0,0,1-1.4-.721,2.49,2.49,0,0,1-3.375.123,2.5,2.5,0,0,1-5.353-.721a3.349,3.349,0,0,1-.741-2.291V-5.52A3.371,3.371,0,0,1-5.358-7.8a2.476,2.476,0,0,1,1.972-.85A2.5,2.5,0,0,1-1.4-7.8,3.354,3.354,0,0,1-.662-5.52ZM-1.816-5.76a2.327,2.327,0,0,0-.41-1.453,1.378,1.378,0,0,0-1.16-.533,1.356,1.356,0,0,0-1.148.533,2.351,2.351,0,0,0-.4,1.453v2.982a2.341,2.341,0,0,0,.413,1.459,1.368,1.368,0,0,0,1.151.539,1.359,1.359,0,0,0,1.154-.536,2.375,2.375,0,0,0,.4-1.462Z" transform="translate(1292 2772)" fill="#333"/>
    <path id="Trazado_1150" data-name="Trazado 1150" d="M10.134,0,0,11.289" transform="translate(1277.5 2738.211)" fill="none" stroke="#707070" stroke-width="2" opacity="0.512"/>
    <path id="Trazado_1154" data-name="Trazado 1154" d="M7,0,0,8" transform="translate(1282.5 2742.5)" fill="none" stroke="#707070" stroke-width="2" opacity="0.512"/>
  </g>
</svg>
