<svg xmlns="http://www.w3.org/2000/svg" width="260" height="49.404" viewBox="0 0 260 49.404">
  <g id="Grupo_851" data-name="Grupo 851" transform="translate(-830 -753)">
    <path id="Trazado_1149" data-name="Trazado 1149" d="M5.994,0H254.006C257.317,0,260,2.949,260,6.587V42.816c0,3.638-2.683,6.587-5.994,6.587H5.994C2.683,49.4,0,46.454,0,42.816V6.587C0,2.949,2.683,0,5.994,0Z" transform="translate(830 753)" fill="#fccbe8"/>
    <g id="Trazado_1138" data-name="Trazado 1138" transform="translate(832.285 755)" fill="#f8f8f8">
      <path d="M 249.5948791503906 44.5 L 5.889500141143799 44.5 C 2.917718648910522 44.5 0.5 42.03271865844727 0.5 39 L 0.5 6 C 0.5 2.967281341552734 2.917718648910522 0.5 5.889500141143799 0.5 L 249.5948791503906 0.5 C 252.566650390625 0.5 254.984375 2.967281341552734 254.984375 6 L 254.984375 39 C 254.984375 42.03271865844727 252.566650390625 44.5 249.5948791503906 44.5 Z" stroke="none"/>
      <path d="M 5.8895263671875 1 C 3.19342041015625 1 0.9999847412109375 3.243000030517578 0.9999847412109375 6 L 0.9999847412109375 39 C 0.9999847412109375 41.75699996948242 3.19342041015625 44 5.8895263671875 44 L 249.5948944091797 44 C 252.2909545898438 44 254.4843597412109 41.75699996948242 254.4843597412109 39 L 254.4843597412109 6 C 254.4843597412109 3.243000030517578 252.2909545898438 1 249.5948944091797 1 L 5.8895263671875 1 M 5.8895263671875 0 L 249.5948944091797 0 C 252.8475494384766 0 255.4843597412109 2.686298370361328 255.4843597412109 6 L 255.4843597412109 39 C 255.4843597412109 42.31370162963867 252.8475494384766 45 249.5948944091797 45 L 5.8895263671875 45 C 2.636825561523438 45 -1.52587890625e-05 42.31370162963867 -1.52587890625e-05 39 L -1.52587890625e-05 6 C -1.52587890625e-05 2.686298370361328 2.636825561523438 0 5.8895263671875 0 Z" stroke="none" fill="#b7006d"/>
    </g>
    <path id="Trazado_1140" data-name="Trazado 1140" d="M2852.861,694l8.717,8.777,8.535-8.777" transform="translate(-1792.715 80)" fill="none" stroke="#707070" stroke-width="1"/>
    <path id="Trazado_1432" data-name="Trazado 1432" d="M-39.146-3.287a1.681,1.681,0,0,0-.567-1.31,5.219,5.219,0,0,0-2.008-.914,8.565,8.565,0,0,1-3.186-1.5,2.993,2.993,0,0,1-1.121-2.421,3.146,3.146,0,0,1,1.23-2.549,4.85,4.85,0,0,1,3.164-1,4.793,4.793,0,0,1,3.318,1.112,3.407,3.407,0,0,1,1.2,2.747l-.018.053H-39.19a2.044,2.044,0,0,0-.672-1.608,2.593,2.593,0,0,0-1.789-.6,2.457,2.457,0,0,0-1.666.51A1.668,1.668,0,0,0-43.9-9.448a1.46,1.46,0,0,0,.642,1.217,6.971,6.971,0,0,0,2.127.91,7.436,7.436,0,0,1,3.067,1.534A3.225,3.225,0,0,1-37.011-3.3a3.03,3.03,0,0,1-1.248,2.54,5.274,5.274,0,0,1-3.278.949,5.694,5.694,0,0,1-3.4-1.037,3.286,3.286,0,0,1-1.406-2.927l.018-.053h2.057a2.016,2.016,0,0,0,.8,1.736,3.183,3.183,0,0,0,1.938.584,2.852,2.852,0,0,0,1.762-.479A1.544,1.544,0,0,0-39.146-3.287ZM-31.008.185a4.141,4.141,0,0,1-3.256-1.314,4.921,4.921,0,0,1-1.173-3.406v-.352a5.088,5.088,0,0,1,1.173-3.45,3.792,3.792,0,0,1,3.028-1.349,3.559,3.559,0,0,1,2.9,1.182,4.78,4.78,0,0,1,.984,3.16v1.151h-5.88l-.018.044a3.116,3.116,0,0,0,.615,1.9,2.1,2.1,0,0,0,1.749.729,4.812,4.812,0,0,0,1.507-.211A4.3,4.3,0,0,0-28.2-2.338l.694,1.4a4.526,4.526,0,0,1-1.441.8A6.041,6.041,0,0,1-31.008.185Zm-.229-8.156a1.65,1.65,0,0,0-1.336.6A2.984,2.984,0,0,0-33.2-5.8l.018.044h3.718v-.167A2.4,2.4,0,0,0-29.887-7.4,1.578,1.578,0,0,0-31.236-7.972ZM-23.344,0h-2.136V-13.711h2.136Zm6.425.185a4.141,4.141,0,0,1-3.256-1.314,4.921,4.921,0,0,1-1.173-3.406v-.352a5.088,5.088,0,0,1,1.173-3.45,3.792,3.792,0,0,1,3.028-1.349,3.559,3.559,0,0,1,2.9,1.182,4.78,4.78,0,0,1,.984,3.16v1.151h-5.88l-.018.044a3.116,3.116,0,0,0,.615,1.9,2.1,2.1,0,0,0,1.749.729,4.812,4.812,0,0,0,1.507-.211,4.3,4.3,0,0,0,1.182-.606l.694,1.4a4.526,4.526,0,0,1-1.441.8A6.041,6.041,0,0,1-16.919.185Zm-.229-8.156a1.65,1.65,0,0,0-1.336.6A2.984,2.984,0,0,0-19.107-5.8l.018.044h3.718v-.167A2.4,2.4,0,0,0-15.8-7.4,1.578,1.578,0,0,0-17.147-7.972Zm9.492,6.451A1.775,1.775,0,0,0-6.42-1.978a1.5,1.5,0,0,0,.505-1.16h1.934l.018.053a2.867,2.867,0,0,1-1.059,2.3A3.839,3.839,0,0,1-7.655.185a3.875,3.875,0,0,1-3.173-1.358A5.213,5.213,0,0,1-11.944-4.6V-4.9a5.217,5.217,0,0,1,1.116-3.419A3.859,3.859,0,0,1-7.664-9.686a3.73,3.73,0,0,1,2.7,1,3.256,3.256,0,0,1,1,2.536l-.018.053H-5.915A1.929,1.929,0,0,0-6.4-7.427a1.611,1.611,0,0,0-1.266-.545,1.742,1.742,0,0,0-1.644.883,4.371,4.371,0,0,0-.5,2.184V-4.6a4.411,4.411,0,0,0,.5,2.2A1.752,1.752,0,0,0-7.655-1.521Zm9.36,0A1.775,1.775,0,0,0,2.94-1.978a1.5,1.5,0,0,0,.505-1.16H5.379l.018.053a2.867,2.867,0,0,1-1.059,2.3A3.839,3.839,0,0,1,1.705.185,3.875,3.875,0,0,1-1.468-1.173,5.213,5.213,0,0,1-2.584-4.6V-4.9A5.217,5.217,0,0,1-1.468-8.323,3.859,3.859,0,0,1,1.7-9.686a3.73,3.73,0,0,1,2.7,1,3.256,3.256,0,0,1,1,2.536L5.379-6.1H3.445a1.929,1.929,0,0,0-.483-1.327A1.611,1.611,0,0,0,1.7-7.972a1.742,1.742,0,0,0-1.644.883A4.371,4.371,0,0,0-.448-4.9V-4.6a4.411,4.411,0,0,0,.5,2.2A1.752,1.752,0,0,0,1.705-1.521ZM9.466,0H7.33V-9.51H9.466Zm0-11.839H7.33v-1.872H9.466Zm2,7a5.164,5.164,0,0,1,1.165-3.485,3.977,3.977,0,0,1,3.186-1.358,4.007,4.007,0,0,1,3.212,1.358,5.164,5.164,0,0,1,1.165,3.485v.185a5.156,5.156,0,0,1-1.165,3.494A4,4,0,0,1,15.829.185a4,4,0,0,1-3.2-1.354,5.16,5.16,0,0,1-1.165-3.489Zm2.136.185a4.218,4.218,0,0,0,.545,2.268,1.85,1.85,0,0,0,1.688.87A1.855,1.855,0,0,0,17.5-2.4a4.144,4.144,0,0,0,.558-2.263v-.185A4.136,4.136,0,0,0,17.5-7.088a1.866,1.866,0,0,0-1.692-.883,1.829,1.829,0,0,0-1.666.883A4.188,4.188,0,0,0,13.6-4.843ZM23.985-9.51l.123,1.371a3.4,3.4,0,0,1,1.173-1.138,3.131,3.131,0,0,1,1.6-.409,2.97,2.97,0,0,1,2.316.914,4.153,4.153,0,0,1,.831,2.856V0H27.888V-5.9a2.3,2.3,0,0,0-.431-1.573,1.687,1.687,0,0,0-1.3-.466,2.55,2.55,0,0,0-1.187.259,2.078,2.078,0,0,0-.8.716V0H22.034V-9.51ZM37.978,0q-.114-.36-.189-.7a5.026,5.026,0,0,1-.1-.686A3.663,3.663,0,0,1,36.536-.268a2.962,2.962,0,0,1-1.608.453A3.161,3.161,0,0,1,32.647-.58a2.777,2.777,0,0,1-.8-2.1,2.481,2.481,0,0,1,1.09-2.149A5.262,5.262,0,0,1,36.009-5.6H37.67v-.835A1.553,1.553,0,0,0,37.235-7.6a1.74,1.74,0,0,0-1.261-.422,1.8,1.8,0,0,0-1.16.347,1.1,1.1,0,0,0-.431.9l-2.057.009-.009-.053a2.355,2.355,0,0,1,1.006-2,4.264,4.264,0,0,1,2.782-.87,4.069,4.069,0,0,1,2.681.844,2.97,2.97,0,0,1,1.02,2.426v4.228a7.8,7.8,0,0,0,.079,1.129A6,6,0,0,0,40.14,0Zm-2.61-1.529a2.669,2.669,0,0,0,1.446-.4,2.036,2.036,0,0,0,.857-.923V-4.263h-1.7a2.141,2.141,0,0,0-1.459.461,1.4,1.4,0,0,0-.527,1.085,1.107,1.107,0,0,0,.356.866A1.479,1.479,0,0,0,35.367-1.529ZM46.775-7.585l-.914-.035a1.915,1.915,0,0,0-1.042.264,1.736,1.736,0,0,0-.646.747V0H42.038V-9.51h1.951l.141,1.38a3.05,3.05,0,0,1,.927-1.143,2.158,2.158,0,0,1,1.305-.413,1.99,1.99,0,0,1,.36.031,2.631,2.631,0,0,1,.308.075Z" transform="translate(899.285 783.555)" fill="#333"/>
  </g>
</svg>
