<svg xmlns="http://www.w3.org/2000/svg" xmlns:xlink="http://www.w3.org/1999/xlink" width="278" height="263.153" viewBox="0 0 278 263.153">
  <defs>
    <filter id="Trazado_1435" x="0" y="43.153" width="278" height="220" filterUnits="userSpaceOnUse">
      <feOffset dy="3" input="SourceAlpha"/>
      <feGaussianBlur stdDeviation="3" result="blur"/>
      <feFlood flood-opacity="0.161"/>
      <feComposite operator="in" in2="blur"/>
      <feComposite in="SourceGraphic"/>
    </filter>
  </defs>
  <g id="Grupo_852" data-name="Grupo 852" transform="translate(-1102.479 -751.847)">
    <path id="Trazado_1151" data-name="Trazado 1151" d="M6.1,0H258.532a6.337,6.337,0,0,1,6.1,6.549V42.571a6.337,6.337,0,0,1-6.1,6.549H6.1A6.337,6.337,0,0,1,0,42.571V6.549A6.337,6.337,0,0,1,6.1,0Z" transform="translate(1109 751.847)" fill="#fccbe8"/>
    <path id="Trazado_1441" data-name="Trazado 1441" d="M-45.6-4.443l.02.059a4.136,4.136,0,0,1-1.367,3.34A5.349,5.349,0,0,1-50.635.205a4.777,4.777,0,0,1-3.828-1.714,6.621,6.621,0,0,1-1.455-4.438V-8.262A6.644,6.644,0,0,1-54.463-12.7a4.765,4.765,0,0,1,3.828-1.724A5.418,5.418,0,0,1-46.929-13.2a4.129,4.129,0,0,1,1.353,3.359l-.02.059h-1.094a3.453,3.453,0,0,0-1.05-2.681,4.125,4.125,0,0,0-2.9-.962,3.608,3.608,0,0,0-2.993,1.445,5.838,5.838,0,0,0-1.128,3.7v2.334a5.866,5.866,0,0,0,1.128,3.726,3.613,3.613,0,0,0,2.993,1.44,4.193,4.193,0,0,0,2.9-.937,3.463,3.463,0,0,0,1.05-2.725Zm2.1-1a5.678,5.678,0,0,1,1.279-3.828,4.24,4.24,0,0,1,3.389-1.494,4.251,4.251,0,0,1,3.4,1.494A5.678,5.678,0,0,1-34.15-5.439v.322a5.688,5.688,0,0,1-1.274,3.833A4.232,4.232,0,0,1-38.809.205a4.268,4.268,0,0,1-3.408-1.489A5.674,5.674,0,0,1-43.5-5.117Zm1.172.322A5.034,5.034,0,0,0-41.4-2.031a3.039,3.039,0,0,0,2.588,1.25,3.023,3.023,0,0,0,2.563-1.25,5.015,5.015,0,0,0,.933-3.086v-.322a4.991,4.991,0,0,0-.937-3.066,3.037,3.037,0,0,0-2.578-1.26A3.012,3.012,0,0,0-41.4-8.506a5.028,5.028,0,0,0-.928,3.066ZM-23.2-4.99a6.1,6.1,0,0,1-1.074,3.784A3.513,3.513,0,0,1-27.236.205a4.26,4.26,0,0,1-1.938-.42,3.564,3.564,0,0,1-1.362-1.191V4.063h-1.172V-10.566h.9l.215,1.65a3.781,3.781,0,0,1,1.367-1.362,3.886,3.886,0,0,1,1.973-.483,3.447,3.447,0,0,1,2.979,1.519A6.876,6.876,0,0,1-23.2-5.2ZM-24.375-5.2a6.063,6.063,0,0,0-.8-3.281,2.6,2.6,0,0,0-2.344-1.27,3.067,3.067,0,0,0-1.9.557,3.5,3.5,0,0,0-1.118,1.445v5.117a3.255,3.255,0,0,0,1.162,1.353A3.35,3.35,0,0,0-27.5-.781a2.651,2.651,0,0,0,2.329-1.152,5.283,5.283,0,0,0,.8-3.057ZM-19.268,0H-20.43V-10.566h1.162Zm0-13.594H-20.43v-1.641h1.162ZM-9.346,0q-.107-.557-.161-.957a6.164,6.164,0,0,1-.054-.82A4.286,4.286,0,0,1-11.094-.356a4.5,4.5,0,0,1-2.266.562A3.323,3.323,0,0,1-15.767-.62a2.97,2.97,0,0,1-.854-2.241,2.694,2.694,0,0,1,1.24-2.295,5.451,5.451,0,0,1,3.223-.879h2.6V-7.344a2.267,2.267,0,0,0-.718-1.777A2.929,2.929,0,0,0-12.3-9.766a3.024,3.024,0,0,0-1.938.586,1.809,1.809,0,0,0-.737,1.475h-1.084l-.02-.059a2.5,2.5,0,0,1,1.021-2.095,4.242,4.242,0,0,1,2.817-.9,4.19,4.19,0,0,1,2.793.889A3.147,3.147,0,0,1-8.4-7.324v5.2a9.065,9.065,0,0,0,.063,1.084A6.828,6.828,0,0,0-8.125,0Zm-3.887-.83A4.194,4.194,0,0,0-10.9-1.47,3.2,3.2,0,0,0-9.561-3.115V-5.137h-2.607a3.883,3.883,0,0,0-2.354.679,1.985,1.985,0,0,0-.928,1.636,1.876,1.876,0,0,0,.591,1.445A2.3,2.3,0,0,0-13.232-.83ZM-.459-9.561l-.83-.059A2.649,2.649,0,0,0-3.1-9a3.42,3.42,0,0,0-1.011,1.7V0H-5.283V-10.566h1.025l.146,1.758v.117a3.8,3.8,0,0,1,1.23-1.523,3.092,3.092,0,0,1,1.836-.547,2.377,2.377,0,0,1,.41.034,2.718,2.718,0,0,1,.322.073Z" transform="translate(1371.201 865)" fill="#b7006d"/>
    <g transform="matrix(1, 0, 0, 1, 1102.48, 751.85)" filter="url(#Trazado_1435)">
      <path id="Trazado_1435-2" data-name="Trazado 1435" d="M1,0H259a1,1,0,0,1,1,1V201a1,1,0,0,1-1,1H1a1,1,0,0,1-1-1V1A1,1,0,0,1,1,0Z" transform="translate(9 49.15)" fill="#fff"/>
    </g>
    <g id="Trazado_1433" data-name="Trazado 1433" transform="translate(1111.479 754)" fill="#f8f8f8">
      <path d="M 254 44.5 L 6 44.5 C 2.967299938201904 44.5 0.5 42.03269958496094 0.5 39 L 0.5 6 C 0.5 2.967299938201904 2.967299938201904 0.5 6 0.5 L 254 0.5 C 257.03271484375 0.5 259.5 2.967299938201904 259.5 6 L 259.5 39 C 259.5 42.03269958496094 257.03271484375 44.5 254 44.5 Z" stroke="none"/>
      <path d="M 6 1 C 3.243011474609375 1 1 3.243000030517578 1 6 L 1 39 C 1 41.75699996948242 3.243011474609375 44 6 44 L 254 44 C 256.7569885253906 44 259 41.75699996948242 259 39 L 259 6 C 259 3.243000030517578 256.7569885253906 1 254 1 L 6 1 M 6 0 L 254 0 C 257.3136901855469 0 260 2.686298370361328 260 6 L 260 39 C 260 42.31370162963867 257.3136901855469 45 254 45 L 6 45 C 2.686279296875 45 0 42.31370162963867 0 39 L 0 6 C 0 2.686298370361328 2.686279296875 0 6 0 Z" stroke="none" fill="#b7006d"/>
    </g>
    <path id="Trazado_1434" data-name="Trazado 1434" d="M-31.1-2.988h-4.535L-36.615,0h-2.206l4.465-12.8h2.03L-27.914,0H-30.12Zm-3.946-1.784h3.366l-1.644-5.045h-.053Zm13.228-2.812-.914-.035a1.915,1.915,0,0,0-1.042.264,1.736,1.736,0,0,0-.646.747V0h-2.136V-9.51H-24.6l.141,1.38a3.05,3.05,0,0,1,.927-1.143,2.158,2.158,0,0,1,1.305-.413,1.99,1.99,0,0,1,.36.031,2.631,2.631,0,0,1,.308.075Zm1.081,2.962a6.271,6.271,0,0,1,.976-3.669,3.156,3.156,0,0,1,2.742-1.393,3,3,0,0,1,1.5.365,3.166,3.166,0,0,1,1.094,1.05l.211-1.239h1.775V0A3.589,3.589,0,0,1-13.57,2.839a4.7,4.7,0,0,1-3.217,1,6.3,6.3,0,0,1-1.5-.2A6.961,6.961,0,0,1-19.74,3.12l.343-1.679a5.411,5.411,0,0,0,1.217.426,6.148,6.148,0,0,0,1.375.154,2.44,2.44,0,0,0,1.7-.5A1.983,1.983,0,0,0-14.572,0V-.976a2.988,2.988,0,0,1-1.059.866,3.191,3.191,0,0,1-1.4.294A3.236,3.236,0,0,1-19.758-1.09a5.362,5.362,0,0,1-.976-3.349Zm2.127.185a3.8,3.8,0,0,0,.51,2.1,1.781,1.781,0,0,0,1.608.782,2.188,2.188,0,0,0,1.156-.286,2.109,2.109,0,0,0,.76-.822V-6.829a2.282,2.282,0,0,0-.769-.813,2.085,2.085,0,0,0-1.129-.294,1.729,1.729,0,0,0-1.617.918,4.846,4.846,0,0,0-.519,2.4ZM-6.17.185A4.141,4.141,0,0,1-9.426-1.129,4.921,4.921,0,0,1-10.6-4.535v-.352a5.088,5.088,0,0,1,1.173-3.45A3.792,3.792,0,0,1-6.4-9.686,3.559,3.559,0,0,1-3.5-8.5a4.78,4.78,0,0,1,.984,3.16v1.151h-5.88l-.018.044A3.116,3.116,0,0,0-7.8-2.25a2.1,2.1,0,0,0,1.749.729A4.812,4.812,0,0,0-4.54-1.731a4.3,4.3,0,0,0,1.182-.606l.694,1.4a4.526,4.526,0,0,1-1.441.8A6.041,6.041,0,0,1-6.17.185ZM-6.4-7.972a1.65,1.65,0,0,0-1.336.6A2.984,2.984,0,0,0-8.358-5.8l.018.044h3.718v-.167A2.4,2.4,0,0,0-5.049-7.4,1.578,1.578,0,0,0-6.4-7.972ZM1.151-9.51l.123,1.371A3.4,3.4,0,0,1,2.448-9.277a3.131,3.131,0,0,1,1.6-.409,2.97,2.97,0,0,1,2.316.914,4.153,4.153,0,0,1,.831,2.856V0H5.054V-5.9a2.3,2.3,0,0,0-.431-1.573,1.687,1.687,0,0,0-1.3-.466,2.55,2.55,0,0,0-1.187.259,2.078,2.078,0,0,0-.8.716V0H-.8V-9.51Zm11-2.312V-9.51h1.705v1.582H12.146v5.256a1.146,1.146,0,0,0,.255.839.924.924,0,0,0,.677.25,1.888,1.888,0,0,0,.343-.031,2.083,2.083,0,0,0,.316-.083l.229,1.564A2.454,2.454,0,0,1,13.32.1a3.556,3.556,0,0,1-.778.083,2.464,2.464,0,0,1-1.85-.69,3.009,3.009,0,0,1-.672-2.167V-7.928H8.569V-9.51h1.45v-2.312ZM17.851,0H15.715V-9.51h2.136Zm0-11.839H15.715v-1.872h2.136ZM22.175-9.51,22.3-8.139a3.4,3.4,0,0,1,1.173-1.138,3.131,3.131,0,0,1,1.6-.409,2.97,2.97,0,0,1,2.316.914,4.153,4.153,0,0,1,.831,2.856V0H26.077V-5.9a2.3,2.3,0,0,0-.431-1.573,1.687,1.687,0,0,0-1.3-.466,2.55,2.55,0,0,0-1.187.259,2.078,2.078,0,0,0-.8.716V0H20.224V-9.51ZM36.167,0q-.114-.36-.189-.7a5.026,5.026,0,0,1-.1-.686A3.663,3.663,0,0,1,34.726-.268a2.962,2.962,0,0,1-1.608.453A3.161,3.161,0,0,1,30.836-.58a2.777,2.777,0,0,1-.8-2.1,2.481,2.481,0,0,1,1.09-2.149A5.262,5.262,0,0,1,34.2-5.6h1.661v-.835A1.553,1.553,0,0,0,35.424-7.6a1.74,1.74,0,0,0-1.261-.422A1.8,1.8,0,0,0,33-7.677a1.1,1.1,0,0,0-.431.9l-2.057.009-.009-.053a2.355,2.355,0,0,1,1.006-2,4.264,4.264,0,0,1,2.782-.87,4.069,4.069,0,0,1,2.681.844A2.97,2.97,0,0,1,38-6.416v4.228a7.8,7.8,0,0,0,.079,1.129A6,6,0,0,0,38.329,0Zm-2.61-1.529A2.669,2.669,0,0,0,35-1.934a2.036,2.036,0,0,0,.857-.923V-4.263h-1.7A2.141,2.141,0,0,0,32.7-3.8a1.4,1.4,0,0,0-.527,1.085,1.107,1.107,0,0,0,.356.866A1.479,1.479,0,0,0,33.557-1.529Z" transform="translate(1167.479 784.555)" fill="#494949"/>
    <path id="Trazado_1436" data-name="Trazado 1436" d="M7.822-2.953h.053l3.7-9.844H14.3V0H12.164V-9.193L12.111-9.2,8.587,0H7.119L3.533-9.378,3.48-9.36V0H1.345V-12.8h2.8ZM20.813.185a4.141,4.141,0,0,1-3.256-1.314,4.921,4.921,0,0,1-1.173-3.406v-.352a5.088,5.088,0,0,1,1.173-3.45,3.792,3.792,0,0,1,3.028-1.349,3.559,3.559,0,0,1,2.9,1.182,4.78,4.78,0,0,1,.984,3.16v1.151h-5.88l-.018.044a3.116,3.116,0,0,0,.615,1.9,2.1,2.1,0,0,0,1.749.729,4.812,4.812,0,0,0,1.507-.211,4.3,4.3,0,0,0,1.182-.606l.694,1.4a4.526,4.526,0,0,1-1.441.8A6.041,6.041,0,0,1,20.813.185Zm-.229-8.156a1.65,1.65,0,0,0-1.336.6A2.984,2.984,0,0,0,18.624-5.8l.018.044h3.718v-.167A2.4,2.4,0,0,0,21.933-7.4,1.578,1.578,0,0,0,20.584-7.972Zm.483-5.6h2.417l.018.053-2.4,2.285H19.389ZM29.61-6.249,31.368-9.51H33.82l-2.988,4.7L33.908,0H31.482L29.646-3.34,27.809,0H25.365l3.076-4.808-2.988-4.7h2.426ZM37.6,0H35.464V-9.51H37.6Zm0-11.839H35.464v-1.872H37.6ZM43.866-1.521A1.775,1.775,0,0,0,45.1-1.978a1.5,1.5,0,0,0,.505-1.16H47.54l.018.053A2.867,2.867,0,0,1,46.5-.782a3.839,3.839,0,0,1-2.632.967,3.875,3.875,0,0,1-3.173-1.358A5.213,5.213,0,0,1,39.577-4.6V-4.9a5.217,5.217,0,0,1,1.116-3.419,3.859,3.859,0,0,1,3.164-1.362,3.73,3.73,0,0,1,2.7,1,3.256,3.256,0,0,1,1,2.536L47.54-6.1H45.606a1.929,1.929,0,0,0-.483-1.327,1.611,1.611,0,0,0-1.266-.545,1.742,1.742,0,0,0-1.644.883,4.371,4.371,0,0,0-.5,2.184V-4.6a4.411,4.411,0,0,0,.5,2.2A1.752,1.752,0,0,0,43.866-1.521Zm5.089-3.322A5.164,5.164,0,0,1,50.12-8.328a3.977,3.977,0,0,1,3.186-1.358,4.007,4.007,0,0,1,3.212,1.358,5.164,5.164,0,0,1,1.165,3.485v.185a5.156,5.156,0,0,1-1.165,3.494A4,4,0,0,1,53.323.185a4,4,0,0,1-3.2-1.354,5.16,5.16,0,0,1-1.165-3.489Zm2.136.185a4.218,4.218,0,0,0,.545,2.268,1.85,1.85,0,0,0,1.688.87A1.855,1.855,0,0,0,55-2.4a4.144,4.144,0,0,0,.558-2.263v-.185A4.136,4.136,0,0,0,55-7.088a1.866,1.866,0,0,0-1.692-.883,1.829,1.829,0,0,0-1.666.883,4.188,4.188,0,0,0-.549,2.246Z" transform="translate(1129.479 839.555)" fill="#999" opacity="0.995"/>
    <path id="Trazado_1439" data-name="Trazado 1439" d="M1.345,0V-12.8H5.537a5.518,5.518,0,0,1,3.313.875,3.031,3.031,0,0,1,1.2,2.615,2.569,2.569,0,0,1-.479,1.521A2.972,2.972,0,0,1,8.235-6.759,2.871,2.871,0,0,1,10.129-5.7a3.217,3.217,0,0,1,.664,2.021A3.288,3.288,0,0,1,9.615-.936,5.1,5.1,0,0,1,6.363,0ZM3.48-5.818v4.113H6.363A2.569,2.569,0,0,0,8.068-2.21a1.809,1.809,0,0,0,.6-1.463,2.044,2.044,0,0,0-.589-1.538,2.394,2.394,0,0,0-1.652-.606H3.48Zm0-1.591H5.766a2.409,2.409,0,0,0,1.569-.47A1.622,1.622,0,0,0,7.91-9.211,1.66,1.66,0,0,0,7.3-10.622a2.88,2.88,0,0,0-1.767-.461H3.48Zm13.843-.176-.914-.035a1.915,1.915,0,0,0-1.042.264,1.736,1.736,0,0,0-.646.747V0H12.586V-9.51h1.951l.141,1.38A3.05,3.05,0,0,1,15.6-9.272a2.158,2.158,0,0,1,1.305-.413,1.99,1.99,0,0,1,.36.031,2.631,2.631,0,0,1,.308.075ZM24.636,0q-.114-.36-.189-.7a5.026,5.026,0,0,1-.1-.686A3.663,3.663,0,0,1,23.194-.268a2.962,2.962,0,0,1-1.608.453A3.161,3.161,0,0,1,19.305-.58a2.777,2.777,0,0,1-.8-2.1A2.481,2.481,0,0,1,19.6-4.83,5.262,5.262,0,0,1,22.667-5.6h1.661v-.835A1.553,1.553,0,0,0,23.893-7.6a1.74,1.74,0,0,0-1.261-.422,1.8,1.8,0,0,0-1.16.347,1.1,1.1,0,0,0-.431.9l-2.057.009-.009-.053a2.355,2.355,0,0,1,1.006-2,4.264,4.264,0,0,1,2.782-.87,4.069,4.069,0,0,1,2.681.844,2.97,2.97,0,0,1,1.02,2.426v4.228a7.8,7.8,0,0,0,.079,1.129A6,6,0,0,0,26.8,0Zm-2.61-1.529a2.669,2.669,0,0,0,1.446-.4,2.036,2.036,0,0,0,.857-.923V-4.263h-1.7a2.141,2.141,0,0,0-1.459.461,1.4,1.4,0,0,0-.527,1.085A1.107,1.107,0,0,0,21-1.85,1.479,1.479,0,0,0,22.025-1.529ZM34.04-2.6a.985.985,0,0,0-.417-.813,4.318,4.318,0,0,0-1.578-.576A6.417,6.417,0,0,1,29.479-5a2.13,2.13,0,0,1-.888-1.793A2.582,2.582,0,0,1,29.6-8.837a4.005,4.005,0,0,1,2.663-.848,4.129,4.129,0,0,1,2.747.875,2.534,2.534,0,0,1,1,2.1l-.018.053H33.943a1.333,1.333,0,0,0-.457-1.006,1.719,1.719,0,0,0-1.222-.426,1.745,1.745,0,0,0-1.178.352,1.1,1.1,0,0,0-.4.861.926.926,0,0,0,.378.773,4.143,4.143,0,0,0,1.556.519,6.443,6.443,0,0,1,2.637,1.033,2.182,2.182,0,0,1,.888,1.824,2.527,2.527,0,0,1-1.059,2.1,4.461,4.461,0,0,1-2.791.813,4.259,4.259,0,0,1-2.927-.949,2.681,2.681,0,0,1-1.02-2.18L28.362-3h1.986a1.425,1.425,0,0,0,.6,1.2,2.4,2.4,0,0,0,1.371.378,2.148,2.148,0,0,0,1.27-.325A1.011,1.011,0,0,0,34.04-2.6ZM40.333,0H38.2V-9.51h2.136Zm0-11.839H38.2v-1.872h2.136ZM45,0H42.864V-13.711H45Z" transform="translate(1129.479 913.555)" fill="#999" opacity="0.995"/>
    <path id="Trazado_1440" data-name="Trazado 1440" d="M8.64-5.458H3.48V0H1.345V-12.8H9.536v1.714H3.48v3.911H8.64ZM15.6-7.585l-.914-.035a1.915,1.915,0,0,0-1.042.264A1.736,1.736,0,0,0,13-6.609V0H10.863V-9.51h1.951l.141,1.38a3.05,3.05,0,0,1,.927-1.143,2.158,2.158,0,0,1,1.305-.413,1.99,1.99,0,0,1,.36.031,2.631,2.631,0,0,1,.308.075ZM22.913,0q-.114-.36-.189-.7a5.026,5.026,0,0,1-.1-.686A3.663,3.663,0,0,1,21.472-.268a2.962,2.962,0,0,1-1.608.453A3.161,3.161,0,0,1,17.583-.58a2.777,2.777,0,0,1-.8-2.1,2.481,2.481,0,0,1,1.09-2.149A5.262,5.262,0,0,1,20.944-5.6h1.661v-.835A1.553,1.553,0,0,0,22.17-7.6a1.74,1.74,0,0,0-1.261-.422,1.8,1.8,0,0,0-1.16.347,1.1,1.1,0,0,0-.431.9l-2.057.009-.009-.053a2.355,2.355,0,0,1,1.006-2,4.264,4.264,0,0,1,2.782-.87,4.069,4.069,0,0,1,2.681.844,2.97,2.97,0,0,1,1.02,2.426v4.228a7.8,7.8,0,0,0,.079,1.129A6,6,0,0,0,25.075,0ZM20.3-1.529a2.669,2.669,0,0,0,1.446-.4,2.036,2.036,0,0,0,.857-.923V-4.263h-1.7A2.141,2.141,0,0,0,19.45-3.8a1.4,1.4,0,0,0-.527,1.085,1.107,1.107,0,0,0,.356.866A1.479,1.479,0,0,0,20.3-1.529Zm8.6-7.98.123,1.371A3.4,3.4,0,0,1,30.2-9.277a3.131,3.131,0,0,1,1.6-.409,2.97,2.97,0,0,1,2.316.914,4.153,4.153,0,0,1,.831,2.856V0H32.81V-5.9a2.3,2.3,0,0,0-.431-1.573,1.687,1.687,0,0,0-1.3-.466,2.55,2.55,0,0,0-1.187.259,2.078,2.078,0,0,0-.8.716V0H26.956V-9.51ZM41.045-1.521a1.775,1.775,0,0,0,1.235-.457,1.5,1.5,0,0,0,.505-1.16h1.934l.018.053a2.867,2.867,0,0,1-1.059,2.3,3.839,3.839,0,0,1-2.632.967,3.875,3.875,0,0,1-3.173-1.358A5.213,5.213,0,0,1,36.756-4.6V-4.9a5.217,5.217,0,0,1,1.116-3.419,3.859,3.859,0,0,1,3.164-1.362,3.73,3.73,0,0,1,2.7,1,3.256,3.256,0,0,1,1,2.536l-.018.053H42.785A1.929,1.929,0,0,0,42.3-7.427a1.611,1.611,0,0,0-1.266-.545,1.742,1.742,0,0,0-1.644.883,4.371,4.371,0,0,0-.5,2.184V-4.6a4.411,4.411,0,0,0,.5,2.2A1.752,1.752,0,0,0,41.045-1.521ZM48.806,0H46.67V-9.51h2.136Zm0-11.839H46.67v-1.872h2.136ZM56.927,0q-.114-.36-.189-.7a5.026,5.026,0,0,1-.1-.686A3.663,3.663,0,0,1,55.485-.268a2.962,2.962,0,0,1-1.608.453A3.161,3.161,0,0,1,51.6-.58a2.777,2.777,0,0,1-.8-2.1,2.481,2.481,0,0,1,1.09-2.149A5.262,5.262,0,0,1,54.958-5.6h1.661v-.835A1.553,1.553,0,0,0,56.184-7.6a1.74,1.74,0,0,0-1.261-.422,1.8,1.8,0,0,0-1.16.347,1.1,1.1,0,0,0-.431.9l-2.057.009-.009-.053a2.355,2.355,0,0,1,1.006-2,4.264,4.264,0,0,1,2.782-.87,4.069,4.069,0,0,1,2.681.844,2.97,2.97,0,0,1,1.02,2.426v4.228a7.8,7.8,0,0,0,.079,1.129A6,6,0,0,0,59.089,0Zm-2.61-1.529a2.669,2.669,0,0,0,1.446-.4,2.036,2.036,0,0,0,.857-.923V-4.263h-1.7a2.141,2.141,0,0,0-1.459.461,1.4,1.4,0,0,0-.527,1.085,1.107,1.107,0,0,0,.356.866A1.479,1.479,0,0,0,54.316-1.529Z" transform="translate(1129.479 946.555)" fill="#999" opacity="0.995"/>
    <path id="Trazado_1442" data-name="Trazado 1442" d="M11.338,0H9.2V-5.458H3.48V0H1.345V-12.8H3.48v5.625H9.2V-12.8h2.136Zm2.074-4.843a5.164,5.164,0,0,1,1.165-3.485,3.977,3.977,0,0,1,3.186-1.358,4.007,4.007,0,0,1,3.212,1.358A5.164,5.164,0,0,1,22.14-4.843v.185a5.156,5.156,0,0,1-1.165,3.494A4,4,0,0,1,17.78.185a4,4,0,0,1-3.2-1.354,5.16,5.16,0,0,1-1.165-3.489Zm2.136.185a4.218,4.218,0,0,0,.545,2.268,1.85,1.85,0,0,0,1.688.87A1.855,1.855,0,0,0,19.455-2.4a4.144,4.144,0,0,0,.558-2.263v-.185a4.136,4.136,0,0,0-.558-2.246,1.866,1.866,0,0,0-1.692-.883,1.829,1.829,0,0,0-1.666.883,4.188,4.188,0,0,0-.549,2.246ZM26.279,0H24.144V-13.711h2.136ZM34.4,0q-.114-.36-.189-.7a5.026,5.026,0,0,1-.1-.686A3.663,3.663,0,0,1,32.959-.268a2.962,2.962,0,0,1-1.608.453A3.161,3.161,0,0,1,29.07-.58a2.777,2.777,0,0,1-.8-2.1,2.481,2.481,0,0,1,1.09-2.149A5.262,5.262,0,0,1,32.432-5.6h1.661v-.835A1.553,1.553,0,0,0,33.658-7.6,1.74,1.74,0,0,0,32.4-8.024a1.8,1.8,0,0,0-1.16.347,1.1,1.1,0,0,0-.431.9l-2.057.009L28.74-6.82a2.355,2.355,0,0,1,1.006-2,4.264,4.264,0,0,1,2.782-.87,4.069,4.069,0,0,1,2.681.844,2.97,2.97,0,0,1,1.02,2.426v4.228a7.8,7.8,0,0,0,.079,1.129A6,6,0,0,0,36.563,0ZM31.79-1.529a2.669,2.669,0,0,0,1.446-.4,2.036,2.036,0,0,0,.857-.923V-4.263H32.4a2.141,2.141,0,0,0-1.459.461,1.4,1.4,0,0,0-.527,1.085,1.107,1.107,0,0,0,.356.866A1.479,1.479,0,0,0,31.79-1.529Zm8.6-7.98.123,1.371a3.4,3.4,0,0,1,1.173-1.138,3.131,3.131,0,0,1,1.6-.409,2.97,2.97,0,0,1,2.316.914,4.153,4.153,0,0,1,.831,2.856V0H44.3V-5.9a2.3,2.3,0,0,0-.431-1.573,1.687,1.687,0,0,0-1.3-.466,2.55,2.55,0,0,0-1.187.259,2.078,2.078,0,0,0-.8.716V0H38.443V-9.51Zm7.866,4.887a6.271,6.271,0,0,1,.976-3.669,3.156,3.156,0,0,1,2.742-1.393,3,3,0,0,1,1.384.312,3.133,3.133,0,0,1,1.059.892v-5.229h2.136V0H54.826l-.255-1.2A3.172,3.172,0,0,1,53.464-.171a3.08,3.08,0,0,1-1.5.356A3.236,3.236,0,0,1,49.236-1.09a5.362,5.362,0,0,1-.976-3.349Zm2.136.185a3.83,3.83,0,0,0,.505,2.1,1.77,1.77,0,0,0,1.6.782,2.144,2.144,0,0,0,1.147-.29,2.208,2.208,0,0,0,.769-.826V-6.82a2.249,2.249,0,0,0-.773-.822,2.091,2.091,0,0,0-1.125-.294,1.722,1.722,0,0,0-1.608.918,4.846,4.846,0,0,0-.519,2.4ZM64.582,0q-.114-.36-.189-.7a5.026,5.026,0,0,1-.1-.686A3.663,3.663,0,0,1,63.141-.268a2.962,2.962,0,0,1-1.608.453A3.161,3.161,0,0,1,59.251-.58a2.777,2.777,0,0,1-.8-2.1,2.481,2.481,0,0,1,1.09-2.149A5.262,5.262,0,0,1,62.613-5.6h1.661v-.835A1.553,1.553,0,0,0,63.839-7.6a1.74,1.74,0,0,0-1.261-.422,1.8,1.8,0,0,0-1.16.347,1.1,1.1,0,0,0-.431.9l-2.057.009-.009-.053a2.355,2.355,0,0,1,1.006-2,4.264,4.264,0,0,1,2.782-.87,4.069,4.069,0,0,1,2.681.844,2.97,2.97,0,0,1,1.02,2.426v4.228a7.8,7.8,0,0,0,.079,1.129A6,6,0,0,0,66.744,0Zm-2.61-1.529a2.669,2.669,0,0,0,1.446-.4,2.036,2.036,0,0,0,.857-.923V-4.263h-1.7a2.141,2.141,0,0,0-1.459.461,1.4,1.4,0,0,0-.527,1.085,1.107,1.107,0,0,0,.356.866A1.479,1.479,0,0,0,61.972-1.529Z" transform="translate(1129.479 982.555)" fill="#999" opacity="0.995"/>
    <path id="Trazado_1437" data-name="Trazado 1437" d="M0,0H259.723V37H0Z" transform="translate(1111.479 852)" fill="#d5007f"/>
    <path id="Trazado_1438" data-name="Trazado 1438" d="M8.007-2.988H3.472L2.487,0H.281L4.746-12.8h2.03L11.188,0H8.982ZM4.061-4.772H7.427L5.783-9.817H5.73ZM17.288-7.585l-.914-.035a1.915,1.915,0,0,0-1.042.264,1.736,1.736,0,0,0-.646.747V0H12.551V-9.51H14.5l.141,1.38a3.05,3.05,0,0,1,.927-1.143,2.158,2.158,0,0,1,1.305-.413,1.99,1.99,0,0,1,.36.031,2.631,2.631,0,0,1,.308.075Zm1.081,2.962a6.271,6.271,0,0,1,.976-3.669,3.156,3.156,0,0,1,2.742-1.393,3,3,0,0,1,1.5.365,3.166,3.166,0,0,1,1.094,1.05l.211-1.239h1.775V0a3.589,3.589,0,0,1-1.134,2.839,4.7,4.7,0,0,1-3.217,1,6.3,6.3,0,0,1-1.5-.2,6.961,6.961,0,0,1-1.455-.523l.343-1.679a5.411,5.411,0,0,0,1.217.426,6.148,6.148,0,0,0,1.375.154,2.44,2.44,0,0,0,1.7-.5A1.983,1.983,0,0,0,24.53,0V-.976a2.988,2.988,0,0,1-1.059.866,3.191,3.191,0,0,1-1.4.294A3.236,3.236,0,0,1,19.345-1.09a5.362,5.362,0,0,1-.976-3.349Zm2.127.185a3.8,3.8,0,0,0,.51,2.1,1.781,1.781,0,0,0,1.608.782,2.188,2.188,0,0,0,1.156-.286,2.109,2.109,0,0,0,.76-.822V-6.829a2.282,2.282,0,0,0-.769-.813,2.085,2.085,0,0,0-1.129-.294,1.729,1.729,0,0,0-1.617.918,4.846,4.846,0,0,0-.519,2.4ZM32.933.185a4.141,4.141,0,0,1-3.256-1.314A4.921,4.921,0,0,1,28.5-4.535v-.352a5.088,5.088,0,0,1,1.173-3.45A3.792,3.792,0,0,1,32.7-9.686,3.559,3.559,0,0,1,35.6-8.5a4.78,4.78,0,0,1,.984,3.16v1.151h-5.88l-.018.044a3.116,3.116,0,0,0,.615,1.9,2.1,2.1,0,0,0,1.749.729,4.812,4.812,0,0,0,1.507-.211,4.3,4.3,0,0,0,1.182-.606l.694,1.4A4.526,4.526,0,0,1,35-.141,6.041,6.041,0,0,1,32.933.185ZM32.7-7.972a1.65,1.65,0,0,0-1.336.6A2.984,2.984,0,0,0,30.744-5.8l.018.044h3.718v-.167A2.4,2.4,0,0,0,34.053-7.4,1.578,1.578,0,0,0,32.7-7.972Zm7.55-1.538.123,1.371A3.4,3.4,0,0,1,41.55-9.277a3.131,3.131,0,0,1,1.6-.409,2.97,2.97,0,0,1,2.316.914,4.153,4.153,0,0,1,.831,2.856V0H44.156V-5.9a2.3,2.3,0,0,0-.431-1.573,1.687,1.687,0,0,0-1.3-.466,2.55,2.55,0,0,0-1.187.259,2.078,2.078,0,0,0-.8.716V0H38.3V-9.51Zm11-2.312V-9.51h1.705v1.582H51.249v5.256a1.146,1.146,0,0,0,.255.839.924.924,0,0,0,.677.25,1.888,1.888,0,0,0,.343-.031A2.083,2.083,0,0,0,52.84-1.7l.229,1.564A2.454,2.454,0,0,1,52.422.1a3.556,3.556,0,0,1-.778.083,2.464,2.464,0,0,1-1.85-.69,3.009,3.009,0,0,1-.672-2.167V-7.928h-1.45V-9.51h1.45v-2.312ZM56.953,0H54.817V-9.51h2.136Zm0-11.839H54.817v-1.872h2.136ZM61.277-9.51,61.4-8.139a3.4,3.4,0,0,1,1.173-1.138,3.131,3.131,0,0,1,1.6-.409,2.97,2.97,0,0,1,2.316.914,4.153,4.153,0,0,1,.831,2.856V0H65.18V-5.9a2.3,2.3,0,0,0-.431-1.573,1.687,1.687,0,0,0-1.3-.466,2.55,2.55,0,0,0-1.187.259,2.078,2.078,0,0,0-.8.716V0H59.326V-9.51ZM75.27,0q-.114-.36-.189-.7a5.026,5.026,0,0,1-.1-.686A3.663,3.663,0,0,1,73.828-.268,2.962,2.962,0,0,1,72.22.185,3.161,3.161,0,0,1,69.939-.58a2.777,2.777,0,0,1-.8-2.1,2.481,2.481,0,0,1,1.09-2.149A5.262,5.262,0,0,1,73.3-5.6h1.661v-.835A1.553,1.553,0,0,0,74.527-7.6a1.74,1.74,0,0,0-1.261-.422,1.8,1.8,0,0,0-1.16.347,1.1,1.1,0,0,0-.431.9l-2.057.009-.009-.053a2.355,2.355,0,0,1,1.006-2,4.264,4.264,0,0,1,2.782-.87,4.069,4.069,0,0,1,2.681.844A2.97,2.97,0,0,1,77.1-6.416v4.228a7.8,7.8,0,0,0,.079,1.129A6,6,0,0,0,77.432,0Zm-2.61-1.529a2.669,2.669,0,0,0,1.446-.4,2.036,2.036,0,0,0,.857-.923V-4.263h-1.7a2.141,2.141,0,0,0-1.459.461,1.4,1.4,0,0,0-.527,1.085,1.107,1.107,0,0,0,.356.866A1.479,1.479,0,0,0,72.659-1.529Z" transform="translate(1129.479 876.555)" fill="#fff" opacity="0.995"/>
    <path id="Trazado_1150" data-name="Trazado 1150" d="M2852.861,694l8.717,8.777,8.535-8.777" transform="translate(-1510.521 80)" fill="none" stroke="#707070" stroke-width="1"/>
  </g>
</svg>
