<svg xmlns="http://www.w3.org/2000/svg" width="259.932" height="76.549" viewBox="0 0 259.932 76.549">
  <g id="Grupo_861" data-name="Grupo 861" transform="translate(-827.723 -2883)">
    <g id="Trazado_1172" data-name="Trazado 1172" transform="translate(827.723 2883)" fill="#f8f8f8">
      <path d="M 217.27734375 44.5 L 6.00000524520874 44.5 C 2.967283010482788 44.5 0.5000051856040955 42.03272247314453 0.5000051856040955 39 L 0.5000051856040955 6 C 0.5000051856040955 2.967277765274048 2.967283010482788 0.5 6.00000524520874 0.5 L 217.27734375 0.5 C 220.31005859375 0.5 222.77734375 2.967277765274048 222.77734375 6 L 222.77734375 39 C 222.77734375 42.03272247314453 220.31005859375 44.5 217.27734375 44.5 Z" stroke="none"/>
      <path d="M 6 1 C 3.242996215820312 1 1 3.243000030517578 1 6 L 1 39 C 1 41.75699996948242 3.242996215820312 44 6 44 L 217.27734375 44 C 220.0343475341797 44 222.27734375 41.75699996948242 222.27734375 39 L 222.27734375 6 C 222.27734375 3.243000030517578 220.0343475341797 1 217.27734375 1 L 6 1 M 6 0 L 217.27734375 0 C 220.5910491943359 0 223.27734375 2.686294555664062 223.27734375 6 L 223.27734375 39 C 223.27734375 42.31370544433594 220.5910491943359 45 217.27734375 45 L 6 45 C 2.686294555664062 45 0 42.31370544433594 0 39 L 0 6 C 0 2.686294555664062 2.686294555664062 0 6 0 Z" stroke="none" fill="#d9d9d9"/>
    </g>
    <path id="Trazado_1179" data-name="Trazado 1179" d="M9.281-10.164H5.531V0H3.992V-10.164H.289v-1.211H9.281ZM13.414.164A3.576,3.576,0,0,1,10.574-1a4.48,4.48,0,0,1-1.02-3.062v-.344a4.386,4.386,0,0,1,1.051-3.012,3.3,3.3,0,0,1,2.566-1.191,3.067,3.067,0,0,1,2.543,1.055,4.345,4.345,0,0,1,.848,2.8v.813H11.156l-.023.039A3.494,3.494,0,0,0,11.7-1.832a1.965,1.965,0,0,0,1.719.793,3.872,3.872,0,0,0,1.371-.223A3.061,3.061,0,0,0,15.8-1.875l.6,1a3.7,3.7,0,0,1-1.2.738A4.762,4.762,0,0,1,13.414.164ZM13.172-7.4a1.673,1.673,0,0,0-1.332.621,2.938,2.938,0,0,0-.645,1.59l.016.039h3.813v-.125A2.462,2.462,0,0,0,14.57-6.8,1.638,1.638,0,0,0,13.172-7.4Zm7.984,2.063,1.8-3.117h1.8l-2.742,4.18L24.828,0H23.063L21.188-3.2,19.313,0H17.531l2.82-4.273-2.742-4.18h1.773Zm7.32-5.156v2.039h1.6v1.141h-1.6V-2.18a1.149,1.149,0,0,0,.246.836.89.89,0,0,0,.652.242,1.429,1.429,0,0,0,.3-.035,2.2,2.2,0,0,0,.273-.074l.211,1.055a1.36,1.36,0,0,1-.508.23,2.562,2.562,0,0,1-.664.09A1.993,1.993,0,0,1,27.492-.4a2.46,2.46,0,0,1-.555-1.777V-7.312H25.594V-8.453h1.344v-2.039ZM31.367-4.3a4.654,4.654,0,0,1,1.016-3.09,3.406,3.406,0,0,1,2.758-1.215A3.439,3.439,0,0,1,37.918-7.4,4.639,4.639,0,0,1,38.938-4.3v.172a4.631,4.631,0,0,1-1.016,3.094,3.429,3.429,0,0,1-2.766,1.2,3.436,3.436,0,0,1-2.77-1.207,4.623,4.623,0,0,1-1.02-3.09Zm1.539.172a4.009,4.009,0,0,0,.566,2.219,1.875,1.875,0,0,0,1.684.875,1.87,1.87,0,0,0,1.672-.875,3.988,3.988,0,0,0,.57-2.219V-4.3a3.976,3.976,0,0,0-.574-2.211A1.882,1.882,0,0,0,35.141-7.4a1.856,1.856,0,0,0-1.668.883A4.018,4.018,0,0,0,32.906-4.3Zm11.539.063a5.641,5.641,0,0,1,.871-3.289,2.807,2.807,0,0,1,2.441-1.25,3.027,3.027,0,0,1,1.316.273,2.7,2.7,0,0,1,.98.8v-4.648h1.539V0h-1.18L50.18-1.07a2.743,2.743,0,0,1-1.023.922,3.058,3.058,0,0,1-1.414.313A2.9,2.9,0,0,1,45.32-.957a4.659,4.659,0,0,1-.875-2.949Zm1.539.164a3.588,3.588,0,0,0,.523,2.051,1.828,1.828,0,0,0,1.625.77A2.039,2.039,0,0,0,49.289-1.4a2.334,2.334,0,0,0,.766-.875V-6.219a2.37,2.37,0,0,0-.77-.832,2.033,2.033,0,0,0-1.137-.309,1.759,1.759,0,0,0-1.637.914,4.718,4.718,0,0,0-.527,2.375ZM57.391.164A3.576,3.576,0,0,1,54.551-1a4.48,4.48,0,0,1-1.02-3.062v-.344a4.386,4.386,0,0,1,1.051-3.012,3.3,3.3,0,0,1,2.566-1.191,3.067,3.067,0,0,1,2.543,1.055,4.345,4.345,0,0,1,.848,2.8v.813H55.133l-.023.039a3.494,3.494,0,0,0,.563,2.066,1.965,1.965,0,0,0,1.719.793,3.872,3.872,0,0,0,1.371-.223,3.061,3.061,0,0,0,1.012-.613l.6,1a3.7,3.7,0,0,1-1.2.738A4.762,4.762,0,0,1,57.391.164ZM57.148-7.4a1.673,1.673,0,0,0-1.332.621,2.938,2.938,0,0,0-.645,1.59l.016.039H59v-.125A2.462,2.462,0,0,0,58.547-6.8,1.638,1.638,0,0,0,57.148-7.4ZM69.742.164A3.576,3.576,0,0,1,66.9-1a4.48,4.48,0,0,1-1.02-3.062v-.344a4.386,4.386,0,0,1,1.051-3.012A3.3,3.3,0,0,1,69.5-8.609a3.067,3.067,0,0,1,2.543,1.055,4.345,4.345,0,0,1,.848,2.8v.813H67.484l-.023.039a3.494,3.494,0,0,0,.563,2.066,1.965,1.965,0,0,0,1.719.793,3.872,3.872,0,0,0,1.371-.223,3.061,3.061,0,0,0,1.012-.613l.6,1a3.7,3.7,0,0,1-1.2.738A4.762,4.762,0,0,1,69.742.164ZM69.5-7.4a1.673,1.673,0,0,0-1.332.621,2.938,2.938,0,0,0-.645,1.59l.016.039h3.813v-.125A2.462,2.462,0,0,0,70.9-6.8,1.638,1.638,0,0,0,69.5-7.4Zm6.492-1.055L76.1-7.2A3.069,3.069,0,0,1,77.16-8.238a2.824,2.824,0,0,1,1.449-.371,2.759,2.759,0,0,1,2.117.8,3.515,3.515,0,0,1,.75,2.473V0H79.938V-5.3A2.287,2.287,0,0,0,79.5-6.891a1.768,1.768,0,0,0-1.348-.469,2.386,2.386,0,0,0-1.207.285,2.072,2.072,0,0,0-.785.8V0H74.617V-8.453Zm9.859-2.039v2.039h1.6v1.141h-1.6V-2.18a1.149,1.149,0,0,0,.246.836.89.89,0,0,0,.652.242,1.43,1.43,0,0,0,.3-.035,2.2,2.2,0,0,0,.273-.074l.211,1.055a1.36,1.36,0,0,1-.508.23,2.562,2.562,0,0,1-.664.09A1.993,1.993,0,0,1,84.867-.4a2.46,2.46,0,0,1-.555-1.777V-7.312H82.969V-8.453h1.344v-2.039Zm7.25,3.4-.789-.047a1.762,1.762,0,0,0-1.027.289,1.854,1.854,0,0,0-.645.813V0H89.1V-8.453h1.375l.148,1.234a2.934,2.934,0,0,1,.887-1.023,2.073,2.073,0,0,1,1.215-.367,1.9,1.9,0,0,1,.328.027,2.175,2.175,0,0,1,.258.059ZM99.9,0q-.078-.383-.121-.676a4.96,4.96,0,0,1-.051-.59,3.589,3.589,0,0,1-1.121,1.02,2.867,2.867,0,0,1-1.488.41,2.763,2.763,0,0,1-2.012-.676,2.486,2.486,0,0,1-.691-1.863,2.183,2.183,0,0,1,.98-1.895,4.579,4.579,0,0,1,2.66-.684h1.672v-.836a1.551,1.551,0,0,0-.453-1.176A1.779,1.779,0,0,0,97.992-7.4a1.859,1.859,0,0,0-1.211.375,1.125,1.125,0,0,0-.461.9l-1.461.016-.016-.047a2.023,2.023,0,0,1,.863-1.687,3.578,3.578,0,0,1,2.371-.766,3.49,3.49,0,0,1,2.313.73,2.588,2.588,0,0,1,.875,2.105V-1.7a7.923,7.923,0,0,0,.047.875,4.5,4.5,0,0,0,.172.828ZM97.344-1.125a2.739,2.739,0,0,0,1.508-.43,2.042,2.042,0,0,0,.875-.984V-3.914H98a2.24,2.24,0,0,0-1.488.469,1.4,1.4,0,0,0-.559,1.1,1.159,1.159,0,0,0,.352.891A1.472,1.472,0,0,0,97.344-1.125Zm5.8-2.945a5.641,5.641,0,0,1,.871-3.289,2.807,2.807,0,0,1,2.441-1.25,3.027,3.027,0,0,1,1.316.273,2.7,2.7,0,0,1,.98.8v-4.648H110.3V0h-1.18l-.234-1.07a2.743,2.743,0,0,1-1.023.922,3.058,3.058,0,0,1-1.414.313,2.9,2.9,0,0,1-2.422-1.121,4.659,4.659,0,0,1-.875-2.949Zm1.539.164a3.588,3.588,0,0,0,.523,2.051,1.828,1.828,0,0,0,1.625.77,2.039,2.039,0,0,0,1.156-.312,2.334,2.334,0,0,0,.766-.875V-6.219a2.37,2.37,0,0,0-.77-.832,2.033,2.033,0,0,0-1.137-.309,1.759,1.759,0,0,0-1.637.914,4.718,4.718,0,0,0-.527,2.375ZM117.789,0q-.078-.383-.121-.676a4.96,4.96,0,0,1-.051-.59A3.589,3.589,0,0,1,116.5-.246a2.867,2.867,0,0,1-1.488.41A2.763,2.763,0,0,1,113-.512a2.486,2.486,0,0,1-.691-1.863,2.183,2.183,0,0,1,.98-1.895,4.579,4.579,0,0,1,2.66-.684h1.672v-.836a1.551,1.551,0,0,0-.453-1.176,1.779,1.779,0,0,0-1.281-.434,1.859,1.859,0,0,0-1.211.375,1.125,1.125,0,0,0-.461.9l-1.461.016-.016-.047a2.023,2.023,0,0,1,.863-1.687,3.578,3.578,0,0,1,2.371-.766,3.49,3.49,0,0,1,2.313.73,2.588,2.588,0,0,1,.875,2.105V-1.7a7.923,7.923,0,0,0,.047.875,4.5,4.5,0,0,0,.172.828Zm-2.555-1.125a2.739,2.739,0,0,0,1.508-.43,2.042,2.042,0,0,0,.875-.984V-3.914h-1.727a2.24,2.24,0,0,0-1.488.469,1.4,1.4,0,0,0-.559,1.1,1.159,1.159,0,0,0,.352.891A1.472,1.472,0,0,0,115.234-1.125Z" transform="translate(841.723 2912.555)" fill="#333"/>
    <path id="Trazado_1173" data-name="Trazado 1173" d="M1.08-4.4l.574-5.551H6.9v1.436H3.035l-.3,2.536a2.765,2.765,0,0,1,.7-.355,2.8,2.8,0,0,1,.9-.15,2.682,2.682,0,0,1,2.16.868,3.579,3.579,0,0,1,.772,2.44,3.5,3.5,0,0,1-.813,2.4A3.074,3.074,0,0,1,4.02.144,3.494,3.494,0,0,1,1.8-.564,2.329,2.329,0,0,1,.93-2.584l.014-.034L2.5-2.666a1.42,1.42,0,0,0,.42,1.09,1.542,1.542,0,0,0,1.1.393A1.4,1.4,0,0,0,5.2-1.709a2.343,2.343,0,0,0,.4-1.456A2.3,2.3,0,0,0,5.188-4.6,1.41,1.41,0,0,0,4-5.147a1.871,1.871,0,0,0-1.015.219,1.236,1.236,0,0,0-.482.643Zm14.232.95a4.17,4.17,0,0,1-.759,2.6,2.51,2.51,0,0,1-2.112.991,2.616,2.616,0,0,1-1.114-.226,2.293,2.293,0,0,1-.834-.663V2.844H8.832V-7.4h1.4l.164.93a2.467,2.467,0,0,1,.858-.793,2.4,2.4,0,0,1,1.166-.273A2.456,2.456,0,0,1,14.55-6.45,4.861,4.861,0,0,1,15.313-3.6ZM13.658-3.6a3.6,3.6,0,0,0-.427-1.856,1.389,1.389,0,0,0-1.275-.721,1.656,1.656,0,0,0-.882.222,1.636,1.636,0,0,0-.581.619v3.343a1.545,1.545,0,0,0,.581.6,1.771,1.771,0,0,0,.9.208,1.425,1.425,0,0,0,1.268-.625,2.9,2.9,0,0,0,.42-1.644ZM19.312-4.86,20.679-7.4h1.907L20.262-3.739,22.654,0H20.768L19.339-2.6,17.91,0h-1.9L18.4-3.739,16.078-7.4h1.887Z" transform="translate(1065 2936)" fill="#4199a0"/>
    <path id="Trazado_1174" data-name="Trazado 1174" d="M0,8V0" transform="translate(1052.168 2928.355) rotate(-90)" fill="none" stroke="#4199a0" stroke-width="1"/>
    <path id="Trazado_1175" data-name="Trazado 1175" d="M0,8V0" transform="translate(1052.168 2935.355) rotate(-90)" fill="none" stroke="#4199a0" stroke-width="1"/>
    <path id="Trazado_1176" data-name="Trazado 1176" d="M0,7.355V0" transform="translate(1056.252 2928.5)" fill="none" stroke="#4199a0" stroke-width="1"/>
    <path id="Trazado_1177" data-name="Trazado 1177" d="M0,0H7V222H0Z" transform="translate(828.834 2935.521) rotate(-90)" fill="#4199a0" opacity="0.301"/>
    <path id="Trazado_1170" data-name="Trazado 1170" d="M0,0H221.485V23.3H0Z" transform="translate(829.131 2936)" fill="#fff6d9"/>
    <path id="Trazado_1171" data-name="Trazado 1171" d="M0,0H221.617V23.3H0Z" transform="translate(829 2936)" fill="none" stroke="#f7de97" stroke-width="0.5"/>
    <path id="Trazado_1178" data-name="Trazado 1178" d="M6.1-1.866h.041L9.317-9.953h1.675V0H9.646V-7.458L9.6-7.465,6.59,0H5.653L2.55-7.711,2.509-7.7V0H1.162V-9.953H2.933ZM16.2.144A3.129,3.129,0,0,1,13.716-.875a3.92,3.92,0,0,1-.892-2.68v-.3a3.838,3.838,0,0,1,.919-2.635,2.883,2.883,0,0,1,2.246-1.042,2.684,2.684,0,0,1,2.225.923,3.8,3.8,0,0,1,.742,2.454v.711h-4.73l-.021.034A3.057,3.057,0,0,0,14.7-1.6a1.72,1.72,0,0,0,1.5.694A3.388,3.388,0,0,0,17.4-1.1a2.678,2.678,0,0,0,.885-.537l.526.875a3.237,3.237,0,0,1-1.046.646A4.167,4.167,0,0,1,16.2.144Zm-.212-6.617a1.464,1.464,0,0,0-1.166.543,2.571,2.571,0,0,0-.564,1.391l.014.034h3.336v-.109a2.154,2.154,0,0,0-.4-1.333A1.433,1.433,0,0,0,15.989-6.474ZM21.67-7.4l.1,1.1a2.686,2.686,0,0,1,.926-.913,2.471,2.471,0,0,1,1.268-.325,2.414,2.414,0,0,1,1.853.7,3.076,3.076,0,0,1,.656,2.164V0H25.122V-4.642a2,2,0,0,0-.386-1.388,1.547,1.547,0,0,0-1.179-.41,2.088,2.088,0,0,0-1.056.25,1.813,1.813,0,0,0-.687.7V0H20.467V-7.4ZM32.724-1.989a.9.9,0,0,0-.338-.725A3.266,3.266,0,0,0,31.1-3.206,5.378,5.378,0,0,1,29.1-3.992a1.588,1.588,0,0,1-.7-1.354,1.95,1.95,0,0,1,.769-1.545,3,3,0,0,1,1.993-.643A2.976,2.976,0,0,1,33.2-6.85a1.959,1.959,0,0,1,.745,1.593l-.014.041H32.642a1.165,1.165,0,0,0-.42-.868,1.5,1.5,0,0,0-1.063-.39,1.532,1.532,0,0,0-1.063.321,1,1,0,0,0-.352.766.811.811,0,0,0,.3.677,3.367,3.367,0,0,0,1.254.438,5.3,5.3,0,0,1,2.064.813,1.638,1.638,0,0,1,.7,1.374,1.947,1.947,0,0,1-.8,1.606,3.285,3.285,0,0,1-2.082.622,3.251,3.251,0,0,1-2.229-.718,2.048,2.048,0,0,1-.772-1.675l.014-.041H29.49a1.246,1.246,0,0,0,.533,1.049,2.063,2.063,0,0,0,1.169.332,1.841,1.841,0,0,0,1.125-.3A.93.93,0,0,0,32.724-1.989ZM40.291,0q-.068-.335-.106-.591a4.34,4.34,0,0,1-.044-.516,3.14,3.14,0,0,1-.981.892,2.509,2.509,0,0,1-1.3.359A2.418,2.418,0,0,1,36.1-.448a2.175,2.175,0,0,1-.6-1.63,1.91,1.91,0,0,1,.858-1.658,4.007,4.007,0,0,1,2.328-.6h1.463v-.731a1.357,1.357,0,0,0-.4-1.029,1.557,1.557,0,0,0-1.121-.379,1.627,1.627,0,0,0-1.06.328.985.985,0,0,0-.4.786l-1.278.014-.014-.041a1.77,1.77,0,0,1,.755-1.477,3.131,3.131,0,0,1,2.075-.67,3.054,3.054,0,0,1,2.023.639,2.264,2.264,0,0,1,.766,1.842V-1.49a6.933,6.933,0,0,0,.041.766,3.937,3.937,0,0,0,.15.725ZM38.056-.984a2.4,2.4,0,0,0,1.319-.376,1.787,1.787,0,0,0,.766-.861v-1.2H38.63a1.96,1.96,0,0,0-1.3.41,1.227,1.227,0,0,0-.489.964,1.014,1.014,0,0,0,.308.779A1.288,1.288,0,0,0,38.056-.984ZM44.994-7.4v8a2.456,2.456,0,0,1-.588,1.76,2.146,2.146,0,0,1-1.634.619,2.23,2.23,0,0,1-.386-.031,3.054,3.054,0,0,1-.373-.092l.1-1.06a1.418,1.418,0,0,0,.273.058,2.282,2.282,0,0,0,.294.024.893.893,0,0,0,.708-.3,1.471,1.471,0,0,0,.263-.978v-8Zm-.041-1.921H43.606v-1.347h1.347ZM50.128.144A3.129,3.129,0,0,1,47.643-.875a3.92,3.92,0,0,1-.892-2.68v-.3a3.838,3.838,0,0,1,.919-2.635,2.883,2.883,0,0,1,2.246-1.042,2.684,2.684,0,0,1,2.225.923,3.8,3.8,0,0,1,.742,2.454v.711h-4.73l-.021.034A3.057,3.057,0,0,0,48.624-1.6a1.72,1.72,0,0,0,1.5.694,3.388,3.388,0,0,0,1.2-.195,2.678,2.678,0,0,0,.885-.537l.526.875a3.237,3.237,0,0,1-1.046.646A4.167,4.167,0,0,1,50.128.144Zm-.212-6.617a1.464,1.464,0,0,0-1.166.543,2.571,2.571,0,0,0-.564,1.391L48.2-4.5h3.336v-.109a2.154,2.154,0,0,0-.4-1.333A1.433,1.433,0,0,0,49.916-6.474Zm7.649,2.912a4.936,4.936,0,0,1,.762-2.878,2.456,2.456,0,0,1,2.136-1.094,2.649,2.649,0,0,1,1.152.239,2.361,2.361,0,0,1,.858.7v-4.067H63.82V0H62.788l-.205-.937a2.4,2.4,0,0,1-.9.807A2.675,2.675,0,0,1,60.45.144a2.538,2.538,0,0,1-2.119-.981,4.077,4.077,0,0,1-.766-2.581Zm1.347.144a3.14,3.14,0,0,0,.458,1.794,1.6,1.6,0,0,0,1.422.673A1.784,1.784,0,0,0,61.8-1.224a2.042,2.042,0,0,0,.67-.766V-5.441a2.074,2.074,0,0,0-.673-.728,1.779,1.779,0,0,0-.995-.27,1.539,1.539,0,0,0-1.432.8,4.128,4.128,0,0,0-.461,2.078ZM68.893.144A3.129,3.129,0,0,1,66.408-.875a3.92,3.92,0,0,1-.892-2.68v-.3a3.838,3.838,0,0,1,.919-2.635,2.883,2.883,0,0,1,2.246-1.042,2.684,2.684,0,0,1,2.225.923,3.8,3.8,0,0,1,.742,2.454v.711h-4.73l-.021.034A3.057,3.057,0,0,0,67.389-1.6a1.72,1.72,0,0,0,1.5.694,3.388,3.388,0,0,0,1.2-.195,2.678,2.678,0,0,0,.885-.537l.526.875a3.237,3.237,0,0,1-1.046.646A4.167,4.167,0,0,1,68.893.144Zm-.212-6.617a1.464,1.464,0,0,0-1.166.543,2.571,2.571,0,0,0-.564,1.391l.014.034H70.3v-.109a2.154,2.154,0,0,0-.4-1.333A1.433,1.433,0,0,0,68.681-6.474ZM81.184,0q-.068-.335-.106-.591a4.34,4.34,0,0,1-.044-.516,3.14,3.14,0,0,1-.981.892,2.509,2.509,0,0,1-1.3.359,2.418,2.418,0,0,1-1.76-.591,2.175,2.175,0,0,1-.6-1.63,1.91,1.91,0,0,1,.858-1.658,4.007,4.007,0,0,1,2.328-.6h1.463v-.731a1.357,1.357,0,0,0-.4-1.029,1.557,1.557,0,0,0-1.121-.379,1.627,1.627,0,0,0-1.06.328.985.985,0,0,0-.4.786l-1.278.014-.014-.041a1.77,1.77,0,0,1,.755-1.477,3.131,3.131,0,0,1,2.075-.67,3.054,3.054,0,0,1,2.023.639,2.264,2.264,0,0,1,.766,1.842V-1.49a6.933,6.933,0,0,0,.041.766,3.937,3.937,0,0,0,.15.725ZM78.948-.984a2.4,2.4,0,0,0,1.319-.376,1.787,1.787,0,0,0,.766-.861v-1.2H79.522a1.96,1.96,0,0,0-1.3.41,1.227,1.227,0,0,0-.489.964,1.014,1.014,0,0,0,.308.779A1.288,1.288,0,0,0,78.948-.984Zm5.079-2.577a4.936,4.936,0,0,1,.762-2.878,2.456,2.456,0,0,1,2.136-1.094,2.649,2.649,0,0,1,1.152.239,2.361,2.361,0,0,1,.858.7v-4.067h1.347V0H89.25l-.205-.937a2.4,2.4,0,0,1-.9.807,2.675,2.675,0,0,1-1.237.273,2.538,2.538,0,0,1-2.119-.981,4.077,4.077,0,0,1-.766-2.581Zm1.347.144a3.14,3.14,0,0,0,.458,1.794,1.6,1.6,0,0,0,1.422.673,1.784,1.784,0,0,0,1.012-.273,2.042,2.042,0,0,0,.67-.766V-5.441a2.074,2.074,0,0,0-.673-.728,1.779,1.779,0,0,0-.995-.27,1.539,1.539,0,0,0-1.432.8,4.128,4.128,0,0,0-.461,2.078ZM94.76-2.181l.116.52h.041l.13-.52,1.7-5.216h1.374L95.4,0H94.384L91.629-7.4H93.01ZM102.307.144A3.129,3.129,0,0,1,99.822-.875a3.92,3.92,0,0,1-.892-2.68v-.3a3.838,3.838,0,0,1,.919-2.635,2.883,2.883,0,0,1,2.246-1.042,2.684,2.684,0,0,1,2.225.923,3.8,3.8,0,0,1,.742,2.454v.711h-4.73l-.021.034A3.057,3.057,0,0,0,100.8-1.6a1.72,1.72,0,0,0,1.5.694,3.388,3.388,0,0,0,1.2-.195,2.678,2.678,0,0,0,.885-.537l.526.875a3.237,3.237,0,0,1-1.046.646A4.167,4.167,0,0,1,102.307.144Zm-.212-6.617a1.464,1.464,0,0,0-1.166.543,2.571,2.571,0,0,0-.564,1.391l.014.034h3.336v-.109a2.154,2.154,0,0,0-.4-1.333A1.433,1.433,0,0,0,102.095-6.474Zm7.978.267-.69-.041a1.542,1.542,0,0,0-.9.253,1.623,1.623,0,0,0-.564.711V0h-1.347V-7.4h1.2l.13,1.08a2.567,2.567,0,0,1,.776-.9,1.814,1.814,0,0,1,1.063-.321,1.664,1.664,0,0,1,.287.024,1.9,1.9,0,0,1,.226.051Zm3.391-2.974V-7.4h1.4v1h-1.4v4.491a1.006,1.006,0,0,0,.215.731.779.779,0,0,0,.571.212,1.251,1.251,0,0,0,.26-.031,1.927,1.927,0,0,0,.239-.065l.185.923a1.19,1.19,0,0,1-.444.2,2.242,2.242,0,0,1-.581.079,1.744,1.744,0,0,1-1.306-.5,2.152,2.152,0,0,1-.485-1.555V-6.4H110.94v-1h1.176V-9.181ZM119.369.144a3.129,3.129,0,0,1-2.485-1.019,3.92,3.92,0,0,1-.892-2.68v-.3a3.838,3.838,0,0,1,.919-2.635,2.883,2.883,0,0,1,2.246-1.042,2.684,2.684,0,0,1,2.225.923,3.8,3.8,0,0,1,.742,2.454v.711h-4.73l-.021.034a3.057,3.057,0,0,0,.492,1.808,1.72,1.72,0,0,0,1.5.694,3.388,3.388,0,0,0,1.2-.195,2.678,2.678,0,0,0,.885-.537l.526.875a3.237,3.237,0,0,1-1.046.646A4.167,4.167,0,0,1,119.369.144Zm-.212-6.617a1.464,1.464,0,0,0-1.166.543,2.571,2.571,0,0,0-.564,1.391l.014.034h3.336v-.109a2.154,2.154,0,0,0-.4-1.333A1.433,1.433,0,0,0,119.157-6.474Zm5.681-.923.1,1.1a2.686,2.686,0,0,1,.926-.913,2.471,2.471,0,0,1,1.268-.325,2.414,2.414,0,0,1,1.853.7,3.076,3.076,0,0,1,.656,2.164V0H128.29V-4.642a2,2,0,0,0-.386-1.388,1.547,1.547,0,0,0-1.179-.41,2.088,2.088,0,0,0-1.056.25,1.813,1.813,0,0,0-.687.7V0h-1.347V-7.4Zm9.693,6.487a1.584,1.584,0,0,0,1.087-.414,1.307,1.307,0,0,0,.465-1.015H137.3l.021.041a2.124,2.124,0,0,1-.82,1.7,2.9,2.9,0,0,1-1.969.742,2.9,2.9,0,0,1-2.406-1.06,4.09,4.09,0,0,1-.848-2.639v-.287a4.072,4.072,0,0,1,.851-2.628,2.9,2.9,0,0,1,2.4-1.063,2.791,2.791,0,0,1,2.027.766,2.428,2.428,0,0,1,.762,1.88l-.014.041h-1.224A1.632,1.632,0,0,0,135.642-6a1.451,1.451,0,0,0-1.111-.475,1.555,1.555,0,0,0-1.446.769,3.6,3.6,0,0,0-.455,1.863v.287a3.668,3.668,0,0,0,.448,1.88A1.554,1.554,0,0,0,134.531-.909ZM140.376,0h-1.347V-7.4h1.347Zm0-9.29h-1.347v-1.374h1.347ZM146.993,0q-.068-.335-.106-.591a4.34,4.34,0,0,1-.044-.516,3.14,3.14,0,0,1-.981.892,2.509,2.509,0,0,1-1.3.359,2.418,2.418,0,0,1-1.76-.591,2.175,2.175,0,0,1-.6-1.63,1.91,1.91,0,0,1,.858-1.658,4.007,4.007,0,0,1,2.328-.6h1.463v-.731a1.357,1.357,0,0,0-.4-1.029,1.557,1.557,0,0,0-1.121-.379,1.627,1.627,0,0,0-1.06.328.985.985,0,0,0-.4.786l-1.278.014-.014-.041a1.77,1.77,0,0,1,.755-1.477,3.131,3.131,0,0,1,2.075-.67,3.054,3.054,0,0,1,2.023.639,2.264,2.264,0,0,1,.766,1.842V-1.49a6.933,6.933,0,0,0,.041.766,3.936,3.936,0,0,0,.15.725Zm-2.235-.984a2.4,2.4,0,0,0,1.319-.376,1.787,1.787,0,0,0,.766-.861v-1.2h-1.511a1.96,1.96,0,0,0-1.3.41,1.227,1.227,0,0,0-.489.964,1.014,1.014,0,0,0,.308.779A1.288,1.288,0,0,0,144.758-.984Z" transform="translate(855.557 2952.758)" fill="#333"/>
    <path id="Trazado_1113" data-name="Trazado 1113" d="M37.289,37.693H24.871a1.457,1.457,0,0,1-1.345-2.329l6.211-10.548a1.457,1.457,0,0,1,2.687,0l6.206,10.54a1.458,1.458,0,0,1-1.342,2.333Z" transform="translate(810.82 2916.198)" fill="#f9ad35"/>
    <g id="Grupo_766" data-name="Grupo 766" transform="translate(841.104 2949.911)">
      <path id="Trazado_1114" data-name="Trazado 1114" d="M32.563,37.609a.72.72,0,0,1-.72-.72V36.6a.72.72,0,0,1,1.44,0v.286A.72.72,0,0,1,32.563,37.609Z" transform="translate(-31.843 -35.883)" fill="#fff"/>
    </g>
    <g id="Grupo_767" data-name="Grupo 767" transform="translate(841.104 2943.442)">
      <path id="Trazado_1115" data-name="Trazado 1115" d="M32.563,33.338a.72.72,0,0,1-.72-.72V28.7a.72.72,0,0,1,1.44,0v3.919A.72.72,0,0,1,32.563,33.338Z" transform="translate(-31.843 -27.98)" fill="#fff"/>
    </g>
  </g>
</svg>
