<svg xmlns="http://www.w3.org/2000/svg" width="266.5" height="72.664" viewBox="0 0 266.5 72.664">
  <g id="Grupo_865" data-name="Grupo 865" transform="translate(-553 -3263.336)">
    <g id="Grupo_826" data-name="Grupo 826" transform="translate(0 158)">
      <g id="Trazado_1229" data-name="Trazado 1229" transform="translate(553 3133)" fill="none">
        <path d="M5,0H256.277a5,5,0,0,1,5,5V40a5,5,0,0,1-5,5H5a5,5,0,0,1-5-5V5A5,5,0,0,1,5,0Z" stroke="none"/>
        <path d="M 5 1 C 2.794403076171875 1 1 2.794399261474609 1 5 L 1 40 C 1 42.20560073852539 2.794403076171875 44 5 44 L 256.27734375 44 C 258.4829406738281 44 260.27734375 42.20560073852539 260.27734375 40 L 260.27734375 5 C 260.27734375 2.794399261474609 258.4829406738281 1 256.27734375 1 L 5 1 M 5 0 L 256.27734375 0 C 259.0387268066406 0 261.27734375 2.238567352294922 261.27734375 5 L 261.27734375 40 C 261.27734375 42.76143264770508 259.0387268066406 45 256.27734375 45 L 5 45 C 2.23858642578125 45 0 42.76143264770508 0 40 L 0 5 C 0 2.238567352294922 2.23858642578125 0 5 0 Z" stroke="none" fill="#d9d9d9"/>
      </g>
      <path id="Trazado_1230" data-name="Trazado 1230" d="M9.281-10.164H5.531V0H3.992V-10.164H.289v-1.211H9.281ZM13.414.164A3.576,3.576,0,0,1,10.574-1a4.48,4.48,0,0,1-1.02-3.062v-.344a4.386,4.386,0,0,1,1.051-3.012,3.3,3.3,0,0,1,2.566-1.191,3.067,3.067,0,0,1,2.543,1.055,4.345,4.345,0,0,1,.848,2.8v.813H11.156l-.023.039A3.494,3.494,0,0,0,11.7-1.832a1.965,1.965,0,0,0,1.719.793,3.872,3.872,0,0,0,1.371-.223A3.061,3.061,0,0,0,15.8-1.875l.6,1a3.7,3.7,0,0,1-1.2.738A4.762,4.762,0,0,1,13.414.164ZM13.172-7.4a1.673,1.673,0,0,0-1.332.621,2.938,2.938,0,0,0-.645,1.59l.016.039h3.813v-.125A2.462,2.462,0,0,0,14.57-6.8,1.638,1.638,0,0,0,13.172-7.4Zm7.984,2.063,1.8-3.117h1.8l-2.742,4.18L24.828,0H23.063L21.188-3.2,19.313,0H17.531l2.82-4.273-2.742-4.18h1.773Zm7.32-5.156v2.039h1.6v1.141h-1.6V-2.18a1.149,1.149,0,0,0,.246.836.89.89,0,0,0,.652.242,1.429,1.429,0,0,0,.3-.035,2.2,2.2,0,0,0,.273-.074l.211,1.055a1.36,1.36,0,0,1-.508.23,2.562,2.562,0,0,1-.664.09A1.993,1.993,0,0,1,27.492-.4a2.46,2.46,0,0,1-.555-1.777V-7.312H25.594V-8.453h1.344v-2.039ZM31.367-4.3a4.654,4.654,0,0,1,1.016-3.09,3.406,3.406,0,0,1,2.758-1.215A3.439,3.439,0,0,1,37.918-7.4,4.639,4.639,0,0,1,38.938-4.3v.172a4.631,4.631,0,0,1-1.016,3.094,3.429,3.429,0,0,1-2.766,1.2,3.436,3.436,0,0,1-2.77-1.207,4.623,4.623,0,0,1-1.02-3.09Zm1.539.172a4.009,4.009,0,0,0,.566,2.219,1.875,1.875,0,0,0,1.684.875,1.87,1.87,0,0,0,1.672-.875,3.988,3.988,0,0,0,.57-2.219V-4.3a3.976,3.976,0,0,0-.574-2.211A1.882,1.882,0,0,0,35.141-7.4a1.856,1.856,0,0,0-1.668.883A4.018,4.018,0,0,0,32.906-4.3Zm11.539.063a5.641,5.641,0,0,1,.871-3.289,2.807,2.807,0,0,1,2.441-1.25,3.027,3.027,0,0,1,1.316.273,2.7,2.7,0,0,1,.98.8v-4.648h1.539V0h-1.18L50.18-1.07a2.743,2.743,0,0,1-1.023.922,3.058,3.058,0,0,1-1.414.313A2.9,2.9,0,0,1,45.32-.957a4.659,4.659,0,0,1-.875-2.949Zm1.539.164a3.588,3.588,0,0,0,.523,2.051,1.828,1.828,0,0,0,1.625.77A2.039,2.039,0,0,0,49.289-1.4a2.334,2.334,0,0,0,.766-.875V-6.219a2.37,2.37,0,0,0-.77-.832,2.033,2.033,0,0,0-1.137-.309,1.759,1.759,0,0,0-1.637.914,4.718,4.718,0,0,0-.527,2.375ZM57.391.164A3.576,3.576,0,0,1,54.551-1a4.48,4.48,0,0,1-1.02-3.062v-.344a4.386,4.386,0,0,1,1.051-3.012,3.3,3.3,0,0,1,2.566-1.191,3.067,3.067,0,0,1,2.543,1.055,4.345,4.345,0,0,1,.848,2.8v.813H55.133l-.023.039a3.494,3.494,0,0,0,.563,2.066,1.965,1.965,0,0,0,1.719.793,3.872,3.872,0,0,0,1.371-.223,3.061,3.061,0,0,0,1.012-.613l.6,1a3.7,3.7,0,0,1-1.2.738A4.762,4.762,0,0,1,57.391.164ZM57.148-7.4a1.673,1.673,0,0,0-1.332.621,2.938,2.938,0,0,0-.645,1.59l.016.039H59v-.125A2.462,2.462,0,0,0,58.547-6.8,1.638,1.638,0,0,0,57.148-7.4ZM69.742.164A3.576,3.576,0,0,1,66.9-1a4.48,4.48,0,0,1-1.02-3.062v-.344a4.386,4.386,0,0,1,1.051-3.012A3.3,3.3,0,0,1,69.5-8.609a3.067,3.067,0,0,1,2.543,1.055,4.345,4.345,0,0,1,.848,2.8v.813H67.484l-.023.039a3.494,3.494,0,0,0,.563,2.066,1.965,1.965,0,0,0,1.719.793,3.872,3.872,0,0,0,1.371-.223,3.061,3.061,0,0,0,1.012-.613l.6,1a3.7,3.7,0,0,1-1.2.738A4.762,4.762,0,0,1,69.742.164ZM69.5-7.4a1.673,1.673,0,0,0-1.332.621,2.938,2.938,0,0,0-.645,1.59l.016.039h3.813v-.125A2.462,2.462,0,0,0,70.9-6.8,1.638,1.638,0,0,0,69.5-7.4Zm6.492-1.055L76.1-7.2A3.069,3.069,0,0,1,77.16-8.238a2.824,2.824,0,0,1,1.449-.371,2.759,2.759,0,0,1,2.117.8,3.515,3.515,0,0,1,.75,2.473V0H79.938V-5.3A2.287,2.287,0,0,0,79.5-6.891a1.768,1.768,0,0,0-1.348-.469,2.386,2.386,0,0,0-1.207.285,2.072,2.072,0,0,0-.785.8V0H74.617V-8.453Zm9.859-2.039v2.039h1.6v1.141h-1.6V-2.18a1.149,1.149,0,0,0,.246.836.89.89,0,0,0,.652.242,1.43,1.43,0,0,0,.3-.035,2.2,2.2,0,0,0,.273-.074l.211,1.055a1.36,1.36,0,0,1-.508.23,2.562,2.562,0,0,1-.664.09A1.993,1.993,0,0,1,84.867-.4a2.46,2.46,0,0,1-.555-1.777V-7.312H82.969V-8.453h1.344v-2.039Zm7.25,3.4-.789-.047a1.762,1.762,0,0,0-1.027.289,1.854,1.854,0,0,0-.645.813V0H89.1V-8.453h1.375l.148,1.234a2.934,2.934,0,0,1,.887-1.023,2.073,2.073,0,0,1,1.215-.367,1.9,1.9,0,0,1,.328.027,2.175,2.175,0,0,1,.258.059ZM99.9,0q-.078-.383-.121-.676a4.96,4.96,0,0,1-.051-.59,3.589,3.589,0,0,1-1.121,1.02,2.867,2.867,0,0,1-1.488.41,2.763,2.763,0,0,1-2.012-.676,2.486,2.486,0,0,1-.691-1.863,2.183,2.183,0,0,1,.98-1.895,4.579,4.579,0,0,1,2.66-.684h1.672v-.836a1.551,1.551,0,0,0-.453-1.176A1.779,1.779,0,0,0,97.992-7.4a1.859,1.859,0,0,0-1.211.375,1.125,1.125,0,0,0-.461.9l-1.461.016-.016-.047a2.023,2.023,0,0,1,.863-1.687,3.578,3.578,0,0,1,2.371-.766,3.49,3.49,0,0,1,2.313.73,2.588,2.588,0,0,1,.875,2.105V-1.7a7.923,7.923,0,0,0,.047.875,4.5,4.5,0,0,0,.172.828ZM97.344-1.125a2.739,2.739,0,0,0,1.508-.43,2.042,2.042,0,0,0,.875-.984V-3.914H98a2.24,2.24,0,0,0-1.488.469,1.4,1.4,0,0,0-.559,1.1,1.159,1.159,0,0,0,.352.891A1.472,1.472,0,0,0,97.344-1.125Zm5.8-2.945a5.641,5.641,0,0,1,.871-3.289,2.807,2.807,0,0,1,2.441-1.25,3.027,3.027,0,0,1,1.316.273,2.7,2.7,0,0,1,.98.8v-4.648H110.3V0h-1.18l-.234-1.07a2.743,2.743,0,0,1-1.023.922,3.058,3.058,0,0,1-1.414.313,2.9,2.9,0,0,1-2.422-1.121,4.659,4.659,0,0,1-.875-2.949Zm1.539.164a3.588,3.588,0,0,0,.523,2.051,1.828,1.828,0,0,0,1.625.77,2.039,2.039,0,0,0,1.156-.312,2.334,2.334,0,0,0,.766-.875V-6.219a2.37,2.37,0,0,0-.77-.832,2.033,2.033,0,0,0-1.137-.309,1.759,1.759,0,0,0-1.637.914,4.718,4.718,0,0,0-.527,2.375ZM117.789,0q-.078-.383-.121-.676a4.96,4.96,0,0,1-.051-.59A3.589,3.589,0,0,1,116.5-.246a2.867,2.867,0,0,1-1.488.41A2.763,2.763,0,0,1,113-.512a2.486,2.486,0,0,1-.691-1.863,2.183,2.183,0,0,1,.98-1.895,4.579,4.579,0,0,1,2.66-.684h1.672v-.836a1.551,1.551,0,0,0-.453-1.176,1.779,1.779,0,0,0-1.281-.434,1.859,1.859,0,0,0-1.211.375,1.125,1.125,0,0,0-.461.9l-1.461.016-.016-.047a2.023,2.023,0,0,1,.863-1.687,3.578,3.578,0,0,1,2.371-.766,3.49,3.49,0,0,1,2.313.73,2.588,2.588,0,0,1,.875,2.105V-1.7a7.923,7.923,0,0,0,.047.875,4.5,4.5,0,0,0,.172.828Zm-2.555-1.125a2.739,2.739,0,0,0,1.508-.43,2.042,2.042,0,0,0,.875-.984V-3.914h-1.727a2.24,2.24,0,0,0-1.488.469,1.4,1.4,0,0,0-.559,1.1,1.159,1.159,0,0,0,.352.891A1.472,1.472,0,0,0,115.234-1.125Z" transform="translate(567 3161.555)" fill="#333"/>
      <path id="Trazado_1234" data-name="Trazado 1234" d="M1.046,0V-9.953H4.307a4.291,4.291,0,0,1,2.577.68,2.357,2.357,0,0,1,.93,2.034,2,2,0,0,1-.373,1.183,2.312,2.312,0,0,1-1.036.8,2.233,2.233,0,0,1,1.473.827,2.5,2.5,0,0,1,.516,1.572A2.558,2.558,0,0,1,7.479-.728,3.963,3.963,0,0,1,4.949,0ZM2.707-4.525v3.2H4.949a2,2,0,0,0,1.326-.393A1.407,1.407,0,0,0,6.74-2.857a1.59,1.59,0,0,0-.458-1.2A1.862,1.862,0,0,0,5-4.525H2.707Zm0-1.237H4.484A1.873,1.873,0,0,0,5.7-6.128a1.261,1.261,0,0,0,.448-1.036,1.291,1.291,0,0,0-.472-1.1A2.24,2.24,0,0,0,4.307-8.62h-1.6Zm6.774,2a4.016,4.016,0,0,1,.906-2.71,3.093,3.093,0,0,1,2.478-1.056,3.117,3.117,0,0,1,2.5,1.056,4.016,4.016,0,0,1,.906,2.71v.144a4.01,4.01,0,0,1-.906,2.717A3.11,3.11,0,0,1,12.879.144,3.114,3.114,0,0,1,10.387-.909a4.013,4.013,0,0,1-.906-2.714Zm1.661.144a3.281,3.281,0,0,0,.424,1.764,1.439,1.439,0,0,0,1.313.677,1.442,1.442,0,0,0,1.3-.68,3.223,3.223,0,0,0,.434-1.76v-.144a3.217,3.217,0,0,0-.434-1.747A1.451,1.451,0,0,0,12.865-6.2a1.423,1.423,0,0,0-1.3.687,3.257,3.257,0,0,0-.427,1.747ZM21.4-5.9l-.711-.027a1.49,1.49,0,0,0-.81.205,1.351,1.351,0,0,0-.5.581V0H17.719V-7.4h1.518l.109,1.073a2.372,2.372,0,0,1,.721-.889,1.679,1.679,0,0,1,1.015-.321,1.548,1.548,0,0,1,.28.024,2.047,2.047,0,0,1,.239.058ZM22.2-3.6a4.878,4.878,0,0,1,.759-2.854,2.454,2.454,0,0,1,2.133-1.083,2.333,2.333,0,0,1,1.077.243,2.437,2.437,0,0,1,.824.694v-4.067h1.661V0H27.3l-.2-.937a2.467,2.467,0,0,1-.861.8,2.4,2.4,0,0,1-1.169.277,2.517,2.517,0,0,1-2.119-.991,4.17,4.17,0,0,1-.759-2.6Zm1.661.144a2.979,2.979,0,0,0,.393,1.634A1.376,1.376,0,0,0,25.5-1.21a1.668,1.668,0,0,0,.892-.226,1.717,1.717,0,0,0,.6-.643V-5.3a1.749,1.749,0,0,0-.6-.639,1.626,1.626,0,0,0-.875-.229,1.339,1.339,0,0,0-1.251.714,3.769,3.769,0,0,0-.4,1.863Zm9.714,3.6A3.221,3.221,0,0,1,31.039-.878a3.827,3.827,0,0,1-.913-2.649V-3.8a3.957,3.957,0,0,1,.913-2.683,2.949,2.949,0,0,1,2.355-1.049,2.768,2.768,0,0,1,2.256.919,3.718,3.718,0,0,1,.766,2.458v.9H31.842l-.014.034a2.423,2.423,0,0,0,.479,1.477,1.633,1.633,0,0,0,1.36.567,3.743,3.743,0,0,0,1.172-.164,3.347,3.347,0,0,0,.919-.472L36.3-.731a3.52,3.52,0,0,1-1.121.622A4.7,4.7,0,0,1,33.571.144ZM33.394-6.2a1.283,1.283,0,0,0-1.039.468,2.321,2.321,0,0,0-.485,1.22l.014.034h2.892v-.13a1.867,1.867,0,0,0-.332-1.152A1.227,1.227,0,0,0,33.394-6.2Zm8.053.3-.711-.027a1.49,1.49,0,0,0-.81.205,1.351,1.351,0,0,0-.5.581V0H37.762V-7.4h1.518l.109,1.073a2.372,2.372,0,0,1,.721-.889,1.679,1.679,0,0,1,1.015-.321,1.548,1.548,0,0,1,.28.024,2.047,2.047,0,0,1,.239.058Zm5.469,2.338H42.882V-4.9h4.033ZM52.582-5.9l-.711-.027a1.49,1.49,0,0,0-.81.205,1.351,1.351,0,0,0-.5.581V0H48.9V-7.4h1.518l.109,1.073a2.372,2.372,0,0,1,.721-.889,1.679,1.679,0,0,1,1.015-.321,1.548,1.548,0,0,1,.28.024,2.047,2.047,0,0,1,.239.058ZM58.27,0q-.089-.28-.147-.547a3.909,3.909,0,0,1-.079-.533,2.849,2.849,0,0,1-.9.872A2.3,2.3,0,0,1,55.9.144a2.459,2.459,0,0,1-1.774-.595A2.16,2.16,0,0,1,53.5-2.085a1.93,1.93,0,0,1,.848-1.671,4.093,4.093,0,0,1,2.386-.6H58.03V-5a1.208,1.208,0,0,0-.338-.909,1.354,1.354,0,0,0-.981-.328,1.4,1.4,0,0,0-.9.27.858.858,0,0,0-.335.7l-1.6.007L53.867-5.3a1.832,1.832,0,0,1,.783-1.552,3.317,3.317,0,0,1,2.164-.677,3.164,3.164,0,0,1,2.085.656,2.31,2.31,0,0,1,.793,1.887V-1.7a6.064,6.064,0,0,0,.062.878,4.665,4.665,0,0,0,.2.824Zm-2.03-1.189A2.076,2.076,0,0,0,57.364-1.5a1.583,1.583,0,0,0,.667-.718V-3.315H56.711a1.666,1.666,0,0,0-1.135.359,1.09,1.09,0,0,0-.41.844.861.861,0,0,0,.277.673A1.151,1.151,0,0,0,56.239-1.189ZM63.2,0H61.537V-7.4H63.2Zm0-9.208H61.537v-1.456H63.2ZM64.75-3.6a4.878,4.878,0,0,1,.759-2.854,2.454,2.454,0,0,1,2.133-1.083,2.333,2.333,0,0,1,1.077.243,2.437,2.437,0,0,1,.824.694v-4.067H71.2V0H69.856l-.2-.937a2.467,2.467,0,0,1-.861.8,2.4,2.4,0,0,1-1.169.277,2.517,2.517,0,0,1-2.119-.991,4.17,4.17,0,0,1-.759-2.6Zm1.661.144A2.979,2.979,0,0,0,66.8-1.818a1.376,1.376,0,0,0,1.248.608,1.668,1.668,0,0,0,.892-.226,1.717,1.717,0,0,0,.6-.643V-5.3a1.749,1.749,0,0,0-.6-.639,1.626,1.626,0,0,0-.875-.229,1.339,1.339,0,0,0-1.251.714,3.769,3.769,0,0,0-.4,1.863ZM77.6-1.094a2.481,2.481,0,0,1-.878.916,2.368,2.368,0,0,1-1.241.321,2.316,2.316,0,0,1-1.859-.783,3.68,3.68,0,0,1-.67-2.43V-7.4h1.654v4.341A2.472,2.472,0,0,0,74.915-1.6a1.14,1.14,0,0,0,.957.393,2.136,2.136,0,0,0,1.008-.215,1.564,1.564,0,0,0,.639-.625V-7.4h1.661V0H77.752Zm7.472-.93a.766.766,0,0,0-.325-.632A3.359,3.359,0,0,0,83.521-3.1a4.991,4.991,0,0,1-2-.786,1.656,1.656,0,0,1-.69-1.395,2.008,2.008,0,0,1,.786-1.589,3.115,3.115,0,0,1,2.071-.66,3.212,3.212,0,0,1,2.136.68A1.971,1.971,0,0,1,86.6-5.216l-.014.041H85a1.037,1.037,0,0,0-.355-.783,1.337,1.337,0,0,0-.95-.332,1.358,1.358,0,0,0-.916.273.855.855,0,0,0-.314.67.72.72,0,0,0,.294.6,3.222,3.222,0,0,0,1.21.4,5.011,5.011,0,0,1,2.051.8,1.7,1.7,0,0,1,.69,1.418,1.966,1.966,0,0,1-.824,1.63,3.469,3.469,0,0,1-2.17.632,3.313,3.313,0,0,1-2.276-.738,2.085,2.085,0,0,1-.793-1.7l.014-.041H82.2a1.108,1.108,0,0,0,.465.937,1.868,1.868,0,0,0,1.066.294,1.671,1.671,0,0,0,.988-.253A.787.787,0,0,0,85.073-2.023ZM90.022,0H88.368V-1.593h1.654Zm0-5.988H88.368V-7.581h1.654ZM92.155-4.4l.574-5.551h5.25v1.436H94.11l-.3,2.536a2.765,2.765,0,0,1,.7-.355,2.8,2.8,0,0,1,.9-.15,2.682,2.682,0,0,1,2.16.868,3.579,3.579,0,0,1,.772,2.44,3.5,3.5,0,0,1-.813,2.4,3.074,3.074,0,0,1-2.434.923,3.494,3.494,0,0,1-2.218-.708A2.329,2.329,0,0,1,92-2.584l.014-.034,1.559-.048A1.42,1.42,0,0,0,94-1.576a1.542,1.542,0,0,0,1.1.393,1.4,1.4,0,0,0,1.183-.526,2.343,2.343,0,0,0,.4-1.456A2.3,2.3,0,0,0,96.264-4.6a1.41,1.41,0,0,0-1.189-.543,1.871,1.871,0,0,0-1.015.219,1.236,1.236,0,0,0-.482.643Zm14.232.95a4.17,4.17,0,0,1-.759,2.6,2.51,2.51,0,0,1-2.112.991A2.616,2.616,0,0,1,102.4-.082a2.293,2.293,0,0,1-.834-.663V2.844H99.907V-7.4h1.4l.164.93a2.467,2.467,0,0,1,.858-.793,2.4,2.4,0,0,1,1.166-.273,2.456,2.456,0,0,1,2.129,1.083,4.861,4.861,0,0,1,.762,2.854ZM104.733-3.6a3.6,3.6,0,0,0-.427-1.856,1.389,1.389,0,0,0-1.275-.721,1.656,1.656,0,0,0-.882.222,1.636,1.636,0,0,0-.581.619v3.343a1.545,1.545,0,0,0,.581.6,1.771,1.771,0,0,0,.9.208,1.425,1.425,0,0,0,1.268-.625,2.9,2.9,0,0,0,.42-1.644Zm5.653-1.265L111.754-7.4h1.907l-2.324,3.657L113.729,0h-1.887l-1.429-2.6L108.985,0h-1.9l2.393-3.739L107.153-7.4h1.887Z" transform="translate(554.277 3116)" fill="#4199a0"/>
      <path id="Trazado_1231" data-name="Trazado 1231" d="M1.08-4.4l.574-5.551H6.9v1.436H3.035l-.3,2.536a2.765,2.765,0,0,1,.7-.355,2.8,2.8,0,0,1,.9-.15,2.682,2.682,0,0,1,2.16.868,3.579,3.579,0,0,1,.772,2.44,3.5,3.5,0,0,1-.813,2.4A3.074,3.074,0,0,1,4.02.144,3.494,3.494,0,0,1,1.8-.564,2.329,2.329,0,0,1,.93-2.584l.014-.034L2.5-2.666a1.42,1.42,0,0,0,.42,1.09,1.542,1.542,0,0,0,1.1.393A1.4,1.4,0,0,0,5.2-1.709a2.343,2.343,0,0,0,.4-1.456A2.3,2.3,0,0,0,5.188-4.6,1.41,1.41,0,0,0,4-5.147a1.871,1.871,0,0,0-1.015.219,1.236,1.236,0,0,0-.482.643Zm14.232.95a4.17,4.17,0,0,1-.759,2.6,2.51,2.51,0,0,1-2.112.991,2.616,2.616,0,0,1-1.114-.226,2.293,2.293,0,0,1-.834-.663V2.844H8.832V-7.4h1.4l.164.93a2.467,2.467,0,0,1,.858-.793,2.4,2.4,0,0,1,1.166-.273A2.456,2.456,0,0,1,14.55-6.45,4.861,4.861,0,0,1,15.313-3.6ZM13.658-3.6a3.6,3.6,0,0,0-.427-1.856,1.389,1.389,0,0,0-1.275-.721,1.656,1.656,0,0,0-.882.222,1.636,1.636,0,0,0-.581.619v3.343a1.545,1.545,0,0,0,.581.6,1.771,1.771,0,0,0,.9.208,1.425,1.425,0,0,0,1.268-.625,2.9,2.9,0,0,0,.42-1.644ZM19.312-4.86,20.679-7.4h1.907L20.262-3.739,22.654,0H20.768L19.339-2.6,17.91,0h-1.9L18.4-3.739,16.078-7.4h1.887Z" transform="translate(772.666 3129)" fill="#4199a0"/>
      <path id="Trazado_1232" data-name="Trazado 1232" d="M0,0H14" transform="translate(800.5 3128.021)" fill="none" stroke="#4199a0" stroke-width="1"/>
      <path id="Trazado_1233" data-name="Trazado 1233" d="M0,14V0" transform="translate(819 3136.521)" fill="none" stroke="#4199a0" stroke-width="1"/>
    </g>
  </g>
</svg>
