<svg xmlns="http://www.w3.org/2000/svg" xmlns:xlink="http://www.w3.org/1999/xlink" width="140.829" height="206.298" viewBox="0 0 140.829 206.298">
  <defs>
    <filter id="Rectángulo_3430" x="0" y="0" width="140.829" height="206.298" filterUnits="userSpaceOnUse">
      <feOffset dx="1.069" dy="2.138" input="SourceAlpha"/>
      <feGaussianBlur stdDeviation="2.138" result="blur"/>
      <feFlood flood-opacity="0.302"/>
      <feComposite operator="in" in2="blur"/>
      <feComposite in="SourceGraphic"/>
    </filter>
  </defs>
  <g id="Grupo_2563" data-name="Grupo 2563" transform="translate(-897.292 -1954.214)">
    <g transform="matrix(1, 0, 0, 1, 897.29, 1954.21)" filter="url(#Rectángulo_3430)">
      <rect id="Rectángulo_3430-2" data-name="Rectángulo 3430" width="128" height="193.47" transform="translate(5.35 4.28)" fill="#fff"/>
    </g>
    <rect id="Rectángulo_3431" data-name="Rectángulo 3431" width="128" height="32.286" transform="translate(902.637 2078.98)" fill="#d5007f"/>
    <rect id="Rectángulo_3432" data-name="Rectángulo 3432" width="128" height="47.66" transform="translate(902.637 1958.49)" fill="#f2f2f2"/>
    <text id="Opción_3" data-name="Opción 3" transform="translate(917.833 1989.976)" font-size="16" font-family="Roboto-Regular, Roboto"><tspan x="0" y="0">Opción 3</tspan></text>
    <text id="Opción_1" data-name="Opción 1" transform="translate(916.833 2035.311)" font-size="16" font-family="Roboto-Regular, Roboto"><tspan x="0" y="0">Opción 1</tspan></text>
    <text id="Opción_2" data-name="Opción 2" transform="translate(916.833 2067.311)" font-size="16" font-family="Roboto-Regular, Roboto"><tspan x="0" y="0">Opción 2</tspan></text>
    <text id="Opción_3-2" data-name="Opción 3" transform="translate(916.833 2100.723)" fill="#fff" font-size="16" font-family="Roboto-Regular, Roboto"><tspan x="0" y="0">Opción 3</tspan></text>
    <text id="Opción_4" data-name="Opción 4" transform="translate(916.833 2131.507)" font-size="16" font-family="Roboto-Regular, Roboto"><tspan x="0" y="0">Opción 4</tspan></text>
    <path id="Trazado_2211" data-name="Trazado 2211" d="M286.585,512.528H276.453l5.066-4.809Z" transform="translate(728.619 1473.366)" fill="#d5007f"/>
    <line id="Línea_605" data-name="Línea 605" x2="128.637" transform="translate(902 2006.15)" fill="none" stroke="#242424" stroke-miterlimit="10" stroke-width="1" opacity="0.15"/>
  </g>
</svg>
