<svg xmlns="http://www.w3.org/2000/svg" width="667.277" height="213.444" viewBox="0 0 667.277 213.444">
  <g id="Grupo_1670" data-name="Grupo 1670" transform="translate(-472 -660.556)">
    <g id="Rectángulo_1696" data-name="Rectángulo 1696" transform="translate(572 690)" fill="#fff" stroke="#d9d9d9" stroke-width="1">
      <rect width="222.277" height="45" rx="6" stroke="none"/>
      <rect x="0.5" y="0.5" width="221.277" height="44" rx="5.5" fill="none"/>
    </g>
    <g id="Rectángulo_3277" data-name="Rectángulo 3277" transform="translate(572 829)" fill="#fff" stroke="#d9d9d9" stroke-width="1">
      <rect width="222.277" height="45" rx="6" stroke="none"/>
      <rect x="0.5" y="0.5" width="221.277" height="44" rx="5.5" fill="none"/>
    </g>
    <g id="Rectángulo_3276" data-name="Rectángulo 3276" transform="translate(917 689)" fill="#fff" stroke="#d9d9d9" stroke-width="1">
      <rect width="222.277" height="45" rx="6" stroke="none"/>
      <rect x="0.5" y="0.5" width="221.277" height="44" rx="5.5" fill="none"/>
    </g>
    <g id="Rectángulo_3278" data-name="Rectángulo 3278" transform="translate(917 829)" fill="#fff" stroke="#d9d9d9" stroke-width="1">
      <rect width="222.277" height="45" rx="6" stroke="none"/>
      <rect x="0.5" y="0.5" width="221.277" height="44" rx="5.5" fill="none"/>
    </g>
    <text id="Fecha:" transform="translate(593 675.556)" fill="#333" font-size="14" font-family="Roboto-Regular, Roboto"><tspan x="-20.6" y="0">Fecha:</tspan></text>
    <text id="Fecha:-2" data-name="Fecha:" transform="translate(593 814.556)" fill="#333" font-size="14" font-family="Roboto-Regular, Roboto"><tspan x="-20.6" y="0">Fecha:</tspan></text>
    <text id="Correo:" transform="translate(876 716.556)" fill="#333" font-size="14" font-family="Roboto-Regular, Roboto"><tspan x="-22.682" y="0">Correo:</tspan></text>
    <text id="Correo:-2" data-name="Correo:" transform="translate(876 856.556)" fill="#333" font-size="14" font-family="Roboto-Regular, Roboto"><tspan x="-22.682" y="0">Correo:</tspan></text>
    <text id="DD_MM_AAAA" data-name="DD / MM / AAAA" transform="translate(593 719.556)" fill="#b6b6b6" font-size="16" font-family="Roboto-Regular, Roboto"><tspan x="0" y="0">DD / MM / AAAA</tspan></text>
    <text id="Fecha" transform="translate(593 858.556)" fill="#b6b6b6" font-size="16" font-family="Roboto-Regular, Roboto"><tspan x="0" y="0">Fecha</tspan></text>
    <text id="correo_ejemplo.com" data-name="correo@ejemplo.com" transform="translate(942 718.556)" fill="#b6b6b6" font-size="16" font-family="Roboto-Regular, Roboto"><tspan x="0" y="0">correo@ejemplo.com</tspan></text>
    <text id="correo_ejemplo.com-2" data-name="correo@ejemplo.com" transform="translate(942 858.556)" fill="#333" font-size="16" font-family="Roboto-Regular, Roboto" opacity="0.847"><tspan x="0" y="0">correo@ejemplo.com</tspan></text>
    <path id="check-circle-solid_1_" data-name="check-circle-solid (1)" d="M49.59,28.795A20.795,20.795,0,1,1,28.795,8,20.795,20.795,0,0,1,49.59,28.795Zm-23.2,11.011L41.818,24.377a1.342,1.342,0,0,0,0-1.9l-1.9-1.9a1.342,1.342,0,0,0-1.9,0L25.441,33.165,19.566,27.29a1.342,1.342,0,0,0-1.9,0l-1.9,1.9a1.342,1.342,0,0,0,0,1.9l8.72,8.72a1.342,1.342,0,0,0,1.9,0Z" transform="translate(464 683)" fill="#4199a0"/>
    <path id="times-circle-solid" d="M28.795,8A20.795,20.795,0,1,0,49.59,28.795,20.791,20.791,0,0,0,28.795,8Zm10.2,26.253a1.007,1.007,0,0,1,0,1.425l-3.32,3.312a1.007,1.007,0,0,1-1.425,0l-5.45-5.5-5.459,5.5a1.007,1.007,0,0,1-1.425,0L18.6,35.67a1.007,1.007,0,0,1,0-1.425l5.5-5.45-5.5-5.459a1.007,1.007,0,0,1,0-1.425l3.32-3.32a1.007,1.007,0,0,1,1.425,0l5.45,5.509,5.459-5.5a1.007,1.007,0,0,1,1.425,0L39,21.919a1.007,1.007,0,0,1,0,1.425l-5.509,5.45Z" transform="translate(464.428 821)" fill="#b60f6f"/>
    <line id="Línea_498" data-name="Línea 498" x2="667" transform="translate(472 782)" fill="none" stroke="#d8d8d8" stroke-width="1"/>
  </g>
</svg>
