<svg xmlns="http://www.w3.org/2000/svg" xmlns:xlink="http://www.w3.org/1999/xlink" width="808" height="469" viewBox="0 0 808 469">
  <defs>
    <filter id="Rectángulo_6147" x="0" y="0" width="808" height="469" filterUnits="userSpaceOnUse">
      <feOffset dy="3" input="SourceAlpha"/>
      <feGaussianBlur stdDeviation="3" result="blur"/>
      <feFlood flood-opacity="0.129"/>
      <feComposite operator="in" in2="blur"/>
      <feComposite in="SourceGraphic"/>
    </filter>
    <linearGradient id="linear-gradient" x1="-343.495" y1="1" x2="-343.495" gradientUnits="objectBoundingBox">
      <stop offset="0" stop-color="gray"/>
      <stop offset="0.015" stop-color="#717171"/>
      <stop offset="0.057" stop-color="#4f4f4f"/>
      <stop offset="0.101" stop-color="#323232"/>
      <stop offset="0.149" stop-color="#1c1c1c"/>
      <stop offset="0.2" stop-color="#0c0c0c"/>
      <stop offset="0.259" stop-color="#020202"/>
      <stop offset="0.341"/>
      <stop offset="0.698"/>
      <stop offset="0.745" stop-color="#040404"/>
      <stop offset="0.801" stop-color="#121212"/>
      <stop offset="0.859" stop-color="#2a2a2a"/>
      <stop offset="0.921" stop-color="#4a4a4a"/>
      <stop offset="0.984" stop-color="#747474"/>
      <stop offset="1" stop-color="gray"/>
    </linearGradient>
    <linearGradient id="linear-gradient-3" x1="-12.852" y1="0.5" x2="-11.809" y2="0.5" gradientUnits="objectBoundingBox">
      <stop offset="0" stop-color="#333"/>
      <stop offset="0.001" stop-color="#323232"/>
      <stop offset="0.031" stop-color="#1b1b1b"/>
      <stop offset="0.064" stop-color="#0c0c0c"/>
      <stop offset="0.101" stop-color="#020202"/>
      <stop offset="0.152"/>
      <stop offset="0.872"/>
      <stop offset="0.906" stop-color="#040404"/>
      <stop offset="0.945" stop-color="#121212"/>
      <stop offset="0.987" stop-color="#2a2a2a"/>
      <stop offset="1" stop-color="#333"/>
    </linearGradient>
    <filter id="Trazado_4434" x="296.922" y="29.717" width="213.625" height="414.246" filterUnits="userSpaceOnUse">
      <feOffset dy="5" input="SourceAlpha"/>
      <feGaussianBlur stdDeviation="3" result="blur-2"/>
      <feFlood flood-opacity="0.235"/>
      <feComposite operator="in" in2="blur-2"/>
      <feComposite in="SourceGraphic"/>
    </filter>
    <linearGradient id="linear-gradient-4" x1="-12.636" y1="0.338" x2="-12.636" y2="-0.111" gradientUnits="objectBoundingBox">
      <stop offset="0"/>
      <stop offset="0.157" stop-color="#040404"/>
      <stop offset="0.339" stop-color="#121212"/>
      <stop offset="0.535" stop-color="#2a2a2a"/>
      <stop offset="0.739" stop-color="#4a4a4a"/>
      <stop offset="0.947" stop-color="#747474"/>
      <stop offset="1" stop-color="gray"/>
    </linearGradient>
    <linearGradient id="linear-gradient-5" x1="-26.898" y1="-145.976" x2="-26.898" y2="-146.425" xlink:href="#linear-gradient-4"/>
    <linearGradient id="linear-gradient-7" x1="0.5" y1="-5.273" x2="0.5" y2="3.459" gradientUnits="objectBoundingBox">
      <stop offset="0"/>
      <stop offset="0.138" stop-color="#040404"/>
      <stop offset="0.298" stop-color="#121212"/>
      <stop offset="0.47" stop-color="#2a2a2a"/>
      <stop offset="0.649" stop-color="#4a4a4a"/>
      <stop offset="0.832" stop-color="#747474"/>
      <stop offset="1" stop-color="#a1a1a1"/>
    </linearGradient>
    <linearGradient id="linear-gradient-8" x1="0.5" y1="-1.097" x2="0.5" y2="1.536" xlink:href="#linear-gradient-7"/>
    <linearGradient id="linear-gradient-9" x1="0.5" y1="-1.097" x2="0.5" y2="1.536" xlink:href="#linear-gradient-7"/>
    <clipPath id="clip-path">
      <path id="Trazado_4433" data-name="Trazado 4433" d="M482.088,57.812v337a20.682,20.682,0,0,1-20.743,20.653H317.228a20.683,20.683,0,0,1-20.743-20.653v-337a20.583,20.583,0,0,1,17.255-20.3,15.466,15.466,0,0,1,3.488-.357h25.3a5.8,5.8,0,0,1,5.814,5.81,5.876,5.876,0,0,0,5.81,5.9h70.273a5.877,5.877,0,0,0,5.81-5.9,5.8,5.8,0,0,1,5.812-5.81h25.3A20.681,20.681,0,0,1,482.088,57.812Z" transform="translate(4547.768 -2039.473)" fill="#fff"/>
    </clipPath>
    <filter id="Rectángulo_61" x="316.716" y="434.156" width="173.029" height="36.717" filterUnits="userSpaceOnUse">
      <feOffset input="SourceAlpha"/>
      <feGaussianBlur stdDeviation="1.513" result="blur-3"/>
      <feFlood flood-opacity="0.149"/>
      <feComposite operator="in" in2="blur-3"/>
      <feComposite in="SourceGraphic"/>
    </filter>
    <filter id="Rectángulo_55" x="316.716" y="319.701" width="173.029" height="36.717" filterUnits="userSpaceOnUse">
      <feOffset input="SourceAlpha"/>
      <feGaussianBlur stdDeviation="1.513" result="blur-4"/>
      <feFlood flood-opacity="0.149"/>
      <feComposite operator="in" in2="blur-4"/>
      <feComposite in="SourceGraphic"/>
    </filter>
    <filter id="Rectángulo_59" x="316.716" y="510.663" width="173.029" height="36.717" filterUnits="userSpaceOnUse">
      <feOffset input="SourceAlpha"/>
      <feGaussianBlur stdDeviation="1.513" result="blur-5"/>
      <feFlood flood-opacity="0.149"/>
      <feComposite operator="in" in2="blur-5"/>
      <feComposite in="SourceGraphic"/>
    </filter>
    <filter id="Rectángulo_60" x="316.716" y="472.308" width="173.029" height="36.717" filterUnits="userSpaceOnUse">
      <feOffset input="SourceAlpha"/>
      <feGaussianBlur stdDeviation="1.513" result="blur-6"/>
      <feFlood flood-opacity="0.149"/>
      <feComposite operator="in" in2="blur-6"/>
      <feComposite in="SourceGraphic"/>
    </filter>
    <filter id="Rectángulo_62" x="316.716" y="396.004" width="173.029" height="36.717" filterUnits="userSpaceOnUse">
      <feOffset input="SourceAlpha"/>
      <feGaussianBlur stdDeviation="1.513" result="blur-7"/>
      <feFlood flood-opacity="0.149"/>
      <feComposite operator="in" in2="blur-7"/>
      <feComposite in="SourceGraphic"/>
    </filter>
    <filter id="Rectángulo_54" x="316.716" y="357.853" width="173.029" height="36.717" filterUnits="userSpaceOnUse">
      <feOffset input="SourceAlpha"/>
      <feGaussianBlur stdDeviation="1.513" result="blur-8"/>
      <feFlood flood-opacity="0.149"/>
      <feComposite operator="in" in2="blur-8"/>
      <feComposite in="SourceGraphic"/>
    </filter>
    <filter id="Rectángulo_49" x="316.716" y="90.79" width="173.029" height="36.717" filterUnits="userSpaceOnUse">
      <feOffset input="SourceAlpha"/>
      <feGaussianBlur stdDeviation="1.513" result="blur-9"/>
      <feFlood flood-opacity="0.149"/>
      <feComposite operator="in" in2="blur-9"/>
      <feComposite in="SourceGraphic"/>
    </filter>
    <filter id="Rectángulo_57" x="316.716" y="243.397" width="173.029" height="36.717" filterUnits="userSpaceOnUse">
      <feOffset input="SourceAlpha"/>
      <feGaussianBlur stdDeviation="1.513" result="blur-10"/>
      <feFlood flood-opacity="0.149"/>
      <feComposite operator="in" in2="blur-10"/>
      <feComposite in="SourceGraphic"/>
    </filter>
    <filter id="Rectángulo_51" x="316.716" y="167.093" width="173.029" height="36.717" filterUnits="userSpaceOnUse">
      <feOffset input="SourceAlpha"/>
      <feGaussianBlur stdDeviation="1.513" result="blur-11"/>
      <feFlood flood-opacity="0.149"/>
      <feComposite operator="in" in2="blur-11"/>
      <feComposite in="SourceGraphic"/>
    </filter>
    <filter id="Rectángulo_50" x="316.716" y="128.942" width="173.029" height="36.717" filterUnits="userSpaceOnUse">
      <feOffset input="SourceAlpha"/>
      <feGaussianBlur stdDeviation="1.513" result="blur-12"/>
      <feFlood flood-opacity="0.149"/>
      <feComposite operator="in" in2="blur-12"/>
      <feComposite in="SourceGraphic"/>
    </filter>
    <filter id="Rectángulo_56" x="316.716" y="281.549" width="173.029" height="36.717" filterUnits="userSpaceOnUse">
      <feOffset input="SourceAlpha"/>
      <feGaussianBlur stdDeviation="1.513" result="blur-13"/>
      <feFlood flood-opacity="0.149"/>
      <feComposite operator="in" in2="blur-13"/>
      <feComposite in="SourceGraphic"/>
    </filter>
    <filter id="Rectángulo_52" x="316.716" y="205.245" width="173.029" height="36.717" filterUnits="userSpaceOnUse">
      <feOffset input="SourceAlpha"/>
      <feGaussianBlur stdDeviation="1.513" result="blur-14"/>
      <feFlood flood-opacity="0.149"/>
      <feComposite operator="in" in2="blur-14"/>
      <feComposite in="SourceGraphic"/>
    </filter>
    <filter id="Trazado_73" x="306.444" y="50.419" width="194.604" height="37.872" filterUnits="userSpaceOnUse">
      <feOffset dy="1" input="SourceAlpha"/>
      <feGaussianBlur stdDeviation="1.5" result="blur-15"/>
      <feFlood flood-opacity="0.302"/>
      <feComposite operator="in" in2="blur-15"/>
      <feComposite in="SourceGraphic"/>
    </filter>
    <filter id="Trazado_4509" x="88.812" y="42.115" width="197.188" height="380.953" filterUnits="userSpaceOnUse">
      <feOffset dy="5" input="SourceAlpha"/>
      <feGaussianBlur stdDeviation="3" result="blur-16"/>
      <feFlood flood-opacity="0.235"/>
      <feComposite operator="in" in2="blur-16"/>
      <feComposite in="SourceGraphic"/>
    </filter>
    <clipPath id="clip-path-2">
      <path id="Trazado_4545" data-name="Trazado 4545" d="M466.494,56.077V364.765a18.944,18.944,0,0,1-19,18.918H315.485a18.945,18.945,0,0,1-19-18.918V56.077A18.854,18.854,0,0,1,312.29,37.486a14.167,14.167,0,0,1,3.195-.327h23.174a5.313,5.313,0,0,1,5.325,5.322,5.382,5.382,0,0,0,5.322,5.406h64.368A5.383,5.383,0,0,0,419,42.481a5.313,5.313,0,0,1,5.324-5.322h23.174A18.943,18.943,0,0,1,466.494,56.077Z" transform="translate(4938.87 -2024.828)" fill="#fff"/>
    </clipPath>
    <filter id="Trazado_73-2" x="97.557" y="62.037" width="179.364" height="35.501" filterUnits="userSpaceOnUse">
      <feOffset dy="1" input="SourceAlpha"/>
      <feGaussianBlur stdDeviation="1.5" result="blur-17"/>
      <feFlood flood-opacity="0.302"/>
      <feComposite operator="in" in2="blur-17"/>
      <feComposite in="SourceGraphic"/>
    </filter>
    <filter id="Trazado_4507" x="164.467" y="151.969" width="44.501" height="44.501" filterUnits="userSpaceOnUse">
      <feOffset dy="3" input="SourceAlpha"/>
      <feGaussianBlur stdDeviation="3" result="blur-18"/>
      <feFlood flood-opacity="0.251"/>
      <feComposite operator="in" in2="blur-18"/>
      <feComposite in="SourceGraphic"/>
    </filter>
    <filter id="Trazado_4508" x="168.28" y="234.274" width="36.929" height="36.929" filterUnits="userSpaceOnUse">
      <feOffset dy="3" input="SourceAlpha"/>
      <feGaussianBlur stdDeviation="3" result="blur-19"/>
      <feFlood flood-opacity="0.161"/>
      <feComposite operator="in" in2="blur-19"/>
      <feComposite in="SourceGraphic"/>
    </filter>
    <filter id="Trazado_4509-2" x="522.812" y="42.115" width="197.188" height="380.953" filterUnits="userSpaceOnUse">
      <feOffset dy="5" input="SourceAlpha"/>
      <feGaussianBlur stdDeviation="3" result="blur-20"/>
      <feFlood flood-opacity="0.235"/>
      <feComposite operator="in" in2="blur-20"/>
      <feComposite in="SourceGraphic"/>
    </filter>
    <clipPath id="clip-path-3">
      <path id="Trazado_4546" data-name="Trazado 4546" d="M466.494,56.077V364.765a18.944,18.944,0,0,1-19,18.918H315.485a18.945,18.945,0,0,1-19-18.918V56.077A18.854,18.854,0,0,1,312.29,37.486a14.167,14.167,0,0,1,3.195-.327h23.174a5.313,5.313,0,0,1,5.325,5.322,5.382,5.382,0,0,0,5.322,5.406h64.368A5.383,5.383,0,0,0,419,42.481a5.313,5.313,0,0,1,5.324-5.322h23.174A18.943,18.943,0,0,1,466.494,56.077Z" transform="translate(4264.917 -2540.828)" fill="#fff"/>
    </clipPath>
    <filter id="Trazado_73-3" x="531.902" y="62.012" width="179.009" height="35.446" filterUnits="userSpaceOnUse">
      <feOffset dy="1" input="SourceAlpha"/>
      <feGaussianBlur stdDeviation="1.5" result="blur-21"/>
      <feFlood flood-opacity="0.302"/>
      <feComposite operator="in" in2="blur-21"/>
      <feComposite in="SourceGraphic"/>
    </filter>
    <filter id="Rectángulo_6185" x="531.245" y="148.752" width="180.453" height="167.833" filterUnits="userSpaceOnUse">
      <feOffset input="SourceAlpha"/>
      <feGaussianBlur stdDeviation="3" result="blur-22"/>
      <feFlood flood-opacity="0.161"/>
      <feComposite operator="in" in2="blur-22"/>
      <feComposite in="SourceGraphic"/>
    </filter>
  </defs>
  <g id="Grupo_6012" data-name="Grupo 6012" transform="translate(-404 -2011)">
    <g transform="matrix(1, 0, 0, 1, 404, 2011)" filter="url(#Rectángulo_6147)">
      <rect id="Rectángulo_6147-2" data-name="Rectángulo 6147" width="790" height="451" transform="translate(9 6)" fill="#f1f2f3"/>
    </g>
    <rect id="Rectángulo_6144" data-name="Rectángulo 6144" width="6.735" height="69.8" rx="0.982" transform="translate(708.047 2111.763)" fill="url(#linear-gradient)"/>
    <rect id="Rectángulo_6145" data-name="Rectángulo 6145" width="6.735" height="28.624" rx="0.982" transform="translate(708.047 2189.599)" fill="url(#linear-gradient)"/>
    <g transform="matrix(1, 0, 0, 1, 404, 2011)" filter="url(#Trazado_4434)">
      <path id="Trazado_4434-2" data-name="Trazado 4434" d="M25,0H170.625a25,25,0,0,1,25,25V371.246a25,25,0,0,1-25,25H25a25,25,0,0,1-25-25V25A25,25,0,0,1,25,0Z" transform="translate(305.92 33.72)" fill="url(#linear-gradient-3)"/>
    </g>
    <path id="Trazado_4427" data-name="Trazado 4427" d="M322.293,33.31H458.68A27.323,27.323,0,0,1,486,60.632v3.9A27.324,27.324,0,0,0,458.68,37.212H322.293a27.324,27.324,0,0,0-27.322,27.324v-3.9A27.322,27.322,0,0,1,322.293,33.31Z" transform="translate(417.247 2013.474)" fill="url(#linear-gradient-4)" style="mix-blend-mode: screen;isolation: isolate"/>
    <path id="Trazado_4428" data-name="Trazado 4428" d="M458.68,265.717H322.293a27.324,27.324,0,0,1-27.322-27.324v-3.9a27.322,27.322,0,0,0,27.322,27.322H458.68A27.323,27.323,0,0,0,486,234.491v3.9A27.324,27.324,0,0,1,458.68,265.717Z" transform="translate(417.247 2173.065)" fill="url(#linear-gradient-5)" style="mix-blend-mode: screen;isolation: isolate"/>
    <path id="Trazado_4506" data-name="Trazado 4506" d="M444.925,263.094H320a25.028,25.028,0,0,1-25.027-25.028v-3.574A25.027,25.027,0,0,0,320,259.518H444.925a25.027,25.027,0,0,0,25.028-25.027v3.574A25.029,25.029,0,0,1,444.925,263.094Z" transform="translate(189.897 2154.977)" fill="url(#linear-gradient-5)" style="mix-blend-mode: screen;isolation: isolate"/>
    <path id="Trazado_4429" data-name="Trazado 4429" d="M482.088,57.812v337a20.682,20.682,0,0,1-20.743,20.653H317.228a20.683,20.683,0,0,1-20.743-20.653v-337a20.583,20.583,0,0,1,17.255-20.3,15.466,15.466,0,0,1,3.488-.357h25.3a5.8,5.8,0,0,1,5.814,5.81,5.876,5.876,0,0,0,5.81,5.9h70.273a5.877,5.877,0,0,0,5.81-5.9,5.8,5.8,0,0,1,5.812-5.81h25.3A20.681,20.681,0,0,1,482.088,57.812Z" transform="translate(418.448 2016.527)" fill="#fff"/>
    <path id="Trazado_4430" data-name="Trazado 4430" d="M380.889,41.544H336.378a1.238,1.238,0,0,1-1.237-1.237h0a1.236,1.236,0,0,1,1.237-1.236h44.511a1.234,1.234,0,0,1,1.236,1.236h0A1.236,1.236,0,0,1,380.889,41.544Z" transform="translate(449.113 2018.044)" fill="url(#linear-gradient-7)"/>
    <path id="Trazado_4431" data-name="Trazado 4431" d="M331.654,42.976a2.251,2.251,0,1,0-2.252-2.251,2.251,2.251,0,0,0,2.252,2.251Z" transform="translate(444.56 2017.57)" fill="url(#linear-gradient-8)"/>
    <path id="Trazado_4432" data-name="Trazado 4432" d="M366.614,42.976a2.251,2.251,0,1,0-2.251-2.251,2.251,2.251,0,0,0,2.251,2.251Z" transform="translate(472.293 2017.57)" fill="url(#linear-gradient-9)"/>
    <g id="Enmascarar_grupo_12" data-name="Enmascarar grupo 12" transform="translate(-4129.309 4056)" clip-path="url(#clip-path)">
      <rect id="Rectángulo_6148" data-name="Rectángulo 6148" width="185.466" height="472.186" transform="translate(4844.252 -1962.186)" fill="#f4f4f4"/>
      <g id="Grupo_5999" data-name="Grupo 5999" transform="translate(4854.564 -1606.304)">
        <g id="Grupo_2440" data-name="Grupo 2440" transform="translate(0 0)">
          <g transform="matrix(1, 0, 0, 1, -321.26, -438.7)" filter="url(#Rectángulo_61)">
            <rect id="Rectángulo_61-2" data-name="Rectángulo 61" width="163.95" height="27.638" transform="translate(321.26 438.7)" fill="#fff"/>
          </g>
          <text id="Launch_screen_splash_" data-name="Launch screen (splash)" transform="translate(6.74 15.643)" fill="#d5007f" font-size="7" font-family="Roboto-Regular, Roboto" style="isolation: isolate"><tspan x="0" y="0">Launch screen (splash)</tspan></text>
          <g id="keyboard_arrow_right-24px" transform="translate(143.28 7.733)">
            <path id="Trazado_2" data-name="Trazado 2" d="M0,0H12.374V12.374H0Z" fill="none"/>
            <path id="Trazado_3" data-name="Trazado 3" d="M8.59,11.46l2.361-2.366L8.59,6.727,9.317,6,12.41,9.093,9.317,12.187Z" transform="translate(-4.161 -2.907)" fill="#d5007f"/>
          </g>
        </g>
      </g>
      <g id="Grupo_6001" data-name="Grupo 6001" transform="translate(4854.564 -1720.76)">
        <g transform="matrix(1, 0, 0, 1, -321.26, -324.24)" filter="url(#Rectángulo_55)">
          <rect id="Rectángulo_55-2" data-name="Rectángulo 55" width="163.95" height="27.638" transform="translate(321.26 324.24)" fill="#fff"/>
        </g>
        <text id="Dialogs" transform="translate(6.74 15.643)" fill="#d5007f" font-size="7" font-family="Roboto-Regular, Roboto" style="isolation: isolate"><tspan x="0" y="0">Dialogs</tspan></text>
        <g id="keyboard_arrow_right-24px-2" data-name="keyboard_arrow_right-24px" transform="translate(143.28 7.733)">
          <path id="Trazado_2-2" data-name="Trazado 2" d="M0,0H12.374V12.374H0Z" fill="none"/>
          <path id="Trazado_3-2" data-name="Trazado 3" d="M8.59,11.46l2.361-2.366L8.59,6.727,9.317,6,12.41,9.093,9.317,12.187Z" transform="translate(-4.161 -2.907)" fill="#d5007f"/>
        </g>
      </g>
      <g id="Grupo_6002" data-name="Grupo 6002" transform="translate(4854.564 -1529.797)">
        <g transform="matrix(1, 0, 0, 1, -321.26, -515.2)" filter="url(#Rectángulo_59)">
          <rect id="Rectángulo_59-2" data-name="Rectángulo 59" width="163.95" height="27.638" transform="translate(321.26 515.2)" fill="#fff"/>
        </g>
        <text id="Text_Fields" data-name="Text Fields" transform="translate(6.74 15.643)" fill="#d5007f" font-size="7" font-family="Roboto-Regular, Roboto" style="isolation: isolate"><tspan x="0" y="0">Text Fields</tspan></text>
        <g id="keyboard_arrow_right-24px-3" data-name="keyboard_arrow_right-24px" transform="translate(143.28 7.733)">
          <path id="Trazado_2-3" data-name="Trazado 2" d="M0,0H12.374V12.374H0Z" fill="none"/>
          <path id="Trazado_3-3" data-name="Trazado 3" d="M8.59,11.46l2.361-2.366L8.59,6.727,9.317,6,12.41,9.093,9.317,12.187Z" transform="translate(-4.161 -2.907)" fill="#d5007f"/>
        </g>
      </g>
      <g id="Grupo_6005" data-name="Grupo 6005" transform="translate(4854.564 -1568.152)">
        <g transform="matrix(1, 0, 0, 1, -321.26, -476.85)" filter="url(#Rectángulo_60)">
          <rect id="Rectángulo_60-2" data-name="Rectángulo 60" width="163.95" height="27.638" transform="translate(321.26 476.85)" fill="#fff"/>
        </g>
        <text id="Tabs" transform="translate(6.74 15.643)" fill="#d5007f" font-size="7" font-family="Roboto-Regular, Roboto" style="isolation: isolate"><tspan x="0" y="0">Tabs</tspan></text>
        <g id="keyboard_arrow_right-24px-4" data-name="keyboard_arrow_right-24px" transform="translate(143.28 7.733)">
          <path id="Trazado_2-4" data-name="Trazado 2" d="M0,0H12.374V12.374H0Z" fill="none"/>
          <path id="Trazado_3-4" data-name="Trazado 3" d="M8.59,11.46l2.361-2.366L8.59,6.727,9.317,6,12.41,9.093,9.317,12.187Z" transform="translate(-4.161 -2.907)" fill="#d5007f"/>
        </g>
      </g>
      <g id="Grupo_6007" data-name="Grupo 6007" transform="translate(4854.564 -1644.456)">
        <g transform="matrix(1, 0, 0, 1, -321.26, -400.54)" filter="url(#Rectángulo_62)">
          <rect id="Rectángulo_62-2" data-name="Rectángulo 62" width="163.95" height="27.638" transform="translate(321.26 400.54)" fill="#fff"/>
        </g>
        <text id="Menús" transform="translate(8.287 15.643)" fill="#d5007f" font-size="7" font-family="Roboto-Regular, Roboto" style="isolation: isolate"><tspan x="0" y="0">Menús</tspan></text>
        <g id="keyboard_arrow_right-24px-5" data-name="keyboard_arrow_right-24px" transform="translate(143.28 7.733)">
          <path id="Trazado_2-5" data-name="Trazado 2" d="M0,0H12.374V12.374H0Z" fill="none"/>
          <path id="Trazado_3-5" data-name="Trazado 3" d="M8.59,11.46l2.361-2.366L8.59,6.727,9.317,6,12.41,9.093,9.317,12.187Z" transform="translate(-4.161 -2.907)" fill="#d5007f"/>
        </g>
      </g>
      <g id="Grupo_6008" data-name="Grupo 6008" transform="translate(4854.564 -1682.608)">
        <g transform="matrix(1, 0, 0, 1, -321.26, -362.39)" filter="url(#Rectángulo_54)">
          <rect id="Rectángulo_54-2" data-name="Rectángulo 54" width="163.95" height="27.638" transform="translate(321.26 362.39)" fill="#fff"/>
        </g>
        <text id="Dividers" transform="translate(6.74 15.643)" fill="#d5007f" font-size="7" font-family="Roboto-Regular, Roboto" style="isolation: isolate"><tspan x="0" y="0">Dividers</tspan></text>
        <g id="keyboard_arrow_right-24px-6" data-name="keyboard_arrow_right-24px" transform="translate(143.28 7.733)">
          <path id="Trazado_2-6" data-name="Trazado 2" d="M0,0H12.374V12.374H0Z" fill="none"/>
          <path id="Trazado_3-6" data-name="Trazado 3" d="M8.59,11.46l2.361-2.366L8.59,6.727,9.317,6,12.41,9.093,9.317,12.187Z" transform="translate(-4.161 -2.907)" fill="#d5007f"/>
        </g>
      </g>
      <g id="Grupo_5997" data-name="Grupo 5997" transform="translate(4854.564 -1949.671)">
        <g transform="matrix(1, 0, 0, 1, -321.26, -95.33)" filter="url(#Rectángulo_49)">
          <rect id="Rectángulo_49-2" data-name="Rectángulo 49" width="163.95" height="27.638" transform="translate(321.26 95.33)" fill="#fff"/>
        </g>
        <text id="App_bar:_top" data-name="App bar: top" transform="translate(6.74 15.643)" fill="#d5007f" font-size="7" font-family="Roboto-Regular, Roboto" style="isolation: isolate"><tspan x="0" y="0">App bar: top</tspan></text>
        <g id="keyboard_arrow_right-24px-7" data-name="keyboard_arrow_right-24px" transform="translate(143.327 7.733)">
          <path id="Trazado_2-7" data-name="Trazado 2" d="M0,0H12.374V12.374H0Z" fill="none"/>
          <path id="Trazado_3-7" data-name="Trazado 3" d="M8.59,11.46l2.361-2.366L8.59,6.727,9.317,6,12.41,9.093,9.317,12.187Z" transform="translate(-4.161 -2.907)" fill="#d5007f"/>
        </g>
      </g>
      <g id="Grupo_5998" data-name="Grupo 5998" transform="translate(4854.564 -1797.063)">
        <g id="Grupo_2383" data-name="Grupo 2383" transform="translate(0 0)">
          <g transform="matrix(1, 0, 0, 1, -321.26, -247.94)" filter="url(#Rectángulo_57)">
            <rect id="Rectángulo_57-2" data-name="Rectángulo 57" width="163.95" height="27.638" transform="translate(321.26 247.94)" fill="#fff"/>
          </g>
          <text id="Cards" transform="translate(6.74 15.643)" fill="#d5007f" font-size="7" font-family="Roboto-Regular, Roboto" style="isolation: isolate"><tspan x="0" y="0">Cards</tspan></text>
          <g id="keyboard_arrow_right-24px-8" data-name="keyboard_arrow_right-24px" transform="translate(143.28 7.733)">
            <path id="Trazado_2-8" data-name="Trazado 2" d="M0,0H12.374V12.374H0Z" fill="none"/>
            <path id="Trazado_3-8" data-name="Trazado 3" d="M8.59,11.46l2.361-2.366L8.59,6.727,9.317,6,12.41,9.093,9.317,12.187Z" transform="translate(-4.161 -2.907)" fill="#d5007f"/>
          </g>
        </g>
      </g>
      <g id="Grupo_6000" data-name="Grupo 6000" transform="translate(4854.564 -1873.367)">
        <g transform="matrix(1, 0, 0, 1, -321.26, -171.63)" filter="url(#Rectángulo_51)">
          <rect id="Rectángulo_51-2" data-name="Rectángulo 51" width="163.95" height="27.638" transform="translate(321.26 171.63)" fill="#fff"/>
        </g>
        <text id="Buttons" transform="translate(6.74 15.643)" fill="#d5007f" font-size="7" font-family="Roboto-Regular, Roboto" style="isolation: isolate"><tspan x="0" y="0">Buttons</tspan></text>
        <g id="keyboard_arrow_right-24px-9" data-name="keyboard_arrow_right-24px" transform="translate(143.28 7.733)">
          <path id="Trazado_2-9" data-name="Trazado 2" d="M0,0H12.374V12.374H0Z" fill="none"/>
          <path id="Trazado_3-9" data-name="Trazado 3" d="M8.59,11.46l2.361-2.366L8.59,6.727,9.317,6,12.41,9.093,9.317,12.187Z" transform="translate(-4.161 -2.907)" fill="#d5007f"/>
        </g>
      </g>
      <g id="Grupo_6003" data-name="Grupo 6003" transform="translate(4854.564 -1911.519)">
        <g transform="matrix(1, 0, 0, 1, -321.26, -133.48)" filter="url(#Rectángulo_50)">
          <rect id="Rectángulo_50-2" data-name="Rectángulo 50" width="163.95" height="27.638" transform="translate(321.26 133.48)" fill="#fff"/>
        </g>
        <text id="Bottom_navigation" data-name="Bottom navigation" transform="translate(6.74 15.643)" fill="#d5007f" font-size="7" font-family="Roboto-Regular, Roboto" style="isolation: isolate"><tspan x="0" y="0">Bottom navigation</tspan></text>
        <g id="keyboard_arrow_right-24px-10" data-name="keyboard_arrow_right-24px" transform="translate(143.28 7.733)">
          <path id="Trazado_2-10" data-name="Trazado 2" d="M0,0H12.374V12.374H0Z" fill="none"/>
          <path id="Trazado_3-10" data-name="Trazado 3" d="M8.59,11.46l2.361-2.366L8.59,6.727,9.317,6,12.41,9.093,9.317,12.187Z" transform="translate(-4.161 -2.907)" fill="#d5007f"/>
        </g>
      </g>
      <g id="Grupo_6004" data-name="Grupo 6004" transform="translate(4854.564 -1758.911)">
        <g transform="matrix(1, 0, 0, 1, -321.26, -286.09)" filter="url(#Rectángulo_56)">
          <rect id="Rectángulo_56-2" data-name="Rectángulo 56" width="163.95" height="27.638" transform="translate(321.26 286.09)" fill="#fff"/>
        </g>
        <text id="Chips" transform="translate(6.74 15.643)" fill="#d5007f" font-size="7" font-family="Roboto-Regular, Roboto" style="isolation: isolate"><tspan x="0" y="0">Chips</tspan></text>
        <g id="keyboard_arrow_right-24px-11" data-name="keyboard_arrow_right-24px" transform="translate(143.28 7.733)">
          <path id="Trazado_2-11" data-name="Trazado 2" d="M0,0H12.374V12.374H0Z" fill="none"/>
          <path id="Trazado_3-11" data-name="Trazado 3" d="M8.59,11.46l2.361-2.366L8.59,6.727,9.317,6,12.41,9.093,9.317,12.187Z" transform="translate(-4.161 -2.907)" fill="#d5007f"/>
        </g>
      </g>
      <g id="Grupo_6006" data-name="Grupo 6006" transform="translate(4854.564 -1835.215)">
        <g transform="matrix(1, 0, 0, 1, -321.26, -209.78)" filter="url(#Rectángulo_52)">
          <rect id="Rectángulo_52-2" data-name="Rectángulo 52" width="163.95" height="27.638" transform="translate(321.26 209.78)" fill="#fff"/>
        </g>
        <text id="Floating_action_button" data-name="Floating action button" transform="translate(6.74 15.643)" fill="#d5007f" font-size="7" font-family="Roboto-Regular, Roboto" style="isolation: isolate"><tspan x="0" y="0">Floating action button</tspan></text>
        <g id="keyboard_arrow_right-24px-12" data-name="keyboard_arrow_right-24px" transform="translate(143.28 7.733)">
          <path id="Trazado_2-12" data-name="Trazado 2" d="M0,0H12.374V12.374H0Z" fill="none"/>
          <path id="Trazado_3-12" data-name="Trazado 3" d="M8.59,11.46l2.361-2.366L8.59,6.727,9.317,6,12.41,9.093,9.317,12.187Z" transform="translate(-4.161 -2.907)" fill="#d5007f"/>
        </g>
      </g>
      <g id="Grupo_6009" data-name="Grupo 6009" transform="translate(4844.252 -2003.29)">
        <g id="Grupo_2" data-name="Grupo 2">
          <g transform="matrix(1, 0, 0, 1, -310.94, -41.71)" filter="url(#Trazado_73)">
            <path id="Trazado_73-4" data-name="Trazado 73" d="M82.542,329.7h185.6v28.872H82.542Z" transform="translate(228.4 -275.78)" fill="#242424"/>
          </g>
          <rect id="Rectángulo_1" data-name="Rectángulo 1" width="185.603" height="12.302" transform="translate(0)"/>
          <rect id="Rectángulo_4" data-name="Rectángulo 4" width="1.031" height="3.119" transform="translate(10.449 6.983)" fill="#fff"/>
          <rect id="Rectángulo_5" data-name="Rectángulo 5" width="1.031" height="3.743" transform="translate(12.321 6.358)" fill="#fff"/>
          <rect id="Rectángulo_6" data-name="Rectángulo 6" width="1.031" height="4.99" transform="translate(14.192 5.111)" fill="#fff"/>
          <rect id="Rectángulo_7" data-name="Rectángulo 7" width="1.031" height="5.614" transform="translate(16.063 4.487)" fill="#fff"/>
          <text id="RED" transform="translate(21.823 9.031)" fill="#fff" font-size="5" font-family="Roboto-Medium, Roboto" font-weight="500" style="isolation: isolate"><tspan x="0" y="0">RED</tspan></text>
          <text id="_12:00" data-name="12:00" transform="translate(85.76 8.043)" fill="#fff" font-size="4" font-family="Roboto-Medium, Roboto" font-weight="500" style="isolation: isolate"><tspan x="0" y="0">12:00</tspan></text>
          <path id="Trazado_1" data-name="Trazado 1" d="M147.9,313.406l2.732,5.008,2.731-5.008A6.6,6.6,0,0,0,147.9,313.406Z" transform="translate(-111.202 -308.312)" fill="#fff"/>
          <rect id="Rectángulo_3" data-name="Rectángulo 3" width="11.559" height="4.879" transform="translate(160.449 5.031)" fill="#fff"/>
          <text id="_100_" data-name="100%" transform="translate(143.8 8.785)" fill="#fff" font-size="5" font-family="Roboto-Medium, Roboto" font-weight="500" style="isolation: isolate"><tspan x="0" y="0">100%</tspan></text>
          <text id="Componentes_INE" data-name="Componentes INE" transform="translate(8.249 29.973)" fill="snow" font-size="10" font-family="Roboto-Medium, Roboto" font-weight="500" style="isolation: isolate"><tspan x="0" y="0">Componentes INE</tspan></text>
        </g>
        <g id="search-24px" transform="translate(164.981 20.623)">
          <path id="Trazado_19" data-name="Trazado 19" d="M0,0H12.374V12.374H0Z" fill="none"/>
          <path id="Trazado_20" data-name="Trazado 20" d="M9.445,8.671H9.037l-.144-.139a3.356,3.356,0,1,0-.361.361l.139.144v.407l2.578,2.573.768-.768Zm-3.093,0a2.32,2.32,0,1,1,2.32-2.32A2.317,2.317,0,0,1,6.351,8.671Z" transform="translate(-1.453 -1.453)" fill="#fff"/>
        </g>
        <g id="share-24px" transform="translate(140.234 20.623)">
          <path id="Trazado_21" data-name="Trazado 21" d="M0,0H12.374V12.374H0Z" fill="none"/>
          <path id="Trazado_22" data-name="Trazado 22" d="M10.733,9.259a1.5,1.5,0,0,0-1.011.4L6.047,7.517a1.427,1.427,0,0,0,0-.722L9.682,4.676a1.543,1.543,0,1,0-.495-1.129,1.688,1.688,0,0,0,.046.361L5.6,6.027a1.547,1.547,0,1,0,0,2.258l3.671,2.145a1.454,1.454,0,0,0-.041.335,1.505,1.505,0,1,0,1.505-1.505Z" transform="translate(-1.453 -0.969)" fill="#fff"/>
        </g>
      </g>
    </g>
    <g id="Grupo_6047" data-name="Grupo 6047" transform="translate(-4444.953 4053)">
      <rect id="Rectángulo_6181" data-name="Rectángulo 6181" width="6.169" height="63.936" rx="0.982" transform="translate(4945.047 -1934.473)" fill="url(#linear-gradient)"/>
      <rect id="Rectángulo_6182" data-name="Rectángulo 6182" width="6.169" height="26.219" rx="0.982" transform="translate(4945.047 -1863.176)" fill="url(#linear-gradient)"/>
      <g transform="matrix(1, 0, 0, 1, 4848.95, -2042)" filter="url(#Trazado_4509)">
        <path id="Trazado_4509-3" data-name="Trazado 4509" d="M22.9,0H156.289a22.9,22.9,0,0,1,22.9,22.9V340.053a22.9,22.9,0,0,1-22.9,22.9H22.9A22.9,22.9,0,0,1,0,340.053V22.9A22.9,22.9,0,0,1,22.9,0Z" transform="translate(97.81 46.12)" fill="url(#linear-gradient-3)"/>
      </g>
      <path id="Trazado_4510" data-name="Trazado 4510" d="M320,33.31H444.925a25.027,25.027,0,0,1,25.028,25.027v3.576a25.029,25.029,0,0,0-25.028-25.028H320a25.028,25.028,0,0,0-25.027,25.028V58.337A25.027,25.027,0,0,1,320,33.31Z" transform="translate(4653.897 -2027.302)" fill="url(#linear-gradient-4)" style="mix-blend-mode: screen;isolation: isolate"/>
      <path id="Trazado_4544" data-name="Trazado 4544" d="M444.925,263.094H320a25.028,25.028,0,0,1-25.027-25.028v-3.574A25.027,25.027,0,0,0,320,259.518H444.925a25.027,25.027,0,0,0,25.028-25.027v3.574A25.029,25.029,0,0,1,444.925,263.094Z" transform="translate(4653.897 -1898.023)" fill="url(#linear-gradient-5)" style="mix-blend-mode: screen;isolation: isolate"/>
      <path id="Trazado_4511" data-name="Trazado 4511" d="M466.494,56.077V364.765a18.944,18.944,0,0,1-19,18.918H315.485a18.945,18.945,0,0,1-19-18.918V56.077A18.854,18.854,0,0,1,312.29,37.486a14.167,14.167,0,0,1,3.195-.327h23.174a5.313,5.313,0,0,1,5.325,5.322,5.382,5.382,0,0,0,5.322,5.406h64.368A5.383,5.383,0,0,0,419,42.481a5.313,5.313,0,0,1,5.324-5.322h23.174A18.943,18.943,0,0,1,466.494,56.077Z" transform="translate(4654.87 -2024.828)" fill="#fff"/>
      <path id="Trazado_4541" data-name="Trazado 4541" d="M377.045,41.336H336.274a1.134,1.134,0,0,1-1.133-1.133h0a1.132,1.132,0,0,1,1.133-1.132h40.771a1.131,1.131,0,0,1,1.132,1.132h0A1.132,1.132,0,0,1,377.045,41.336Z" transform="translate(4679.71 -2023.6)" fill="url(#linear-gradient-7)"/>
      <path id="Trazado_4542" data-name="Trazado 4542" d="M331.465,42.6a2.062,2.062,0,1,0-2.063-2.061,2.062,2.062,0,0,0,2.063,2.061Z" transform="translate(4676.022 -2023.984)" fill="url(#linear-gradient-8)"/>
      <path id="Trazado_4543" data-name="Trazado 4543" d="M366.424,42.6a2.062,2.062,0,1,0-2.061-2.061,2.062,2.062,0,0,0,2.061,2.061Z" transform="translate(4698.487 -2023.984)" fill="url(#linear-gradient-9)"/>
      <g id="Enmascarar_grupo_15" data-name="Enmascarar grupo 15" transform="translate(-283.99)" clip-path="url(#clip-path-2)">
        <g id="Grupo_6046" data-name="Grupo 6046" transform="translate(738 134.331)">
          <rect id="Rectángulo_6183" data-name="Rectángulo 6183" width="170" height="292" transform="translate(4497 -2122)" fill="#fff"/>
          <rect id="Rectángulo_6179" data-name="Rectángulo 6179" width="170" height="28" transform="translate(4497 -2084)" fill="#f4f4f4"/>
          <text id="Regular" transform="translate(4506.465 -2028.873)" fill="#333" font-size="7" font-family="Roboto-Regular, Roboto" style="isolation: isolate"><tspan x="0" y="0">Regular</tspan></text>
          <text id="Mini" transform="translate(4505.991 -1948.564)" fill="#333" font-size="7" font-family="Roboto-Regular, Roboto" style="isolation: isolate"><tspan x="0" y="0">Mini</tspan></text>
          <text id="Extendido" transform="translate(4505.991 -1875.686)" fill="#333" font-size="7" font-family="Roboto-Regular, Roboto" style="isolation: isolate"><tspan x="0" y="0">Extendido</tspan></text>
          <text id="Tipos" transform="translate(4506 -2066)" fill="#333" font-size="11" font-family="Roboto-Regular, Roboto" style="isolation: isolate"><tspan x="0" y="0">Tipos</tspan></text>
          <line id="Línea_1561" data-name="Línea 1561" x2="150.488" transform="translate(4506.465 -1897.022)" fill="none" stroke="#000" stroke-width="1" opacity="0.127"/>
          <line id="Línea_1562" data-name="Línea 1562" x2="150.488" transform="translate(4506.465 -1970.373)" fill="none" stroke="#000" stroke-width="1" opacity="0.127"/>
          <g id="Grupo_6042" data-name="Grupo 6042" transform="translate(4497 -2122)">
            <g transform="matrix(1, 0, 0, 1, -102.06, -54.33)" filter="url(#Trazado_73-2)">
              <path id="Trazado_73-5" data-name="Trazado 73" d="M82.542,329.7H252.906v26.5H82.542Z" transform="translate(19.51 -264.16)" fill="#242424"/>
            </g>
            <path id="Rectángulo_1-2" data-name="Rectángulo 1" d="M0,0H170.364V11.292H0Z" transform="translate(0)"/>
            <rect id="Rectángulo_4-2" data-name="Rectángulo 4" width="0.946" height="2.863" transform="translate(6.838 5.491)" fill="#fff"/>
            <rect id="Rectángulo_5-2" data-name="Rectángulo 5" width="0.946" height="3.436" transform="translate(8.555 4.918)" fill="#fff"/>
            <rect id="Rectángulo_6-2" data-name="Rectángulo 6" width="0.946" height="4.581" transform="translate(10.273 3.774)" fill="#fff"/>
            <rect id="Rectángulo_7-2" data-name="Rectángulo 7" width="0.946" height="5.153" transform="translate(11.991 3.201)" fill="#fff"/>
            <text id="RED-2" data-name="RED" transform="translate(17.277 7.7)" fill="#fff" font-size="4" font-family="Roboto-Medium, Roboto" font-weight="500" style="isolation: isolate"><tspan x="0" y="0">RED</tspan></text>
            <text id="_12:00-2" data-name="12:00" transform="translate(78.718 7.711)" fill="#fff" font-size="4" font-family="Roboto-Medium, Roboto" font-weight="500" style="isolation: isolate"><tspan x="0" y="0">12:00</tspan></text>
            <path id="Trazado_1-2" data-name="Trazado 1" d="M147.9,313.357l2.508,4.6,2.507-4.6A6.057,6.057,0,0,0,147.9,313.357Z" transform="translate(-116.969 -309.6)" fill="#fff"/>
            <rect id="Rectángulo_3-2" data-name="Rectángulo 3" width="12.244" height="5.168" transform="translate(150.029 3.01)" fill="#fff"/>
            <text id="_100_2" data-name="100%" transform="translate(134.747 7.474)" fill="#fff" font-size="4" font-family="Roboto-Medium, Roboto" font-weight="500" style="isolation: isolate"><tspan x="0" y="0">100%</tspan></text>
            <path id="Trazado_19-2" data-name="Trazado 19" d="M0,0H11.358V11.358H0Z" transform="translate(151.434 18.929)" fill="none"/>
            <path id="Trazado_20-2" data-name="Trazado 20" d="M8.915,8.206H8.542l-.133-.128a3.081,3.081,0,1,0-.331.331l.128.133v.374l2.366,2.361.705-.705Zm-2.839,0a2.13,2.13,0,1,1,2.13-2.13A2.127,2.127,0,0,1,6.076,8.206Z" transform="translate(149.854 17.349)" fill="#fff"/>
            <path id="Trazado_21-2" data-name="Trazado 21" d="M0,0H11.358V11.358H0Z" transform="translate(128.719 18.929)" fill="none"/>
            <path id="Trazado_22-2" data-name="Trazado 22" d="M10.1,8.663a1.378,1.378,0,0,0-.928.364L5.8,7.064a1.31,1.31,0,0,0,0-.663L9.133,4.456A1.417,1.417,0,1,0,8.679,3.42a1.549,1.549,0,0,0,.043.331L5.385,5.7a1.42,1.42,0,1,0,0,2.073L8.755,9.737a1.335,1.335,0,0,0-.038.308A1.382,1.382,0,1,0,10.1,8.663Z" transform="translate(127.139 17.876)" fill="#fff"/>
            <text id="Floating_button" data-name="Floating button" transform="translate(33.969 27.875)" fill="snow" font-size="9" font-family="Roboto-Medium, Roboto" font-weight="500" style="isolation: isolate"><tspan x="0" y="0">Floating button</tspan></text>
            <g id="keyboard_backspace-24px_1_" data-name="keyboard_backspace-24px (1)" transform="translate(7.098 20.349)">
              <path id="Trazado_29" data-name="Trazado 29" d="M0,0H11.358V11.358H0Z" fill="none"/>
              <path id="Trazado_30" data-name="Trazado 30" d="M11.518,8.366H4.812l1.694-1.7L5.839,6,3,8.839l2.839,2.839.667-.667-1.694-1.7h6.706Z" transform="translate(-1.58 -3.161)" fill="#fff"/>
            </g>
          </g>
          <g transform="matrix(1, 0, 0, 1, 4394.94, -2176.33)" filter="url(#Trazado_4507)">
            <path id="Trazado_4507-2" data-name="Trazado 4507" d="M13.251,0A13.251,13.251,0,1,1,0,13.251,13.251,13.251,0,0,1,13.251,0Z" transform="translate(173.47 157.97)" fill="#b7006d"/>
          </g>
          <g id="Grupo_6043" data-name="Grupo 6043" transform="translate(4577.359 -2010.79)">
            <path id="Trazado_2163" data-name="Trazado 2163" d="M248.084,209.257a1.292,1.292,0,0,0-.769-.252,1.308,1.308,0,0,0-1.048.529l-.393.535,2.1,1.544.389-.539A1.3,1.3,0,0,0,248.084,209.257Zm-3.96,3.239-2.827,3.925,2.043,1.611,2.881-3.993Zm-3.716,5.161a.159.159,0,0,0-.029.07l-.369,2.449a.162.162,0,0,0,.064.154.16.16,0,0,0,.1.032.154.154,0,0,0,.071-.016l2.157-1.039a.161.161,0,0,0,.061-.051l.408-.566-2.043-1.61Zm4.992-6.933-.8,1.116,2.1,1.544.8-1.115Z" transform="translate(-240.009 -209.005)" fill="#fff"/>
          </g>
          <g transform="matrix(1, 0, 0, 1, 4394.94, -2176.33)" filter="url(#Trazado_4508)">
            <path id="Trazado_4508-2" data-name="Trazado 4508" d="M9.465,0A9.465,9.465,0,1,1,0,9.465,9.465,9.465,0,0,1,9.465,0Z" transform="translate(177.28 240.27)" fill="#b7006d"/>
          </g>
          <g id="Grupo_6044" data-name="Grupo 6044" transform="translate(4577.391 -1932.271)">
            <path id="Trazado_2162" data-name="Trazado 2162" d="M245.152,377.179a1.291,1.291,0,0,0-.769-.252,1.309,1.309,0,0,0-1.048.529l-.393.535,2.1,1.544.389-.538A1.3,1.3,0,0,0,245.152,377.179Zm-3.96,3.239-2.826,3.926,2.043,1.611,2.881-3.993Zm-3.715,5.162a.158.158,0,0,0-.029.07l-.369,2.449a.163.163,0,0,0,.064.154.161.161,0,0,0,.1.032.156.156,0,0,0,.071-.017l2.157-1.039a.159.159,0,0,0,.061-.051l.409-.566L237.892,385Zm4.991-6.933-.8,1.116,2.1,1.544.8-1.115Z" transform="translate(-237.077 -376.927)" fill="#fff"/>
          </g>
          <rect id="Rectángulo_6180" data-name="Rectángulo 6180" width="53.501" height="22.715" rx="11.358" transform="translate(4555.432 -1862.955)" fill="#b7006d"/>
          <g id="Button" transform="translate(4577.811 -1855.454)" style="isolation: isolate">
            <text id="Editar" transform="translate(0 6)" fill="#fff" font-size="6" font-family="Roboto-Medium, Roboto" font-weight="500" letter-spacing="0.096em" style="isolation: isolate"><tspan x="0" y="0">Editar</tspan></text>
          </g>
          <g id="Grupo_6045" data-name="Grupo 6045" transform="translate(4562.571 -1857.312)">
            <path id="Trazado_2164" data-name="Trazado 2164" d="M214.362,600.577a1.291,1.291,0,0,0-.769-.253,1.308,1.308,0,0,0-1.048.53l-.393.535,2.1,1.544.388-.538A1.3,1.3,0,0,0,214.362,600.577Zm-3.96,3.239-2.826,3.926,2.043,1.611,2.881-3.993Zm-3.715,5.161a.158.158,0,0,0-.029.07l-.369,2.449a.161.161,0,0,0,.16.185.153.153,0,0,0,.071-.016l2.157-1.039a.169.169,0,0,0,.061-.051l.408-.566L207.1,608.4Zm4.991-6.933-.8,1.115,2.1,1.544.8-1.115Z" transform="translate(-206.287 -600.324)" fill="#fff"/>
          </g>
        </g>
      </g>
    </g>
    <g id="Grupo_6051" data-name="Grupo 6051" transform="translate(-3621 4053)">
      <rect id="Rectángulo_6181-2" data-name="Rectángulo 6181" width="6.169" height="63.936" rx="0.982" transform="translate(4555.094 -1934.473)" fill="url(#linear-gradient)"/>
      <rect id="Rectángulo_6182-2" data-name="Rectángulo 6182" width="6.169" height="26.219" rx="0.982" transform="translate(4555.094 -1863.176)" fill="url(#linear-gradient)"/>
      <g transform="matrix(1, 0, 0, 1, 4025, -2042)" filter="url(#Trazado_4509-2)">
        <path id="Trazado_4509-4" data-name="Trazado 4509" d="M22.9,0H156.289a22.9,22.9,0,0,1,22.9,22.9V340.053a22.9,22.9,0,0,1-22.9,22.9H22.9A22.9,22.9,0,0,1,0,340.053V22.9A22.9,22.9,0,0,1,22.9,0Z" transform="translate(531.81 46.12)" fill="url(#linear-gradient-3)"/>
      </g>
      <path id="Trazado_4510-2" data-name="Trazado 4510" d="M320,33.31H444.925a25.027,25.027,0,0,1,25.028,25.027v3.576a25.029,25.029,0,0,0-25.028-25.028H320a25.028,25.028,0,0,0-25.027,25.028V58.337A25.027,25.027,0,0,1,320,33.31Z" transform="translate(4263.944 -2027.302)" fill="url(#linear-gradient-4)" style="mix-blend-mode: screen;isolation: isolate"/>
      <path id="Trazado_4544-2" data-name="Trazado 4544" d="M444.925,263.094H320a25.028,25.028,0,0,1-25.027-25.028v-3.574A25.027,25.027,0,0,0,320,259.518H444.925a25.027,25.027,0,0,0,25.028-25.027v3.574A25.029,25.029,0,0,1,444.925,263.094Z" transform="translate(4263.944 -1898.023)" fill="url(#linear-gradient-5)" style="mix-blend-mode: screen;isolation: isolate"/>
      <path id="Trazado_4511-2" data-name="Trazado 4511" d="M466.494,56.077V364.765a18.944,18.944,0,0,1-19,18.918H315.485a18.945,18.945,0,0,1-19-18.918V56.077A18.854,18.854,0,0,1,312.29,37.486a14.167,14.167,0,0,1,3.195-.327h23.174a5.313,5.313,0,0,1,5.325,5.322,5.382,5.382,0,0,0,5.322,5.406h64.368A5.383,5.383,0,0,0,419,42.481a5.313,5.313,0,0,1,5.324-5.322h23.174A18.943,18.943,0,0,1,466.494,56.077Z" transform="translate(4264.917 -2024.828)" fill="#fff"/>
      <path id="Trazado_4541-2" data-name="Trazado 4541" d="M377.045,41.336H336.274a1.134,1.134,0,0,1-1.133-1.133h0a1.132,1.132,0,0,1,1.133-1.132h40.771a1.131,1.131,0,0,1,1.132,1.132h0A1.132,1.132,0,0,1,377.045,41.336Z" transform="translate(4289.757 -2023.6)" fill="url(#linear-gradient-7)"/>
      <path id="Trazado_4542-2" data-name="Trazado 4542" d="M331.465,42.6a2.062,2.062,0,1,0-2.063-2.061,2.062,2.062,0,0,0,2.063,2.061Z" transform="translate(4286.069 -2023.984)" fill="url(#linear-gradient-8)"/>
      <path id="Trazado_4543-2" data-name="Trazado 4543" d="M366.424,42.6a2.062,2.062,0,1,0-2.061-2.061,2.062,2.062,0,0,0,2.061,2.061Z" transform="translate(4308.534 -2023.984)" fill="url(#linear-gradient-9)"/>
      <g id="Enmascarar_grupo_16" data-name="Enmascarar grupo 16" transform="translate(0 515.999)" clip-path="url(#clip-path-3)">
        <g id="Grupo_6050" data-name="Grupo 6050" transform="translate(-225.598 -334.459)">
          <rect id="Rectángulo_6190" data-name="Rectángulo 6190" width="170.009" height="264.458" transform="translate(4787 -2169.111)" fill="#fff"/>
          <rect id="Rectángulo_6184" data-name="Rectángulo 6184" width="170.009" height="28.335" transform="translate(4787 -2131.431)" fill="#f4f4f4"/>
          <text id="Elevadas" transform="translate(4796.445 -2076.265)" fill="#333" font-size="7" font-family="Roboto-Regular, Roboto" style="isolation: isolate"><tspan x="0" y="0">Elevadas</tspan></text>
          <text id="Tipos-2" data-name="Tipos" transform="translate(4796.445 -2112.93)" fill="#333" font-size="11" font-family="Roboto-Regular, Roboto" style="isolation: isolate"><tspan x="0" y="0">Tipos</tspan></text>
          <g id="Grupo_6049" data-name="Grupo 6049" transform="translate(4787 -2169.21)">
            <g transform="matrix(1, 0, 0, 1, -536.4, -54.33)" filter="url(#Trazado_73-3)">
              <path id="Trazado_73-6" data-name="Trazado 73" d="M82.542,329.7H252.551v26.446H82.542Z" transform="translate(453.86 -264.19)" fill="#242424"/>
            </g>
            <path id="Rectángulo_1-3" data-name="Rectángulo 1" d="M0,0H170.009V11.269H0Z" transform="translate(0)"/>
            <rect id="Rectángulo_4-3" data-name="Rectángulo 4" width="0.944" height="2.857" transform="translate(6.823 5.48)" fill="#fff"/>
            <rect id="Rectángulo_5-3" data-name="Rectángulo 5" width="0.944" height="3.429" transform="translate(8.538 4.908)" fill="#fff"/>
            <rect id="Rectángulo_6-3" data-name="Rectángulo 6" width="0.944" height="4.571" transform="translate(10.252 3.766)" fill="#fff"/>
            <rect id="Rectángulo_7-3" data-name="Rectángulo 7" width="0.944" height="5.142" transform="translate(11.966 3.194)" fill="#fff"/>
            <text id="RED-3" data-name="RED" transform="translate(17.241 7.692)" fill="#fff" font-size="4" font-family="Roboto-Medium, Roboto" font-weight="500" style="isolation: isolate"><tspan x="0" y="0">RED</tspan></text>
            <text id="_12:00-3" data-name="12:00" transform="translate(78.554 7.703)" fill="#fff" font-size="4" font-family="Roboto-Medium, Roboto" font-weight="500" style="isolation: isolate"><tspan x="0" y="0">12:00</tspan></text>
            <path id="Trazado_1-3" data-name="Trazado 1" d="M147.9,313.356l2.5,4.587,2.5-4.587A6.044,6.044,0,0,0,147.9,313.356Z" transform="translate(-117.033 -309.606)" fill="#fff"/>
            <rect id="Rectángulo_3-3" data-name="Rectángulo 3" width="12.219" height="5.158" transform="translate(149.716 3.004)" fill="#fff"/>
            <text id="_100_3" data-name="100%" transform="translate(134.466 7.467)" fill="#fff" font-size="4" font-family="Roboto-Medium, Roboto" font-weight="500" style="isolation: isolate"><tspan x="0" y="0">100%</tspan></text>
            <path id="Trazado_19-3" data-name="Trazado 19" d="M0,0H11.334V11.334H0Z" transform="translate(151.119 18.89)" fill="none"/>
            <path id="Trazado_20-3" data-name="Trazado 20" d="M8.9,8.195H8.53L8.4,8.067a3.074,3.074,0,1,0-.331.331l.128.132V8.9l2.361,2.357.7-.7Zm-2.833,0A2.125,2.125,0,1,1,8.195,6.07,2.122,2.122,0,0,1,6.07,8.195Z" transform="translate(149.536 17.307)" fill="#fff"/>
            <path id="Trazado_21-3" data-name="Trazado 21" d="M0,0H11.334V11.334H0Z" transform="translate(128.451 18.89)" fill="none"/>
            <path id="Trazado_22-3" data-name="Trazado 22" d="M10.084,8.649a1.375,1.375,0,0,0-.926.364L5.791,7.053a1.307,1.307,0,0,0,0-.661L9.12,4.451a1.414,1.414,0,1,0-.453-1.034,1.546,1.546,0,0,0,.043.331L5.38,5.688a1.417,1.417,0,1,0,0,2.068L8.743,9.721a1.332,1.332,0,0,0-.038.307,1.379,1.379,0,1,0,1.379-1.379Z" transform="translate(126.868 17.834)" fill="#fff"/>
            <text id="Cards-2" data-name="Cards" transform="translate(33.899 27.834)" fill="snow" font-size="9" font-family="Roboto-Medium, Roboto" font-weight="500" style="isolation: isolate"><tspan x="0" y="0">Cards</tspan></text>
            <g id="keyboard_backspace-24px_1_2" data-name="keyboard_backspace-24px (1)" transform="translate(7.084 20.307)">
              <path id="Trazado_29-2" data-name="Trazado 29" d="M0,0H11.334V11.334H0Z" fill="none"/>
              <path id="Trazado_30-2" data-name="Trazado 30" d="M11.5,8.361H4.809L6.5,6.666,5.833,6,3,8.833l2.833,2.833L6.5,11l-1.691-1.7H11.5Z" transform="translate(-1.583 -3.167)" fill="#fff"/>
            </g>
          </g>
          <g transform="matrix(1, 0, 0, 1, 4250.6, -2223.54)" filter="url(#Rectángulo_6185)">
            <rect id="Rectángulo_6185-2" data-name="Rectángulo 6185" width="162.453" height="149.834" transform="translate(540.24 157.75)" fill="#fff"/>
          </g>
          <text id="Subtítulo" transform="translate(4823.167 -2039.293)" fill="#666" font-size="5" font-family="Roboto-Regular, Roboto" letter-spacing="0.033em" style="isolation: isolate"><tspan x="0" y="0">Subtítulo</tspan></text>
          <text id="H5_Título_aquí" data-name="H5 Título aquí" transform="translate(4822.695 -2049.535)" fill="#333" font-size="11" font-family="Roboto-Regular, Roboto" style="isolation: isolate"><tspan x="0" y="0">H5 Título aquí</tspan></text>
          <text id="Cuerpo_2_Lorem_Ipsum_is_simply_dummy_text_of_the_printing." data-name="Cuerpo 2 Lorem Ipsum is simply dummy
text of the printing." transform="translate(4797.483 -1961.096)" fill="#333" font-size="7" font-family="Roboto-Regular, Roboto" style="isolation: isolate"><tspan x="0" y="0">Cuerpo 2 Lorem Ipsum is simply dummy</tspan><tspan x="0" y="8">text of the printing.</tspan></text>
          <rect id="Rectángulo_6186" data-name="Rectángulo 6186" width="35.867" height="17.001" rx="8.5" transform="translate(4838.476 -1939.938)" fill="#b7006d"/>
          <g id="Button-2" data-name="Button" transform="translate(4846.495 -1935.646)" style="isolation: isolate">
            <text id="Botón" transform="translate(0 6)" fill="#fff" font-size="6" font-family="Roboto-Medium, Roboto" font-weight="500" letter-spacing="0.096em" style="isolation: isolate"><tspan x="0" y="0">Botón</tspan></text>
          </g>
          <rect id="Rectángulo_6187" data-name="Rectángulo 6187" width="35.867" height="17.001" rx="8.5" transform="translate(4797.974 -1939.672)" fill="none" stroke="#b7006d" stroke-miterlimit="10" stroke-width="1"/>
          <rect id="Rectángulo_6188" data-name="Rectángulo 6188" width="162.453" height="58.559" transform="translate(4790.713 -2031.109)" fill="#d5007f" opacity="0.1"/>
          <g id="insert_photo-24px" transform="translate(4857.019 -2016.6)">
            <path id="Trazado_2187" data-name="Trazado 2187" d="M0,0H29.615V29.615H0Z" fill="none"/>
            <path id="Trazado_2188" data-name="Trazado 2188" d="M27.538,24.812V5.726A2.734,2.734,0,0,0,24.812,3H5.726A2.734,2.734,0,0,0,3,5.726V24.812a2.734,2.734,0,0,0,2.726,2.726H24.812A2.734,2.734,0,0,0,27.538,24.812Zm-17.04-7.5,3.408,4.1,4.771-6.148,6.135,8.179H5.726Z" transform="translate(-0.462 -0.462)" fill="#d50b7f"/>
          </g>
          <g id="Button-3" data-name="Button" transform="translate(4805.992 -1935.38)">
            <text id="Botón-2" data-name="Botón" transform="translate(0 6)" fill="#b7006d" font-size="6" font-family="Roboto-Medium, Roboto" font-weight="500" letter-spacing="0.096em" style="isolation: isolate"><tspan x="0" y="0">Botón</tspan></text>
          </g>
          <rect id="Rectángulo_6189" data-name="Rectángulo 6189" width="18.89" height="18.89" transform="translate(4797.956 -2057.739)" fill="#d5007f" opacity="0.1"/>
          <g id="insert_photo-24px-2" data-name="insert_photo-24px" transform="translate(4802.71 -2053.017)">
            <path id="Trazado_2187-2" data-name="Trazado 2187" d="M0,0H9.362V9.362H0Z" fill="none"/>
            <path id="Trazado_2188-2" data-name="Trazado 2188" d="M10.757,9.9V3.862A.864.864,0,0,0,9.9,3H3.862A.864.864,0,0,0,3,3.862V9.9a.864.864,0,0,0,.862.862H9.9A.864.864,0,0,0,10.757,9.9ZM5.37,7.525l1.077,1.3L7.956,6.879,9.9,9.465H3.862Z" transform="translate(-2.198 -2.198)" fill="#d50b7f"/>
          </g>
        </g>
      </g>
    </g>
  </g>
</svg>
