<svg xmlns="http://www.w3.org/2000/svg" xmlns:xlink="http://www.w3.org/1999/xlink" width="735" height="785.288" viewBox="0 0 735 785.288">
  <defs>
    <filter id="Trazado_1880" x="0" y="6.904" width="735" height="778.384" filterUnits="userSpaceOnUse">
      <feOffset dy="3" input="SourceAlpha"/>
      <feGaussianBlur stdDeviation="3" result="blur"/>
      <feFlood flood-opacity="0.078"/>
      <feComposite operator="in" in2="blur"/>
      <feComposite in="SourceGraphic"/>
    </filter>
  </defs>
  <g id="Grupo_2888" data-name="Grupo 2888" transform="translate(-404 -5515)">
    <g transform="matrix(1, 0, 0, 1, 404, 5515)" filter="url(#Trazado_1880)">
      <path id="Trazado_1880-2" data-name="Trazado 1880" d="M829.708,9024.249H167.988c-15.265,0-27.64-5.529-27.64-12.349V8276.214c0-6.82,12.375-12.349,27.64-12.349h661.72c15.265,0,27.64,5.528,27.64,12.349V9011.9C857.348,9018.72,844.973,9024.249,829.708,9024.249Z" transform="translate(-131.35 -8250.96)" fill="#fdf7fa"/>
    </g>
    <rect id="Rectángulo_3924" data-name="Rectángulo 3924" width="243.57" height="43.748" transform="translate(415.42 5515)" fill="#d3097f"/>
    <rect id="Rectángulo_3925" data-name="Rectángulo 3925" width="243.57" height="13.711" transform="translate(415.42 5515)" fill="#98145e"/>
    <rect id="Rectángulo_3926" data-name="Rectángulo 3926" width="471.01" height="43.748" transform="translate(658.99 5515)" fill="#d970a8"/>
    <rect id="Rectángulo_3927" data-name="Rectángulo 3927" width="471.01" height="13.711" transform="translate(658.99 5515)" fill="#b60f6e"/>
    <text id="Caso_de_Uso" data-name="Caso de Uso" transform="translate(480 5531.256)" fill="#fff" font-size="18" font-family="Roboto-Bold, Roboto" font-weight="700"><tspan x="11.731" y="19">Caso de Uso</tspan></text>
    <text id="Generar_proyecto_de_Servicio_SOAP" data-name="Generar proyecto de Servicio SOAP" transform="translate(746.992 5531.256)" fill="#fff" font-size="18" font-family="Roboto-Bold, Roboto" font-weight="700"><tspan x="0" y="19">Generar proyecto de Servicio SOAP</tspan></text>
    <text id="Versión" transform="translate(473.641 5579.832)" fill="#1d1d1b" font-size="16.937" font-family="Roboto-Bold, Roboto" font-weight="700"><tspan x="0" y="18">Versión</tspan></text>
    <text id="Actor" transform="translate(472.683 5645.161)" fill="#1d1d1b" font-size="16.937" font-family="Roboto-Bold, Roboto" font-weight="700"><tspan x="0" y="18">Actor</tspan></text>
    <text id="_1.0.0" data-name="1.0.0" transform="translate(698.661 5580.809)" fill="#1d1d1b" font-size="14" font-family="Roboto-Regular, Roboto"><tspan x="0" y="15">1.0.0</tspan></text>
    <text id="Descripción" transform="translate(472.683 5696.779)" fill="#1d1d1b" font-size="16.937" font-family="Roboto-Bold, Roboto" font-weight="700"><tspan x="0" y="18">Descripción</tspan></text>
    <text id="Desarrollador" transform="translate(698.661 5646.137)" fill="#1d1d1b" font-size="14" font-family="Roboto-Regular, Roboto"><tspan x="0" y="15">Desarrollador</tspan></text>
    <text id="Flujo_básico" data-name="Flujo básico" transform="translate(472.683 5763.721)" fill="#1d1d1b" font-size="16.937" font-family="Roboto-Bold, Roboto" font-weight="700"><tspan x="0" y="18">Flujo básico</tspan></text>
    <text id="Permite_realizar_la_estructura_de_un_proyecto_de_Servicio_SOAP." data-name="Permite realizar la estructura de un proyecto de Servicio SOAP." transform="translate(698.661 5697.755)" fill="#1d1d1b" font-size="14" font-family="Roboto-Regular, Roboto"><tspan x="0" y="15">Permite realizar la estructura de un proyecto de Servicio SOAP.</tspan></text>
    <text id="Flujos_alternos" data-name="Flujos alternos" transform="translate(472.683 5929.864)" fill="#1d1d1b" font-size="16.937" font-family="Roboto-Bold, Roboto" font-weight="700"><tspan x="0" y="18">Flujos alternos</tspan></text>
    <text id="_1._El_desarrollador_abre_y_configura_adecuadamente_su_IDE_de_desarrollo_en_JAVA_Eclipse_o_STS_._2._Selecciona_crear_nuevo_proyecto_maven._3._Se_selecciona_el_catálogo_que_contiene_los_arquetipos._4._Se_selecciona_el_arquetipo_de_Servicio_SOAP._5._Se_ag" data-name="1. El desarrollador abre y configura adecuadamente su IDE de 			desarrollo en JAVA (Eclipse o STS).
2. Selecciona crear nuevo proyecto maven.
3. Se selecciona el catálogo que contiene los arquetipos.
4. Se selecciona el arquetipo de Servicio SOAP.
5. Se ag" transform="translate(698.661 5764.696)" fill="#1d1d1b" font-size="14" font-family="Roboto-Bold, Roboto" font-weight="700"><tspan x="0" y="15">1.</tspan><tspan y="15" xml:space="preserve" font-family="Roboto-Regular, Roboto" font-weight="400"> El desarrollador abre y configura adecuadamente su IDE de 			</tspan><tspan x="0" y="30.485" font-family="Roboto-Regular, Roboto" font-weight="400">desarrollo en JAVA (Eclipse o STS).</tspan><tspan x="0" y="45.971">2.</tspan><tspan y="45.971" xml:space="preserve" font-family="Roboto-Regular, Roboto" font-weight="400"> Selecciona crear nuevo proyecto maven.</tspan><tspan x="0" y="61.456">3.</tspan><tspan y="61.456" xml:space="preserve" font-family="Roboto-Regular, Roboto" font-weight="400"> Se selecciona el catálogo que contiene los arquetipos.</tspan><tspan x="0" y="76.941">4. </tspan><tspan y="76.941" font-family="Roboto-Regular, Roboto" font-weight="400">Se selecciona el arquetipo de Servicio SOAP.</tspan><tspan x="0" y="92.426">5.</tspan><tspan y="92.426" xml:space="preserve" font-family="Roboto-Regular, Roboto" font-weight="400"> Se agregan las características del nuevo proyecto (group id, 			</tspan><tspan x="0" y="107.912" font-family="Roboto-Regular, Roboto" font-weight="400">artifact id, versión y paquete).</tspan><tspan x="0" y="123.397">6.</tspan><tspan y="123.397" xml:space="preserve" font-family="Roboto-Regular, Roboto" font-weight="400"> Se selecciona finalizar y esperamos a que se genere el 				</tspan><tspan x="0" y="138.882" font-family="Roboto-Regular, Roboto" font-weight="400">proyecto.</tspan><tspan font-family="Roboto-Regular" font-weight="400"><tspan x="0" y="154.367"></tspan></tspan></text>
    <text id="_1._Debe_ser_accesible_el_repositorio_artifactory_que_cuenta_con_las_dependencias_necesarias_para_generar_el_proyecto_seleccionado._2._Agregar_catálogo_de_arquetipos_en_el_IDE_Eclipse_o_Spring_tool_suite_._" data-name="1. Debe ser accesible el repositorio artifactory que cuenta con las dependencias necesarias para generar el proyecto 				seleccionado.
2. Agregar catálogo de arquetipos en el IDE (Eclipse o Spring tool suite).  
" transform="translate(698.661 6043.753)" fill="#1d1d1b" font-size="14" font-family="Roboto-Bold, Roboto" font-weight="700"><tspan x="0" y="15">1.</tspan><tspan y="15" xml:space="preserve" font-family="Roboto-Regular, Roboto" font-weight="400"> Debe ser accesible el repositorio artifactory que cuenta con </tspan><tspan x="0" y="30.485" xml:space="preserve" font-family="Roboto-Regular, Roboto" font-weight="400">las dependencias necesarias para generar el proyecto 				</tspan><tspan x="0" y="45.971" font-family="Roboto-Regular, Roboto" font-weight="400">seleccionado.</tspan><tspan x="0" y="61.456">2.</tspan><tspan y="61.456" xml:space="preserve" font-family="Roboto-Regular, Roboto" font-weight="400"> Agregar catálogo de arquetipos en el IDE (Eclipse o Spring </tspan><tspan x="0" y="76.941" xml:space="preserve" font-family="Roboto-Regular, Roboto" font-weight="400">tool suite).  </tspan><tspan font-family="Roboto-Regular" font-weight="400"><tspan x="0" y="92.426"></tspan></tspan></text>
    <text id="_1._El_arquetipo_generado_es_funcional_y_está_listo_para_poder_iniciar_el_desarrollo_de_un_nuevo_proyecto_en_él." data-name="1. El arquetipo generado es funcional y está listo para poder 			iniciar el desarrollo de un nuevo proyecto en él." transform="translate(698.661 6147.795)" fill="#1d1d1b" font-size="14" font-family="Roboto-Bold, Roboto" font-weight="700"><tspan x="0" y="15">1.</tspan><tspan y="15" xml:space="preserve" font-family="Roboto-Regular, Roboto" font-weight="400"> El arquetipo generado es funcional y está listo para poder 			</tspan><tspan x="0" y="30.485" font-family="Roboto-Regular, Roboto" font-weight="400">iniciar el desarrollo de un nuevo proyecto en él.</tspan></text>
    <text id="_1._En_el_paso_4_el_arquetipo_puede_ser_diferente_al_de_servicios_SOAP_aplicación_comunes_REST_._El_desarrollador_no_necesariamente_necesita_el_arquetipo_de_servicio_SOAP_este_se_debe_de_elegir_de_acuerdo_a_las_necesidades_del_proyecto._" data-name="1. En el paso 4, el arquetipo puede ser diferente al de servicios SOAP (aplicación, comunes, REST).
El desarrollador no necesariamente necesita el arquetipo de 			servicio SOAP, este se debe de elegir de acuerdo a las 				necesidades del proyecto. 
" transform="translate(698.661 5930.84)" fill="#1d1d1b" font-size="14" font-family="Roboto-Bold, Roboto" font-weight="700"><tspan x="0" y="15">1. En el paso 4, el arquetipo puede ser diferente al de </tspan><tspan x="0" y="30.485">servicios SOAP (aplicación, comunes, REST).</tspan><tspan font-family="Roboto-Regular, Roboto" font-weight="400"><tspan x="0" y="45.971" xml:space="preserve">El desarrollador no necesariamente necesita el arquetipo de 			</tspan><tspan x="0" y="61.456" xml:space="preserve">servicio SOAP, este se debe de elegir de acuerdo a las 				</tspan><tspan x="0" y="76.941">necesidades del proyecto. </tspan></tspan><tspan font-family="Roboto-Regular" font-weight="400"><tspan x="0" y="92.426"></tspan></tspan></text>
    <text id="Pre-condiciones" transform="translate(472.683 6042.777)" fill="#1d1d1b" font-size="16.937" font-family="Roboto-Bold, Roboto" font-weight="700"><tspan x="0" y="18">Pre-condiciones</tspan></text>
    <text id="Post-condiciones" transform="translate(472.683 6146.819)" fill="#1d1d1b" font-size="16.937" font-family="Roboto-Bold, Roboto" font-weight="700"><tspan x="0" y="18">Post-condiciones</tspan></text>
    <text id="Notas" transform="translate(472.683 6230.697)" fill="#1d1d1b" font-size="16.937" font-family="Roboto-Bold, Roboto" font-weight="700"><tspan x="0" y="18">Notas</tspan></text>
  </g>
</svg>
