<svg xmlns="http://www.w3.org/2000/svg" xmlns:xlink="http://www.w3.org/1999/xlink" width="369" height="640" viewBox="0 0 369 640">
  <defs>
    <filter id="Trazado_73" x="0" y="20.18" width="369" height="65" filterUnits="userSpaceOnUse">
      <feOffset dy="1" input="SourceAlpha"/>
      <feGaussianBlur stdDeviation="1.5" result="blur"/>
      <feFlood flood-opacity="0.302"/>
      <feComposite operator="in" in2="blur"/>
      <feComposite in="SourceGraphic"/>
    </filter>
  </defs>
  <g id="Grupo_2558" data-name="Grupo 2558" transform="translate(-70.5 -5930)">
    <g id="Grupo_2556" data-name="Grupo 2556">
      <text id="Rellenos" transform="translate(96 6051.11)" fill="#333" font-size="16" font-family="Roboto-Regular, Roboto" style="isolation: isolate"><tspan x="0" y="0">Rellenos</tspan></text>
      <text id="Mensajes" transform="translate(96 6221.11)" fill="#333" font-size="16" font-family="Roboto-Regular, Roboto" style="isolation: isolate"><tspan x="0" y="0">Mensajes</tspan></text>
      <line id="Línea_12" data-name="Línea 12" x2="318" transform="translate(97 6164.407)" fill="none" stroke="#000" stroke-width="1" opacity="0.127"/>
      <path id="Surface-2" d="M106.931,177.5H380.1a3.422,3.422,0,0,1,3.415,3.428v41.143A3.422,3.422,0,0,1,380.1,225.5H106.931a3.422,3.422,0,0,1-3.415-3.429V180.928A3.422,3.422,0,0,1,106.931,177.5Z" transform="translate(12.484 5897.5)" fill="#f2f2f2"/>
      <text id="Etiqueta" transform="translate(133.414 6094.05)" fill="#d5007f" font-size="12" font-family="Roboto-Regular, Roboto" letter-spacing="0.009em"><tspan x="0" y="0">Etiqueta</tspan></text>
      <text id="Texto_de_entrada" data-name="Texto de entrada" transform="translate(133.414 6113.69)" fill="#333" font-size="16" font-family="Roboto-Regular, Roboto" letter-spacing="0.009em"><tspan x="0" y="0">Texto de entrada</tspan></text>
      <g id="person-24px" transform="translate(362 6087)">
        <path id="Trazado_2276" data-name="Trazado 2276" d="M0,0H24V24H0Z" fill="none"/>
        <path id="Trazado_2277" data-name="Trazado 2277" d="M12,12A4,4,0,1,0,8,8,4,4,0,0,0,12,12Zm0,2c-2.67,0-8,1.34-8,4v2H20V18C20,15.34,14.67,14,12,14Z" fill="#333"/>
      </g>
      <g id="Grupo_2447" data-name="Grupo 2447" transform="translate(12.485 5882.797)">
        <text id="Mensaje_de_error" data-name="Mensaje de error" transform="translate(121.034 425.376)" fill="#d31338" font-size="12" font-family="Roboto-Regular, Roboto" letter-spacing="0.034em" style="isolation: isolate"><tspan x="0" y="0">Mensaje de error</tspan></text>
        <path id="Surface-2-2" data-name="Surface-2" d="M106.929,362.2H380.1a3.422,3.422,0,0,1,3.415,3.429v41.142A3.422,3.422,0,0,1,380.1,410.2H106.929a3.422,3.422,0,0,1-3.414-3.429V365.632A3.422,3.422,0,0,1,106.929,362.2Z" fill="#f2f2f2"/>
        <text id="Etiqueta-2" data-name="Etiqueta" transform="translate(120.929 381.253)" fill="#d31338" font-size="12" font-family="Roboto-Regular, Roboto" letter-spacing="0.009em"><tspan x="0" y="0">Etiqueta</tspan></text>
        <text id="Texto_de_entrada-2" data-name="Texto de entrada" transform="translate(120.929 400.894)" fill="#333" font-size="16" font-family="Roboto-Regular, Roboto" letter-spacing="0.009em"><tspan x="0" y="0">Texto de entrada</tspan></text>
        <line id="Línea_27" data-name="Línea 27" x2="280" transform="translate(103.515 409.775)" fill="none" stroke="#d31338" stroke-miterlimit="10" stroke-width="1"/>
      </g>
      <text id="Mensaje_de_advertencia" data-name="Mensaje de advertencia" transform="translate(133.519 6396.173)" fill="#c48323" font-size="12" font-family="Roboto-Regular, Roboto" letter-spacing="0.034em" style="isolation: isolate"><tspan x="0" y="0">Mensaje de advertencia</tspan></text>
      <path id="Surface-2-3" data-name="Surface-2" d="M106.929,446.276H380.1a3.422,3.422,0,0,1,3.415,3.429v41.143a3.422,3.422,0,0,1-3.415,3.428H106.929a3.421,3.421,0,0,1-3.414-3.428V449.7A3.422,3.422,0,0,1,106.929,446.276Z" transform="translate(12.485 5886.724)" fill="#f2f2f2"/>
      <text id="Etiqueta-3" data-name="Etiqueta" transform="translate(133.414 6352.05)" fill="#c48323" font-size="12" font-family="Roboto-Regular, Roboto" letter-spacing="0.009em"><tspan x="0" y="0">Etiqueta</tspan></text>
      <text id="Texto_de_entrada-3" data-name="Texto de entrada" transform="translate(133.414 6371.691)" fill="#333" font-size="16" font-family="Roboto-Regular, Roboto" letter-spacing="0.009em"><tspan x="0" y="0">Texto de entrada</tspan></text>
      <line id="Línea_28" data-name="Línea 28" x2="280" transform="translate(116 6380.572)" fill="none" stroke="#c48323" stroke-miterlimit="10" stroke-width="1"/>
      <text id="Mensaje_de_éxito" data-name="Mensaje de éxito" transform="translate(133.519 6483.892)" fill="#428569" font-size="12" font-family="Roboto-Regular, Roboto" letter-spacing="0.034em" style="isolation: isolate"><tspan x="0" y="0">Mensaje de éxito</tspan></text>
      <path id="Surface-2-4" data-name="Surface-2" d="M106.929,534.995H380.1a3.422,3.422,0,0,1,3.415,3.429v41.142a3.422,3.422,0,0,1-3.415,3.429H106.929a3.422,3.422,0,0,1-3.414-3.429V538.424A3.422,3.422,0,0,1,106.929,534.995Z" transform="translate(12.485 5885.724)" fill="#f2f2f2"/>
      <text id="Etiqueta-4" data-name="Etiqueta" transform="translate(133.414 6439.769)" fill="#428569" font-size="12" font-family="Roboto-Regular, Roboto" letter-spacing="0.009em"><tspan x="0" y="0">Etiqueta</tspan></text>
      <text id="Texto_de_entrada-4" data-name="Texto de entrada" transform="translate(133.414 6459.41)" fill="#333" font-size="16" font-family="Roboto-Regular, Roboto" letter-spacing="0.009em"><tspan x="0" y="0">Texto de entrada</tspan></text>
      <line id="Línea_29" data-name="Línea 29" x2="280" transform="translate(116 6468.291)" fill="none" stroke="#428569" stroke-miterlimit="10" stroke-width="1"/>
      <g id="Grupo_19" data-name="Grupo 19" transform="translate(75 5930)">
        <g transform="matrix(1, 0, 0, 1, -4.5, 0)" filter="url(#Trazado_73)">
          <path id="Trazado_73-2" data-name="Trazado 73" d="M82.542,329.7h360v56h-360Z" transform="translate(-78.04 -306.02)" fill="#242424"/>
        </g>
        <path id="Rectángulo_1" data-name="Rectángulo 1" d="M0,0H360V23.862H0Z" transform="translate(0)"/>
        <rect id="Rectángulo_4" data-name="Rectángulo 4" width="2" height="6.049" transform="translate(14.449 11.604)" fill="#fff"/>
        <rect id="Rectángulo_5" data-name="Rectángulo 5" width="2" height="7.26" transform="translate(18.079 10.393)" fill="#fff"/>
        <rect id="Rectángulo_6" data-name="Rectángulo 6" width="2" height="9.68" transform="translate(21.709 7.974)" fill="#fff"/>
        <rect id="Rectángulo_7" data-name="Rectángulo 7" width="2" height="10.889" transform="translate(25.338 6.764)" fill="#fff"/>
        <text id="RED" transform="translate(36.509 16.819)" fill="#fff" font-size="10" font-family="Roboto-Medium, Roboto" font-weight="500" style="isolation: isolate"><tspan x="0" y="0">RED</tspan></text>
        <text id="_12:00" data-name="12:00" transform="translate(166.342 16.842)" fill="#fff" font-size="10" font-family="Roboto-Medium, Roboto" font-weight="500" style="isolation: isolate"><tspan x="0" y="0">12:00</tspan></text>
        <path id="Trazado_1" data-name="Trazado 1" d="M147.9,313.962l5.3,9.713,5.3-9.713A12.8,12.8,0,0,0,147.9,313.962Z" transform="translate(-82.542 -306.022)" fill="#fff"/>
        <rect id="Rectángulo_3" data-name="Rectángulo 3" width="25.873" height="10.921" transform="translate(317.029 6.361)" fill="#fff"/>
        <text id="_100_" data-name="100%" transform="translate(284.736 16.341)" fill="#fff" font-size="10" font-family="Roboto-Medium, Roboto" font-weight="500" style="isolation: isolate"><tspan x="0" y="0">100%</tspan></text>
        <path id="Trazado_19" data-name="Trazado 19" d="M0,0H24V24H0Z" transform="translate(320 40)" fill="none"/>
        <path id="Trazado_20" data-name="Trazado 20" d="M15.5,14h-.79l-.28-.27a6.51,6.51,0,1,0-.7.7l.27.28v.79l5,4.99L20.49,19Zm-6,0A4.5,4.5,0,1,1,14,9.5,4.494,4.494,0,0,1,9.5,14Z" transform="translate(320 40)" fill="#fff"/>
        <path id="Trazado_21" data-name="Trazado 21" d="M0,0H24V24H0Z" transform="translate(272 40)" fill="none"/>
        <path id="Trazado_22" data-name="Trazado 22" d="M18,16.08a2.912,2.912,0,0,0-1.96.77L8.91,12.7A3.274,3.274,0,0,0,9,12a3.274,3.274,0,0,0-.09-.7l7.05-4.11A2.993,2.993,0,1,0,15,5a3.274,3.274,0,0,0,.09.7L8.04,9.81a3,3,0,1,0,0,4.38l7.12,4.16a2.821,2.821,0,0,0-.08.65A2.92,2.92,0,1,0,18,16.08Z" transform="translate(272 40)" fill="#fff"/>
        <text id="Text_Fields" data-name="Text Fields" transform="translate(71.782 60.999)" fill="snow" font-size="20" font-family="Roboto-Medium, Roboto" font-weight="500" style="isolation: isolate"><tspan x="0" y="0">Text Fields</tspan></text>
        <g id="keyboard_backspace-24px_1_" data-name="keyboard_backspace-24px (1)" transform="translate(15 43)">
          <path id="Trazado_29" data-name="Trazado 29" d="M0,0H24V24H0Z" fill="none"/>
          <path id="Trazado_30" data-name="Trazado 30" d="M21,11H6.83l3.58-3.59L9,6,3,12l6,6,1.41-1.41L6.83,13H21Z" fill="#fff"/>
        </g>
      </g>
      <g id="Rectángulo_4220" data-name="Rectángulo 4220" transform="translate(75 5930)" fill="none" stroke="#e2e2e2" stroke-width="1">
        <rect width="360" height="640" stroke="none"/>
        <rect x="0.5" y="0.5" width="359" height="639" fill="none"/>
      </g>
    </g>
  </g>
</svg>
