<svg xmlns="http://www.w3.org/2000/svg" width="187" height="187" viewBox="0 0 187 187">
  <g id="Grupo_789" data-name="Grupo 789" transform="translate(-640 -853)">
    <circle id="Elipse_3" data-name="Elipse 3" cx="93.5" cy="93.5" r="93.5" transform="translate(640 853)" fill="#fff"/>
    <g id="Grupo_778" data-name="Grupo 778" transform="translate(667 936.763)">
      <path id="Trazado_1348" data-name="Trazado 1348" d="M123.712,345.9a2.367,2.367,0,0,1-2.366,2.367H58.708a2.368,2.368,0,0,1-2.372-2.367,2.21,2.21,0,0,1,.015-.257,33.777,33.777,0,0,1,67.348,0A2.46,2.46,0,0,1,123.712,345.9Z" transform="translate(-56.336 -280.782)" fill="#a3005c"/>
      <path id="Trazado_1349" data-name="Trazado 1349" d="M123.6,261.546a14.209,14.209,0,1,1-14.143-14.274A14.21,14.21,0,0,1,123.6,261.546Z" transform="translate(-75.702 -247.272)" fill="#a3005c"/>
    </g>
    <g id="Grupo_779" data-name="Grupo 779" transform="translate(765.065 887.159)">
      <path id="Trazado_1350" data-name="Trazado 1350" d="M311.494,204.075a1.634,1.634,0,0,1-1.633,1.634H266.626a1.635,1.635,0,0,1-1.638-1.634,1.5,1.5,0,0,1,.01-.177,23.314,23.314,0,0,1,46.487,0A1.746,1.746,0,0,1,311.494,204.075Z" transform="translate(-264.988 -159.124)" fill="#3a3a3a"/>
      <path id="Trazado_1351" data-name="Trazado 1351" d="M313.456,142.324a9.808,9.808,0,1,1-9.762-9.853A9.808,9.808,0,0,1,313.456,142.324Z" transform="translate(-280.391 -132.471)" fill="#3a3a3a"/>
    </g>
    <g id="Grupo_783" data-name="Grupo 783" transform="translate(714.903 921)">
      <g id="Grupo_780" data-name="Grupo 780">
        <path id="Trazado_1352" data-name="Trazado 1352" d="M166.935,234.171a17.315,17.315,0,0,1-14.944-8.629,1.067,1.067,0,0,1,0-1.071,17.259,17.259,0,0,1,29.892,0,1.069,1.069,0,0,1,0,1.071A17.319,17.319,0,0,1,166.935,234.171Zm-12.768-9.164a15.119,15.119,0,0,0,25.54,0,15.12,15.12,0,0,0-25.54,0Z" transform="translate(-151.847 -215.843)" fill="#a3005c"/>
      </g>
      <g id="Grupo_781" data-name="Grupo 781">
        <path id="Trazado_1353" data-name="Trazado 1353" d="M166.935,234.171a17.315,17.315,0,0,1-14.944-8.629,1.067,1.067,0,0,1,0-1.071,17.259,17.259,0,0,1,29.892,0,1.069,1.069,0,0,1,0,1.071A17.319,17.319,0,0,1,166.935,234.171Zm-12.768-9.164a15.119,15.119,0,0,0,25.54,0,15.12,15.12,0,0,0-25.54,0Z" transform="translate(-151.847 -215.843)" fill="#a3005c"/>
      </g>
      <g id="Grupo_782" data-name="Grupo 782" transform="translate(10.222 4.311)">
        <path id="Trazado_1354" data-name="Trazado 1354" d="M177.081,234.144a4.853,4.853,0,1,1,4.853-4.853A4.859,4.859,0,0,1,177.081,234.144Zm0-7.567a2.714,2.714,0,1,0,2.714,2.714A2.717,2.717,0,0,0,177.081,226.577Z" transform="translate(-172.228 -224.438)" fill="#a3005c"/>
      </g>
    </g>
    <g id="Grupo_788" data-name="Grupo 788" transform="translate(752.692 883.949)">
      <g id="Grupo_784" data-name="Grupo 784" transform="translate(16.765 9.374)">
        <path id="Trazado_1355" data-name="Trazado 1355" d="M277.232,152.749a.939.939,0,0,1-1.714.531,6.392,6.392,0,0,1-.019-7.174.939.939,0,1,1,1.556,1.051,4.514,4.514,0,0,0,.013,5.064A.934.934,0,0,1,277.232,152.749Z" transform="translate(-274.408 -145.693)" fill="#272727"/>
      </g>
      <g id="Grupo_785" data-name="Grupo 785" transform="translate(5.869 3.281)">
        <path id="Trazado_1356" data-name="Trazado 1356" d="M255.751,151.911a.939.939,0,0,1-1.714.53,17.294,17.294,0,0,1-.05-19.405.939.939,0,0,1,1.556,1.051,15.417,15.417,0,0,0,.045,17.3A.935.935,0,0,1,255.751,151.911Z" transform="translate(-251.034 -132.624)" fill="#272727"/>
      </g>
      <g id="Grupo_786" data-name="Grupo 786" transform="translate(11.7 6.542)">
        <path id="Trazado_1357" data-name="Trazado 1357" d="M267.247,152.36a.938.938,0,0,1-1.714.53,11.461,11.461,0,0,1-.034-12.86.939.939,0,0,1,1.556,1.051,9.583,9.583,0,0,0,.028,10.749A.935.935,0,0,1,267.247,152.36Z" transform="translate(-263.543 -139.618)" fill="#272727"/>
      </g>
      <g id="Grupo_787" data-name="Grupo 787">
        <path id="Trazado_1358" data-name="Trazado 1358" d="M244.185,151.469a.939.939,0,0,1-1.713.53,23.167,23.167,0,0,1-.074-26,.939.939,0,1,1,1.556,1.051,21.289,21.289,0,0,0,.068,23.891A.934.934,0,0,1,244.185,151.469Z" transform="translate(-238.443 -125.584)" fill="#272727"/>
      </g>
    </g>
  </g>
</svg>
