<svg xmlns="http://www.w3.org/2000/svg" width="346.677" height="265.881" viewBox="0 0 346.677 265.881">
  <g id="Grupo_855" data-name="Grupo 855" transform="translate(-554 -1468)">
    <g id="Trazado_1494" data-name="Trazado 1494" transform="translate(554 1468)" fill="#fff">
      <path d="M 346.177001953125 265.3809814453125 L 0.5000009536743164 265.3809814453125 L 0.5000009536743164 0.5000209212303162 L 346.177001953125 0.5000209212303162 L 346.177001953125 265.3809814453125 Z" stroke="none"/>
      <path d="M 1 0.999969482421875 L 1 264.8809204101562 L 345.677001953125 264.8809204101562 L 345.677001953125 0.999969482421875 L 1 0.999969482421875 M 0 -3.0517578125e-05 L 346.677001953125 -3.0517578125e-05 L 346.677001953125 265.8809204101562 L 0 265.8809204101562 L 0 -3.0517578125e-05 Z" stroke="none" fill="#707070"/>
    </g>
    <path id="Trazado_1500" data-name="Trazado 1500" d="M0,0H346.677V25.882H0Z" transform="translate(554 1468)" fill="#333"/>
    <path id="Trazado_1499" data-name="Trazado 1499" d="M5.4-2.2H2.191L1.43,0H.252L3.328-8.531h.99L7.33,0H6.152ZM2.525-3.164H5.074L3.832-6.826H3.8Zm5.637.111A4.231,4.231,0,0,1,8.815-5.52a2.105,2.105,0,0,1,1.831-.937,2.27,2.27,0,0,1,.987.205,2.024,2.024,0,0,1,.735.6V-9.141h1.154V0h-.885l-.176-.8a2.057,2.057,0,0,1-.768.691,2.293,2.293,0,0,1-1.061.234A2.176,2.176,0,0,1,8.818-.718,3.494,3.494,0,0,1,8.162-2.93Zm1.154.123a2.691,2.691,0,0,0,.393,1.538,1.371,1.371,0,0,0,1.219.577,1.529,1.529,0,0,0,.867-.234,1.75,1.75,0,0,0,.574-.656V-4.664a1.777,1.777,0,0,0-.577-.624,1.525,1.525,0,0,0-.853-.231,1.319,1.319,0,0,0-1.228.686,3.539,3.539,0,0,0-.4,1.781Zm7.26-3.41V.521a2.105,2.105,0,0,1-.5,1.509,1.839,1.839,0,0,1-1.4.53,1.912,1.912,0,0,1-.331-.026,2.617,2.617,0,0,1-.319-.079l.082-.908a1.216,1.216,0,0,0,.234.05,1.956,1.956,0,0,0,.252.021.765.765,0,0,0,.606-.258,1.261,1.261,0,0,0,.226-.838V-6.34Zm-.035-1.646H15.387V-9.141h1.154ZM22.377-.937a2.147,2.147,0,0,1-.768.785,2.1,2.1,0,0,1-1.084.275,2.037,2.037,0,0,1-1.617-.662,3.074,3.074,0,0,1-.58-2.062V-6.34h1.154v3.75a2.36,2.36,0,0,0,.3,1.395,1.111,1.111,0,0,0,.932.381,1.9,1.9,0,0,0,1.017-.249,1.558,1.558,0,0,0,.606-.706V-6.34H23.49V0H22.453ZM26.2-6.34l.082.943a2.3,2.3,0,0,1,.794-.782,2.118,2.118,0,0,1,1.087-.278,2.069,2.069,0,0,1,1.588.6A2.637,2.637,0,0,1,30.316-4V0H29.162V-3.979a1.715,1.715,0,0,0-.331-1.189A1.326,1.326,0,0,0,27.82-5.52a1.789,1.789,0,0,0-.905.214,1.554,1.554,0,0,0-.589.6V0H25.172V-6.34ZM33.6-7.869V-6.34h1.2v.855H33.6v3.85a.862.862,0,0,0,.185.627.667.667,0,0,0,.489.182,1.072,1.072,0,0,0,.223-.026A1.651,1.651,0,0,0,34.7-.908l.158.791a1.02,1.02,0,0,1-.381.173,1.922,1.922,0,0,1-.5.067A1.5,1.5,0,0,1,32.859-.3a1.845,1.845,0,0,1-.416-1.333v-3.85H31.436V-6.34h1.008V-7.869ZM39.932,0q-.059-.287-.091-.507A3.72,3.72,0,0,1,39.8-.949a2.691,2.691,0,0,1-.841.765,2.15,2.15,0,0,1-1.116.308,2.072,2.072,0,0,1-1.509-.507,1.864,1.864,0,0,1-.519-1.4A1.637,1.637,0,0,1,36.554-3.2a3.434,3.434,0,0,1,2-.513H39.8v-.627a1.163,1.163,0,0,0-.34-.882,1.334,1.334,0,0,0-.961-.325,1.394,1.394,0,0,0-.908.281.844.844,0,0,0-.346.674l-1.1.012-.012-.035a1.517,1.517,0,0,1,.647-1.266,2.683,2.683,0,0,1,1.778-.574,2.618,2.618,0,0,1,1.734.548,1.941,1.941,0,0,1,.656,1.579v3.053a5.942,5.942,0,0,0,.035.656A3.374,3.374,0,0,0,41.121,0ZM38.016-.844a2.054,2.054,0,0,0,1.131-.322A1.532,1.532,0,0,0,39.8-1.9V-2.936H38.508a1.68,1.68,0,0,0-1.116.352,1.051,1.051,0,0,0-.419.826.869.869,0,0,0,.264.668A1.1,1.1,0,0,0,38.016-.844ZM45.633-5.32l-.592-.035a1.322,1.322,0,0,0-.771.217,1.391,1.391,0,0,0-.483.609V0H42.633V-6.34h1.031l.111.926a2.2,2.2,0,0,1,.665-.768,1.555,1.555,0,0,1,.911-.275,1.426,1.426,0,0,1,.246.021,1.631,1.631,0,0,1,.193.044ZM51.064,0H49.91V-9.141h1.154ZM52.57-3.229a3.49,3.49,0,0,1,.762-2.317A2.554,2.554,0,0,1,55.4-6.457a2.58,2.58,0,0,1,2.083.908,3.479,3.479,0,0,1,.765,2.32V-3.1a3.473,3.473,0,0,1-.762,2.32,2.572,2.572,0,0,1-2.074.9,2.577,2.577,0,0,1-2.077-.905A3.467,3.467,0,0,1,52.57-3.1Zm1.154.129a3.007,3.007,0,0,0,.425,1.664,1.406,1.406,0,0,0,1.263.656,1.4,1.4,0,0,0,1.254-.656A2.991,2.991,0,0,0,57.094-3.1v-.129a2.982,2.982,0,0,0-.431-1.658A1.412,1.412,0,0,0,55.4-5.549a1.392,1.392,0,0,0-1.251.662,3.014,3.014,0,0,0-.425,1.658Zm5.73.047a4.231,4.231,0,0,1,.653-2.467,2.1,2.1,0,0,1,1.825-.937,2.225,2.225,0,0,1,1.061.243,2.134,2.134,0,0,1,.768.7L63.9-6.34h.92V.035a2.419,2.419,0,0,1-.709,1.872,2.913,2.913,0,0,1-2.045.653,4.287,4.287,0,0,1-.987-.126,3.86,3.86,0,0,1-.935-.343l.176-.9a3.338,3.338,0,0,0,.806.284,4.137,4.137,0,0,0,.929.108A1.681,1.681,0,0,0,63.284,1.2,1.59,1.59,0,0,0,63.668.035V-.686a2.044,2.044,0,0,1-.744.6,2.319,2.319,0,0,1-1,.205,2.168,2.168,0,0,1-1.813-.841,3.505,3.505,0,0,1-.653-2.212Zm1.154.123A2.694,2.694,0,0,0,61-1.395a1.362,1.362,0,0,0,1.213.58,1.526,1.526,0,0,0,.873-.237,1.8,1.8,0,0,0,.58-.671V-4.641a1.791,1.791,0,0,0-.58-.642,1.522,1.522,0,0,0-.861-.237A1.314,1.314,0,0,0,61-4.834a3.539,3.539,0,0,0-.4,1.781Zm5.6-.3a3.49,3.49,0,0,1,.762-2.317,2.554,2.554,0,0,1,2.068-.911,2.58,2.58,0,0,1,2.083.908,3.479,3.479,0,0,1,.765,2.32V-3.1a3.473,3.473,0,0,1-.762,2.32,2.572,2.572,0,0,1-2.074.9,2.577,2.577,0,0,1-2.077-.905A3.467,3.467,0,0,1,66.211-3.1Zm1.154.129a3.007,3.007,0,0,0,.425,1.664,1.406,1.406,0,0,0,1.263.656,1.4,1.4,0,0,0,1.254-.656A2.991,2.991,0,0,0,70.734-3.1v-.129A2.982,2.982,0,0,0,70.3-4.887a1.412,1.412,0,0,0-1.263-.662,1.392,1.392,0,0,0-1.251.662,3.014,3.014,0,0,0-.425,1.658Zm7.541-4.77V-6.34h1.2v.855h-1.2v3.85a.862.862,0,0,0,.185.627.667.667,0,0,0,.489.182A1.072,1.072,0,0,0,75.8-.853a1.651,1.651,0,0,0,.205-.056l.158.791a1.02,1.02,0,0,1-.381.173,1.922,1.922,0,0,1-.5.067A1.5,1.5,0,0,1,74.168-.3a1.845,1.845,0,0,1-.416-1.333v-3.85H72.744V-6.34h1.008V-7.869ZM78.592,0H77.438V-6.34h1.154Zm0-7.963H77.438V-9.141h1.154ZM85.77-2.93a3.494,3.494,0,0,1-.656,2.212A2.17,2.17,0,0,1,83.3.123a2.515,2.515,0,0,1-1.028-.2,1.966,1.966,0,0,1-.753-.589v3.1H80.367V-6.34h.885l.182.82a2.094,2.094,0,0,1,.773-.7,2.309,2.309,0,0,1,1.078-.24,2.107,2.107,0,0,1,1.831.935,4.228,4.228,0,0,1,.653,2.47Zm-1.154-.123a3.35,3.35,0,0,0-.425-1.772,1.377,1.377,0,0,0-1.251-.694,1.54,1.54,0,0,0-.85.226,1.687,1.687,0,0,0-.568.618v3.064A1.639,1.639,0,0,0,82.09-1a1.6,1.6,0,0,0,.861.22,1.421,1.421,0,0,0,1.242-.6,2.637,2.637,0,0,0,.422-1.55Zm2.3-.176a3.49,3.49,0,0,1,.762-2.317,2.554,2.554,0,0,1,2.068-.911,2.58,2.58,0,0,1,2.083.908,3.479,3.479,0,0,1,.765,2.32V-3.1a3.473,3.473,0,0,1-.762,2.32,2.572,2.572,0,0,1-2.074.9,2.577,2.577,0,0,1-2.077-.905A3.467,3.467,0,0,1,86.918-3.1Zm1.154.129A3.007,3.007,0,0,0,88.5-1.436a1.406,1.406,0,0,0,1.263.656,1.4,1.4,0,0,0,1.254-.656A2.991,2.991,0,0,0,91.441-3.1v-.129a2.982,2.982,0,0,0-.431-1.658,1.412,1.412,0,0,0-1.263-.662,1.392,1.392,0,0,0-1.251.662,3.014,3.014,0,0,0-.425,1.658Zm8.654.047A4.231,4.231,0,0,1,97.38-5.52a2.105,2.105,0,0,1,1.831-.937,2.27,2.27,0,0,1,.987.205,2.024,2.024,0,0,1,.735.6V-9.141h1.154V0H101.2l-.176-.8a2.057,2.057,0,0,1-.768.691A2.293,2.293,0,0,1,99.2.123a2.176,2.176,0,0,1-1.816-.841,3.494,3.494,0,0,1-.656-2.212Zm1.154.123a2.691,2.691,0,0,0,.393,1.538,1.371,1.371,0,0,0,1.219.577,1.529,1.529,0,0,0,.867-.234,1.75,1.75,0,0,0,.574-.656V-4.664a1.777,1.777,0,0,0-.577-.624A1.525,1.525,0,0,0,99.5-5.52a1.319,1.319,0,0,0-1.228.686,3.539,3.539,0,0,0-.4,1.781ZM106.436.123a2.682,2.682,0,0,1-2.13-.873,3.36,3.36,0,0,1-.765-2.3V-3.3a3.289,3.289,0,0,1,.788-2.259,2.471,2.471,0,0,1,1.925-.894,2.3,2.3,0,0,1,1.907.791,3.259,3.259,0,0,1,.636,2.1v.609h-4.055l-.018.029a2.62,2.62,0,0,0,.422,1.55,1.474,1.474,0,0,0,1.289.595,2.9,2.9,0,0,0,1.028-.167,2.3,2.3,0,0,0,.759-.46l.451.75a2.774,2.774,0,0,1-.9.554A3.571,3.571,0,0,1,106.436.123Zm-.182-5.672a1.255,1.255,0,0,0-1,.466,2.2,2.2,0,0,0-.483,1.192l.012.029h2.859v-.094A1.846,1.846,0,0,0,107.3-5.1,1.228,1.228,0,0,0,106.254-5.549ZM116.76-1.705a.769.769,0,0,0-.29-.621,2.8,2.8,0,0,0-1.1-.422,4.61,4.61,0,0,1-1.72-.674,1.361,1.361,0,0,1-.6-1.16,1.672,1.672,0,0,1,.659-1.324,2.574,2.574,0,0,1,1.708-.551,2.551,2.551,0,0,1,1.746.586,1.679,1.679,0,0,1,.639,1.365l-.012.035h-1.1a1,1,0,0,0-.36-.744,1.288,1.288,0,0,0-.911-.334,1.314,1.314,0,0,0-.911.275.859.859,0,0,0-.3.656.7.7,0,0,0,.261.58,2.886,2.886,0,0,0,1.075.375,4.544,4.544,0,0,1,1.77.7,1.4,1.4,0,0,1,.6,1.178,1.669,1.669,0,0,1-.683,1.377,2.816,2.816,0,0,1-1.784.533,2.786,2.786,0,0,1-1.91-.615,1.756,1.756,0,0,1-.662-1.436l.012-.035h1.1a1.068,1.068,0,0,0,.457.9,1.768,1.768,0,0,0,1,.284,1.578,1.578,0,0,0,.964-.261A.8.8,0,0,0,116.76-1.705Zm6.615.768a2.147,2.147,0,0,1-.768.785,2.1,2.1,0,0,1-1.084.275,2.037,2.037,0,0,1-1.617-.662,3.074,3.074,0,0,1-.58-2.062V-6.34h1.154v3.75a2.36,2.36,0,0,0,.3,1.395,1.111,1.111,0,0,0,.932.381,1.9,1.9,0,0,0,1.017-.249,1.558,1.558,0,0,0,.606-.706V-6.34h1.154V0h-1.037Zm8.3.158a1.357,1.357,0,0,0,.932-.354A1.12,1.12,0,0,0,133-2h1.043l.018.035a1.821,1.821,0,0,1-.7,1.456,2.484,2.484,0,0,1-1.687.636,2.489,2.489,0,0,1-2.062-.908,3.506,3.506,0,0,1-.727-2.262v-.246a3.49,3.49,0,0,1,.729-2.253,2.488,2.488,0,0,1,2.06-.911,2.392,2.392,0,0,1,1.737.656,2.081,2.081,0,0,1,.653,1.611l-.012.035H133a1.4,1.4,0,0,0-.378-.987,1.244,1.244,0,0,0-.952-.407,1.333,1.333,0,0,0-1.239.659,3.085,3.085,0,0,0-.39,1.6v.246a3.144,3.144,0,0,0,.384,1.611A1.332,1.332,0,0,0,131.672-.779ZM139.33,0q-.059-.287-.091-.507a3.72,3.72,0,0,1-.038-.442,2.691,2.691,0,0,1-.841.765,2.15,2.15,0,0,1-1.116.308,2.072,2.072,0,0,1-1.509-.507,1.864,1.864,0,0,1-.519-1.4,1.637,1.637,0,0,1,.735-1.421,3.434,3.434,0,0,1,2-.513H139.2v-.627a1.163,1.163,0,0,0-.34-.882,1.334,1.334,0,0,0-.961-.325,1.394,1.394,0,0,0-.908.281.844.844,0,0,0-.346.674l-1.1.012-.012-.035a1.517,1.517,0,0,1,.647-1.266,2.683,2.683,0,0,1,1.778-.574,2.618,2.618,0,0,1,1.734.548,1.941,1.941,0,0,1,.656,1.579v3.053a5.942,5.942,0,0,0,.035.656A3.374,3.374,0,0,0,140.52,0Zm-1.916-.844a2.054,2.054,0,0,0,1.131-.322A1.532,1.532,0,0,0,139.2-1.9V-2.936h-1.295a1.68,1.68,0,0,0-1.116.352,1.051,1.051,0,0,0-.419.826.869.869,0,0,0,.264.668A1.1,1.1,0,0,0,137.414-.844Zm5.648-5.5.082.943a2.3,2.3,0,0,1,.794-.782,2.118,2.118,0,0,1,1.087-.278,2.069,2.069,0,0,1,1.588.6A2.637,2.637,0,0,1,147.176-4V0h-1.154V-3.979a1.715,1.715,0,0,0-.331-1.189,1.326,1.326,0,0,0-1.011-.352,1.789,1.789,0,0,0-.905.214,1.554,1.554,0,0,0-.589.6V0h-1.154V-6.34Zm5.525,3.287a4.231,4.231,0,0,1,.653-2.467,2.105,2.105,0,0,1,1.831-.937,2.27,2.27,0,0,1,.987.205,2.024,2.024,0,0,1,.735.6V-9.141h1.154V0h-.885l-.176-.8a2.057,2.057,0,0,1-.768.691,2.293,2.293,0,0,1-1.061.234,2.176,2.176,0,0,1-1.816-.841,3.494,3.494,0,0,1-.656-2.212Zm1.154.123a2.691,2.691,0,0,0,.393,1.538,1.371,1.371,0,0,0,1.219.577,1.529,1.529,0,0,0,.867-.234,1.75,1.75,0,0,0,.574-.656V-4.664a1.777,1.777,0,0,0-.577-.624,1.525,1.525,0,0,0-.853-.231,1.319,1.319,0,0,0-1.228.686,3.539,3.539,0,0,0-.4,1.781ZM156.92,0h-1.154V-6.34h1.154Zm0-7.963h-1.154V-9.141h1.154Zm1.512,4.91a4.231,4.231,0,0,1,.653-2.467,2.105,2.105,0,0,1,1.831-.937,2.27,2.27,0,0,1,.987.205,2.024,2.024,0,0,1,.735.6V-9.141h1.154V0h-.885l-.176-.8a2.057,2.057,0,0,1-.768.691A2.293,2.293,0,0,1,160.9.123a2.176,2.176,0,0,1-1.816-.841,3.494,3.494,0,0,1-.656-2.212Zm1.154.123a2.691,2.691,0,0,0,.393,1.538,1.371,1.371,0,0,0,1.219.577,1.529,1.529,0,0,0,.867-.234,1.75,1.75,0,0,0,.574-.656V-4.664a1.777,1.777,0,0,0-.577-.624,1.525,1.525,0,0,0-.853-.231,1.319,1.319,0,0,0-1.228.686,3.539,3.539,0,0,0-.4,1.781ZM169.412,0q-.059-.287-.091-.507a3.72,3.72,0,0,1-.038-.442,2.691,2.691,0,0,1-.841.765,2.15,2.15,0,0,1-1.116.308,2.072,2.072,0,0,1-1.509-.507,1.864,1.864,0,0,1-.519-1.4,1.637,1.637,0,0,1,.735-1.421,3.434,3.434,0,0,1,2-.513h1.254v-.627a1.163,1.163,0,0,0-.34-.882,1.334,1.334,0,0,0-.961-.325,1.394,1.394,0,0,0-.908.281.844.844,0,0,0-.346.674l-1.1.012-.012-.035a1.517,1.517,0,0,1,.647-1.266,2.683,2.683,0,0,1,1.778-.574,2.618,2.618,0,0,1,1.734.548,1.941,1.941,0,0,1,.656,1.579v3.053a5.942,5.942,0,0,0,.035.656A3.374,3.374,0,0,0,170.6,0ZM167.5-.844a2.054,2.054,0,0,0,1.131-.322,1.532,1.532,0,0,0,.656-.738V-2.936h-1.295a1.68,1.68,0,0,0-1.116.352,1.051,1.051,0,0,0-.419.826.869.869,0,0,0,.264.668A1.1,1.1,0,0,0,167.5-.844Zm6.223-7.025V-6.34h1.2v.855h-1.2v3.85a.862.862,0,0,0,.185.627.667.667,0,0,0,.489.182,1.072,1.072,0,0,0,.223-.026,1.651,1.651,0,0,0,.205-.056l.158.791a1.02,1.02,0,0,1-.381.173,1.922,1.922,0,0,1-.5.067A1.5,1.5,0,0,1,172.98-.3a1.845,1.845,0,0,1-.416-1.333v-3.85h-1.008V-6.34h1.008V-7.869Zm6.463,6.932a2.147,2.147,0,0,1-.768.785,2.1,2.1,0,0,1-1.084.275,2.037,2.037,0,0,1-1.617-.662,3.074,3.074,0,0,1-.58-2.062V-6.34h1.154v3.75a2.36,2.36,0,0,0,.3,1.395,1.111,1.111,0,0,0,.932.381,1.9,1.9,0,0,0,1.017-.249,1.558,1.558,0,0,0,.606-.706V-6.34h1.154V0h-1.037Zm5.795-4.383-.592-.035a1.322,1.322,0,0,0-.771.217,1.391,1.391,0,0,0-.483.609V0h-1.154V-6.34h1.031l.111.926a2.2,2.2,0,0,1,.665-.768,1.555,1.555,0,0,1,.911-.275,1.426,1.426,0,0,1,.246.021,1.631,1.631,0,0,1,.193.044Zm5.1,5.32q-.059-.287-.091-.507a3.72,3.72,0,0,1-.038-.442,2.691,2.691,0,0,1-.841.765,2.15,2.15,0,0,1-1.116.308,2.072,2.072,0,0,1-1.509-.507,1.864,1.864,0,0,1-.519-1.4A1.637,1.637,0,0,1,187.7-3.2a3.434,3.434,0,0,1,2-.513h1.254v-.627a1.163,1.163,0,0,0-.34-.882,1.334,1.334,0,0,0-.961-.325,1.394,1.394,0,0,0-.908.281.844.844,0,0,0-.346.674l-1.1.012-.012-.035a1.517,1.517,0,0,1,.647-1.266,2.683,2.683,0,0,1,1.778-.574,2.618,2.618,0,0,1,1.734.548A1.941,1.941,0,0,1,192.1-4.33v3.053a5.942,5.942,0,0,0,.035.656,3.374,3.374,0,0,0,.129.621Zm-1.916-.844a2.054,2.054,0,0,0,1.131-.322,1.532,1.532,0,0,0,.656-.738V-2.936H189.65a1.68,1.68,0,0,0-1.116.352,1.051,1.051,0,0,0-.419.826.869.869,0,0,0,.264.668A1.1,1.1,0,0,0,189.158-.844ZM198.006,0h-1.154V-6.34h1.154Zm0-7.963h-1.154V-9.141h1.154Zm2.807,1.623.082.943a2.3,2.3,0,0,1,.794-.782,2.118,2.118,0,0,1,1.087-.278,2.069,2.069,0,0,1,1.588.6A2.637,2.637,0,0,1,204.926-4V0h-1.154V-3.979a1.715,1.715,0,0,0-.331-1.189,1.326,1.326,0,0,0-1.011-.352,1.789,1.789,0,0,0-.905.214,1.554,1.554,0,0,0-.589.6V0h-1.154V-6.34Zm5.525,3.287a4.231,4.231,0,0,1,.653-2.467,2.105,2.105,0,0,1,1.831-.937,2.27,2.27,0,0,1,.987.205,2.024,2.024,0,0,1,.735.6V-9.141H211.7V0h-.885l-.176-.8a2.057,2.057,0,0,1-.768.691,2.293,2.293,0,0,1-1.061.234,2.176,2.176,0,0,1-1.816-.841,3.494,3.494,0,0,1-.656-2.212Zm1.154.123a2.691,2.691,0,0,0,.393,1.538,1.371,1.371,0,0,0,1.219.577,1.529,1.529,0,0,0,.867-.234,1.75,1.75,0,0,0,.574-.656V-4.664a1.777,1.777,0,0,0-.577-.624,1.525,1.525,0,0,0-.853-.231,1.319,1.319,0,0,0-1.228.686,3.539,3.539,0,0,0-.4,1.781ZM216.047.123a2.682,2.682,0,0,1-2.13-.873,3.36,3.36,0,0,1-.765-2.3V-3.3a3.289,3.289,0,0,1,.788-2.259,2.471,2.471,0,0,1,1.925-.894,2.3,2.3,0,0,1,1.907.791,3.259,3.259,0,0,1,.636,2.1v.609h-4.055l-.018.029a2.62,2.62,0,0,0,.422,1.55,1.474,1.474,0,0,0,1.289.595,2.9,2.9,0,0,0,1.028-.167,2.3,2.3,0,0,0,.759-.46l.451.75a2.774,2.774,0,0,1-.9.554A3.571,3.571,0,0,1,216.047.123Zm-.182-5.672a1.255,1.255,0,0,0-1,.466,2.2,2.2,0,0,0-.483,1.192l.012.029h2.859v-.094a1.846,1.846,0,0,0-.34-1.143A1.228,1.228,0,0,0,215.865-5.549Zm9.24,2.619a3.494,3.494,0,0,1-.656,2.212,2.17,2.17,0,0,1-1.811.841,2.515,2.515,0,0,1-1.028-.2,1.966,1.966,0,0,1-.753-.589v3.1H219.7V-6.34h.885l.182.82a2.094,2.094,0,0,1,.773-.7,2.309,2.309,0,0,1,1.078-.24,2.107,2.107,0,0,1,1.831.935,4.228,4.228,0,0,1,.653,2.47Zm-1.154-.123a3.35,3.35,0,0,0-.425-1.772,1.377,1.377,0,0,0-1.251-.694,1.54,1.54,0,0,0-.85.226,1.687,1.687,0,0,0-.568.618v3.064a1.639,1.639,0,0,0,.568.612,1.6,1.6,0,0,0,.861.22,1.421,1.421,0,0,0,1.242-.6,2.637,2.637,0,0,0,.422-1.55Zm5.2,3.176a2.682,2.682,0,0,1-2.13-.873,3.36,3.36,0,0,1-.765-2.3V-3.3a3.289,3.289,0,0,1,.788-2.259,2.471,2.471,0,0,1,1.925-.894,2.3,2.3,0,0,1,1.907.791,3.259,3.259,0,0,1,.636,2.1v.609h-4.055l-.018.029a2.62,2.62,0,0,0,.422,1.55,1.474,1.474,0,0,0,1.289.595,2.9,2.9,0,0,0,1.028-.167,2.3,2.3,0,0,0,.759-.46l.451.75a2.774,2.774,0,0,1-.9.554A3.571,3.571,0,0,1,229.148.123Zm-.182-5.672a1.255,1.255,0,0,0-1,.466,2.2,2.2,0,0,0-.483,1.192l.012.029h2.859v-.094a1.846,1.846,0,0,0-.34-1.143A1.228,1.228,0,0,0,228.967-5.549Zm4.869-.791.082.943a2.3,2.3,0,0,1,.794-.782,2.118,2.118,0,0,1,1.087-.278,2.069,2.069,0,0,1,1.588.6A2.637,2.637,0,0,1,237.949-4V0h-1.154V-3.979a1.715,1.715,0,0,0-.331-1.189,1.326,1.326,0,0,0-1.011-.352,1.789,1.789,0,0,0-.905.214,1.554,1.554,0,0,0-.589.6V0H232.8V-6.34Zm5.525,3.287a4.231,4.231,0,0,1,.653-2.467,2.105,2.105,0,0,1,1.831-.937,2.27,2.27,0,0,1,.987.205,2.024,2.024,0,0,1,.735.6V-9.141h1.154V0h-.885l-.176-.8a2.057,2.057,0,0,1-.768.691,2.293,2.293,0,0,1-1.061.234,2.176,2.176,0,0,1-1.816-.841,3.494,3.494,0,0,1-.656-2.212Zm1.154.123a2.691,2.691,0,0,0,.393,1.538,1.371,1.371,0,0,0,1.219.577,1.529,1.529,0,0,0,.867-.234,1.75,1.75,0,0,0,.574-.656V-4.664a1.777,1.777,0,0,0-.577-.624,1.525,1.525,0,0,0-.853-.231,1.319,1.319,0,0,0-1.228.686,3.539,3.539,0,0,0-.4,1.781ZM247.693,0h-1.154V-6.34h1.154Zm0-7.963h-1.154V-9.141h1.154Zm4.4,8.086a2.682,2.682,0,0,1-2.13-.873,3.36,3.36,0,0,1-.765-2.3V-3.3a3.289,3.289,0,0,1,.788-2.259,2.471,2.471,0,0,1,1.925-.894,2.3,2.3,0,0,1,1.907.791,3.259,3.259,0,0,1,.636,2.1v.609H250.4l-.018.029a2.62,2.62,0,0,0,.422,1.55,1.474,1.474,0,0,0,1.289.595,2.9,2.9,0,0,0,1.028-.167,2.3,2.3,0,0,0,.759-.46l.451.75a2.774,2.774,0,0,1-.9.554A3.571,3.571,0,0,1,252.094.123Zm-.182-5.672a1.255,1.255,0,0,0-1,.466,2.2,2.2,0,0,0-.483,1.192l.012.029H253.3v-.094a1.846,1.846,0,0,0-.34-1.143A1.228,1.228,0,0,0,251.912-5.549Zm4.869-.791.082.943a2.3,2.3,0,0,1,.794-.782,2.118,2.118,0,0,1,1.087-.278,2.069,2.069,0,0,1,1.588.6A2.637,2.637,0,0,1,260.895-4V0H259.74V-3.979a1.715,1.715,0,0,0-.331-1.189A1.326,1.326,0,0,0,258.4-5.52a1.789,1.789,0,0,0-.905.214,1.554,1.554,0,0,0-.589.6V0H255.75V-6.34Zm7.395-1.529V-6.34h1.2v.855h-1.2v3.85a.862.862,0,0,0,.185.627.667.667,0,0,0,.489.182,1.072,1.072,0,0,0,.223-.026,1.651,1.651,0,0,0,.205-.056l.158.791a1.02,1.02,0,0,1-.381.173,1.922,1.922,0,0,1-.5.067A1.5,1.5,0,0,1,263.438-.3a1.845,1.845,0,0,1-.416-1.333v-3.85h-1.008V-6.34h1.008V-7.869ZM269.238.123a2.682,2.682,0,0,1-2.13-.873,3.36,3.36,0,0,1-.765-2.3V-3.3a3.289,3.289,0,0,1,.788-2.259,2.471,2.471,0,0,1,1.925-.894,2.3,2.3,0,0,1,1.907.791,3.259,3.259,0,0,1,.636,2.1v.609h-4.055l-.018.029a2.62,2.62,0,0,0,.422,1.55,1.474,1.474,0,0,0,1.289.595,2.9,2.9,0,0,0,1.028-.167,2.3,2.3,0,0,0,.759-.46l.451.75a2.774,2.774,0,0,1-.9.554A3.571,3.571,0,0,1,269.238.123Zm-.182-5.672a1.255,1.255,0,0,0-1,.466,2.2,2.2,0,0,0-.483,1.192l.012.029h2.859v-.094a1.846,1.846,0,0,0-.34-1.143A1.228,1.228,0,0,0,269.057-5.549ZM274.154,0H273V-1.184h1.154Zm0-5.133H273V-6.316h1.154Z" transform="translate(592 1536)" fill="#333"/>
    <g id="Trazado_1495" data-name="Trazado 1495" transform="translate(591.741 1551.709)" fill="#f8f8f8">
      <path d="M 190.2068023681641 122.3755035400391 L 6.000008583068848 122.3755035400391 C 2.967308759689331 122.3755035400391 0.5000088214874268 119.908203125 0.5000088214874268 116.8755035400391 L 0.5000088214874268 6.000005722045898 C 0.5000088214874268 2.967305660247803 2.967308759689331 0.5000056028366089 6.000008583068848 0.5000056028366089 L 190.2068023681641 0.5000056028366089 C 193.239501953125 0.5000056028366089 195.7068023681641 2.967305660247803 195.7068023681641 6.000005722045898 L 195.7068023681641 116.8755035400391 C 195.7068023681641 119.908203125 193.239501953125 122.3755035400391 190.2068023681641 122.3755035400391 Z" stroke="none"/>
      <path d="M 6.000015258789062 1.000007629394531 C 3.243011474609375 1.000007629394531 1.000015258789062 3.243003845214844 1.000015258789062 6.000007629394531 L 1.000015258789062 116.8755035400391 C 1.000015258789062 119.6325073242188 3.243011474609375 121.8755035400391 6.000015258789062 121.8755035400391 L 190.2068023681641 121.8755035400391 C 192.9638061523438 121.8755035400391 195.2068023681641 119.6325073242188 195.2068023681641 116.8755035400391 L 195.2068023681641 6.000007629394531 C 195.2068023681641 3.243003845214844 192.9638061523438 1.000007629394531 190.2068023681641 1.000007629394531 L 6.000015258789062 1.000007629394531 M 6.000015258789062 7.62939453125e-06 L 190.2068023681641 7.62939453125e-06 C 193.5205078125 7.62939453125e-06 196.2068023681641 2.686279296875 196.2068023681641 6.000007629394531 L 196.2068023681641 116.8755035400391 C 196.2068023681641 120.189208984375 193.5205078125 122.8755035400391 190.2068023681641 122.8755035400391 L 6.000015258789062 122.8755035400391 C 2.686279296875 122.8755035400391 1.52587890625e-05 120.189208984375 1.52587890625e-05 116.8755035400391 L 1.52587890625e-05 6.000007629394531 C 1.52587890625e-05 2.686279296875 2.686279296875 7.62939453125e-06 6.000015258789062 7.62939453125e-06 Z" stroke="none" fill="#d9d9d9"/>
    </g>
    <path id="Trazado_1498" data-name="Trazado 1498" d="M5.4-2.2H2.191L1.43,0H.252L3.328-8.531h.99L7.33,0H6.152ZM2.525-3.164H5.074L3.832-6.826H3.8Zm8.9-2.156-.592-.035a1.322,1.322,0,0,0-.771.217,1.391,1.391,0,0,0-.483.609V0H8.426V-6.34H9.457l.111.926a2.2,2.2,0,0,1,.665-.768,1.555,1.555,0,0,1,.911-.275,1.426,1.426,0,0,1,.246.021,1.631,1.631,0,0,1,.193.044Zm4.2,0-.592-.035a1.322,1.322,0,0,0-.771.217,1.391,1.391,0,0,0-.483.609V0H12.627V-6.34h1.031l.111.926a2.2,2.2,0,0,1,.665-.768,1.555,1.555,0,0,1,.911-.275,1.426,1.426,0,0,1,.246.021,1.631,1.631,0,0,1,.193.044ZM20.725,0q-.059-.287-.091-.507A3.72,3.72,0,0,1,20.6-.949a2.691,2.691,0,0,1-.841.765,2.15,2.15,0,0,1-1.116.308A2.072,2.072,0,0,1,17.13-.384a1.864,1.864,0,0,1-.519-1.4A1.637,1.637,0,0,1,17.347-3.2a3.434,3.434,0,0,1,2-.513H20.6v-.627a1.163,1.163,0,0,0-.34-.882,1.334,1.334,0,0,0-.961-.325,1.394,1.394,0,0,0-.908.281.844.844,0,0,0-.346.674l-1.1.012-.012-.035a1.517,1.517,0,0,1,.647-1.266,2.683,2.683,0,0,1,1.778-.574,2.618,2.618,0,0,1,1.734.548A1.941,1.941,0,0,1,21.75-4.33v3.053a5.942,5.942,0,0,0,.035.656A3.374,3.374,0,0,0,21.914,0ZM18.809-.844a2.054,2.054,0,0,0,1.131-.322A1.532,1.532,0,0,0,20.6-1.9V-2.936H19.3a1.68,1.68,0,0,0-1.116.352,1.051,1.051,0,0,0-.419.826.869.869,0,0,0,.264.668A1.1,1.1,0,0,0,18.809-.844Zm8.3-.861a.769.769,0,0,0-.29-.621,2.8,2.8,0,0,0-1.1-.422A4.61,4.61,0,0,1,24-3.422a1.361,1.361,0,0,1-.6-1.16,1.672,1.672,0,0,1,.659-1.324,2.574,2.574,0,0,1,1.708-.551,2.551,2.551,0,0,1,1.746.586,1.679,1.679,0,0,1,.639,1.365l-.012.035h-1.1a1,1,0,0,0-.36-.744,1.288,1.288,0,0,0-.911-.334,1.314,1.314,0,0,0-.911.275.859.859,0,0,0-.3.656.7.7,0,0,0,.261.58,2.886,2.886,0,0,0,1.075.375,4.544,4.544,0,0,1,1.77.7,1.4,1.4,0,0,1,.6,1.178A1.669,1.669,0,0,1,27.583-.41,2.816,2.816,0,0,1,25.8.123a2.786,2.786,0,0,1-1.91-.615,1.756,1.756,0,0,1-.662-1.436l.012-.035h1.1a1.068,1.068,0,0,0,.457.9,1.768,1.768,0,0,0,1,.284,1.578,1.578,0,0,0,.964-.261A.8.8,0,0,0,27.111-1.705Zm4.2-6.164V-6.34h1.2v.855h-1.2v3.85a.862.862,0,0,0,.185.627.667.667,0,0,0,.489.182A1.072,1.072,0,0,0,32.2-.853a1.651,1.651,0,0,0,.205-.056l.158.791a1.02,1.02,0,0,1-.381.173,1.922,1.922,0,0,1-.5.067A1.5,1.5,0,0,1,30.568-.3a1.845,1.845,0,0,1-.416-1.333v-3.85H29.145V-6.34h1.008V-7.869ZM36.744-5.32l-.592-.035a1.322,1.322,0,0,0-.771.217,1.391,1.391,0,0,0-.483.609V0H33.744V-6.34h1.031l.111.926a2.2,2.2,0,0,1,.665-.768,1.555,1.555,0,0,1,.911-.275,1.426,1.426,0,0,1,.246.021,1.631,1.631,0,0,1,.193.044ZM41.842,0q-.059-.287-.091-.507a3.72,3.72,0,0,1-.038-.442,2.691,2.691,0,0,1-.841.765,2.15,2.15,0,0,1-1.116.308,2.072,2.072,0,0,1-1.509-.507,1.864,1.864,0,0,1-.519-1.4A1.637,1.637,0,0,1,38.464-3.2a3.434,3.434,0,0,1,2-.513h1.254v-.627a1.163,1.163,0,0,0-.34-.882,1.334,1.334,0,0,0-.961-.325,1.394,1.394,0,0,0-.908.281.844.844,0,0,0-.346.674l-1.1.012-.012-.035A1.517,1.517,0,0,1,38.7-5.883a2.683,2.683,0,0,1,1.778-.574,2.618,2.618,0,0,1,1.734.548,1.941,1.941,0,0,1,.656,1.579v3.053a5.942,5.942,0,0,0,.035.656A3.374,3.374,0,0,0,43.031,0ZM39.926-.844a2.054,2.054,0,0,0,1.131-.322,1.532,1.532,0,0,0,.656-.738V-2.936H40.418a1.68,1.68,0,0,0-1.116.352,1.051,1.051,0,0,0-.419.826.869.869,0,0,0,.264.668A1.1,1.1,0,0,0,39.926-.844Zm9.205-7.025V-6.34h1.2v.855h-1.2v3.85a.862.862,0,0,0,.185.627.667.667,0,0,0,.489.182,1.072,1.072,0,0,0,.223-.026,1.651,1.651,0,0,0,.205-.056l.158.791a1.02,1.02,0,0,1-.381.173,1.922,1.922,0,0,1-.5.067A1.5,1.5,0,0,1,48.393-.3a1.845,1.845,0,0,1-.416-1.333v-3.85H46.969V-6.34h1.008V-7.869ZM55.594-.937a2.147,2.147,0,0,1-.768.785,2.1,2.1,0,0,1-1.084.275,2.037,2.037,0,0,1-1.617-.662,3.074,3.074,0,0,1-.58-2.062V-6.34H52.7v3.75A2.36,2.36,0,0,0,53-1.2a1.111,1.111,0,0,0,.932.381,1.9,1.9,0,0,0,1.017-.249,1.558,1.558,0,0,0,.606-.706V-6.34h1.154V0H55.67ZM62.619,0H61.465V-6.34h1.154Zm0-7.963H61.465V-9.141h1.154ZM65.426-6.34l.082.832a2.153,2.153,0,0,1,.788-.7,2.368,2.368,0,0,1,1.11-.249,1.961,1.961,0,0,1,1.087.293,1.772,1.772,0,0,1,.683.879,2.372,2.372,0,0,1,.794-.858,2.077,2.077,0,0,1,1.146-.313,1.9,1.9,0,0,1,1.529.665,3.038,3.038,0,0,1,.563,2V0H72.053V-3.8A2.107,2.107,0,0,0,71.73-5.13a1.175,1.175,0,0,0-.961-.39,1.223,1.223,0,0,0-.958.41,1.786,1.786,0,0,0-.431,1.037V0h-1.16V-3.8a2.079,2.079,0,0,0-.331-1.3,1.149,1.149,0,0,0-.952-.413,1.586,1.586,0,0,0-.867.217,1.4,1.4,0,0,0-.521.609V0H64.395V-6.34ZM78.779,0q-.059-.287-.091-.507a3.72,3.72,0,0,1-.038-.442,2.691,2.691,0,0,1-.841.765,2.15,2.15,0,0,1-1.116.308,2.072,2.072,0,0,1-1.509-.507,1.864,1.864,0,0,1-.519-1.4A1.637,1.637,0,0,1,75.4-3.2a3.434,3.434,0,0,1,2-.513H78.65v-.627a1.163,1.163,0,0,0-.34-.882,1.334,1.334,0,0,0-.961-.325,1.394,1.394,0,0,0-.908.281.844.844,0,0,0-.346.674L75-4.582l-.012-.035a1.517,1.517,0,0,1,.647-1.266,2.683,2.683,0,0,1,1.778-.574,2.618,2.618,0,0,1,1.734.548A1.941,1.941,0,0,1,79.8-4.33v3.053a5.942,5.942,0,0,0,.035.656A3.374,3.374,0,0,0,79.969,0ZM76.863-.844a2.054,2.054,0,0,0,1.131-.322A1.532,1.532,0,0,0,78.65-1.9V-2.936H77.355a1.68,1.68,0,0,0-1.116.352,1.051,1.051,0,0,0-.419.826.869.869,0,0,0,.264.668A1.1,1.1,0,0,0,76.863-.844Zm4.412-2.209a4.231,4.231,0,0,1,.653-2.467,2.1,2.1,0,0,1,1.825-.937,2.225,2.225,0,0,1,1.061.243,2.134,2.134,0,0,1,.768.7l.141-.826h.92V.035a2.419,2.419,0,0,1-.709,1.872,2.913,2.913,0,0,1-2.045.653,4.287,4.287,0,0,1-.987-.126,3.86,3.86,0,0,1-.935-.343l.176-.9a3.338,3.338,0,0,0,.806.284,4.137,4.137,0,0,0,.929.108A1.681,1.681,0,0,0,85.1,1.2,1.59,1.59,0,0,0,85.488.035V-.686a2.044,2.044,0,0,1-.744.6,2.319,2.319,0,0,1-1,.205,2.168,2.168,0,0,1-1.813-.841,3.505,3.505,0,0,1-.653-2.212Zm1.154.123a2.694,2.694,0,0,0,.393,1.535,1.362,1.362,0,0,0,1.213.58,1.526,1.526,0,0,0,.873-.237,1.8,1.8,0,0,0,.58-.671V-4.641a1.791,1.791,0,0,0-.58-.642,1.522,1.522,0,0,0-.861-.237,1.314,1.314,0,0,0-1.222.686,3.539,3.539,0,0,0-.4,1.781Zm8.5,3.053A2.682,2.682,0,0,1,88.8-.75a3.36,3.36,0,0,1-.765-2.3V-3.3a3.289,3.289,0,0,1,.788-2.259,2.471,2.471,0,0,1,1.925-.894,2.3,2.3,0,0,1,1.907.791,3.259,3.259,0,0,1,.636,2.1v.609H89.232l-.018.029a2.62,2.62,0,0,0,.422,1.55,1.474,1.474,0,0,0,1.289.595,2.9,2.9,0,0,0,1.028-.167,2.3,2.3,0,0,0,.759-.46l.451.75a2.774,2.774,0,0,1-.9.554A3.571,3.571,0,0,1,90.926.123Zm-.182-5.672a1.255,1.255,0,0,0-1,.466,2.2,2.2,0,0,0-.483,1.192l.012.029h2.859v-.094a1.846,1.846,0,0,0-.34-1.143A1.228,1.228,0,0,0,90.744-5.549Zm4.869-.791L95.7-5.4a2.3,2.3,0,0,1,.794-.782,2.118,2.118,0,0,1,1.087-.278,2.069,2.069,0,0,1,1.588.6A2.637,2.637,0,0,1,99.727-4V0H98.572V-3.979a1.715,1.715,0,0,0-.331-1.189A1.326,1.326,0,0,0,97.23-5.52a1.789,1.789,0,0,0-.905.214,1.554,1.554,0,0,0-.589.6V0H94.582V-6.34ZM108.281,0q-.059-.287-.091-.507a3.72,3.72,0,0,1-.038-.442,2.691,2.691,0,0,1-.841.765A2.15,2.15,0,0,1,106.2.123a2.072,2.072,0,0,1-1.509-.507,1.864,1.864,0,0,1-.519-1.4A1.637,1.637,0,0,1,104.9-3.2a3.434,3.434,0,0,1,2-.513h1.254v-.627a1.163,1.163,0,0,0-.34-.882,1.334,1.334,0,0,0-.961-.325,1.394,1.394,0,0,0-.908.281.844.844,0,0,0-.346.674l-1.1.012-.012-.035a1.517,1.517,0,0,1,.647-1.266,2.683,2.683,0,0,1,1.778-.574,2.618,2.618,0,0,1,1.734.548,1.941,1.941,0,0,1,.656,1.579v3.053a5.942,5.942,0,0,0,.035.656,3.374,3.374,0,0,0,.129.621Zm-1.916-.844a2.054,2.054,0,0,0,1.131-.322,1.532,1.532,0,0,0,.656-.738V-2.936h-1.295a1.68,1.68,0,0,0-1.116.352,1.051,1.051,0,0,0-.419.826.869.869,0,0,0,.264.668A1.1,1.1,0,0,0,106.365-.844Zm4.354-2.209a4.231,4.231,0,0,1,.653-2.467,2.105,2.105,0,0,1,1.831-.937,2.238,2.238,0,0,1,1.014.22,2.1,2.1,0,0,1,.75.636l.164-.738h.885V2.438h-1.154V-.6a1.978,1.978,0,0,1-.721.539,2.351,2.351,0,0,1-.949.182,2.176,2.176,0,0,1-1.816-.841,3.494,3.494,0,0,1-.656-2.212Zm1.154.123a2.763,2.763,0,0,0,.4,1.556,1.359,1.359,0,0,0,1.216.595A1.5,1.5,0,0,0,114.3-.99a1.734,1.734,0,0,0,.565-.592v-3.2a1.747,1.747,0,0,0-.565-.562,1.509,1.509,0,0,0-.8-.205,1.316,1.316,0,0,0-1.225.7,3.6,3.6,0,0,0-.4,1.8Zm9.955,1.992a2.147,2.147,0,0,1-.768.785,2.1,2.1,0,0,1-1.084.275,2.037,2.037,0,0,1-1.617-.662,3.074,3.074,0,0,1-.58-2.062V-6.34h1.154v3.75a2.36,2.36,0,0,0,.3,1.395,1.111,1.111,0,0,0,.932.381,1.9,1.9,0,0,0,1.017-.249,1.558,1.558,0,0,0,.606-.706V-6.34h1.154V0H121.9ZM125.836,0h-1.154V-6.34h1.154Zm-.018-8.906h1.348l.012.035L125.6-7.348h-.867Z" transform="translate(627.171 1633.989)" fill="#b6b6b6"/>
    <g id="Trazado_1496" data-name="Trazado 1496" transform="translate(672.838 1680.616)" fill="none">
      <path d="M8,0H109.162a8,8,0,0,1,8,8V18.384a8,8,0,0,1-8,8H8a8,8,0,0,1-8-8V8A8,8,0,0,1,8,0Z" stroke="none"/>
      <path d="M 7.999992370605469 1.000001907348633 C 4.140174865722656 1.000001907348633 0.9999923706054688 4.140186309814453 0.9999923706054688 8.000001907348633 L 0.9999923706054688 18.38430976867676 C 0.9999923706054688 22.24412536621094 4.140174865722656 25.38430976867676 7.999992370605469 25.38430976867676 L 109.1620712280273 25.38430976867676 C 113.0218887329102 25.38430976867676 116.1620712280273 22.24412536621094 116.1620712280273 18.38430976867676 L 116.1620712280273 8.000001907348633 C 116.1620712280273 4.140186309814453 113.0218887329102 1.000001907348633 109.1620712280273 1.000001907348633 L 7.999992370605469 1.000001907348633 M 7.999992370605469 1.9073486328125e-06 L 109.1620712280273 1.9073486328125e-06 C 113.5803604125977 1.9073486328125e-06 117.1620712280273 3.581724166870117 117.1620712280273 8.000001907348633 L 117.1620712280273 18.38430976867676 C 117.1620712280273 22.80258560180664 113.5803604125977 26.38430976867676 109.1620712280273 26.38430976867676 L 7.999992370605469 26.38430976867676 C 3.581718444824219 26.38430976867676 -7.62939453125e-06 22.80258560180664 -7.62939453125e-06 18.38430976867676 L -7.62939453125e-06 8.000001907348633 C -7.62939453125e-06 3.581724166870117 3.581718444824219 1.9073486328125e-06 7.999992370605469 1.9073486328125e-06 Z" stroke="none" fill="#b7006d"/>
    </g>
    <path id="Trazado_1497" data-name="Trazado 1497" d="M5.338-1.992H2.314L1.658,0H.188L3.164-8.531H4.518L7.459,0H5.988ZM2.707-3.182H4.951l-1.1-3.363H3.82Zm5.4.1a4.181,4.181,0,0,1,.65-2.446,2.1,2.1,0,0,1,1.828-.929,2,2,0,0,1,.923.208,2.088,2.088,0,0,1,.706.595V-9.141h1.424V0H12.48l-.17-.8a2.115,2.115,0,0,1-.738.688,2.054,2.054,0,0,1-1,.237,2.157,2.157,0,0,1-1.816-.85A3.575,3.575,0,0,1,8.1-2.959Zm1.424.123a2.553,2.553,0,0,0,.337,1.4,1.18,1.18,0,0,0,1.069.521A1.43,1.43,0,0,0,11.7-1.23a1.472,1.472,0,0,0,.513-.551V-4.547a1.5,1.5,0,0,0-.516-.548,1.394,1.394,0,0,0-.75-.2,1.148,1.148,0,0,0-1.072.612,3.231,3.231,0,0,0-.346,1.6ZM16.746-6.34V.369a2.255,2.255,0,0,1-.545,1.62,2,2,0,0,1-1.518.571,2.805,2.805,0,0,1-.381-.023,2.673,2.673,0,0,1-.357-.076l.082-1.137a1.748,1.748,0,0,0,.246.05,1.955,1.955,0,0,0,.27.021.7.7,0,0,0,.571-.249,1.2,1.2,0,0,0,.208-.776V-6.34Zm-.035-1.57H15.287v-1.23h1.424ZM22.266-.937a2.127,2.127,0,0,1-.753.785,2.03,2.03,0,0,1-1.063.275,1.986,1.986,0,0,1-1.594-.671,3.155,3.155,0,0,1-.574-2.083V-6.34H19.7v3.721a2.119,2.119,0,0,0,.264,1.245.977.977,0,0,0,.82.337,1.831,1.831,0,0,0,.864-.185,1.34,1.34,0,0,0,.548-.536V-6.34h1.424V0H22.395ZM26.4-6.34l.082.914a2.268,2.268,0,0,1,.782-.759,2.087,2.087,0,0,1,1.063-.272,1.98,1.98,0,0,1,1.544.609,2.769,2.769,0,0,1,.554,1.9V0H29V-3.932a1.531,1.531,0,0,0-.287-1.049,1.125,1.125,0,0,0-.867-.311,1.7,1.7,0,0,0-.791.173,1.385,1.385,0,0,0-.533.478V0H25.1V-6.34Zm7.33-1.541V-6.34h1.137v1.055H33.727v3.5a.764.764,0,0,0,.17.56.616.616,0,0,0,.451.167,1.259,1.259,0,0,0,.229-.021,1.389,1.389,0,0,0,.211-.056l.152,1.043a1.636,1.636,0,0,1-.431.155,2.371,2.371,0,0,1-.519.056,1.643,1.643,0,0,1-1.233-.46,2.006,2.006,0,0,1-.448-1.444v-3.5h-.967V-6.34h.967V-7.881ZM39.832,0q-.076-.24-.126-.469a3.351,3.351,0,0,1-.067-.457,2.442,2.442,0,0,1-.768.747,1.975,1.975,0,0,1-1.072.3,2.108,2.108,0,0,1-1.521-.51,1.851,1.851,0,0,1-.53-1.4,1.654,1.654,0,0,1,.727-1.433,3.508,3.508,0,0,1,2.045-.513h1.107v-.557a1.035,1.035,0,0,0-.29-.779A1.16,1.16,0,0,0,38.5-5.35a1.2,1.2,0,0,0-.773.231.736.736,0,0,0-.287.6l-1.371.006-.006-.035a1.57,1.57,0,0,1,.671-1.33,2.843,2.843,0,0,1,1.854-.58,2.712,2.712,0,0,1,1.787.563,1.98,1.98,0,0,1,.68,1.617v2.818a5.2,5.2,0,0,0,.053.753,4,4,0,0,0,.17.706Zm-1.74-1.02a1.78,1.78,0,0,0,.964-.27,1.357,1.357,0,0,0,.571-.615v-.937H38.5a1.428,1.428,0,0,0-.973.308.935.935,0,0,0-.352.724.738.738,0,0,0,.237.577A.986.986,0,0,0,38.092-1.02ZM45.7-5.057l-.609-.023a1.277,1.277,0,0,0-.694.176,1.158,1.158,0,0,0-.431.5V0H42.539V-6.34h1.3l.094.92a2.033,2.033,0,0,1,.618-.762,1.439,1.439,0,0,1,.87-.275,1.327,1.327,0,0,1,.24.021,1.754,1.754,0,0,1,.205.05ZM51.258,0H49.834V-6.34h1.424Zm0-7.893H49.834V-9.141h1.424ZM54.152-6.34l.076.826a2.149,2.149,0,0,1,.779-.7,2.3,2.3,0,0,1,1.084-.246,1.956,1.956,0,0,1,1.066.281,1.7,1.7,0,0,1,.668.844,2.221,2.221,0,0,1,.773-.826,2.086,2.086,0,0,1,1.125-.3,1.859,1.859,0,0,1,1.509.665,3.094,3.094,0,0,1,.554,2.013V0H60.363V-3.785a1.868,1.868,0,0,0-.278-1.169,1.02,1.02,0,0,0-.835-.337,1.222,1.222,0,0,0-.773.246,1.371,1.371,0,0,0-.457.662q0,.088.006.152t.006.123V0H56.607V-3.785a1.847,1.847,0,0,0-.284-1.154,1.01,1.01,0,0,0-.835-.352,1.5,1.5,0,0,0-.735.167,1.231,1.231,0,0,0-.478.472V0H52.852V-6.34ZM67.107,0q-.076-.24-.126-.469a3.351,3.351,0,0,1-.067-.457,2.442,2.442,0,0,1-.768.747,1.975,1.975,0,0,1-1.072.3,2.108,2.108,0,0,1-1.521-.51,1.851,1.851,0,0,1-.53-1.4A1.654,1.654,0,0,1,63.75-3.22a3.508,3.508,0,0,1,2.045-.513H66.9v-.557a1.035,1.035,0,0,0-.29-.779,1.16,1.16,0,0,0-.841-.281A1.2,1.2,0,0,0,65-5.118a.736.736,0,0,0-.287.6l-1.371.006-.006-.035A1.57,1.57,0,0,1,64-5.877a2.843,2.843,0,0,1,1.854-.58,2.712,2.712,0,0,1,1.787.563,1.98,1.98,0,0,1,.68,1.617v2.818a5.2,5.2,0,0,0,.053.753,4,4,0,0,0,.17.706Zm-1.74-1.02a1.78,1.78,0,0,0,.964-.27A1.357,1.357,0,0,0,66.9-1.9v-.937H65.771a1.428,1.428,0,0,0-.973.308.935.935,0,0,0-.352.724.738.738,0,0,0,.237.577A.986.986,0,0,0,65.367-1.02Zm4.225-2.062a4.181,4.181,0,0,1,.65-2.446,2.1,2.1,0,0,1,1.828-.929,2,2,0,0,1,1,.243,2.111,2.111,0,0,1,.729.7l.141-.826h1.184V0a2.393,2.393,0,0,1-.756,1.893,3.134,3.134,0,0,1-2.145.668,4.2,4.2,0,0,1-1-.132,4.641,4.641,0,0,1-.97-.349L70.482.961a3.608,3.608,0,0,0,.812.284,4.1,4.1,0,0,0,.917.1,1.627,1.627,0,0,0,1.131-.331A1.322,1.322,0,0,0,73.7,0V-.65a1.992,1.992,0,0,1-.706.577,2.127,2.127,0,0,1-.935.2,2.157,2.157,0,0,1-1.816-.85,3.575,3.575,0,0,1-.65-2.232Zm1.418.123a2.536,2.536,0,0,0,.34,1.4,1.187,1.187,0,0,0,1.072.521,1.459,1.459,0,0,0,.771-.19,1.406,1.406,0,0,0,.507-.548V-4.553a1.521,1.521,0,0,0-.513-.542,1.39,1.39,0,0,0-.753-.2,1.153,1.153,0,0,0-1.078.612,3.231,3.231,0,0,0-.346,1.6ZM79.3.123A2.76,2.76,0,0,1,77.13-.753a3.281,3.281,0,0,1-.782-2.271v-.234a3.392,3.392,0,0,1,.782-2.3,2.528,2.528,0,0,1,2.019-.9,2.372,2.372,0,0,1,1.934.788,3.187,3.187,0,0,1,.656,2.106v.768h-3.92l-.012.029a2.077,2.077,0,0,0,.41,1.266,1.4,1.4,0,0,0,1.166.486,3.208,3.208,0,0,0,1-.141,2.869,2.869,0,0,0,.788-.4l.463.932a3.017,3.017,0,0,1-.961.533A4.027,4.027,0,0,1,79.3.123Zm-.152-5.437a1.1,1.1,0,0,0-.891.4,1.989,1.989,0,0,0-.416,1.046l.012.029h2.479v-.111a1.6,1.6,0,0,0-.284-.987A1.052,1.052,0,0,0,79.148-5.314ZM84.182-6.34l.082.914a2.268,2.268,0,0,1,.782-.759,2.087,2.087,0,0,1,1.063-.272,1.98,1.98,0,0,1,1.544.609,2.769,2.769,0,0,1,.554,1.9V0H86.783V-3.932A1.531,1.531,0,0,0,86.5-4.98a1.125,1.125,0,0,0-.867-.311,1.7,1.7,0,0,0-.791.173,1.385,1.385,0,0,0-.533.478V0H82.881V-6.34Z" transform="translate(687.191 1698.007)" fill="#b7006d"/>
    <path id="Trazado_1138" data-name="Trazado 1138" d="M2966.126,549.782a8.5,8.5,0,1,0,8.5,8.5A8.514,8.514,0,0,0,2966.126,549.782Z" transform="translate(-2277.088 1043.869)" fill="#b6b6b6"/>
    <path id="Trazado_1139" data-name="Trazado 1139" d="M2954.744,528.58h-4.156a3.6,3.6,0,0,1-2.695-1.044,3.538,3.538,0,0,1-.974-2.375,2.052,2.052,0,0,0-2.022-2.072h-13.927a2.052,2.052,0,0,0-2.025,2.075,3.421,3.421,0,0,1-3.626,3.417h-4.229a2.051,2.051,0,0,0-2.019,2.075v19.759a2.05,2.05,0,0,0,2.019,2.075h33.653a2.05,2.05,0,0,0,2.02-2.075V530.655A2.052,2.052,0,0,0,2954.744,528.58Zm-17.025,21.235a10.813,10.813,0,1,1,10.52-10.809A10.679,10.679,0,0,1,2937.719,549.816Zm15.087-16.415a1.065,1.065,0,1,1,1.036-1.064A1.051,1.051,0,0,1,2952.806,533.4Z" transform="translate(-2248.932 1063.366)" fill="#b6b6b6"/>
  </g>
</svg>
