<svg xmlns="http://www.w3.org/2000/svg" xmlns:xlink="http://www.w3.org/1999/xlink" width="324" height="187" viewBox="0 0 324 187">
  <defs>
    <filter id="Elipse_377" x="143" y="76" width="36" height="36" filterUnits="userSpaceOnUse">
      <feOffset input="SourceAlpha"/>
      <feGaussianBlur stdDeviation="3" result="blur"/>
      <feFlood flood-opacity="0.231"/>
      <feComposite operator="in" in2="blur"/>
      <feComposite in="SourceGraphic"/>
    </filter>
  </defs>
  <g id="Grupo_7011" data-name="Grupo 7011" transform="translate(-636 -7446)">
    <g id="Grupo_6986" data-name="Grupo 6986">
      <rect id="Rectángulo_6051" data-name="Rectángulo 6051" width="324" height="187" transform="translate(636 7446)" fill="#f2f2f2"/>
      <rect id="Rectángulo_6210" data-name="Rectángulo 6210" width="285" height="187" transform="translate(655 7446)" fill="#fff"/>
      <g id="Rectángulo_6211" data-name="Rectángulo 6211" transform="translate(636 7446)" fill="none" stroke="#dedede" stroke-width="1">
        <rect width="324" height="187" stroke="none"/>
        <rect x="0.5" y="0.5" width="323" height="186" fill="none"/>
      </g>
      <line id="Línea_1746" data-name="Línea 1746" x2="255" transform="translate(665.5 7539.5)" fill="none" stroke="#7d168a" stroke-width="1"/>
      <g transform="matrix(1, 0, 0, 1, 636, 7446)" filter="url(#Elipse_377)">
        <circle id="Elipse_377-2" data-name="Elipse 377" cx="9" cy="9" r="9" transform="translate(152 85)" fill="#7d168a"/>
      </g>
      <text id="_" data-name="+" transform="translate(791 7544)" fill="#fff" font-size="16" font-family="LucidaGrande, Lucida Grande"><tspan x="0" y="0">+</tspan></text>
    </g>
  </g>
</svg>
