<svg xmlns="http://www.w3.org/2000/svg" xmlns:xlink="http://www.w3.org/1999/xlink" width="457" height="264" viewBox="0 0 457 264">
  <defs>
    <filter id="Rectángulo_6126" x="41.75" y="26.5" width="187" height="211" filterUnits="userSpaceOnUse">
      <feOffset input="SourceAlpha"/>
      <feGaussianBlur stdDeviation="3" result="blur"/>
      <feFlood flood-opacity="0.059"/>
      <feComposite operator="in" in2="blur"/>
      <feComposite in="SourceGraphic"/>
    </filter>
    <filter id="Rectángulo_6129" x="228.75" y="26.5" width="187" height="211" filterUnits="userSpaceOnUse">
      <feOffset input="SourceAlpha"/>
      <feGaussianBlur stdDeviation="3" result="blur-2"/>
      <feFlood flood-opacity="0.059"/>
      <feComposite operator="in" in2="blur-2"/>
      <feComposite in="SourceGraphic"/>
    </filter>
  </defs>
  <g id="Grupo_7010" data-name="Grupo 7010" transform="translate(-754 -5632)">
    <rect id="Rectángulo_6050" data-name="Rectángulo 6050" width="457" height="263" transform="translate(754 5632)" fill="#f2f2f2"/>
    <rect id="Rectángulo_6124" data-name="Rectángulo 6124" width="411" height="264" transform="translate(777 5632)" fill="#fff"/>
    <g transform="matrix(1, 0, 0, 1, 754, 5632)" filter="url(#Rectángulo_6126)">
      <g id="Rectángulo_6126-2" data-name="Rectángulo 6126" transform="translate(50.75 35.5)" fill="#fff" stroke="#ededed" stroke-width="1">
        <rect width="169" height="193" stroke="none"/>
        <rect x="0.5" y="0.5" width="168" height="192" fill="none"/>
      </g>
    </g>
    <g transform="matrix(1, 0, 0, 1, 754, 5632)" filter="url(#Rectángulo_6129)">
      <g id="Rectángulo_6129-2" data-name="Rectángulo 6129" transform="translate(237.75 35.5)" fill="#fff" stroke="#ededed" stroke-width="1">
        <rect width="169" height="193" stroke="none"/>
        <rect x="0.5" y="0.5" width="168" height="192" fill="none"/>
      </g>
    </g>
    <circle id="Elipse_369" data-name="Elipse 369" cx="12.5" cy="12.5" r="12.5" transform="translate(814.75 5679.8)" fill="#e593be"/>
    <circle id="Elipse_370" data-name="Elipse 370" cx="12.5" cy="12.5" r="12.5" transform="translate(1001.75 5679.8)" fill="#7a4493"/>
    <path id="user-solid" d="M6.25,7.143A3.571,3.571,0,1,0,2.679,3.571,3.571,3.571,0,0,0,6.25,7.143Zm2.5.893H8.284a4.857,4.857,0,0,1-4.068,0H3.75A3.751,3.751,0,0,0,0,11.786v1.161a1.34,1.34,0,0,0,1.339,1.339h9.821A1.34,1.34,0,0,0,12.5,12.946V11.786A3.751,3.751,0,0,0,8.75,8.036Z" transform="translate(821 5684.646)" fill="#fff"/>
    <path id="user-solid-2" data-name="user-solid" d="M6.25,7.143A3.571,3.571,0,1,0,2.679,3.571,3.571,3.571,0,0,0,6.25,7.143Zm2.5.893H8.284a4.857,4.857,0,0,1-4.068,0H3.75A3.751,3.751,0,0,0,0,11.786v1.161a1.34,1.34,0,0,0,1.339,1.339h9.821A1.34,1.34,0,0,0,12.5,12.946V11.786A3.751,3.751,0,0,0,8.75,8.036Z" transform="translate(1008 5684.646)" fill="#fff"/>
    <line id="Línea_1644" data-name="Línea 1644" x2="67.585" transform="translate(848.625 5684.857)" fill="none" stroke="#919191" stroke-width="4"/>
    <line id="Línea_1652" data-name="Línea 1652" x2="67.585" transform="translate(1035.625 5684.857)" fill="none" stroke="#919191" stroke-width="4"/>
    <line id="Línea_1643" data-name="Línea 1643" x2="86.75" transform="translate(848.625 5697.111)" fill="none" stroke="#d1d1d1" stroke-width="5"/>
    <line id="Línea_1653" data-name="Línea 1653" x2="86.75" transform="translate(1035.625 5697.111)" fill="none" stroke="#d1d1d1" stroke-width="5"/>
    <line id="Línea_1645" data-name="Línea 1645" x2="142.75" transform="translate(814.75 5730.982)" fill="none" stroke="#d1d1d1" stroke-width="5"/>
    <line id="Línea_1649" data-name="Línea 1649" x2="142.75" transform="translate(1001.75 5730.982)" fill="none" stroke="#d1d1d1" stroke-width="5"/>
    <line id="Línea_1646" data-name="Línea 1646" x2="104.75" transform="translate(814.75 5743.436)" fill="none" stroke="#d1d1d1" stroke-width="5"/>
    <line id="Línea_1650" data-name="Línea 1650" x2="104.75" transform="translate(1001.75 5743.436)" fill="none" stroke="#d1d1d1" stroke-width="5"/>
    <line id="Línea_1647" data-name="Línea 1647" x2="120.75" transform="translate(814.75 5755.888)" fill="none" stroke="#d1d1d1" stroke-width="5"/>
    <line id="Línea_1651" data-name="Línea 1651" x2="120.75" transform="translate(1001.75 5755.888)" fill="none" stroke="#d1d1d1" stroke-width="5"/>
    <line id="Línea_1648" data-name="Línea 1648" x2="94.75" transform="translate(814.75 5768.341)" fill="none" stroke="#d1d1d1" stroke-width="5"/>
    <line id="Línea_1654" data-name="Línea 1654" x2="94.75" transform="translate(1001.75 5768.341)" fill="none" stroke="#d1d1d1" stroke-width="5"/>
    <g id="Rectángulo_6128" data-name="Rectángulo 6128" transform="translate(754 5632)" fill="none" stroke="#dedede" stroke-width="1">
      <rect width="457" height="263" stroke="none"/>
      <rect x="0.5" y="0.5" width="456" height="262" fill="none"/>
    </g>
    <text id="_" data-name="" transform="translate(819 5834.168)" fill="#707070" font-size="16" font-family="FabricExternalMDL2Assets, Fabric External MDL2 Assets"><tspan x="0" y="16"></tspan></text>
    <text id="_2" data-name="" transform="translate(1006 5834.168)" fill="#707070" font-size="16" font-family="FabricExternalMDL2Assets, Fabric External MDL2 Assets"><tspan x="0" y="16"></tspan></text>
    <text id="_3" data-name="" transform="translate(858 5832.176)" fill="#707070" font-size="16" font-family="FabricExternalMDL2Assets, Fabric External MDL2 Assets"><tspan x="0" y="16"></tspan></text>
    <text id="_4" data-name="" transform="translate(1045 5832.176)" fill="#707070" font-size="16" font-family="FabricExternalMDL2Assets, Fabric External MDL2 Assets"><tspan x="0" y="16"></tspan></text>
  </g>
</svg>
