<svg xmlns="http://www.w3.org/2000/svg" xmlns:xlink="http://www.w3.org/1999/xlink" width="717" height="215" viewBox="0 0 717 215">
  <defs>
    <filter id="Rectángulo_4575" x="10" y="14" width="698" height="192" filterUnits="userSpaceOnUse">
      <feOffset input="SourceAlpha"/>
      <feGaussianBlur stdDeviation="3" result="blur"/>
      <feFlood flood-opacity="0.102"/>
      <feComposite operator="in" in2="blur"/>
      <feComposite in="SourceGraphic"/>
    </filter>
  </defs>
  <g id="Grupo_2896" data-name="Grupo 2896" transform="translate(-408 -5168)">
    <rect id="Rectángulo_4574" data-name="Rectángulo 4574" width="717" height="215" transform="translate(408 5168)" fill="#f2f2f2"/>
    <g transform="matrix(1, 0, 0, 1, 408, 5168)" filter="url(#Rectángulo_4575)">
      <rect id="Rectángulo_4575-2" data-name="Rectángulo 4575" width="680" height="174" transform="translate(19 23)" fill="#fff"/>
    </g>
    <text id="_dependencies_dependency_groupId_mx.ine.institucional.aplicaciones.ssioc_groupId_artifactId_ssioc-modelo_artifactId_dependency_dependencies_" data-name="&lt;dependencies&gt; 
	&lt;dependency&gt;
		&lt;groupId&gt;mx.ine.institucional.aplicaciones.ssioc&lt;/groupId&gt;
		&lt;artifactId&gt;ssioc-modelo&lt;/artifactId&gt;
	&lt;/dependency&gt;
&lt;/dependencies&gt;
" transform="translate(451.025 5216.008)" fill="#3f99a0" font-size="16" font-family="Monaco"><tspan x="0" y="16">&lt;dependencies&gt;</tspan><tspan y="16" fill="#6f378a"> </tspan><tspan x="0" y="36" fill="#000">	</tspan><tspan y="36" fill="#3f99a0">&lt;dependency&gt;</tspan><tspan x="0" y="56" xml:space="preserve" fill="#3f99a0">		&lt;groupId&gt;</tspan><tspan y="56" fill="#000">mx.ine.institucional.aplicaciones.ssioc</tspan><tspan y="56" fill="#3f99a0">&lt;/groupId&gt;</tspan><tspan x="0" y="76" xml:space="preserve" fill="#3f99a0">		&lt;artifactId&gt;</tspan><tspan y="76" fill="#000">ssioc-modelo</tspan><tspan y="76" fill="#3f99a0">&lt;/artifactId&gt;</tspan><tspan x="0" y="96" xml:space="preserve">	&lt;/dependency&gt;</tspan><tspan x="0" y="116">&lt;/dependencies&gt;</tspan></text>
  </g>
</svg>
