<svg xmlns="http://www.w3.org/2000/svg" xmlns:xlink="http://www.w3.org/1999/xlink" width="698" height="483" viewBox="0 0 698 483">
  <defs>
    <filter id="Rectángulo_3423" x="0" y="0" width="698" height="483" filterUnits="userSpaceOnUse">
      <feOffset input="SourceAlpha"/>
      <feGaussianBlur stdDeviation="3" result="blur"/>
      <feFlood flood-opacity="0.102"/>
      <feComposite operator="in" in2="blur"/>
      <feComposite in="SourceGraphic"/>
    </filter>
  </defs>
  <g id="Grupo_2893" data-name="Grupo 2893" transform="translate(-418 -1992)">
    <g transform="matrix(1, 0, 0, 1, 418, 1992)" filter="url(#Rectángulo_3423)">
      <rect id="Rectángulo_3423-2" data-name="Rectángulo 3423" width="680" height="465" transform="translate(9 9)" fill="#fff"/>
    </g>
    <text id="_nombre-_del-proyecto_modelo" data-name="&lt;nombre- del-proyecto&gt; modelo" transform="translate(447 2026)" font-size="13" font-family="Roboto-Medium, Roboto" font-weight="500"><tspan x="0" y="14">&lt;nombre- del-proyecto&gt; modelo</tspan></text>
    <text id="pom.xml" transform="translate(503.407 2056.984)" font-size="13" font-family="Roboto-Medium, Roboto" font-weight="500"><tspan x="0" y="14">pom.xml</tspan></text>
    <text id="src" transform="translate(503.407 2083.996)" font-size="13" font-family="Roboto-Medium, Roboto" font-weight="500"><tspan x="0" y="14">src</tspan></text>
    <text id="main" transform="translate(526.446 2113.391)" font-size="13" font-family="Roboto-Medium, Roboto" font-weight="500"><tspan x="0" y="14">main</tspan></text>
    <text id="java" transform="translate(548.691 2143.58)" font-size="13" font-family="Roboto-Medium, Roboto" font-weight="500"><tspan x="0" y="14">java</tspan></text>
    <text id="mx.ine.institucionales.aplicaciones._nombre_del_proyecto_modelo.entidades" data-name="mx.ine.institucionales.aplicaciones. &lt;nombre_del_proyecto&gt;modelo.entidades" transform="translate(585.236 2168.209)" font-size="13" font-family="Roboto-Medium, Roboto" font-weight="500"><tspan x="0" y="14">mx.ine.institucionales.aplicaciones. &lt;nombre_del_proyecto&gt;modelo.entidades</tspan></text>
    <text id="mx.ine.institucionales.aplicaciones._nombre_del_proyecto_modelo.enumeraciones" data-name="mx.ine.institucionales.aplicaciones. &lt;nombre_del_proyecto&gt;modelo.enumeraciones" transform="translate(585.236 2188.865)" font-size="13" font-family="Roboto-Medium, Roboto" font-weight="500"><tspan x="0" y="14">mx.ine.institucionales.aplicaciones. &lt;nombre_del_proyecto&gt;modelo.enumeraciones</tspan></text>
    <text id="mx.ine.institucionales.aplicaciones._nombre_del_proyecto_modelo.excepciones" data-name="mx.ine.institucionales.aplicaciones. &lt;nombre_del_proyecto&gt;modelo.excepciones" transform="translate(585.236 2209.521)" font-size="13" font-family="Roboto-Medium, Roboto" font-weight="500"><tspan x="0" y="14">mx.ine.institucionales.aplicaciones. &lt;nombre_del_proyecto&gt;modelo.excepciones</tspan></text>
    <text id="resources" transform="translate(548.691 2282.611)" font-size="13" font-family="Roboto-Medium, Roboto" font-weight="500"><tspan x="0" y="14">resources</tspan></text>
    <text id="test" transform="translate(529.624 2359.674)" font-size="13" font-family="Roboto-Medium, Roboto" font-weight="500"><tspan x="0" y="14">test</tspan></text>
    <text id="java-2" data-name="java" transform="translate(564.513 2397.014)" font-size="13" font-family="Roboto-Medium, Roboto" font-weight="500"><tspan x="0" y="14">java</tspan></text>
    <text id="webapp" transform="translate(564.513 2424.025)" font-size="13" font-family="Roboto-Medium, Roboto" font-weight="500"><tspan x="0" y="14">webapp</tspan></text>
    <path id="Trazado_1997" data-name="Trazado 1997" d="M176.483,94.407v46.4H204.1" transform="translate(293.082 1954.18)" fill="none" stroke="#d3097f" stroke-miterlimit="10" stroke-width="0.794"/>
    <path id="Trazado_1998" data-name="Trazado 1998" d="M218.589,144.458V167.42h10.933" transform="translate(293.082 1954.18)" fill="none" stroke="#d3097f" stroke-miterlimit="10" stroke-width="0.794"/>
    <path id="Trazado_1999" data-name="Trazado 1999" d="M241.629,174.648V197.61h10.933" transform="translate(293.082 1954.18)" fill="none" stroke="#d3097f" stroke-miterlimit="10" stroke-width="0.794"/>
    <path id="Trazado_2000" data-name="Trazado 2000" d="M241.629,197.687V339.024h10.933" transform="translate(293.082 1954.18)" fill="none" stroke="#d3097f" stroke-miterlimit="10" stroke-width="0.794"/>
    <path id="Trazado_2001" data-name="Trazado 2001" d="M258.917,206.349v56.407h24.628" transform="translate(293.082 1954.18)" fill="none" stroke="#d3097f" stroke-miterlimit="10" stroke-width="0.794"/>
    <path id="Trazado_2002" data-name="Trazado 2002" d="M243.028,424.031v56.407h24.628" transform="translate(293.082 1954.18)" fill="none" stroke="#d3097f" stroke-miterlimit="10" stroke-width="0.794"/>
    <line id="Línea_906" data-name="Línea 906" y1="0.079" x2="24.63" transform="translate(551.934 2176.377)" fill="none" stroke="#d3097f" stroke-miterlimit="10" stroke-width="0.794"/>
    <line id="Línea_907" data-name="Línea 907" y1="0.079" x2="24.63" transform="translate(536.044 2406.771)" fill="none" stroke="#d3097f" stroke-miterlimit="10" stroke-width="0.794"/>
    <line id="Línea_908" data-name="Línea 908" y1="0.079" x2="24.63" transform="translate(552.002 2197.828)" fill="none" stroke="#d3097f" stroke-miterlimit="10" stroke-width="0.794"/>
    <path id="Trazado_2003" data-name="Trazado 2003" d="M218.589,162.653V414.5h14.905" transform="translate(293.082 1954.18)" fill="none" stroke="#d3097f" stroke-miterlimit="10" stroke-width="0.794"/>
    <path id="Trazado_2004" data-name="Trazado 2004" d="M204.1,113H176.483V95.124" transform="translate(293.082 1954.18)" fill="none" stroke="#d3097f" stroke-miterlimit="10" stroke-width="0.794"/>
  </g>
</svg>
