<svg xmlns="http://www.w3.org/2000/svg" width="347.186" height="266" viewBox="0 0 347.186 266">
  <g id="Grupo_163" data-name="Grupo 163" transform="translate(-479.814 -359)">
    <g id="Grupo_159" data-name="Grupo 159">
      <g id="Rectángulo_400" data-name="Rectángulo 400" transform="translate(480 359)" fill="none" stroke="#707070" stroke-width="1">
        <rect width="347" height="266" stroke="none"/>
        <rect x="0.5" y="0.5" width="346" height="265" fill="none"/>
      </g>
      <line id="Línea_121" data-name="Línea 121" x2="313" transform="translate(497.5 498.5)" fill="none" stroke="#c6c6c6" stroke-width="1"/>
      <g id="insert_photo-24px" transform="translate(479.814 361.452)">
        <path id="Trazado_94" data-name="Trazado 94" d="M0,0H122.9V125.548H0Z" transform="translate(0 0)" fill="none"/>
        <path id="Trazado_95" data-name="Trazado 95" d="M93.086,85.428V13.3A10.19,10.19,0,0,0,83.076,3H13.01A10.19,10.19,0,0,0,3,13.3V85.428a10.19,10.19,0,0,0,10.01,10.3H83.076A10.19,10.19,0,0,0,93.086,85.428ZM30.526,57.093,43.038,72.6,60.555,49.366,83.076,80.276H13.01Z" transform="translate(13.408 13.408)" fill="#d1d1d1"/>
      </g>
      <rect id="Rectángulo_424" data-name="Rectángulo 424" width="158" height="6" transform="translate(647 432)" fill="#e5e5e5"/>
      <rect id="Rectángulo_425" data-name="Rectángulo 425" width="158" height="17" transform="translate(647 391)" fill="#e5e5e5"/>
      <rect id="Rectángulo_428" data-name="Rectángulo 428" width="115" height="6" transform="translate(647 445)" fill="#e5e5e5"/>
      <g id="Grupo_154" data-name="Grupo 154" transform="translate(232.179 -101.737)">
        <rect id="Rectángulo_423" data-name="Rectángulo 423" width="94.813" height="32" rx="16" transform="translate(265.822 614.737)" fill="#f9dbed"/>
        <g id="Button">
          <g id="Grupo_152" data-name="Grupo 152">
            <text id="Elección_1" data-name="Elección 1" transform="translate(277.802 634.825)" fill="#333" font-size="14" font-family="Roboto-Regular, Roboto" letter-spacing="0.033em" style="isolation: isolate"><tspan x="0" y="0">Elección 1</tspan></text>
          </g>
        </g>
      </g>
      <g id="Grupo_155" data-name="Grupo 155" transform="translate(333.179 -101.737)">
        <rect id="Rectángulo_423-2" data-name="Rectángulo 423" width="94.813" height="32" rx="16" transform="translate(265.822 614.737)" fill="#f9dbed"/>
        <g id="Button-2" data-name="Button">
          <g id="Grupo_152-2" data-name="Grupo 152">
            <text id="Elección_2" data-name="Elección 2" transform="translate(277.802 634.825)" fill="#333" font-size="14" font-family="Roboto-Regular, Roboto" letter-spacing="0.033em" style="isolation: isolate"><tspan x="0" y="0">Elección 2</tspan></text>
          </g>
        </g>
      </g>
      <g id="Grupo_156" data-name="Grupo 156" transform="translate(434.179 -101.737)">
        <rect id="Rectángulo_423-3" data-name="Rectángulo 423" width="94.813" height="32" rx="16" transform="translate(265.822 614.737)" fill="#f9dbed"/>
        <g id="Button-3" data-name="Button">
          <g id="Grupo_152-3" data-name="Grupo 152">
            <text id="Elección_3" data-name="Elección 3" transform="translate(277.802 634.825)" fill="#333" font-size="14" font-family="Roboto-Regular, Roboto" letter-spacing="0.033em" style="isolation: isolate"><tspan x="0" y="0">Elección 3</tspan></text>
          </g>
        </g>
      </g>
      <rect id="Rectángulo_429" data-name="Rectángulo 429" width="99" height="33" rx="5" transform="translate(607 581)" fill="#b60f6f"/>
    </g>
  </g>
</svg>
