<svg xmlns="http://www.w3.org/2000/svg" xmlns:xlink="http://www.w3.org/1999/xlink" width="698" height="108" viewBox="0 0 698 108">
  <defs>
    <filter id="Rectángulo_3506" x="0" y="0" width="698" height="108" filterUnits="userSpaceOnUse">
      <feOffset input="SourceAlpha"/>
      <feGaussianBlur stdDeviation="3" result="blur"/>
      <feFlood flood-opacity="0.102"/>
      <feComposite operator="in" in2="blur"/>
      <feComposite in="SourceGraphic"/>
    </filter>
  </defs>
  <g id="Grupo_2916" data-name="Grupo 2916" transform="translate(-427 -9824)">
    <g transform="matrix(1, 0, 0, 1, 427, 9824)" filter="url(#Rectángulo_3506)">
      <rect id="Rectángulo_3506-2" data-name="Rectángulo 3506" width="680" height="90" transform="translate(9 9)" fill="#fff"/>
    </g>
    <text id="_public_void_generaUsuario_DatoUsuarioPeriodo_usarioPeriodo_" data-name="	public void generaUsuario (DatoUsuarioPeriodo usarioPeriodo) {…}" transform="translate(441.012 9865.033)" fill="#d20e7f" font-size="13.986" font-family="Monaco"><tspan x="0" y="14" xml:space="preserve">	public void</tspan><tspan y="14" xml:space="preserve" fill="#1d1d1b"> generaUsuario (DatoUsuarioPeriodo </tspan><tspan y="14" fill="#a30065">usarioPeriodo</tspan><tspan y="14" fill="#1d1d1b">) {…}</tspan></text>
  </g>
</svg>
