<svg xmlns="http://www.w3.org/2000/svg" xmlns:xlink="http://www.w3.org/1999/xlink" width="698" height="443" viewBox="0 0 698 443">
  <defs>
    <filter id="Rectángulo_3465" x="0" y="0" width="698" height="443" filterUnits="userSpaceOnUse">
      <feOffset input="SourceAlpha"/>
      <feGaussianBlur stdDeviation="3" result="blur"/>
      <feFlood flood-opacity="0.102"/>
      <feComposite operator="in" in2="blur"/>
      <feComposite in="SourceGraphic"/>
    </filter>
  </defs>
  <g id="Grupo_2904" data-name="Grupo 2904" transform="translate(-424 -1057)">
    <g transform="matrix(1, 0, 0, 1, 424, 1057)" filter="url(#Rectángulo_3465)">
      <rect id="Rectángulo_3465-2" data-name="Rectángulo 3465" width="680" height="425" transform="translate(9 9)" fill="#fff"/>
    </g>
    <g id="Grupo_2318" data-name="Grupo 2318" transform="translate(264.783 911)">
      <rect id="Rectángulo_4139" data-name="Rectángulo 4139" width="229.245" height="43.446" rx="13.934" transform="translate(434.461 187)" fill="#e492bd"/>
      <path id="Trazado_2138" data-name="Trazado 2138" d="M436.118,223.051a13.9,13.9,0,0,0,12.277,7.4H649.773a13.9,13.9,0,0,0,12.277-7.4Z" fill="#b60f6e"/>
      <rect id="Rectángulo_4140" data-name="Rectángulo 4140" width="229.245" height="43.446" rx="13.934" transform="translate(434.461 265.583)" fill="#a377b1"/>
      <path id="Trazado_2139" data-name="Trazado 2139" d="M436.118,301.634a13.9,13.9,0,0,0,12.277,7.395H649.773a13.9,13.9,0,0,0,12.277-7.395Z" fill="#4a245b"/>
      <rect id="Rectángulo_4141" data-name="Rectángulo 4141" width="229.245" height="43.446" rx="13.934" transform="translate(434.461 343.404)" fill="#78b6bb"/>
      <path id="Trazado_2140" data-name="Trazado 2140" d="M436.118,379.455a13.9,13.9,0,0,0,12.277,7.4H649.773a13.9,13.9,0,0,0,12.277-7.4Z" fill="#26595d"/>
      <rect id="Rectángulo_4142" data-name="Rectángulo 4142" width="229.245" height="43.446" rx="13.934" transform="translate(434.461 422.867)" fill="#d3097f"/>
      <path id="Trazado_2141" data-name="Trazado 2141" d="M436.118,458.918a13.9,13.9,0,0,0,12.277,7.395H649.773a13.9,13.9,0,0,0,12.277-7.395Z" fill="#98145e"/>
      <text id="Cliente" transform="translate(432.613 193.668)" fill="#fff" font-size="16.982" font-family="Roboto-Medium, Roboto" font-weight="500"><tspan x="88.546" y="18">Cliente</tspan></text>
      <text id="Capa_de_presentación" data-name="Capa de presentación" transform="translate(432.613 272.251)" fill="#fff" font-size="16.982" font-family="Roboto-Medium, Roboto" font-weight="500"><tspan x="32.424" y="18">Capa de presentación</tspan></text>
      <path id="Trazado_2152" data-name="Trazado 2152" d="M13.934,0H29.512A13.934,13.934,0,0,1,43.446,13.934V215.311a13.934,13.934,0,0,1-13.934,13.934H13.934A13.934,13.934,0,0,1,0,215.311V13.934A13.934,13.934,0,0,1,13.934,0Z" transform="translate(353.217 236.292)" fill="#a377b1"/>
      <path id="Trazado_2142" data-name="Trazado 2142" d="M389.267,463.881a13.9,13.9,0,0,0,7.395-12.277V250.226a13.9,13.9,0,0,0-7.395-12.277Z" fill="#4a245b"/>
      <text id="Modelo" transform="translate(359.883 467.386) rotate(-90)" fill="#fff" font-size="16.982" font-family="Roboto-Medium, Roboto" font-weight="500"><tspan x="86.464" y="18">Modelo</tspan></text>
      <rect id="Rectángulo_4144" data-name="Rectángulo 4144" width="229.245" height="43.446" rx="13.934" transform="translate(434.461 502.488)" fill="#a377b1"/>
      <path id="Trazado_2143" data-name="Trazado 2143" d="M436.118,538.538a13.9,13.9,0,0,0,12.277,7.395H649.773a13.9,13.9,0,0,0,12.277-7.395Z" fill="#4a245b"/>
      <text id="BD" transform="translate(432.613 509.155)" fill="#fff" font-size="16.982" font-family="Roboto-Medium, Roboto" font-weight="500"><tspan x="104.181" y="18">BD</tspan></text>
      <text id="Capa_de_Servicios" data-name="Capa de Servicios" transform="translate(432.613 350.071)" fill="#fff" font-size="16.982" font-family="Roboto-Medium, Roboto" font-weight="500"><tspan x="47.056" y="18">Capa de Servicios</tspan></text>
      <text id="Capa_de_persistencia" data-name="Capa de persistencia" transform="translate(432.613 429.535)" fill="#fff" font-size="16.982" font-family="Roboto-Medium, Roboto" font-weight="500"><tspan x="35.43" y="18">Capa de persistencia</tspan></text>
      <g id="Grupo_2302" data-name="Grupo 2302">
        <g id="Grupo_2299" data-name="Grupo 2299">
          <line id="Línea_915" data-name="Línea 915" x2="0.041" y2="5.095" transform="translate(548.056 244.516)" fill="none" stroke="#b60f6e" stroke-miterlimit="10" stroke-width="1.698"/>
          <line id="Línea_916" data-name="Línea 916" x2="0.041" y2="5.095" transform="translate(548.15 256.222)" fill="none" stroke="#b60f6e" stroke-miterlimit="10" stroke-width="1.698"/>
          <g id="Grupo_2298" data-name="Grupo 2298">
            <path id="Trazado_2144" data-name="Trazado 2144" d="M553.343,260.583l-10.316.083,5.2,5.114Z" fill="#b60f6e"/>
          </g>
        </g>
        <g id="Grupo_2301" data-name="Grupo 2301">
          <line id="Línea_917" data-name="Línea 917" x1="0.041" y1="5.095" transform="translate(548.186 246.354)" fill="none" stroke="#b60f6e" stroke-miterlimit="10" stroke-width="1.698"/>
          <line id="Línea_918" data-name="Línea 918" x1="0.041" y1="5.095" transform="translate(548.092 234.647)" fill="none" stroke="#b60f6e" stroke-miterlimit="10" stroke-width="1.698"/>
          <g id="Grupo_2300" data-name="Grupo 2300">
            <path id="Trazado_2145" data-name="Trazado 2145" d="M542.939,235.38l10.315-.083-5.2-5.114Z" fill="#b60f6e"/>
          </g>
        </g>
      </g>
      <g id="Grupo_2307" data-name="Grupo 2307">
        <g id="Grupo_2304" data-name="Grupo 2304">
          <line id="Línea_919" data-name="Línea 919" x2="0.041" y2="5.094" transform="translate(548.056 322.635)" fill="none" stroke="#b60f6e" stroke-miterlimit="10" stroke-width="1.698"/>
          <line id="Línea_920" data-name="Línea 920" x2="0.041" y2="5.095" transform="translate(548.15 334.341)" fill="none" stroke="#b60f6e" stroke-miterlimit="10" stroke-width="1.698"/>
          <g id="Grupo_2303" data-name="Grupo 2303">
            <path id="Trazado_2146" data-name="Trazado 2146" d="M553.343,338.7l-10.316.083,5.2,5.115Z" fill="#b60f6e"/>
          </g>
        </g>
        <g id="Grupo_2306" data-name="Grupo 2306">
          <line id="Línea_921" data-name="Línea 921" x1="0.041" y1="5.094" transform="translate(548.186 324.473)" fill="none" stroke="#b60f6e" stroke-miterlimit="10" stroke-width="1.698"/>
          <line id="Línea_922" data-name="Línea 922" x1="0.041" y1="5.094" transform="translate(548.092 312.767)" fill="none" stroke="#b60f6e" stroke-miterlimit="10" stroke-width="1.698"/>
          <g id="Grupo_2305" data-name="Grupo 2305">
            <path id="Trazado_2147" data-name="Trazado 2147" d="M542.939,313.5l10.315-.083-5.2-5.114Z" fill="#b60f6e"/>
          </g>
        </g>
      </g>
      <g id="Grupo_2312" data-name="Grupo 2312">
        <g id="Grupo_2309" data-name="Grupo 2309">
          <line id="Línea_923" data-name="Línea 923" x2="0.041" y2="5.095" transform="translate(548.056 400.753)" fill="none" stroke="#b60f6e" stroke-miterlimit="10" stroke-width="1.698"/>
          <line id="Línea_924" data-name="Línea 924" x2="0.041" y2="5.094" transform="translate(548.15 412.46)" fill="none" stroke="#b60f6e" stroke-miterlimit="10" stroke-width="1.698"/>
          <g id="Grupo_2308" data-name="Grupo 2308">
            <path id="Trazado_2148" data-name="Trazado 2148" d="M553.343,416.821l-10.316.083,5.2,5.114Z" fill="#b60f6e"/>
          </g>
        </g>
        <g id="Grupo_2311" data-name="Grupo 2311">
          <line id="Línea_925" data-name="Línea 925" x1="0.041" y1="5.095" transform="translate(548.186 402.591)" fill="none" stroke="#b60f6e" stroke-miterlimit="10" stroke-width="1.698"/>
          <line id="Línea_926" data-name="Línea 926" x1="0.041" y1="5.095" transform="translate(548.092 390.885)" fill="none" stroke="#b60f6e" stroke-miterlimit="10" stroke-width="1.698"/>
          <g id="Grupo_2310" data-name="Grupo 2310">
            <path id="Trazado_2149" data-name="Trazado 2149" d="M542.939,391.618l10.315-.083-5.2-5.115Z" fill="#b60f6e"/>
          </g>
        </g>
      </g>
      <g id="Grupo_2317" data-name="Grupo 2317">
        <g id="Grupo_2314" data-name="Grupo 2314">
          <line id="Línea_927" data-name="Línea 927" x2="0.041" y2="5.094" transform="translate(548.056 481.42)" fill="none" stroke="#b60f6e" stroke-miterlimit="10" stroke-width="1.698"/>
          <line id="Línea_928" data-name="Línea 928" x2="0.041" y2="5.095" transform="translate(548.15 493.126)" fill="none" stroke="#b60f6e" stroke-miterlimit="10" stroke-width="1.698"/>
          <g id="Grupo_2313" data-name="Grupo 2313">
            <path id="Trazado_2150" data-name="Trazado 2150" d="M553.343,497.488l-10.316.083,5.2,5.115Z" fill="#b60f6e"/>
          </g>
        </g>
        <g id="Grupo_2316" data-name="Grupo 2316">
          <line id="Línea_929" data-name="Línea 929" x1="0.041" y1="5.095" transform="translate(548.186 483.258)" fill="none" stroke="#b60f6e" stroke-miterlimit="10" stroke-width="1.698"/>
          <line id="Línea_930" data-name="Línea 930" x1="0.041" y1="5.094" transform="translate(548.092 471.552)" fill="none" stroke="#b60f6e" stroke-miterlimit="10" stroke-width="1.698"/>
          <g id="Grupo_2315" data-name="Grupo 2315">
            <path id="Trazado_2151" data-name="Trazado 2151" d="M542.939,472.285l10.315-.083-5.2-5.114Z" fill="#b60f6e"/>
          </g>
        </g>
      </g>
    </g>
  </g>
</svg>
