<svg xmlns="http://www.w3.org/2000/svg" xmlns:xlink="http://www.w3.org/1999/xlink" width="698" height="129" viewBox="0 0 698 129">
  <defs>
    <filter id="Rectángulo_3508" x="0" y="0" width="698" height="129" filterUnits="userSpaceOnUse">
      <feOffset input="SourceAlpha"/>
      <feGaussianBlur stdDeviation="3" result="blur"/>
      <feFlood flood-opacity="0.102"/>
      <feComposite operator="in" in2="blur"/>
      <feComposite in="SourceGraphic"/>
    </filter>
  </defs>
  <g id="Grupo_2917" data-name="Grupo 2917" transform="translate(-427 -10914)">
    <g transform="matrix(1, 0, 0, 1, 427, 10914)" filter="url(#Rectángulo_3508)">
      <rect id="Rectángulo_3508-2" data-name="Rectángulo 3508" width="680" height="111" transform="translate(9 9)" fill="#fff"/>
    </g>
    <text id="_Transactional_rollbackFor_TestException.class_public_DatoUsuarioPeriodo_guardaUsuarioPeriodo_DatoUsuarioPeriodo_datoUsuarioPeriodo_throws_TestException_" data-name="@Transactional(rollbackFor = TestException.class)
	public DatoUsuarioPeriodo guardaUsuarioPeriodo(DatoUsuarioPeriodo 
datoUsuarioPeriodo)  throws TestException {…}

" transform="translate(466.012 10948.729)" fill="#444443" font-size="13.986" font-family="Monaco"><tspan x="0" y="14">@Transactional</tspan><tspan y="14" fill="#1d1d1b">(rollbackFor = TestException.</tspan><tspan y="14" fill="#d20e7f">class</tspan><tspan y="14" fill="#1d1d1b">)</tspan><tspan fill="#1d1d1b"><tspan x="0" y="30.783">	</tspan><tspan y="30.783" fill="#d20e7f">public</tspan><tspan y="30.783" xml:space="preserve"> DatoUsuarioPeriodo guardaUsuarioPeriodo(DatoUsuarioPeriodo </tspan></tspan><tspan fill="#a30065"><tspan x="0" y="47.566">datoUsuarioPeriodo</tspan><tspan y="47.566" xml:space="preserve" fill="#1d1d1b">)  </tspan><tspan y="47.566" fill="#d20e7f">throws</tspan><tspan y="47.566" xml:space="preserve" fill="#1d1d1b"> TestException {…}</tspan></tspan><tspan fill="#1d1d1b"><tspan x="0" y="64.35"></tspan></tspan></text>
  </g>
</svg>
