<svg xmlns="http://www.w3.org/2000/svg" xmlns:xlink="http://www.w3.org/1999/xlink" width="698" height="98" viewBox="0 0 698 98">
  <defs>
    <filter id="Rectángulo_3510" x="0" y="0" width="698" height="98" filterUnits="userSpaceOnUse">
      <feOffset input="SourceAlpha"/>
      <feGaussianBlur stdDeviation="3" result="blur"/>
      <feFlood flood-opacity="0.102"/>
      <feComposite operator="in" in2="blur"/>
      <feComposite in="SourceGraphic"/>
    </filter>
  </defs>
  <g id="Grupo_2918" data-name="Grupo 2918" transform="translate(-427 -11206)">
    <g transform="matrix(1, 0, 0, 1, 427, 11206)" filter="url(#Rectángulo_3510)">
      <rect id="Rectángulo_3510-2" data-name="Rectángulo 3510" width="680" height="80" transform="translate(9 9)" fill="#fff"/>
    </g>
    <text id="public_class_TestException_extends_Exception_" data-name="public class TestException extends Exception {…}" transform="translate(466.012 11245.369)" fill="#d20e7f" font-size="13.986" font-family="Monaco"><tspan x="0" y="14">public class</tspan><tspan y="14" xml:space="preserve" fill="#1d1d1b"> TestException </tspan><tspan y="14">extends</tspan><tspan y="14" xml:space="preserve" fill="#1d1d1b"> Exception {…}</tspan></text>
  </g>
</svg>
