<svg xmlns="http://www.w3.org/2000/svg" xmlns:xlink="http://www.w3.org/1999/xlink" width="732.072" height="209.07" viewBox="0 0 732.072 209.07">
  <defs>
    <filter id="Trazado_2154" x="0" y="8.27" width="732.072" height="200.801" filterUnits="userSpaceOnUse">
      <feOffset dy="3" input="SourceAlpha"/>
      <feGaussianBlur stdDeviation="3" result="blur"/>
      <feFlood flood-opacity="0.078"/>
      <feComposite operator="in" in2="blur"/>
      <feComposite in="SourceGraphic"/>
    </filter>
  </defs>
  <g id="Grupo_2915" data-name="Grupo 2915" transform="translate(-409.928 -9475)">
    <g transform="matrix(1, 0, 0, 1, 409.93, 9475)" filter="url(#Trazado_2154)">
      <path id="Trazado_2154-2" data-name="Trazado 2154" d="M842.361,4391.071H164.275c-9.937,0-17.993-3.07-17.993-6.856V4215.126c0-3.787,8.056-6.856,17.993-6.856H842.361c9.937,0,17.993,3.069,17.993,6.856v169.089C860.354,4388,852.3,4391.071,842.361,4391.071Z" transform="translate(-137.28 -4194)" fill="#fdf7fa"/>
    </g>
    <rect id="Rectángulo_4153" data-name="Rectángulo 4153" width="173.831" height="45.892" transform="translate(418.539 9475)" fill="#d3097f"/>
    <rect id="Rectángulo_4154" data-name="Rectángulo 4154" width="173.831" height="14.383" transform="translate(418.539 9475)" fill="#98145e"/>
    <rect id="Rectángulo_4155" data-name="Rectángulo 4155" width="193.29" height="45.892" transform="translate(591.98 9475)" fill="#d970a8"/>
    <rect id="Rectángulo_4156" data-name="Rectángulo 4156" width="193.29" height="14.383" transform="translate(591.98 9475)" fill="#b60f6e"/>
    <text id="Anotación_" data-name="Anotación " transform="translate(418 9492.033)" fill="#fff" font-size="18" font-family="Roboto-Bold, Roboto" font-weight="700"><tspan x="47.135" y="19">Anotación </tspan></text>
    <rect id="Rectángulo_4157" data-name="Rectángulo 4157" width="153.526" height="45.892" transform="translate(785.728 9475)" fill="#d3097f"/>
    <rect id="Rectángulo_4158" data-name="Rectángulo 4158" width="153.526" height="14.383" transform="translate(785.728 9475)" fill="#98145e"/>
    <text id="Requerido_" data-name="Requerido " transform="translate(788.117 9492.033)" fill="#fff" font-size="18" font-family="Roboto-Bold, Roboto" font-weight="700"><tspan x="35.145" y="19">Requerido </tspan></text>
    <text id="Descripción_" data-name="Descripción " transform="translate(633.208 9492.033)" fill="#fff" font-size="18" font-family="Roboto-Bold, Roboto" font-weight="700"><tspan x="0" y="19">Descripción </tspan></text>
    <text id="_Transactional" data-name="@Transactional" transform="translate(438.157 9542.893)" fill="#1d1d1b" font-size="14" font-family="Roboto-Bold, Roboto" font-weight="700"><tspan x="0" y="15">@Transactional</tspan></text>
    <text id="Anotación_que_indicar_que_este_método_público_generará_una_transacción" data-name="Anotación que indicar que este método público generará una transacción" transform="translate(600.6 9544.354)" fill="#1d1d1b" font-size="14" font-family="Roboto-Regular, Roboto"><tspan x="0" y="15">Anotación que indicar que </tspan><tspan x="0" y="32.26">este método público </tspan><tspan x="0" y="49.519">generará una transacción</tspan></text>
    <rect id="Rectángulo_4159" data-name="Rectángulo 4159" width="193.29" height="45.892" transform="translate(939.71 9475)" fill="#d970a8"/>
    <rect id="Rectángulo_4160" data-name="Rectángulo 4160" width="193.29" height="14.383" transform="translate(939.71 9475)" fill="#b60f6e"/>
    <text id="Atributos_" data-name="Atributos " transform="translate(1002.938 9492.033)" fill="#fff" font-size="18" font-family="Roboto-Bold, Roboto" font-weight="700"><tspan x="0" y="19">Atributos </tspan></text>
    <text id="NA" transform="translate(948.329 9544.354)" fill="#1d1d1b" font-size="14" font-family="Roboto-Regular, Roboto"><tspan x="0" y="15">NA</tspan></text>
    <text id="Si" transform="translate(785.271 9544.354)" fill="#1d1d1b" font-size="14" font-family="Roboto-Regular, Roboto"><tspan x="67.262" y="15">Si</tspan></text>
  </g>
</svg>
