<svg xmlns="http://www.w3.org/2000/svg" width="716" height="197.07" viewBox="0 0 716 197.07">
  <g id="Grupo_2919" data-name="Grupo 2919" transform="translate(-415 -11446)">
    <path id="Trazado_2155" data-name="Trazado 2155" d="M842.361,5201.071H164.275c-9.937,0-17.993-3.07-17.993-6.856V5025.126c0-3.787,8.056-6.856,17.993-6.856H842.361c9.937,0,17.993,3.069,17.993,6.856v169.089C860.354,5198,852.3,5201.071,842.361,5201.071Z" transform="translate(270.646 6442)" fill="#fdf7fa"/>
    <rect id="Rectángulo_4161" data-name="Rectángulo 4161" width="173.831" height="45.892" transform="translate(416.539 11446)" fill="#d3097f"/>
    <rect id="Rectángulo_4162" data-name="Rectángulo 4162" width="173.831" height="14.383" transform="translate(416.539 11446)" fill="#98145e"/>
    <rect id="Rectángulo_4163" data-name="Rectángulo 4163" width="193.29" height="45.892" transform="translate(589.98 11446)" fill="#d970a8"/>
    <rect id="Rectángulo_4164" data-name="Rectángulo 4164" width="193.29" height="14.383" transform="translate(589.98 11446)" fill="#b60f6e"/>
    <text id="Anotación_" data-name="Anotación " transform="translate(415 11463.033)" fill="#fff" font-size="18" font-family="Roboto-Bold, Roboto" font-weight="700"><tspan x="47.135" y="19">Anotación </tspan></text>
    <rect id="Rectángulo_4165" data-name="Rectángulo 4165" width="153.526" height="45.892" transform="translate(783.728 11446)" fill="#d3097f"/>
    <rect id="Rectángulo_4166" data-name="Rectángulo 4166" width="153.526" height="14.383" transform="translate(783.728 11446)" fill="#98145e"/>
    <text id="Requerido_" data-name="Requerido " transform="translate(786.117 11463.033)" fill="#fff" font-size="18" font-family="Roboto-Bold, Roboto" font-weight="700"><tspan x="35.145" y="19">Requerido </tspan></text>
    <text id="Descripción_" data-name="Descripción " transform="translate(634.208 11463.033)" fill="#fff" font-size="18" font-family="Roboto-Bold, Roboto" font-weight="700"><tspan x="0" y="19">Descripción </tspan></text>
    <text id="_Transactional" data-name="@Transactional" transform="translate(436.157 11513.893)" fill="#1d1d1b" font-size="14" font-family="Roboto-Bold, Roboto" font-weight="700"><tspan x="0" y="15">@Transactional</tspan></text>
    <text id="Anotación_que_indicar_que_este_método_público_generará_una_transacción" data-name="Anotación que indicar que este método público generará una transacción" transform="translate(598.6 11515.354)" fill="#1d1d1b" font-size="14" font-family="Roboto-Regular, Roboto"><tspan x="0" y="15">Anotación que indicar que </tspan><tspan x="0" y="32.26">este método público </tspan><tspan x="0" y="49.519">generará una transacción</tspan></text>
    <rect id="Rectángulo_4167" data-name="Rectángulo 4167" width="193.29" height="45.892" transform="translate(937.71 11446)" fill="#d970a8"/>
    <rect id="Rectángulo_4168" data-name="Rectángulo 4168" width="193.29" height="14.383" transform="translate(937.71 11446)" fill="#b60f6e"/>
    <text id="Atributos_" data-name="Atributos " transform="translate(992.938 11463.033)" fill="#fff" font-size="18" font-family="Roboto-Bold, Roboto" font-weight="700"><tspan x="0" y="19">Atributos </tspan></text>
    <text id="rollbackFor._Tiene_como_valores_los_nombres_de_las_excepciones_que_dispararán_el_Rollback" data-name="rollbackFor. Tiene como valores los nombres de las excepciones que dispararán el Rollback" transform="translate(946.329 11515.354)" fill="#1d1d1b" font-size="14" font-family="Roboto-Regular, Roboto"><tspan x="0" y="15">rollbackFor. Tiene como </tspan><tspan x="0" y="32.26">valores los nombres de las </tspan><tspan x="0" y="49.519">excepciones que </tspan><tspan x="0" y="66.779">dispararán el Rollback</tspan></text>
    <text id="Si" transform="translate(783.271 11515.354)" fill="#1d1d1b" font-size="14" font-family="Roboto-Regular, Roboto"><tspan x="67.262" y="15">Si</tspan></text>
  </g>
</svg>
