<svg xmlns="http://www.w3.org/2000/svg" width="103" height="76.844" viewBox="0 0 103 76.844">
  <g id="Grupo_847" data-name="Grupo 847" transform="translate(-1111 -1883)">
    <g id="Trazado_1430" data-name="Trazado 1430" transform="translate(1170 1883)" fill="#fff">
      <path d="M 43.5 43.5 L 0.5 43.5 L 0.5 0.5 L 43.5 0.5 L 43.5 43.5 Z" stroke="none"/>
      <path d="M 1 1 L 1 43 L 43 43 L 43 1 L 1 1 M 0 0 L 44 0 L 44 44 L 0 44 L 0 0 Z" stroke="none" fill="#f2f2f2"/>
    </g>
    <g id="Trazado_1431" data-name="Trazado 1431" transform="translate(1155 1927) rotate(180)" fill="#fff">
      <path d="M 43.5 43.5 L 0.5 43.5 L 0.5 0.5 L 43.5 0.5 L 43.5 43.5 Z" stroke="none"/>
      <path d="M 1 1 L 1 43 L 43 43 L 43 1 L 1 1 M 0 0 L 44 0 L 44 44 L 0 44 L 0 0 Z" stroke="none" fill="#f2f2f2"/>
    </g>
    <path id="Trazado_1432" data-name="Trazado 1432" d="M0,0H15V44H0Z" transform="translate(1154.834 1883)" fill="#4199a0" opacity="0.81"/>
    <path id="Trazado_1433" data-name="Trazado 1433" d="M5.134,0H3.473V-8.422H1.36V-9.741L5.134-10.1Zm3.9-4.4.574-5.551h5.25v1.436H10.992l-.3,2.536a2.765,2.765,0,0,1,.7-.355,2.8,2.8,0,0,1,.9-.15,2.682,2.682,0,0,1,2.16.868,3.579,3.579,0,0,1,.772,2.44,3.5,3.5,0,0,1-.813,2.4,3.074,3.074,0,0,1-2.434.923A3.494,3.494,0,0,1,9.758-.564a2.329,2.329,0,0,1-.872-2.02L8.9-2.618l1.559-.048a1.42,1.42,0,0,0,.42,1.09,1.542,1.542,0,0,0,1.1.393,1.4,1.4,0,0,0,1.183-.526,2.343,2.343,0,0,0,.4-1.456A2.3,2.3,0,0,0,13.146-4.6a1.41,1.41,0,0,0-1.189-.543,1.871,1.871,0,0,0-1.015.219,1.236,1.236,0,0,0-.482.643Zm14.232.95a4.17,4.17,0,0,1-.759,2.6A2.51,2.51,0,0,1,20.4.144a2.616,2.616,0,0,1-1.114-.226,2.293,2.293,0,0,1-.834-.663V2.844H16.789V-7.4h1.4l.164.93a2.467,2.467,0,0,1,.858-.793,2.4,2.4,0,0,1,1.166-.273A2.456,2.456,0,0,1,22.507-6.45,4.861,4.861,0,0,1,23.27-3.6ZM21.615-3.6a3.6,3.6,0,0,0-.427-1.856,1.389,1.389,0,0,0-1.275-.721,1.656,1.656,0,0,0-.882.222,1.636,1.636,0,0,0-.581.619v3.343a1.545,1.545,0,0,0,.581.6,1.771,1.771,0,0,0,.9.208,1.425,1.425,0,0,0,1.268-.625,2.9,2.9,0,0,0,.42-1.644ZM27.269-4.86,28.636-7.4h1.907L28.219-3.739,30.611,0H28.725L27.3-2.6,25.867,0h-1.9l2.393-3.739L24.035-7.4h1.887Z" transform="translate(1150 1957)" fill="#4199a0"/>
    <path id="Trazado_1434" data-name="Trazado 1434" d="M0,0H8" transform="translate(1155.5 1939.272) rotate(-90)" fill="none" stroke="#4199a0" stroke-width="1"/>
    <path id="Trazado_1435" data-name="Trazado 1435" d="M0,0H8" transform="translate(1170.5 1939.272) rotate(-90)" fill="none" stroke="#4199a0" stroke-width="1"/>
    <path id="Trazado_1436" data-name="Trazado 1436" d="M0,0H15.416" transform="translate(1155.084 1935.272)" fill="none" stroke="#4199a0" stroke-width="1"/>
    <path id="Trazado_1515" data-name="Trazado 1515" d="M0,3.879,8.767,0l8.357,3.879" transform="translate(1195.973 1897.602) rotate(90)" fill="none" stroke="#b7006d" stroke-width="1"/>
    <path id="Trazado_1516" data-name="Trazado 1516" d="M0,3.879,8.767,0l8.357,3.879" transform="translate(1192.562 1897.602) rotate(90)" fill="none" stroke="#b7006d" stroke-width="1"/>
    <path id="Trazado_1517" data-name="Trazado 1517" d="M0,3.879,8.767,0l8.357,3.879" transform="translate(1129.682 1914.725) rotate(-90)" fill="none" stroke="#b7006d" stroke-width="1"/>
    <path id="Trazado_1518" data-name="Trazado 1518" d="M0,3.879,8.767,0l8.357,3.879" transform="translate(1133.094 1914.725) rotate(-90)" fill="none" stroke="#b7006d" stroke-width="1"/>
  </g>
</svg>
