<svg xmlns="http://www.w3.org/2000/svg" xmlns:xlink="http://www.w3.org/1999/xlink" width="427" height="83.844" viewBox="0 0 427 83.844">
  <defs>
    <filter id="Trazado_1403" x="50" y="0" width="327" height="62" filterUnits="userSpaceOnUse">
      <feOffset dy="3" input="SourceAlpha"/>
      <feGaussianBlur stdDeviation="3" result="blur"/>
      <feFlood flood-opacity="0.161"/>
      <feComposite operator="in" in2="blur"/>
      <feComposite in="SourceGraphic"/>
    </filter>
    <filter id="Trazado_1597" x="138" y="0" width="62" height="62" filterUnits="userSpaceOnUse">
      <feOffset dy="3" input="SourceAlpha"/>
      <feGaussianBlur stdDeviation="3" result="blur-2"/>
      <feFlood flood-opacity="0.161"/>
      <feComposite operator="in" in2="blur-2"/>
      <feComposite in="SourceGraphic"/>
    </filter>
  </defs>
  <g id="Grupo_846" data-name="Grupo 846" transform="translate(-556 -1876)">
    <g transform="matrix(1, 0, 0, 1, 556, 1876)" filter="url(#Trazado_1403)">
      <path id="Trazado_1403-2" data-name="Trazado 1403" d="M0,0H309V44H0Z" transform="translate(59 6)" fill="#fff"/>
    </g>
    <path id="Trazado_1419" data-name="Trazado 1419" d="M5.547,0H4V-9.953L1.523-9.93v-1.187l4.023-.422Z" transform="translate(633 1910)" fill="#494949"/>
    <path id="Trazado_1420" data-name="Trazado 1420" d="M8.234,0H1.172V-1.055l3.57-4.258a10.726,10.726,0,0,0,1.293-1.84,3.07,3.07,0,0,0,.34-1.379,1.841,1.841,0,0,0-.461-1.293,1.639,1.639,0,0,0-1.273-.5,1.908,1.908,0,0,0-1.535.617,2.286,2.286,0,0,0-.527,1.539H1.094l-.016-.047a3.068,3.068,0,0,1,.93-2.355,3.566,3.566,0,0,1,2.633-.965,3.31,3.31,0,0,1,2.4.844,2.894,2.894,0,0,1,.875,2.18,3.476,3.476,0,0,1-.5,1.758A19.612,19.612,0,0,1,5.906-4.6L3.039-1.242l.016.039h5.18Z" transform="translate(677 1910)" fill="#494949"/>
    <path id="Trazado_1421" data-name="Trazado 1421" d="M4.523-6.687A1.578,1.578,0,0,0,5.73-7.109,1.672,1.672,0,0,0,6.125-8.3a1.455,1.455,0,0,0-.414-1.062,1.546,1.546,0,0,0-1.156-.422A1.514,1.514,0,0,0,3.5-9.4a1.255,1.255,0,0,0-.426.977H.875L.859-8.469a2.582,2.582,0,0,1,1.031-2.2,4.115,4.115,0,0,1,2.664-.867,4.362,4.362,0,0,1,2.8.832A2.879,2.879,0,0,1,8.4-8.32a2.474,2.474,0,0,1-.449,1.434,3.07,3.07,0,0,1-1.23,1.027A2.873,2.873,0,0,1,8.094-4.84a2.784,2.784,0,0,1,.484,1.652A2.964,2.964,0,0,1,7.449-.73,4.518,4.518,0,0,1,4.555.164,4.51,4.51,0,0,1,1.836-.68,2.663,2.663,0,0,1,.711-3.047l.016-.047H2.945A1.433,1.433,0,0,0,3.395-2.02a1.6,1.6,0,0,0,1.16.434A1.76,1.76,0,0,0,5.82-2.047,1.538,1.538,0,0,0,6.3-3.211a1.766,1.766,0,0,0-.453-1.332,1.85,1.85,0,0,0-1.328-.434H3.266V-6.687Z" transform="translate(721 1910)" fill="#fff"/>
    <path id="Trazado_1422" data-name="Trazado 1422" d="M6.977-3.828h1.57v1.2H6.977V0H5.445V-2.625H.563v-.867l4.789-7.883H6.977Zm-4.766,0H5.445V-9.164L5.4-9.172l-.148.391Z" transform="translate(765 1910)" fill="#494949"/>
    <path id="Trazado_1423" data-name="Trazado 1423" d="M1.367-5.055l.656-6.32h5.7v1.367H3.32L2.953-6.734a3.511,3.511,0,0,1,.813-.449,2.858,2.858,0,0,1,1.016-.184,3.1,3.1,0,0,1,2.473.988,3.992,3.992,0,0,1,.895,2.754A4,4,0,0,1,7.23-.875,3.382,3.382,0,0,1,4.555.164,3.666,3.666,0,0,1,2.148-.625a2.731,2.731,0,0,1-.922-2.32l.016-.047H2.633a1.9,1.9,0,0,0,.535,1.441,1.924,1.924,0,0,0,1.387.512A1.816,1.816,0,0,0,6.07-1.727a2.976,2.976,0,0,0,.539-1.883,2.71,2.71,0,0,0-.543-1.758,1.835,1.835,0,0,0-1.512-.672,2.416,2.416,0,0,0-1.312.273,1.6,1.6,0,0,0-.6.844Z" transform="translate(809 1910)" fill="#494949"/>
    <path id="Trazado_1424" data-name="Trazado 1424" d="M2.8,0H1.258V-1.578H2.8ZM6.258,0H4.719V-1.578H6.258ZM9.539,0H8V-1.578H9.539Z" transform="translate(851 1910)" fill="#494949"/>
    <path id="Trazado_1425" data-name="Trazado 1425" d="M4.523-6.469A1.8,1.8,0,0,0,5.98-6.98a2.179,2.179,0,0,0,.426-1.434A2.02,2.02,0,0,0,5.941-9.8a1.741,1.741,0,0,0-1.379-.527,2.057,2.057,0,0,0-1.473.551A1.819,1.819,0,0,0,2.508-8.4H1.039l-.023-.047a2.718,2.718,0,0,1,.969-2.187,3.709,3.709,0,0,1,2.578-.906,3.6,3.6,0,0,1,2.484.8,2.991,2.991,0,0,1,.9,2.355A2.65,2.65,0,0,1,7.527-6.93,2.818,2.818,0,0,1,6.359-5.906,2.688,2.688,0,0,1,7.668-4.863a3.063,3.063,0,0,1,.449,1.691A3.122,3.122,0,0,1,7.129-.723,3.7,3.7,0,0,1,4.563.164,4.064,4.064,0,0,1,2-.691,2.62,2.62,0,0,1,.938-2.953L.953-3H2.422a1.846,1.846,0,0,0,.6,1.395,2.152,2.152,0,0,0,1.543.566,1.914,1.914,0,0,0,1.477-.582,2.147,2.147,0,0,0,.539-1.52,2.273,2.273,0,0,0-.5-1.6,2.041,2.041,0,0,0-1.559-.531H3.258v-1.2Zm5.852,1.414.656-6.32h5.7v1.367h-4.4l-.367,3.273a3.511,3.511,0,0,1,.813-.449,2.858,2.858,0,0,1,1.016-.184,3.1,3.1,0,0,1,2.473.988,3.992,3.992,0,0,1,.895,2.754,4,4,0,0,1-.918,2.75A3.382,3.382,0,0,1,13.563.164a3.666,3.666,0,0,1-2.406-.789,2.731,2.731,0,0,1-.922-2.32l.016-.047h1.391a1.9,1.9,0,0,0,.535,1.441,1.924,1.924,0,0,0,1.387.512,1.816,1.816,0,0,0,1.516-.687,2.976,2.976,0,0,0,.539-1.883,2.71,2.71,0,0,0-.543-1.758,1.835,1.835,0,0,0-1.512-.672,2.416,2.416,0,0,0-1.312.273,1.6,1.6,0,0,0-.6.844Z" transform="translate(893 1910)" fill="#494949"/>
    <path id="Trazado_1404" data-name="Trazado 1404" d="M0,0V44" transform="translate(659.5 1882.5)" fill="none" stroke="#eaeaea" stroke-width="1"/>
    <path id="Trazado_1405" data-name="Trazado 1405" d="M0,0V44" transform="translate(791.5 1882.5)" fill="none" stroke="#eaeaea" stroke-width="1"/>
    <path id="Trazado_1406" data-name="Trazado 1406" d="M0,0V44" transform="translate(923.5 1882.5)" fill="none" stroke="#f2f2f2" stroke-width="1"/>
    <path id="Trazado_1407" data-name="Trazado 1407" d="M0,0V44" transform="translate(703.5 1882.5)" fill="none" stroke="#f2f2f2" stroke-width="1"/>
    <path id="Trazado_1408" data-name="Trazado 1408" d="M0,0V44" transform="translate(703.5 1882.5)" fill="none" stroke="#eaeaea" stroke-width="1"/>
    <path id="Trazado_1409" data-name="Trazado 1409" d="M0,0V44" transform="translate(835.5 1882.5)" fill="none" stroke="#eaeaea" stroke-width="1"/>
    <path id="Trazado_1410" data-name="Trazado 1410" d="M0,0V44" transform="translate(747.5 1882.5)" fill="none" stroke="#eaeaea" stroke-width="1"/>
    <path id="Trazado_1411" data-name="Trazado 1411" d="M0,0V44" transform="translate(879.5 1882.5)" fill="none" stroke="#eaeaea" stroke-width="1"/>
    <g id="Trazado_1412" data-name="Trazado 1412" transform="translate(939 1882)" fill="#fff">
      <path d="M 43.5 43.5 L 0.5 43.5 L 0.5 0.5 L 43.5 0.5 L 43.5 43.5 Z" stroke="none"/>
      <path d="M 1 1 L 1 43 L 43 43 L 43 1 L 1 1 M 0 0 L 44 0 L 44 44 L 0 44 L 0 0 Z" stroke="none" fill="#f2f2f2"/>
    </g>
    <g id="Trazado_1426" data-name="Trazado 1426" transform="translate(600 1926) rotate(180)" fill="#fff">
      <path d="M 43.5 43.5 L 0.5 43.5 L 0.5 0.5 L 43.5 0.5 L 43.5 43.5 Z" stroke="none"/>
      <path d="M 1 1 L 1 43 L 43 43 L 43 1 L 1 1 M 0 0 L 44 0 L 44 44 L 0 44 L 0 0 Z" stroke="none" fill="#f2f2f2"/>
    </g>
    <path id="Trazado_1415" data-name="Trazado 1415" d="M0,0H15V44H0Z" transform="translate(599.834 1882)" fill="#4199a0" opacity="0.81"/>
    <path id="Trazado_1413" data-name="Trazado 1413" d="M0,0H15V44H0Z" transform="translate(923.834 1882)" fill="#4199a0" opacity="0.81"/>
    <path id="Trazado_1414" data-name="Trazado 1414" d="M5.134,0H3.473V-8.422H1.36V-9.741L5.134-10.1Zm3.9-4.4.574-5.551h5.25v1.436H10.992l-.3,2.536a2.765,2.765,0,0,1,.7-.355,2.8,2.8,0,0,1,.9-.15,2.682,2.682,0,0,1,2.16.868,3.579,3.579,0,0,1,.772,2.44,3.5,3.5,0,0,1-.813,2.4,3.074,3.074,0,0,1-2.434.923A3.494,3.494,0,0,1,9.758-.564a2.329,2.329,0,0,1-.872-2.02L8.9-2.618l1.559-.048a1.42,1.42,0,0,0,.42,1.09,1.542,1.542,0,0,0,1.1.393,1.4,1.4,0,0,0,1.183-.526,2.343,2.343,0,0,0,.4-1.456A2.3,2.3,0,0,0,13.146-4.6a1.41,1.41,0,0,0-1.189-.543,1.871,1.871,0,0,0-1.015.219,1.236,1.236,0,0,0-.482.643Zm14.232.95a4.17,4.17,0,0,1-.759,2.6A2.51,2.51,0,0,1,20.4.144a2.616,2.616,0,0,1-1.114-.226,2.293,2.293,0,0,1-.834-.663V2.844H16.789V-7.4h1.4l.164.93a2.467,2.467,0,0,1,.858-.793,2.4,2.4,0,0,1,1.166-.273A2.456,2.456,0,0,1,22.507-6.45,4.861,4.861,0,0,1,23.27-3.6ZM21.615-3.6a3.6,3.6,0,0,0-.427-1.856,1.389,1.389,0,0,0-1.275-.721,1.656,1.656,0,0,0-.882.222,1.636,1.636,0,0,0-.581.619v3.343a1.545,1.545,0,0,0,.581.6,1.771,1.771,0,0,0,.9.208,1.425,1.425,0,0,0,1.268-.625,2.9,2.9,0,0,0,.42-1.644ZM27.269-4.86,28.636-7.4h1.907L28.219-3.739,30.611,0H28.725L27.3-2.6,25.867,0h-1.9l2.393-3.739L24.035-7.4h1.887Z" transform="translate(594 1957)" fill="#4199a0"/>
    <path id="Trazado_1399" data-name="Trazado 1399" d="M5.134,0H3.473V-8.422H1.36V-9.741L5.134-10.1Zm3.9-4.4.574-5.551h5.25v1.436H10.992l-.3,2.536a2.765,2.765,0,0,1,.7-.355,2.8,2.8,0,0,1,.9-.15,2.682,2.682,0,0,1,2.16.868,3.579,3.579,0,0,1,.772,2.44,3.5,3.5,0,0,1-.813,2.4,3.074,3.074,0,0,1-2.434.923A3.494,3.494,0,0,1,9.758-.564a2.329,2.329,0,0,1-.872-2.02L8.9-2.618l1.559-.048a1.42,1.42,0,0,0,.42,1.09,1.542,1.542,0,0,0,1.1.393,1.4,1.4,0,0,0,1.183-.526,2.343,2.343,0,0,0,.4-1.456A2.3,2.3,0,0,0,13.146-4.6a1.41,1.41,0,0,0-1.189-.543,1.871,1.871,0,0,0-1.015.219,1.236,1.236,0,0,0-.482.643Zm14.232.95a4.17,4.17,0,0,1-.759,2.6A2.51,2.51,0,0,1,20.4.144a2.616,2.616,0,0,1-1.114-.226,2.293,2.293,0,0,1-.834-.663V2.844H16.789V-7.4h1.4l.164.93a2.467,2.467,0,0,1,.858-.793,2.4,2.4,0,0,1,1.166-.273A2.456,2.456,0,0,1,22.507-6.45,4.861,4.861,0,0,1,23.27-3.6ZM21.615-3.6a3.6,3.6,0,0,0-.427-1.856,1.389,1.389,0,0,0-1.275-.721,1.656,1.656,0,0,0-.882.222,1.636,1.636,0,0,0-.581.619v3.343a1.545,1.545,0,0,0,.581.6,1.771,1.771,0,0,0,.9.208,1.425,1.425,0,0,0,1.268-.625,2.9,2.9,0,0,0,.42-1.644ZM27.269-4.86,28.636-7.4h1.907L28.219-3.739,30.611,0H28.725L27.3-2.6,25.867,0h-1.9l2.393-3.739L24.035-7.4h1.887Z" transform="translate(919 1957)" fill="#4199a0"/>
    <path id="Trazado_1429" data-name="Trazado 1429" d="M0,0H8" transform="translate(599.5 1939.272) rotate(-90)" fill="none" stroke="#4199a0" stroke-width="1"/>
    <path id="Trazado_1400" data-name="Trazado 1400" d="M0,0H8" transform="translate(924.5 1939.272) rotate(-90)" fill="none" stroke="#4199a0" stroke-width="1"/>
    <path id="Trazado_1416" data-name="Trazado 1416" d="M0,0H8" transform="translate(614.5 1939.272) rotate(-90)" fill="none" stroke="#4199a0" stroke-width="1"/>
    <path id="Trazado_1401" data-name="Trazado 1401" d="M0,0H8" transform="translate(939.5 1939.272) rotate(-90)" fill="none" stroke="#4199a0" stroke-width="1"/>
    <path id="Trazado_1417" data-name="Trazado 1417" d="M0,0H15.416" transform="translate(599.084 1935.272)" fill="none" stroke="#4199a0" stroke-width="1"/>
    <path id="Trazado_1402" data-name="Trazado 1402" d="M0,0H15.416" transform="translate(924.084 1935.272)" fill="none" stroke="#4199a0" stroke-width="1"/>
    <path id="Trazado_1519" data-name="Trazado 1519" d="M0,3.879,8.767,0l8.357,3.879" transform="translate(573.716 1913.725) rotate(-90)" fill="none" stroke="#b7006d" stroke-width="1"/>
    <path id="Trazado_1520" data-name="Trazado 1520" d="M0,3.879,8.767,0l8.357,3.879" transform="translate(577.128 1913.725) rotate(-90)" fill="none" stroke="#b7006d" stroke-width="1"/>
    <path id="Trazado_1521" data-name="Trazado 1521" d="M0,3.879,8.767,0l8.357,3.879" transform="translate(963.973 1896.602) rotate(90)" fill="none" stroke="#b7006d" stroke-width="1"/>
    <path id="Trazado_1522" data-name="Trazado 1522" d="M0,3.879,8.767,0l8.357,3.879" transform="translate(960.562 1896.602) rotate(90)" fill="none" stroke="#b7006d" stroke-width="1"/>
    <path id="Trazado_1523" data-name="Trazado 1523" d="M4.523-6.687A1.578,1.578,0,0,0,5.73-7.109,1.672,1.672,0,0,0,6.125-8.3a1.455,1.455,0,0,0-.414-1.062,1.546,1.546,0,0,0-1.156-.422A1.514,1.514,0,0,0,3.5-9.4a1.255,1.255,0,0,0-.426.977H.875L.859-8.469a2.582,2.582,0,0,1,1.031-2.2,4.115,4.115,0,0,1,2.664-.867,4.362,4.362,0,0,1,2.8.832A2.879,2.879,0,0,1,8.4-8.32a2.474,2.474,0,0,1-.449,1.434,3.07,3.07,0,0,1-1.23,1.027A2.873,2.873,0,0,1,8.094-4.84a2.784,2.784,0,0,1,.484,1.652A2.964,2.964,0,0,1,7.449-.73,4.518,4.518,0,0,1,4.555.164,4.51,4.51,0,0,1,1.836-.68,2.663,2.663,0,0,1,.711-3.047l.016-.047H2.945A1.433,1.433,0,0,0,3.395-2.02a1.6,1.6,0,0,0,1.16.434A1.76,1.76,0,0,0,5.82-2.047,1.538,1.538,0,0,0,6.3-3.211a1.766,1.766,0,0,0-.453-1.332,1.85,1.85,0,0,0-1.328-.434H3.266V-6.687Z" transform="translate(721 1910)" fill="#fff"/>
    <g transform="matrix(1, 0, 0, 1, 556, 1876)" filter="url(#Trazado_1597)">
      <path id="Trazado_1597-2" data-name="Trazado 1597" d="M0,0H44V44H0Z" transform="translate(147 6)" fill="#b7006d"/>
    </g>
    <path id="Trazado_1598" data-name="Trazado 1598" d="M4.523-6.687A1.578,1.578,0,0,0,5.73-7.109,1.672,1.672,0,0,0,6.125-8.3a1.455,1.455,0,0,0-.414-1.062,1.546,1.546,0,0,0-1.156-.422A1.514,1.514,0,0,0,3.5-9.4a1.255,1.255,0,0,0-.426.977H.875L.859-8.469a2.582,2.582,0,0,1,1.031-2.2,4.115,4.115,0,0,1,2.664-.867,4.362,4.362,0,0,1,2.8.832A2.879,2.879,0,0,1,8.4-8.32a2.474,2.474,0,0,1-.449,1.434,3.07,3.07,0,0,1-1.23,1.027A2.873,2.873,0,0,1,8.094-4.84a2.784,2.784,0,0,1,.484,1.652A2.964,2.964,0,0,1,7.449-.73,4.518,4.518,0,0,1,4.555.164,4.51,4.51,0,0,1,1.836-.68,2.663,2.663,0,0,1,.711-3.047l.016-.047H2.945A1.433,1.433,0,0,0,3.395-2.02a1.6,1.6,0,0,0,1.16.434A1.76,1.76,0,0,0,5.82-2.047,1.538,1.538,0,0,0,6.3-3.211a1.766,1.766,0,0,0-.453-1.332,1.85,1.85,0,0,0-1.328-.434H3.266V-6.687Z" transform="translate(721 1910)" fill="#fff"/>
  </g>
</svg>
