<svg xmlns="http://www.w3.org/2000/svg" width="260.277" height="66.766" viewBox="0 0 260.277 66.766">
  <g id="Grupo_1053" data-name="Grupo 1053" transform="translate(-555 -1923)">
    <g id="Trazado_1319" data-name="Trazado 1319" transform="translate(555 1923)" fill="#f8f8f8">
      <path d="M 254.27734375 44 L 6.00000524520874 44 C 3.243005275726318 44 1.00000524520874 41.75699996948242 1.00000524520874 39 L 1.00000524520874 6 C 1.00000524520874 3.243000030517578 3.243005275726318 1 6.00000524520874 1 L 254.27734375 1 C 257.0343322753906 1 259.27734375 3.243000030517578 259.27734375 6 L 259.27734375 39 C 259.27734375 41.75699996948242 257.0343322753906 44 254.27734375 44 Z" stroke="none"/>
      <path d="M 6 2 C 3.794403076171875 2 2 3.794399261474609 2 6 L 2 39 C 2 41.20560073852539 3.794403076171875 43 6 43 L 254.27734375 43 C 256.4829406738281 43 258.27734375 41.20560073852539 258.27734375 39 L 258.27734375 6 C 258.27734375 3.794399261474609 256.4829406738281 2 254.27734375 2 L 6 2 M 6 0 L 254.27734375 0 C 257.591064453125 0 260.27734375 2.686298370361328 260.27734375 6 L 260.27734375 39 C 260.27734375 42.31370162963867 257.591064453125 45 254.27734375 45 L 6 45 C 2.686279296875 45 0 42.31370162963867 0 39 L 0 6 C 0 2.686298370361328 2.686279296875 0 6 0 Z" stroke="none" fill="#f9ad35"/>
    </g>
    <path id="Trazado_1321" data-name="Trazado 1321" d="M-55.922-8.453l.109,1.219A3.024,3.024,0,0,1-54.77-8.246a2.783,2.783,0,0,1,1.418-.363,2.64,2.64,0,0,1,2.059.813,3.692,3.692,0,0,1,.738,2.539V0h-1.9V-5.242a2.042,2.042,0,0,0-.383-1.4,1.5,1.5,0,0,0-1.156-.414,2.267,2.267,0,0,0-1.055.23,1.847,1.847,0,0,0-.711.637V0h-1.9V-8.453ZM-48.93-4.3a4.59,4.59,0,0,1,1.035-3.1,3.535,3.535,0,0,1,2.832-1.207A3.562,3.562,0,0,1-42.207-7.4a4.59,4.59,0,0,1,1.035,3.1v.164a4.583,4.583,0,0,1-1.035,3.105,3.555,3.555,0,0,1-2.84,1.2,3.558,3.558,0,0,1-2.848-1.2,4.587,4.587,0,0,1-1.035-3.1Zm1.9.164a3.75,3.75,0,0,0,.484,2.016,1.645,1.645,0,0,0,1.5.773,1.648,1.648,0,0,0,1.488-.777,3.684,3.684,0,0,0,.5-2.012V-4.3a3.676,3.676,0,0,0-.5-2,1.658,1.658,0,0,0-1.5-.785,1.626,1.626,0,0,0-1.48.785,3.722,3.722,0,0,0-.488,2Zm9.25-4.312.1,1.1a2.865,2.865,0,0,1,1.039-.93A3.065,3.065,0,0,1-35.2-8.609a2.608,2.608,0,0,1,1.422.375,2.266,2.266,0,0,1,.891,1.125,2.962,2.962,0,0,1,1.031-1.1,2.781,2.781,0,0,1,1.5-.4,2.479,2.479,0,0,1,2.012.887A4.125,4.125,0,0,1-27.6-5.039V0h-1.9V-5.047a2.49,2.49,0,0,0-.371-1.559,1.361,1.361,0,0,0-1.113-.449,1.629,1.629,0,0,0-1.031.328,1.828,1.828,0,0,0-.609.883q0,.117.008.2t.008.164V0h-1.9V-5.047a2.462,2.462,0,0,0-.379-1.539A1.347,1.347,0,0,0-36-7.055a2,2,0,0,0-.98.223,1.642,1.642,0,0,0-.637.629V0h-1.9V-8.453Zm19.6,4.508a4.778,4.778,0,0,1-.863,2.98A2.886,2.886,0,0,1-21.477.164a2.785,2.785,0,0,1-1.383-.328,2.711,2.711,0,0,1-.977-.953L-24.062,0H-25.6V-12.187h1.9v4.7a2.726,2.726,0,0,1,.938-.828,2.686,2.686,0,0,1,1.273-.289,2.813,2.813,0,0,1,2.449,1.234,5.59,5.59,0,0,1,.863,3.266Zm-1.9-.164a4.365,4.365,0,0,0-.453-2.133,1.528,1.528,0,0,0-1.437-.812,1.88,1.88,0,0,0-1.059.281,1.966,1.966,0,0,0-.676.781v3.547a1.862,1.862,0,0,0,.672.785,1.951,1.951,0,0,0,1.078.277,1.574,1.574,0,0,0,1.43-.691,3.424,3.424,0,0,0,.445-1.871Zm7.75-2.633-.812-.031a1.7,1.7,0,0,0-.926.234,1.544,1.544,0,0,0-.574.664V0h-1.9V-8.453H-14.8l.125,1.227a2.711,2.711,0,0,1,.824-1.016,1.919,1.919,0,0,1,1.16-.367,1.769,1.769,0,0,1,.32.027,2.339,2.339,0,0,1,.273.066ZM-7.484.164A3.681,3.681,0,0,1-10.379-1a4.374,4.374,0,0,1-1.043-3.027v-.312A4.522,4.522,0,0,1-10.379-7.41a3.37,3.37,0,0,1,2.691-1.2A3.163,3.163,0,0,1-5.109-7.559,4.249,4.249,0,0,1-4.234-4.75v1.023H-9.461l-.016.039A2.77,2.77,0,0,0-8.93-2a1.866,1.866,0,0,0,1.555.648,4.277,4.277,0,0,0,1.34-.187,3.825,3.825,0,0,0,1.051-.539l.617,1.242a4.023,4.023,0,0,1-1.281.711A5.37,5.37,0,0,1-7.484.164Zm-.2-7.25a1.467,1.467,0,0,0-1.187.535A2.652,2.652,0,0,0-9.43-5.156l.016.039h3.3v-.148a2.134,2.134,0,0,0-.379-1.316A1.4,1.4,0,0,0-7.687-7.086ZM9.828-3.961a5.137,5.137,0,0,1-.969,2.906A3.124,3.124,0,0,1,6.172.164,1.609,1.609,0,0,1,5.16-.164a1.815,1.815,0,0,1-.613-.93,2.5,2.5,0,0,1-.906.934A2.488,2.488,0,0,1,2.383.148a1.764,1.764,0,0,1-1.6-.934A4.024,4.024,0,0,1,.367-3.25a6.215,6.215,0,0,1,1.1-3.211A2.69,2.69,0,0,1,3.672-7.672a3.93,3.93,0,0,1,1.387.2,5.884,5.884,0,0,1,1.152.625l-.023.031h.039l-.4,4.523A1.8,1.8,0,0,0,5.969-1.2a.625.625,0,0,0,.539.3A1.7,1.7,0,0,0,8-1.77a4.35,4.35,0,0,0,.621-2.191A6.729,6.729,0,0,0,7.523-8.43a4.447,4.447,0,0,0-3.781-1.6A4.719,4.719,0,0,0-.082-8.3a7.425,7.425,0,0,0-1.551,4.57A6.53,6.53,0,0,0-.48.758,4.451,4.451,0,0,0,3.234,2.4a6.362,6.362,0,0,0,1.383-.156,4.994,4.994,0,0,0,1.2-.414l.3,1.016a4.3,4.3,0,0,1-1.332.512A7.133,7.133,0,0,1,3.2,3.539,5.781,5.781,0,0,1-1.469,1.59,7.5,7.5,0,0,1-2.984-3.734,8.266,8.266,0,0,1-1.016-9.086a6.126,6.126,0,0,1,4.789-2.039A5.619,5.619,0,0,1,8.359-9.2,7.5,7.5,0,0,1,9.828-3.961ZM1.938-3.25a3.462,3.462,0,0,0,.156,1.578.8.8,0,0,0,.773.539,1.909,1.909,0,0,0,.852-.191,1.755,1.755,0,0,0,.7-.684q0-.063,0-.125t.012-.156l.352-4.023A2.428,2.428,0,0,0,4.4-6.426a2.033,2.033,0,0,0-.422-.043,1.549,1.549,0,0,0-1.406.8A5.827,5.827,0,0,0,1.938-3.25ZM13.586,0h-1.9V-8.453h1.9Zm0-10.523h-1.9v-1.664h1.9Zm3.844,2.07.109,1.219a3.023,3.023,0,0,1,1.043-1.012A2.783,2.783,0,0,1,20-8.609a2.64,2.64,0,0,1,2.059.813A3.692,3.692,0,0,1,22.8-5.258V0H20.9V-5.242a2.042,2.042,0,0,0-.383-1.4,1.5,1.5,0,0,0-1.156-.414,2.267,2.267,0,0,0-1.055.23,1.847,1.847,0,0,0-.711.637V0H15.7V-8.453ZM28.359.164A3.681,3.681,0,0,1,25.465-1a4.374,4.374,0,0,1-1.043-3.027v-.312A4.522,4.522,0,0,1,25.465-7.41a3.37,3.37,0,0,1,2.691-1.2,3.163,3.163,0,0,1,2.578,1.051,4.249,4.249,0,0,1,.875,2.809v1.023H26.383l-.016.039A2.77,2.77,0,0,0,26.914-2a1.866,1.866,0,0,0,1.555.648,4.277,4.277,0,0,0,1.34-.187,3.825,3.825,0,0,0,1.051-.539l.617,1.242A4.023,4.023,0,0,1,30.2-.125,5.37,5.37,0,0,1,28.359.164Zm-.2-7.25a1.467,1.467,0,0,0-1.187.535,2.652,2.652,0,0,0-.555,1.395l.016.039h3.3v-.148a2.134,2.134,0,0,0-.379-1.316A1.4,1.4,0,0,0,28.156-7.086ZM35.234,0H33.344V-1.82h1.891Zm4.117-8.453.1,1.1a2.865,2.865,0,0,1,1.039-.93,3.065,3.065,0,0,1,1.445-.328,2.608,2.608,0,0,1,1.422.375,2.266,2.266,0,0,1,.891,1.125,2.962,2.962,0,0,1,1.031-1.1,2.781,2.781,0,0,1,1.5-.4,2.479,2.479,0,0,1,2.012.887,4.125,4.125,0,0,1,.738,2.684V0h-1.9V-5.047a2.49,2.49,0,0,0-.371-1.559,1.36,1.36,0,0,0-1.113-.449,1.629,1.629,0,0,0-1.031.328,1.828,1.828,0,0,0-.609.883q0,.117.008.2t.008.164V0h-1.9V-5.047a2.462,2.462,0,0,0-.379-1.539,1.347,1.347,0,0,0-1.113-.469,2,2,0,0,0-.98.223,1.642,1.642,0,0,0-.637.629V0h-1.9V-8.453Zm15.211,2.9,1.563-2.9H58.3l-2.656,4.18L58.383,0H56.227L54.594-2.969,52.961,0H50.789l2.734-4.273-2.656-4.18h2.156Z" transform="translate(629 1952)" fill="#494949"/>
    <path id="Trazado_1324" data-name="Trazado 1324" d="M37.289,37.693H24.871a1.457,1.457,0,0,1-1.345-2.329l6.211-10.548a1.457,1.457,0,0,1,2.687,0l6.206,10.54a1.458,1.458,0,0,1-1.342,2.333Z" transform="translate(762.82 1915.072)" fill="#f9ad35"/>
    <path id="Trazado_1456" data-name="Trazado 1456" d="M37.289,37.693H24.871a1.457,1.457,0,0,1-1.345-2.329l6.211-10.548a1.457,1.457,0,0,1,2.687,0l6.206,10.54a1.458,1.458,0,0,1-1.342,2.333Z" transform="translate(533.82 1952.072)" fill="#f9ad35"/>
    <path id="Trazado_1325" data-name="Trazado 1325" d="M32.563,37.609a.72.72,0,0,1-.72-.72V36.6a.72.72,0,0,1,1.44,0v.286A.72.72,0,0,1,32.563,37.609Z" transform="translate(761.262 1912.902)" fill="#fff"/>
    <path id="Trazado_1457" data-name="Trazado 1457" d="M32.563,37.609a.72.72,0,0,1-.72-.72V36.6a.72.72,0,0,1,1.44,0v.286A.72.72,0,0,1,32.563,37.609Z" transform="translate(532.262 1949.902)" fill="#fff"/>
    <path id="Trazado_1326" data-name="Trazado 1326" d="M32.563,33.338a.72.72,0,0,1-.72-.72V28.7a.72.72,0,0,1,1.44,0v3.919A.72.72,0,0,1,32.563,33.338Z" transform="translate(761.262 1914.336)" fill="#fff"/>
    <path id="Trazado_1458" data-name="Trazado 1458" d="M32.563,33.338a.72.72,0,0,1-.72-.72V28.7a.72.72,0,0,1,1.44,0v3.919A.72.72,0,0,1,32.563,33.338Z" transform="translate(532.262 1951.336)" fill="#fff"/>
    <path id="Trazado_1461" data-name="Trazado 1461" d="M.858-7.854V0H1.9V-3.6H5.511v-.88H1.9v-2.5H6.017v-.88ZM7.7-2.838a2.829,2.829,0,0,1,.137-.919,1.982,1.982,0,0,1,.379-.676,1.616,1.616,0,0,1,.567-.418,1.686,1.686,0,0,1,.688-.143,1.686,1.686,0,0,1,.688.143,1.616,1.616,0,0,1,.566.418,1.982,1.982,0,0,1,.379.676,2.829,2.829,0,0,1,.138.919,2.829,2.829,0,0,1-.138.918,1.922,1.922,0,0,1-.379.671,1.647,1.647,0,0,1-.566.413,1.686,1.686,0,0,1-.688.143,1.686,1.686,0,0,1-.687-.143,1.647,1.647,0,0,1-.567-.413,1.922,1.922,0,0,1-.379-.671A2.829,2.829,0,0,1,7.7-2.838Zm-.99,0a3.736,3.736,0,0,0,.176,1.166,2.662,2.662,0,0,0,.528.94A2.429,2.429,0,0,0,8.283-.1,2.947,2.947,0,0,0,9.471.121,2.937,2.937,0,0,0,10.665-.1a2.44,2.44,0,0,0,.863-.627,2.662,2.662,0,0,0,.528-.94,3.736,3.736,0,0,0,.176-1.166,3.788,3.788,0,0,0-.176-1.172,2.654,2.654,0,0,0-.528-.946,2.5,2.5,0,0,0-.863-.633,2.876,2.876,0,0,0-1.193-.231,2.886,2.886,0,0,0-1.188.231,2.487,2.487,0,0,0-.869.633,2.654,2.654,0,0,0-.528.946A3.788,3.788,0,0,0,6.71-2.838ZM13.3-5.687V0h.935V-2.53a3.888,3.888,0,0,1,.11-.974,1.866,1.866,0,0,1,.352-.72,1.509,1.509,0,0,1,.638-.451,2.644,2.644,0,0,1,.957-.154v-.99a2.1,2.1,0,0,0-1.254.308A2.533,2.533,0,0,0,14.2-4.488h-.022v-1.2Zm3.7,0V0h.935V-3.542a1.357,1.357,0,0,1,.083-.412,1.588,1.588,0,0,1,.264-.479,1.583,1.583,0,0,1,.473-.4,1.4,1.4,0,0,1,.7-.165,1.257,1.257,0,0,1,.523.094.8.8,0,0,1,.324.264,1.074,1.074,0,0,1,.17.4,2.417,2.417,0,0,1,.049.506V0h.935V-3.542a1.427,1.427,0,0,1,.4-1.056,1.472,1.472,0,0,1,1.089-.4,1.334,1.334,0,0,1,.556.1.824.824,0,0,1,.335.269,1.011,1.011,0,0,1,.165.4,2.645,2.645,0,0,1,.044.5V0h.935V-4.169a1.869,1.869,0,0,0-.138-.753,1.322,1.322,0,0,0-.385-.512,1.608,1.608,0,0,0-.594-.292,2.977,2.977,0,0,0-.776-.093,2.126,2.126,0,0,0-1.028.253,1.985,1.985,0,0,0-.753.715,1.232,1.232,0,0,0-.605-.748,2.066,2.066,0,0,0-.957-.22,2.068,2.068,0,0,0-1.837.968h-.022v-.836ZM31.416-.022a1.323,1.323,0,0,1-.671.143.8.8,0,0,1-.577-.2.885.885,0,0,1-.215-.666,2.237,2.237,0,0,1-.9.666,2.963,2.963,0,0,1-1.105.2,2.962,2.962,0,0,1-.732-.088,1.7,1.7,0,0,1-.6-.275,1.32,1.32,0,0,1-.4-.49,1.647,1.647,0,0,1-.149-.732,1.67,1.67,0,0,1,.165-.792,1.439,1.439,0,0,1,.434-.5,1.991,1.991,0,0,1,.616-.292q.347-.1.709-.165.385-.077.732-.116a4.075,4.075,0,0,0,.611-.11,1.017,1.017,0,0,0,.418-.209.51.51,0,0,0,.154-.4.933.933,0,0,0-.116-.495.792.792,0,0,0-.3-.286,1.208,1.208,0,0,0-.407-.132,3.074,3.074,0,0,0-.446-.033,1.977,1.977,0,0,0-.99.226.957.957,0,0,0-.429.852H26.29a2.02,2.02,0,0,1,.22-.891,1.668,1.668,0,0,1,.528-.589,2.215,2.215,0,0,1,.753-.324,3.979,3.979,0,0,1,.907-.1,5.323,5.323,0,0,1,.764.055,2,2,0,0,1,.688.226,1.318,1.318,0,0,1,.495.478,1.531,1.531,0,0,1,.187.8v2.926a2.188,2.188,0,0,0,.038.484q.039.154.258.154a.926.926,0,0,0,.286-.055ZM29.9-2.937a1.164,1.164,0,0,1-.462.192q-.286.061-.6.1t-.632.088a2.326,2.326,0,0,0-.572.16,1.041,1.041,0,0,0-.413.313.878.878,0,0,0-.16.556.76.76,0,0,0,.094.391A.779.779,0,0,0,27.4-.88a1.015,1.015,0,0,0,.347.143,1.923,1.923,0,0,0,.418.044,2.215,2.215,0,0,0,.792-.127,1.666,1.666,0,0,0,.539-.319,1.258,1.258,0,0,0,.308-.418,1.057,1.057,0,0,0,.1-.424Zm3.685-2.75v-1.7h-.935v1.7H31.68v.825h.968v3.619a2.161,2.161,0,0,0,.077.638.776.776,0,0,0,.236.374.913.913,0,0,0,.418.181A3.357,3.357,0,0,0,34,0h.715V-.825h-.429a3.118,3.118,0,0,1-.357-.016.462.462,0,0,1-.215-.072.272.272,0,0,1-.1-.154,1.02,1.02,0,0,1-.028-.264V-4.862h1.133v-.825Zm2.849,2.849a2.829,2.829,0,0,1,.137-.919,1.982,1.982,0,0,1,.38-.676,1.616,1.616,0,0,1,.567-.418,1.686,1.686,0,0,1,.688-.143,1.686,1.686,0,0,1,.688.143,1.616,1.616,0,0,1,.566.418,1.982,1.982,0,0,1,.38.676,2.829,2.829,0,0,1,.138.919,2.829,2.829,0,0,1-.138.918,1.922,1.922,0,0,1-.38.671,1.647,1.647,0,0,1-.566.413,1.686,1.686,0,0,1-.687.143,1.686,1.686,0,0,1-.687-.143,1.647,1.647,0,0,1-.567-.413,1.922,1.922,0,0,1-.38-.671A2.829,2.829,0,0,1,36.432-2.838Zm-.99,0a3.736,3.736,0,0,0,.176,1.166,2.662,2.662,0,0,0,.528.94,2.429,2.429,0,0,0,.869.627A2.947,2.947,0,0,0,38.2.121,2.937,2.937,0,0,0,39.4-.1a2.44,2.44,0,0,0,.864-.627,2.662,2.662,0,0,0,.528-.94,3.736,3.736,0,0,0,.176-1.166,3.788,3.788,0,0,0-.176-1.172,2.654,2.654,0,0,0-.528-.946,2.5,2.5,0,0,0-.864-.633A2.876,2.876,0,0,0,38.2-5.819a2.886,2.886,0,0,0-1.188.231,2.487,2.487,0,0,0-.869.633,2.654,2.654,0,0,0-.528.946A3.788,3.788,0,0,0,35.442-2.838ZM45.8-2.794a3.741,3.741,0,0,1,.088-.814,2.153,2.153,0,0,1,.286-.7,1.489,1.489,0,0,1,.528-.5,1.606,1.606,0,0,1,.8-.187,1.736,1.736,0,0,1,.825.181,1.6,1.6,0,0,1,.556.478,2,2,0,0,1,.313.688,3.277,3.277,0,0,1,.1.809,3.3,3.3,0,0,1-.093.781,2.047,2.047,0,0,1-.3.688,1.609,1.609,0,0,1-.539.49,1.606,1.606,0,0,1-.8.187,1.67,1.67,0,0,1-.786-.176,1.563,1.563,0,0,1-.55-.473,2.093,2.093,0,0,1-.319-.677A2.908,2.908,0,0,1,45.8-2.794ZM50.2,0V-7.854h-.935v2.926h-.022a1.506,1.506,0,0,0-.379-.424,2.156,2.156,0,0,0-.479-.275,2.4,2.4,0,0,0-.506-.148,2.77,2.77,0,0,0-.473-.044,2.588,2.588,0,0,0-1.139.236,2.337,2.337,0,0,0-.814.638A2.693,2.693,0,0,0,44.973-4a4.012,4.012,0,0,0-.16,1.144,3.887,3.887,0,0,0,.165,1.144,2.828,2.828,0,0,0,.489.946,2.366,2.366,0,0,0,.814.649,2.565,2.565,0,0,0,1.15.242,2.772,2.772,0,0,0,1.089-.209,1.376,1.376,0,0,0,.726-.682h.022V0Zm5.39-3.388H52.327a1.948,1.948,0,0,1,.143-.622,1.658,1.658,0,0,1,.33-.511,1.511,1.511,0,0,1,.5-.346,1.628,1.628,0,0,1,.654-.127,1.6,1.6,0,0,1,.644.127,1.619,1.619,0,0,1,.506.341,1.6,1.6,0,0,1,.341.511A1.913,1.913,0,0,1,55.594-3.388ZM56.5-1.8h-.924a1.33,1.33,0,0,1-.5.836,1.618,1.618,0,0,1-.973.275,1.937,1.937,0,0,1-.8-.154,1.574,1.574,0,0,1-.561-.413,1.607,1.607,0,0,1-.319-.594,2.257,2.257,0,0,1-.088-.709h4.257a4.528,4.528,0,0,0-.094-1.089,3.152,3.152,0,0,0-.418-1.056,2.491,2.491,0,0,0-.8-.8,2.333,2.333,0,0,0-1.259-.313,2.586,2.586,0,0,0-1.073.22,2.521,2.521,0,0,0-.847.616,2.839,2.839,0,0,0-.556.935,3.422,3.422,0,0,0-.2,1.188,4.559,4.559,0,0,0,.193,1.2,2.617,2.617,0,0,0,.511.946,2.331,2.331,0,0,0,.842.616,2.921,2.921,0,0,0,1.182.22,2.581,2.581,0,0,0,1.606-.484A2.273,2.273,0,0,0,56.5-1.8Zm7.975-2.057h.968a2.248,2.248,0,0,0-.264-.874,1.952,1.952,0,0,0-.534-.611,2.21,2.21,0,0,0-.748-.357,3.437,3.437,0,0,0-.907-.115,2.753,2.753,0,0,0-1.177.236,2.349,2.349,0,0,0-.841.649,2.76,2.76,0,0,0-.5.968A4.173,4.173,0,0,0,60.3-2.772,3.832,3.832,0,0,0,60.472-1.6a2.569,2.569,0,0,0,.506.919,2.229,2.229,0,0,0,.836.594,2.962,2.962,0,0,0,1.149.209,2.471,2.471,0,0,0,1.722-.572,2.619,2.619,0,0,0,.786-1.628h-.957a1.639,1.639,0,0,1-.479,1.023,1.53,1.53,0,0,1-1.083.363,1.548,1.548,0,0,1-.759-.176,1.477,1.477,0,0,1-.517-.468A2.064,2.064,0,0,1,61.385-2a3.163,3.163,0,0,1-.093-.77,3.868,3.868,0,0,1,.088-.83,2.083,2.083,0,0,1,.292-.709,1.51,1.51,0,0,1,.545-.5,1.743,1.743,0,0,1,.847-.187,1.419,1.419,0,0,1,.946.3A1.425,1.425,0,0,1,64.471-3.861ZM67.2-2.838a2.829,2.829,0,0,1,.137-.919,1.982,1.982,0,0,1,.38-.676,1.616,1.616,0,0,1,.566-.418,1.686,1.686,0,0,1,.688-.143,1.686,1.686,0,0,1,.688.143,1.616,1.616,0,0,1,.567.418,1.982,1.982,0,0,1,.379.676,2.829,2.829,0,0,1,.138.919,2.829,2.829,0,0,1-.138.918,1.922,1.922,0,0,1-.379.671,1.647,1.647,0,0,1-.567.413,1.686,1.686,0,0,1-.687.143,1.686,1.686,0,0,1-.687-.143,1.647,1.647,0,0,1-.566-.413,1.922,1.922,0,0,1-.38-.671A2.829,2.829,0,0,1,67.2-2.838Zm-.99,0a3.736,3.736,0,0,0,.176,1.166,2.662,2.662,0,0,0,.528.94,2.429,2.429,0,0,0,.869.627A2.947,2.947,0,0,0,68.97.121,2.937,2.937,0,0,0,70.164-.1a2.44,2.44,0,0,0,.863-.627,2.661,2.661,0,0,0,.528-.94,3.736,3.736,0,0,0,.176-1.166,3.788,3.788,0,0,0-.176-1.172,2.654,2.654,0,0,0-.528-.946,2.5,2.5,0,0,0-.863-.633,2.876,2.876,0,0,0-1.194-.231,2.886,2.886,0,0,0-1.188.231,2.487,2.487,0,0,0-.869.633,2.654,2.654,0,0,0-.528.946A3.788,3.788,0,0,0,66.209-2.838ZM72.8-5.687V0h.935V-2.53a3.888,3.888,0,0,1,.11-.974,1.866,1.866,0,0,1,.352-.72,1.509,1.509,0,0,1,.638-.451,2.644,2.644,0,0,1,.957-.154v-.99a2.1,2.1,0,0,0-1.254.308A2.533,2.533,0,0,0,73.7-4.488h-.022v-1.2Zm3.663,0V0H77.4V-2.53a3.888,3.888,0,0,1,.11-.974,1.866,1.866,0,0,1,.352-.72,1.509,1.509,0,0,1,.638-.451,2.644,2.644,0,0,1,.957-.154v-.99a2.1,2.1,0,0,0-1.254.308,2.533,2.533,0,0,0-.836,1.023h-.022v-1.2Zm7.447,2.3H80.641a1.947,1.947,0,0,1,.143-.622,1.658,1.658,0,0,1,.33-.511,1.512,1.512,0,0,1,.5-.346,1.628,1.628,0,0,1,.655-.127,1.6,1.6,0,0,1,.644.127,1.619,1.619,0,0,1,.506.341,1.6,1.6,0,0,1,.341.511A1.913,1.913,0,0,1,83.908-3.388Zm.9,1.584h-.924a1.33,1.33,0,0,1-.5.836,1.618,1.618,0,0,1-.974.275,1.937,1.937,0,0,1-.8-.154,1.574,1.574,0,0,1-.561-.413,1.607,1.607,0,0,1-.319-.594,2.257,2.257,0,0,1-.088-.709H84.9A4.527,4.527,0,0,0,84.8-3.652a3.152,3.152,0,0,0-.418-1.056,2.491,2.491,0,0,0-.8-.8,2.333,2.333,0,0,0-1.259-.313,2.586,2.586,0,0,0-1.073.22,2.521,2.521,0,0,0-.847.616,2.839,2.839,0,0,0-.555.935,3.422,3.422,0,0,0-.2,1.188,4.558,4.558,0,0,0,.192,1.2,2.617,2.617,0,0,0,.511.946A2.331,2.331,0,0,0,81.2-.1a2.921,2.921,0,0,0,1.183.22,2.581,2.581,0,0,0,1.606-.484A2.273,2.273,0,0,0,84.81-1.8Zm1.738-1.034a2.829,2.829,0,0,1,.137-.919,1.982,1.982,0,0,1,.38-.676,1.616,1.616,0,0,1,.566-.418,1.686,1.686,0,0,1,.688-.143,1.686,1.686,0,0,1,.688.143,1.616,1.616,0,0,1,.567.418,1.982,1.982,0,0,1,.379.676,2.829,2.829,0,0,1,.138.919,2.829,2.829,0,0,1-.138.918,1.922,1.922,0,0,1-.379.671,1.647,1.647,0,0,1-.567.413,1.686,1.686,0,0,1-.687.143,1.686,1.686,0,0,1-.687-.143,1.647,1.647,0,0,1-.566-.413,1.922,1.922,0,0,1-.38-.671A2.829,2.829,0,0,1,86.548-2.838Zm-.99,0a3.736,3.736,0,0,0,.176,1.166,2.662,2.662,0,0,0,.528.94,2.429,2.429,0,0,0,.869.627,2.947,2.947,0,0,0,1.188.225A2.937,2.937,0,0,0,89.513-.1a2.44,2.44,0,0,0,.863-.627,2.661,2.661,0,0,0,.528-.94,3.736,3.736,0,0,0,.176-1.166A3.788,3.788,0,0,0,90.9-4.01a2.654,2.654,0,0,0-.528-.946,2.5,2.5,0,0,0-.863-.633,2.876,2.876,0,0,0-1.194-.231,2.886,2.886,0,0,0-1.188.231,2.487,2.487,0,0,0-.869.633,2.654,2.654,0,0,0-.528.946A3.788,3.788,0,0,0,85.558-2.838ZM96.734-6.567V-7.854H95.172v1.287Zm-1.562.88V0h1.562V-5.687Zm2.794,0V0h1.562V-2.981a2.11,2.11,0,0,1,.286-1.248,1.082,1.082,0,0,1,.924-.38.852.852,0,0,1,.781.347,1.993,1.993,0,0,1,.22,1.05V0H103.3V-3.5a4.584,4.584,0,0,0-.093-.962,1.831,1.831,0,0,0-.325-.737,1.525,1.525,0,0,0-.632-.473,2.653,2.653,0,0,0-1.029-.17,2.227,2.227,0,0,0-.968.226,1.792,1.792,0,0,0-.77.72h-.033v-.792ZM107.635,0l1.925-5.687h-1.551L106.81-1.8h-.022l-1.2-3.883H103.95L105.9,0Zm2.508-3.938a1.814,1.814,0,0,1,.275-.913,1.873,1.873,0,0,1,.616-.583,2.684,2.684,0,0,1,.841-.313,4.784,4.784,0,0,1,.94-.094,6.374,6.374,0,0,1,.869.061,2.658,2.658,0,0,1,.8.236,1.582,1.582,0,0,1,.594.49,1.368,1.368,0,0,1,.231.831v2.959a5.942,5.942,0,0,0,.044.737,1.332,1.332,0,0,0,.154.528h-1.584a2.241,2.241,0,0,1-.071-.269,2.346,2.346,0,0,1-.038-.281,2.035,2.035,0,0,1-.88.539A3.532,3.532,0,0,1,111.9.143a2.794,2.794,0,0,1-.759-.1,1.738,1.738,0,0,1-.616-.308,1.434,1.434,0,0,1-.412-.528,1.785,1.785,0,0,1-.149-.759,1.658,1.658,0,0,1,.171-.8,1.426,1.426,0,0,1,.44-.5,1.971,1.971,0,0,1,.616-.28,6.576,6.576,0,0,1,.7-.149q.352-.055.693-.088a4.168,4.168,0,0,0,.6-.1,1.055,1.055,0,0,0,.418-.193.423.423,0,0,0,.143-.368.829.829,0,0,0-.083-.4.607.607,0,0,0-.22-.231.865.865,0,0,0-.319-.11,2.61,2.61,0,0,0-.391-.028,1.186,1.186,0,0,0-.726.2.884.884,0,0,0-.308.66Zm3.608,1.155a.7.7,0,0,1-.248.138,2.528,2.528,0,0,1-.319.082q-.17.033-.357.055t-.374.055a2.821,2.821,0,0,0-.346.088,1.024,1.024,0,0,0-.3.148.706.706,0,0,0-.2.237.761.761,0,0,0-.077.363.735.735,0,0,0,.077.352.59.59,0,0,0,.209.225.882.882,0,0,0,.308.116,1.966,1.966,0,0,0,.363.033,1.381,1.381,0,0,0,.715-.154,1.03,1.03,0,0,0,.374-.368,1.178,1.178,0,0,0,.148-.434,2.985,2.985,0,0,0,.028-.352Zm1.067-5.852-1.793,1.947h-1.089L113.1-8.635Zm1.749.781V0h1.562V-7.854Zm4.4,1.287V-7.854H119.4v1.287Zm-1.562.88V0h1.562V-5.687Zm6.831,2.827a3.47,3.47,0,0,1-.066.682,1.848,1.848,0,0,1-.22.588,1.17,1.17,0,0,1-.412.413,1.239,1.239,0,0,1-.644.154,1.161,1.161,0,0,1-.621-.16,1.372,1.372,0,0,1-.429-.418,1.8,1.8,0,0,1-.248-.589,2.9,2.9,0,0,1-.077-.66,3.136,3.136,0,0,1,.071-.676,1.8,1.8,0,0,1,.231-.578,1.218,1.218,0,0,1,.424-.407,1.269,1.269,0,0,1,.649-.154,1.209,1.209,0,0,1,.638.154,1.27,1.27,0,0,1,.412.4,1.653,1.653,0,0,1,.226.572A3.387,3.387,0,0,1,126.236-2.86Zm.022,2.134V0h1.485V-7.854h-1.562v2.86h-.022a1.677,1.677,0,0,0-.72-.633,2.236,2.236,0,0,0-.963-.214,2.339,2.339,0,0,0-1.1.248,2.358,2.358,0,0,0-.787.654,2.873,2.873,0,0,0-.473.941,3.839,3.839,0,0,0-.16,1.105,4.087,4.087,0,0,0,.16,1.144,3.045,3.045,0,0,0,.473.973,2.252,2.252,0,0,0,.8.671,2.432,2.432,0,0,0,1.122.248,2.4,2.4,0,0,0,1.007-.2,1.611,1.611,0,0,0,.72-.666Zm4.048-2.112a3.413,3.413,0,0,1,.066-.671,1.712,1.712,0,0,1,.225-.583,1.267,1.267,0,0,1,.424-.412,1.257,1.257,0,0,1,.66-.16,1.287,1.287,0,0,1,.665.16,1.251,1.251,0,0,1,.429.412,1.712,1.712,0,0,1,.226.583,3.414,3.414,0,0,1,.066.671,3.331,3.331,0,0,1-.066.665,1.773,1.773,0,0,1-.226.583,1.187,1.187,0,0,1-.429.413,1.324,1.324,0,0,1-.665.154,1.293,1.293,0,0,1-.66-.154,1.2,1.2,0,0,1-.424-.413,1.773,1.773,0,0,1-.225-.583A3.33,3.33,0,0,1,130.306-2.838Zm-1.562,0a3.446,3.446,0,0,0,.209,1.232,2.672,2.672,0,0,0,.594.94,2.6,2.6,0,0,0,.924.6,3.324,3.324,0,0,0,1.21.209A3.368,3.368,0,0,0,132.9-.066a2.589,2.589,0,0,0,.93-.6,2.672,2.672,0,0,0,.594-.94,3.446,3.446,0,0,0,.209-1.232,3.491,3.491,0,0,0-.209-1.238,2.663,2.663,0,0,0-.594-.946,2.651,2.651,0,0,0-.93-.605,3.291,3.291,0,0,0-1.215-.214,3.248,3.248,0,0,0-1.21.214,2.662,2.662,0,0,0-.924.605,2.663,2.663,0,0,0-.594.946A3.491,3.491,0,0,0,128.744-2.838Z" transform="translate(581 1987)" fill="#f9ad35"/>
  </g>
</svg>
