<svg xmlns="http://www.w3.org/2000/svg" width="297.054" height="88.019" viewBox="0 0 297.054 88.019">
  <g id="Grupo_2485" data-name="Grupo 2485" transform="translate(-386 -229)">
    <g id="Grupo_2484" data-name="Grupo 2484">
      <g id="Grupo_2450" data-name="Grupo 2450" transform="translate(359 6)">
        <rect id="Rectángulo_98" data-name="Rectángulo 98" width="111.813" height="32" rx="16" transform="translate(27 223.019)" fill="#f2f2f2"/>
        <rect id="Rectángulo_104" data-name="Rectángulo 104" width="111.813" height="32" rx="16" transform="translate(27 279.019)" fill="#e4f1f2"/>
        <g id="Button" transform="translate(-238.822 49.498)">
          <g id="Grupo_2414" data-name="Grupo 2414">
            <text id="Chip_ejemplo" data-name="Chip ejemplo" transform="translate(277.802 193.61)" fill="#333" font-size="14" font-family="Roboto-Regular, Roboto" letter-spacing="0.033em" style="isolation: isolate"><tspan x="0" y="0">Chip ejemplo</tspan></text>
          </g>
        </g>
        <g id="Button-2" data-name="Button" transform="translate(-238.822 105.498)">
          <g id="Grupo_2414-2" data-name="Grupo 2414">
            <text id="Chip_ejemplo-2" data-name="Chip ejemplo" transform="translate(277.802 193.61)" fill="#333" font-size="14" font-family="Roboto-Regular, Roboto" letter-spacing="0.033em" style="isolation: isolate"><tspan x="0" y="0">Chip ejemplo</tspan></text>
          </g>
        </g>
        <rect id="Rectángulo_105" data-name="Rectángulo 105" width="174.017" height="32" rx="16" transform="translate(150 223.203) rotate(-0.067)" fill="#f9dbed"/>
        <rect id="Rectángulo_137" data-name="Rectángulo 137" width="174.017" height="32" rx="16" transform="translate(150 278.203) rotate(-0.067)" fill="#ede4f2"/>
        <g id="Grupo_2416" data-name="Grupo 2416" transform="translate(68.018 -243.015)">
          <g id="Grupo_2415" data-name="Grupo 2415">
            <path id="Trazado_2197" data-name="Trazado 2197" d="M245.663,475.663a8.467,8.467,0,0,0-12.278.014A9.246,9.246,0,0,0,233.4,488.4a8.468,8.468,0,0,0,12.278-.013,9.237,9.237,0,0,0-.015-12.729Zm-2.38,10.219a.953.953,0,0,1-1.385,0l-2.36-2.44-2.366,2.459a.955.955,0,0,1-1.385,0,1.04,1.04,0,0,1,0-1.436l2.365-2.459-2.36-2.44a1.043,1.043,0,0,1,0-1.436.956.956,0,0,1,1.386,0l2.36,2.441,2.342-2.435a.957.957,0,0,1,1.386,0,1.044,1.044,0,0,1,0,1.438l-2.343,2.433,2.36,2.441A1.042,1.042,0,0,1,243.283,485.882Z" fill="#666"/>
          </g>
        </g>
        <g id="Grupo_2449" data-name="Grupo 2449" transform="translate(68.018 -188.015)">
          <g id="Grupo_2415-2" data-name="Grupo 2415">
            <path id="Trazado_2197-2" data-name="Trazado 2197" d="M245.663,475.663a8.467,8.467,0,0,0-12.278.014A9.246,9.246,0,0,0,233.4,488.4a8.468,8.468,0,0,0,12.278-.013,9.237,9.237,0,0,0-.015-12.729Zm-2.38,10.219a.953.953,0,0,1-1.385,0l-2.36-2.44-2.366,2.459a.955.955,0,0,1-1.385,0,1.04,1.04,0,0,1,0-1.436l2.365-2.459-2.36-2.44a1.043,1.043,0,0,1,0-1.436.956.956,0,0,1,1.386,0l2.36,2.441,2.342-2.435a.957.957,0,0,1,1.386,0,1.044,1.044,0,0,1,0,1.438l-2.343,2.433,2.36,2.441A1.042,1.042,0,0,1,243.283,485.882Z" fill="#666"/>
          </g>
        </g>
        <g id="Button-3" data-name="Button" transform="translate(68.018 -243.015)">
          <text id="Chip_de_ejemplo" data-name="Chip de ejemplo" transform="translate(118.903 486.156) rotate(-0.067)" fill="#333" font-size="14" font-family="Roboto-Regular, Roboto" letter-spacing="0.033em" style="isolation: isolate"><tspan x="0" y="0">Chip de ejemplo</tspan></text>
        </g>
        <g id="Button-4" data-name="Button" transform="translate(68.018 -188.015)">
          <text id="Chip_de_ejemplo-2" data-name="Chip de ejemplo" transform="translate(118.903 486.156) rotate(-0.067)" fill="#333" font-size="14" font-family="Roboto-Regular, Roboto" letter-spacing="0.033em" style="isolation: isolate"><tspan x="0" y="0">Chip de ejemplo</tspan></text>
        </g>
        <g id="Grupo_2417" data-name="Grupo 2417" transform="translate(68.018 -243.015)">
          <path id="Trazado_2198" data-name="Trazado 2198" d="M98.538,470.2a9.261,9.261,0,0,0-7.721,14.32c.259.4,3.681,5.01,6.514,8.82l.243.318a1.3,1.3,0,0,0,2.131-.023l.3-.411c1.227-1.7,5.865-8.11,6.138-8.505a9.259,9.259,0,0,0-7.6-14.519Zm3,9.144a2.961,2.961,0,1,1-2.965-2.963A2.968,2.968,0,0,1,101.542,479.343Z" fill="#242424"/>
        </g>
        <g id="Grupo_2448" data-name="Grupo 2448" transform="translate(68.018 -188.015)">
          <path id="Trazado_2198-2" data-name="Trazado 2198" d="M98.538,470.2a9.261,9.261,0,0,0-7.721,14.32c.259.4,3.681,5.01,6.514,8.82l.243.318a1.3,1.3,0,0,0,2.131-.023l.3-.411c1.227-1.7,5.865-8.11,6.138-8.505a9.259,9.259,0,0,0-7.6-14.519Zm3,9.144a2.961,2.961,0,1,1-2.965-2.963A2.968,2.968,0,0,1,101.542,479.343Z" fill="#242424"/>
        </g>
      </g>
    </g>
  </g>
</svg>
