<svg xmlns="http://www.w3.org/2000/svg" xmlns:xlink="http://www.w3.org/1999/xlink" width="384" height="477" viewBox="0 0 384 477">
  <defs>
    <filter id="Rectángulo_3451" x="0" y="0" width="384" height="477" filterUnits="userSpaceOnUse">
      <feOffset input="SourceAlpha"/>
      <feGaussianBlur stdDeviation="3" result="blur"/>
      <feFlood flood-opacity="0.102"/>
      <feComposite operator="in" in2="blur"/>
      <feComposite in="SourceGraphic"/>
    </filter>
  </defs>
  <g id="Grupo_2493" data-name="Grupo 2493" transform="translate(-376 -678)">
    <g transform="matrix(1, 0, 0, 1, 376, 678)" filter="url(#Rectángulo_3451)">
      <rect id="Rectángulo_3451-2" data-name="Rectángulo 3451" width="366" height="459" transform="translate(9 9)" fill="#fff"/>
    </g>
    <text id="App" transform="translate(450.235 719)" font-size="14" font-family="Roboto-Medium, Roboto" font-weight="500"><tspan x="0" y="15">App</tspan></text>
    <text id="res" transform="translate(450.235 826)" font-size="14" font-family="Roboto-Medium, Roboto" font-weight="500"><tspan x="0" y="15">res</tspan></text>
    <text id="Gradle_Scripts" data-name="Gradle Scripts" transform="translate(450.235 1097)" font-size="14" font-family="Roboto-Medium, Roboto" font-weight="500"><tspan x="0" y="15">Gradle Scripts</tspan></text>
    <text id="manifest" transform="translate(481.426 745.888)" font-size="14" font-family="Roboto-Medium, Roboto" font-weight="500"><tspan x="0" y="15">manifest</tspan></text>
    <text id="drawable" transform="translate(481.426 855.888)" font-size="14" font-family="Roboto-Medium, Roboto" font-weight="500"><tspan x="0" y="15">drawable</tspan></text>
    <text id="font" transform="translate(481.426 881.888)" font-size="14" font-family="Roboto-Medium, Roboto" font-weight="500"><tspan x="0" y="15">font</tspan></text>
    <text id="menu" transform="translate(481.426 930.888)" font-size="14" font-family="Roboto-Medium, Roboto" font-weight="500"><tspan x="0" y="15">menu</tspan></text>
    <text id="layout" transform="translate(481.426 904.888)" font-size="14" font-family="Roboto-Medium, Roboto" font-weight="500"><tspan x="0" y="15">layout</tspan></text>
    <text id="mipmap" transform="translate(481.426 953.888)" font-size="14" font-family="Roboto-Medium, Roboto" font-weight="500"><tspan x="0" y="15">mipmap</tspan></text>
    <text id="values" transform="translate(481.426 976.888)" font-size="14" font-family="Roboto-Medium, Roboto" font-weight="500"><tspan x="0" y="15">values</tspan></text>
    <text id="java" transform="translate(481.426 770.888)" font-size="14" font-family="Roboto-Medium, Roboto" font-weight="500"><tspan x="0" y="15">java</tspan></text>
    <text id="java_generated_" data-name="java (generated)" transform="translate(481.426 795.888)" font-size="14" font-family="Roboto-Medium, Roboto" font-weight="500"><tspan x="0" y="15">java (generated)</tspan></text>
    <path id="Trazado_2092" data-name="Trazado 2092" d="M95.415,699.818l2.936-4.544h3.092l-4.812,6.352h-2.5l-4.812-6.352h3.092Z" transform="translate(324.678 31.281)" fill="#232324"/>
    <path id="Trazado_2139" data-name="Trazado 2139" d="M95.415,699.818l2.936-4.544h3.092l-4.812,6.352h-2.5l-4.812-6.352h3.092Z" transform="translate(324.678 138.281)" fill="#232324"/>
    <path id="Trazado_2146" data-name="Trazado 2146" d="M95.415,699.818l2.936-4.544h3.092l-4.812,6.352h-2.5l-4.812-6.352h3.092Z" transform="translate(-278.389 1203.114) rotate(-90)" fill="#232324"/>
    <path id="Trazado_2093" data-name="Trazado 2093" d="M124.454,727.781l2.936-4.543h3.092l-4.812,6.352h-2.5l-4.812-6.352h3.091Z" transform="translate(-277.313 882.117) rotate(-90)" fill="#232324"/>
    <path id="Trazado_2140" data-name="Trazado 2140" d="M124.454,727.781l2.936-4.543h3.092l-4.812,6.352h-2.5l-4.812-6.352h3.091Z" transform="translate(-277.314 990.117) rotate(-90)" fill="#232324"/>
    <path id="Trazado_2141" data-name="Trazado 2141" d="M124.454,727.781l2.936-4.543h3.092l-4.812,6.352h-2.5l-4.812-6.352h3.091Z" transform="translate(-277.313 1016.117) rotate(-90)" fill="#232324"/>
    <path id="Trazado_2143" data-name="Trazado 2143" d="M124.454,727.781l2.936-4.543h3.092l-4.812,6.352h-2.5l-4.812-6.352h3.091Z" transform="translate(-277.313 1065.117) rotate(-90)" fill="#232324"/>
    <path id="Trazado_2142" data-name="Trazado 2142" d="M124.454,727.781l2.936-4.543h3.092l-4.812,6.352h-2.5l-4.812-6.352h3.091Z" transform="translate(-277.313 1039.117) rotate(-90)" fill="#232324"/>
    <path id="Trazado_2144" data-name="Trazado 2144" d="M124.454,727.781l2.936-4.543h3.092l-4.812,6.352h-2.5l-4.812-6.352h3.091Z" transform="translate(-277.313 1088.117) rotate(-90)" fill="#232324"/>
    <path id="Trazado_2145" data-name="Trazado 2145" d="M124.454,727.781l2.936-4.543h3.092l-4.812,6.352h-2.5l-4.812-6.352h3.091Z" transform="translate(-277.313 1111.117) rotate(-90)" fill="#232324"/>
    <path id="Trazado_2137" data-name="Trazado 2137" d="M124.454,727.781l2.936-4.543h3.092l-4.812,6.352h-2.5l-4.812-6.352h3.091Z" transform="translate(-277.313 907.117) rotate(-90)" fill="#232324"/>
    <path id="Trazado_2138" data-name="Trazado 2138" d="M124.454,727.781l2.936-4.543h3.092l-4.812,6.352h-2.5l-4.812-6.352h3.091Z" transform="translate(-277.313 932.117) rotate(-90)" fill="#232324"/>
    <path id="Trazado_2094" data-name="Trazado 2094" d="M149.042,722.341v9.772H135.274v-9.772a.845.845,0,0,1,.845-.846H148.2A.846.846,0,0,1,149.042,722.341Z" transform="translate(324.678 31.281)" fill="#98145e"/>
    <path id="Trazado_2095" data-name="Trazado 2095" d="M141.407,721.367v1.085h-6.133v-1.085a.711.711,0,0,1,.711-.711H140.7A.711.711,0,0,1,141.407,721.367Z" transform="translate(324.678 31.281)" fill="#98145e"/>
    <path id="Trazado_2096" data-name="Trazado 2096" d="M149.042,722.823v9.771H135.274v-9.771a.845.845,0,0,1,.845-.846H148.2A.846.846,0,0,1,149.042,722.823Z" transform="translate(324.678 31.281)" fill="#fff"/>
    <path id="Trazado_2097" data-name="Trazado 2097" d="M149.042,723.142v9.771H135.274v-9.771a.845.845,0,0,1,.845-.846H148.2A.846.846,0,0,1,149.042,723.142Z" transform="translate(324.678 31.281)" fill="#d3097f"/>
    <path id="Trazado_2094-2" data-name="Trazado 2094" d="M149.042,722.341v9.772H135.274v-9.772a.845.845,0,0,1,.845-.846H148.2A.846.846,0,0,1,149.042,722.341Z" transform="translate(324.678 138.281)" fill="#98145e"/>
    <path id="Trazado_2095-2" data-name="Trazado 2095" d="M141.407,721.367v1.085h-6.133v-1.085a.711.711,0,0,1,.711-.711H140.7A.711.711,0,0,1,141.407,721.367Z" transform="translate(324.678 138.281)" fill="#98145e"/>
    <path id="Trazado_2096-2" data-name="Trazado 2096" d="M149.042,722.823v9.771H135.274v-9.771a.845.845,0,0,1,.845-.846H148.2A.846.846,0,0,1,149.042,722.823Z" transform="translate(324.678 138.281)" fill="#fff"/>
    <path id="Trazado_2097-2" data-name="Trazado 2097" d="M149.042,723.142v9.771H135.274v-9.771a.845.845,0,0,1,.845-.846H148.2A.846.846,0,0,1,149.042,723.142Z" transform="translate(324.678 138.281)" fill="#d3097f"/>
    <path id="Trazado_2094-3" data-name="Trazado 2094" d="M149.042,722.341v9.772H135.274v-9.772a.845.845,0,0,1,.845-.846H148.2A.846.846,0,0,1,149.042,722.341Z" transform="translate(324.678 165.281)" fill="#98145e"/>
    <path id="Trazado_2095-3" data-name="Trazado 2095" d="M141.407,721.367v1.085h-6.133v-1.085a.711.711,0,0,1,.711-.711H140.7A.711.711,0,0,1,141.407,721.367Z" transform="translate(324.678 165.281)" fill="#98145e"/>
    <path id="Trazado_2096-3" data-name="Trazado 2096" d="M149.042,722.823v9.771H135.274v-9.771a.845.845,0,0,1,.845-.846H148.2A.846.846,0,0,1,149.042,722.823Z" transform="translate(324.678 165.281)" fill="#fff"/>
    <path id="Trazado_2097-3" data-name="Trazado 2097" d="M149.042,723.142v9.771H135.274v-9.771a.845.845,0,0,1,.845-.846H148.2A.846.846,0,0,1,149.042,723.142Z" transform="translate(324.678 165.281)" fill="#d3097f"/>
    <path id="Trazado_2094-4" data-name="Trazado 2094" d="M149.042,722.341v9.772H135.274v-9.772a.845.845,0,0,1,.845-.846H148.2A.846.846,0,0,1,149.042,722.341Z" transform="translate(324.678 214.281)" fill="#98145e"/>
    <path id="Trazado_2095-4" data-name="Trazado 2095" d="M141.407,721.367v1.085h-6.133v-1.085a.711.711,0,0,1,.711-.711H140.7A.711.711,0,0,1,141.407,721.367Z" transform="translate(324.678 214.281)" fill="#98145e"/>
    <path id="Trazado_2096-4" data-name="Trazado 2096" d="M149.042,722.823v9.771H135.274v-9.771a.845.845,0,0,1,.845-.846H148.2A.846.846,0,0,1,149.042,722.823Z" transform="translate(324.678 214.281)" fill="#fff"/>
    <path id="Trazado_2097-4" data-name="Trazado 2097" d="M149.042,723.142v9.771H135.274v-9.771a.845.845,0,0,1,.845-.846H148.2A.846.846,0,0,1,149.042,723.142Z" transform="translate(324.678 214.281)" fill="#d3097f"/>
    <path id="Trazado_2094-5" data-name="Trazado 2094" d="M149.042,722.341v9.772H135.274v-9.772a.845.845,0,0,1,.845-.846H148.2A.846.846,0,0,1,149.042,722.341Z" transform="translate(324.678 188.281)" fill="#98145e"/>
    <path id="Trazado_2095-5" data-name="Trazado 2095" d="M141.407,721.367v1.085h-6.133v-1.085a.711.711,0,0,1,.711-.711H140.7A.711.711,0,0,1,141.407,721.367Z" transform="translate(324.678 188.281)" fill="#98145e"/>
    <path id="Trazado_2096-5" data-name="Trazado 2096" d="M149.042,722.823v9.771H135.274v-9.771a.845.845,0,0,1,.845-.846H148.2A.846.846,0,0,1,149.042,722.823Z" transform="translate(324.678 188.281)" fill="#fff"/>
    <path id="Trazado_2097-5" data-name="Trazado 2097" d="M149.042,723.142v9.771H135.274v-9.771a.845.845,0,0,1,.845-.846H148.2A.846.846,0,0,1,149.042,723.142Z" transform="translate(324.678 188.281)" fill="#d3097f"/>
    <path id="Trazado_2094-6" data-name="Trazado 2094" d="M149.042,722.341v9.772H135.274v-9.772a.845.845,0,0,1,.845-.846H148.2A.846.846,0,0,1,149.042,722.341Z" transform="translate(324.678 237.281)" fill="#98145e"/>
    <path id="Trazado_2095-6" data-name="Trazado 2095" d="M141.407,721.367v1.085h-6.133v-1.085a.711.711,0,0,1,.711-.711H140.7A.711.711,0,0,1,141.407,721.367Z" transform="translate(324.678 237.281)" fill="#98145e"/>
    <path id="Trazado_2096-6" data-name="Trazado 2096" d="M149.042,722.823v9.771H135.274v-9.771a.845.845,0,0,1,.845-.846H148.2A.846.846,0,0,1,149.042,722.823Z" transform="translate(324.678 237.281)" fill="#fff"/>
    <path id="Trazado_2097-6" data-name="Trazado 2097" d="M149.042,723.142v9.771H135.274v-9.771a.845.845,0,0,1,.845-.846H148.2A.846.846,0,0,1,149.042,723.142Z" transform="translate(324.678 237.281)" fill="#d3097f"/>
    <path id="Trazado_2094-7" data-name="Trazado 2094" d="M149.042,722.341v9.772H135.274v-9.772a.845.845,0,0,1,.845-.846H148.2A.846.846,0,0,1,149.042,722.341Z" transform="translate(324.678 260.281)" fill="#98145e"/>
    <path id="Trazado_2095-7" data-name="Trazado 2095" d="M141.407,721.367v1.085h-6.133v-1.085a.711.711,0,0,1,.711-.711H140.7A.711.711,0,0,1,141.407,721.367Z" transform="translate(324.678 260.281)" fill="#98145e"/>
    <path id="Trazado_2096-7" data-name="Trazado 2096" d="M149.042,722.823v9.771H135.274v-9.771a.845.845,0,0,1,.845-.846H148.2A.846.846,0,0,1,149.042,722.823Z" transform="translate(324.678 260.281)" fill="#fff"/>
    <path id="Trazado_2097-7" data-name="Trazado 2097" d="M149.042,723.142v9.771H135.274v-9.771a.845.845,0,0,1,.845-.846H148.2A.846.846,0,0,1,149.042,723.142Z" transform="translate(324.678 260.281)" fill="#d3097f"/>
    <path id="Trazado_2094-8" data-name="Trazado 2094" d="M149.042,722.341v9.772H135.274v-9.772a.845.845,0,0,1,.845-.846H148.2A.846.846,0,0,1,149.042,722.341Z" transform="translate(324.678 56.281)" fill="#98145e"/>
    <path id="Trazado_2095-8" data-name="Trazado 2095" d="M141.407,721.367v1.085h-6.133v-1.085a.711.711,0,0,1,.711-.711H140.7A.711.711,0,0,1,141.407,721.367Z" transform="translate(324.678 56.281)" fill="#98145e"/>
    <path id="Trazado_2096-8" data-name="Trazado 2096" d="M149.042,722.823v9.771H135.274v-9.771a.845.845,0,0,1,.845-.846H148.2A.846.846,0,0,1,149.042,722.823Z" transform="translate(324.678 56.281)" fill="#fff"/>
    <path id="Trazado_2097-8" data-name="Trazado 2097" d="M149.042,723.142v9.771H135.274v-9.771a.845.845,0,0,1,.845-.846H148.2A.846.846,0,0,1,149.042,723.142Z" transform="translate(324.678 56.281)" fill="#d3097f"/>
    <path id="Trazado_2094-9" data-name="Trazado 2094" d="M149.042,722.341v9.772H135.274v-9.772a.845.845,0,0,1,.845-.846H148.2A.846.846,0,0,1,149.042,722.341Z" transform="translate(324.678 81.281)" fill="#98145e"/>
    <path id="Trazado_2095-9" data-name="Trazado 2095" d="M141.407,721.367v1.085h-6.133v-1.085a.711.711,0,0,1,.711-.711H140.7A.711.711,0,0,1,141.407,721.367Z" transform="translate(324.678 81.281)" fill="#98145e"/>
    <path id="Trazado_2096-9" data-name="Trazado 2096" d="M149.042,722.823v9.771H135.274v-9.771a.845.845,0,0,1,.845-.846H148.2A.846.846,0,0,1,149.042,722.823Z" transform="translate(324.678 81.281)" fill="#fff"/>
    <path id="Trazado_2097-9" data-name="Trazado 2097" d="M149.042,723.142v9.771H135.274v-9.771a.845.845,0,0,1,.845-.846H148.2A.846.846,0,0,1,149.042,723.142Z" transform="translate(324.678 81.281)" fill="#d3097f"/>
    <path id="Trazado_2103" data-name="Trazado 2103" d="M120,694.377v9.772H106.234v-9.772a.845.845,0,0,1,.846-.845h12.077A.845.845,0,0,1,120,694.377Z" transform="translate(324.678 31.281)" fill="#390b25"/>
    <path id="Trazado_2104" data-name="Trazado 2104" d="M112.368,693.4v1.085h-6.134V693.4a.712.712,0,0,1,.711-.711h4.712A.711.711,0,0,1,112.368,693.4Z" transform="translate(324.678 31.281)" fill="#390b25"/>
    <path id="Trazado_2105" data-name="Trazado 2105" d="M120,694.859v9.772H106.234v-9.772a.846.846,0,0,1,.846-.846h12.077A.846.846,0,0,1,120,694.859Z" transform="translate(324.678 31.281)" fill="#fff"/>
    <path id="Trazado_2106" data-name="Trazado 2106" d="M120,695.178v9.772H106.234v-9.772a.846.846,0,0,1,.846-.846h12.077A.846.846,0,0,1,120,695.178Z" transform="translate(324.678 31.281)" fill="#79134b"/>
    <path id="Trazado_2103-2" data-name="Trazado 2103" d="M120,694.377v9.772H106.234v-9.772a.845.845,0,0,1,.846-.845h12.077A.845.845,0,0,1,120,694.377Z" transform="translate(324.678 138.281)" fill="#390b25"/>
    <path id="Trazado_2104-2" data-name="Trazado 2104" d="M112.368,693.4v1.085h-6.134V693.4a.712.712,0,0,1,.711-.711h4.712A.711.711,0,0,1,112.368,693.4Z" transform="translate(324.678 138.281)" fill="#390b25"/>
    <path id="Trazado_2105-2" data-name="Trazado 2105" d="M120,694.859v9.772H106.234v-9.772a.846.846,0,0,1,.846-.846h12.077A.846.846,0,0,1,120,694.859Z" transform="translate(324.678 138.281)" fill="#fff"/>
    <path id="Trazado_2106-2" data-name="Trazado 2106" d="M120,695.178v9.772H106.234v-9.772a.846.846,0,0,1,.846-.846h12.077A.846.846,0,0,1,120,695.178Z" transform="translate(324.678 138.281)" fill="#79134b"/>
    <path id="Trazado_2147" data-name="Trazado 2147" d="M454.228,1166.214c-1.121-.876-.105-3.014-.105-3.014,2.033-5.186-1.484-7.8-2.085-8.14-1.224-.693-4.136-1.373-5.606.493a1.6,1.6,0,0,0-.085,1.641,4.115,4.115,0,0,0,2.951,2.362.769.769,0,0,0,.719-.224c.507-.591.24-2.144.094-2.693a.28.28,0,0,1,.542-.144c.061.231.578,2.285-.21,3.2a1.257,1.257,0,0,1-1,.428,1.9,1.9,0,0,1-.208-.012,4.662,4.662,0,0,1-3.408-2.7,2.749,2.749,0,0,1-.224-.993c-3.21,0-6.874,1.789-7.113,5.008a.226.226,0,0,0,.416.138,4.112,4.112,0,0,1,.686-.856,3.189,3.189,0,0,0,.455,1.434,5.7,5.7,0,0,1,.817,2.935l.005,1.907c.027.234.579.421,1.261.421s1.234-.187,1.261-.421l.005-1.238a1.17,1.17,0,0,1,.374-.857,1.272,1.272,0,0,1,.882-.31h.638a1.188,1.188,0,0,1,.834.359,1.168,1.168,0,0,1,.346.83l.005,1.215c.027.234.579.421,1.261.421s1.234-.187,1.261-.421l.005-1.069a5.517,5.517,0,0,1,2.6-4.758c1.371-.833.762,1.692.762,1.692a3.462,3.462,0,0,0,1.191,4.135l.009-.011c.007.007.008.017.016.023.135.1.38,0,.547-.218a.472.472,0,0,0,.083-.553Z" transform="translate(-9.492 -53.675)" fill="#79134b"/>
    <rect id="Rectángulo_4126" data-name="Rectángulo 4126" width="367" height="93" transform="translate(385 996)" fill="#7a4493" opacity="0.102"/>
    <text id="colors.xml" transform="translate(502.317 1003.438)" font-size="14" font-family="Roboto-Medium, Roboto" font-weight="500"><tspan x="0" y="15">colors.xml</tspan></text>
    <text id="styles.xml" transform="translate(502.317 1032.438)" font-size="14" font-family="Roboto-Medium, Roboto" font-weight="500"><tspan x="0" y="15">styles.xml</tspan></text>
    <text id="strings.xml" transform="translate(502.317 1060.438)" font-size="14" font-family="Roboto-Medium, Roboto" font-weight="500"><tspan x="0" y="15">strings.xml</tspan></text>
    <path id="Trazado_2118" data-name="Trazado 2118" d="M227.112,786.685H212.977V768.419h14.135Zm-13.92-.215H226.9V768.634H213.192Z" transform="translate(261.678 237.281)" fill="#d3097f"/>
    <rect id="Rectángulo_4085" data-name="Rectángulo 4085" width="13.92" height="6.865" transform="translate(474.763 1017.049)" fill="#b60f6e"/>
    <rect id="Rectángulo_4086" data-name="Rectángulo 4086" width="13.92" height="6.014" transform="translate(474.763 1011.035)" fill="#98145e"/>
    <rect id="Rectángulo_4087" data-name="Rectángulo 4087" width="13.92" height="5.155" transform="translate(474.763 1005.88)" fill="#5a0f38"/>
    <path id="Trazado_2119" data-name="Trazado 2119" d="M213.085,768.555V786.6h13.92S213.085,786.544,213.085,768.555Z" transform="translate(261.678 237.281)" fill="#fff" opacity="0.27"/>
    <rect id="Rectángulo_4088" data-name="Rectángulo 4088" width="6.759" height="7.233" transform="translate(484.98 1010.558)" fill="#e492bd"/>
    <path id="Trazado_2118-2" data-name="Trazado 2118" d="M227.112,786.685H212.977V768.419h14.135Zm-13.92-.215H226.9V768.634H213.192Z" transform="translate(261.678 266.281)" fill="#d3097f"/>
    <path id="Trazado_2410" data-name="Trazado 2410" d="M227.112,786.685H212.977V768.419h14.135Zm-13.92-.215H226.9V768.634H213.192Z" transform="translate(261.678 294.281)" fill="#d3097f"/>
    <rect id="Rectángulo_4085-2" data-name="Rectángulo 4085" width="13.92" height="6.865" transform="translate(474.763 1046.049)" fill="#b60f6e"/>
    <rect id="Rectángulo_4565" data-name="Rectángulo 4565" width="13.92" height="6.865" transform="translate(474.763 1074.049)" fill="#b60f6e"/>
    <rect id="Rectángulo_4086-2" data-name="Rectángulo 4086" width="13.92" height="6.014" transform="translate(474.763 1040.035)" fill="#98145e"/>
    <rect id="Rectángulo_4566" data-name="Rectángulo 4566" width="13.92" height="6.014" transform="translate(474.763 1068.035)" fill="#98145e"/>
    <rect id="Rectángulo_4087-2" data-name="Rectángulo 4087" width="13.92" height="5.155" transform="translate(474.763 1034.88)" fill="#5a0f38"/>
    <rect id="Rectángulo_4567" data-name="Rectángulo 4567" width="13.92" height="5.155" transform="translate(474.763 1062.88)" fill="#5a0f38"/>
    <path id="Trazado_2119-2" data-name="Trazado 2119" d="M213.085,768.555V786.6h13.92S213.085,786.544,213.085,768.555Z" transform="translate(261.678 266.281)" fill="#fff" opacity="0.27"/>
    <path id="Trazado_2411" data-name="Trazado 2411" d="M213.085,768.555V786.6h13.92S213.085,786.544,213.085,768.555Z" transform="translate(261.678 294.281)" fill="#fff" opacity="0.27"/>
    <rect id="Rectángulo_4088-2" data-name="Rectángulo 4088" width="6.759" height="7.233" transform="translate(484.98 1039.558)" fill="#e492bd"/>
    <rect id="Rectángulo_4568" data-name="Rectángulo 4568" width="6.759" height="7.233" transform="translate(484.98 1067.558)" fill="#e492bd"/>
  </g>
</svg>
