<svg xmlns="http://www.w3.org/2000/svg" width="408.5" height="117.756" viewBox="0 0 408.5 117.756">
  <g id="Grupo_784" data-name="Grupo 784" transform="translate(-562.5 -2967.766)">
    <path id="Trazado_1268" data-name="Trazado 1268" d="M2.959-6.426V0H1.787V-14.209H6.523a5.4,5.4,0,0,1,3.506,1,3.563,3.563,0,0,1,1.221,2.925A3.36,3.36,0,0,1,10.6-8.257a3.679,3.679,0,0,1-1.841,1.3,3.1,3.1,0,0,1,1.9,1.187,3.728,3.728,0,0,1,.581,2.144v1.338A4.192,4.192,0,0,0,11.4-1.094a1.853,1.853,0,0,0,.518.859V0H10.723a1.95,1.95,0,0,1-.508-.986A5.845,5.845,0,0,1,10.068-2.3V-3.6a2.633,2.633,0,0,0-.845-2.065,3.411,3.411,0,0,0-2.358-.757Zm0-1H6.387A4.214,4.214,0,0,0,9.2-8.2a2.64,2.64,0,0,0,.889-2.095A2.692,2.692,0,0,0,9.2-12.456a4.04,4.04,0,0,0-2.681-.757H2.959ZM21.279,0q-.107-.557-.161-.957a6.164,6.164,0,0,1-.054-.82A4.286,4.286,0,0,1,19.531-.356a4.5,4.5,0,0,1-2.266.562A3.323,3.323,0,0,1,14.858-.62,2.97,2.97,0,0,1,14-2.861a2.694,2.694,0,0,1,1.24-2.295,5.451,5.451,0,0,1,3.223-.879h2.6V-7.344a2.267,2.267,0,0,0-.718-1.777,2.929,2.929,0,0,0-2.026-.645,3.024,3.024,0,0,0-1.938.586,1.809,1.809,0,0,0-.737,1.475H14.561l-.02-.059a2.5,2.5,0,0,1,1.021-2.095,4.242,4.242,0,0,1,2.817-.9,4.19,4.19,0,0,1,2.793.889,3.147,3.147,0,0,1,1.055,2.549v5.2a9.065,9.065,0,0,0,.063,1.084A6.828,6.828,0,0,0,22.5,0ZM17.393-.83a4.194,4.194,0,0,0,2.334-.64,3.2,3.2,0,0,0,1.338-1.646V-5.137H18.457a3.883,3.883,0,0,0-2.354.679,1.985,1.985,0,0,0-.928,1.636,1.876,1.876,0,0,0,.591,1.445A2.3,2.3,0,0,0,17.393-.83ZM24.883-5.2a6.9,6.9,0,0,1,1.069-4.048,3.444,3.444,0,0,1,2.983-1.519,3.807,3.807,0,0,1,1.9.459A3.818,3.818,0,0,1,32.188-9v-6.23h1.172V0H32.4l-.166-1.533A3.7,3.7,0,0,1,30.869-.244a4.044,4.044,0,0,1-1.953.449,3.51,3.51,0,0,1-2.964-1.411A6.115,6.115,0,0,1,24.883-4.99Zm1.172.205a5.359,5.359,0,0,0,.767,3.047,2.6,2.6,0,0,0,2.31,1.133,3.319,3.319,0,0,0,1.885-.5,3.355,3.355,0,0,0,1.172-1.392v-5.01A3.738,3.738,0,0,0,31.055-9.18a3.025,3.025,0,0,0-1.9-.566,2.546,2.546,0,0,0-2.319,1.265A6.208,6.208,0,0,0,26.055-5.2ZM37.783,0H36.621V-10.566h1.162Zm0-13.594H36.621v-1.641h1.162ZM47.93-1.719A3.619,3.619,0,0,1,46.567-.293a3.954,3.954,0,0,1-2.026.5A3.227,3.227,0,0,1,41.924-.928a5.413,5.413,0,0,1-.947-3.516v-6.123h1.172v6.143a4.545,4.545,0,0,0,.659,2.773,2.239,2.239,0,0,0,1.87.84,3.42,3.42,0,0,0,2.1-.591,3.133,3.133,0,0,0,1.108-1.616v-7.549h1.172V0H48.027Zm10.547-.986A1.694,1.694,0,0,0,57.866-4a5,5,0,0,0-2.2-.9,7.219,7.219,0,0,1-2.788-1.069,2.231,2.231,0,0,1-.913-1.9,2.565,2.565,0,0,1,1.021-2.051,4.115,4.115,0,0,1,2.7-.84,4.221,4.221,0,0,1,2.822.894,2.638,2.638,0,0,1,1.006,2.2l-.02.059H58.408a1.946,1.946,0,0,0-.747-1.514,2.921,2.921,0,0,0-1.978-.645,2.858,2.858,0,0,0-1.914.557,1.673,1.673,0,0,0-.645,1.3,1.509,1.509,0,0,0,.552,1.2,5.429,5.429,0,0,0,2.2.835,7.172,7.172,0,0,1,2.808,1.143,2.36,2.36,0,0,1,.952,1.973A2.585,2.585,0,0,1,58.569-.62a4.5,4.5,0,0,1-2.827.825A4.573,4.573,0,0,1,52.72-.713,2.6,2.6,0,0,1,51.68-2.9l.02-.059h1.074a1.935,1.935,0,0,0,.933,1.66,3.888,3.888,0,0,0,2.036.518,3.2,3.2,0,0,0,2-.566A1.674,1.674,0,0,0,58.477-2.705Z" transform="translate(561 2983)" fill="#595959"/>
    <path id="Trazado_1269" data-name="Trazado 1269" d="M1.816,0V-14.219h4.15a5.645,5.645,0,0,1,3.457.933,3.289,3.289,0,0,1,1.24,2.808,3.023,3.023,0,0,1-.6,1.865A3.208,3.208,0,0,1,8.447-7.48a3.319,3.319,0,0,1,2.2,1.172A3.523,3.523,0,0,1,11.5-3.955a3.592,3.592,0,0,1-1.235,2.93A5.012,5.012,0,0,1,6.963,0ZM2.988-6.855V-.986H6.963a3.655,3.655,0,0,0,2.471-.776,2.718,2.718,0,0,0,.9-2.173,2.662,2.662,0,0,0-.884-2.075A3.591,3.591,0,0,0,7.08-6.855H2.988Zm0-.986H6.406a3.556,3.556,0,0,0,2.28-.708,2.429,2.429,0,0,0,.806-1.968,2.379,2.379,0,0,0-.9-2.026,4.309,4.309,0,0,0-2.627-.679H2.988Zm10.234,2.4A5.678,5.678,0,0,1,14.5-9.268a4.24,4.24,0,0,1,3.389-1.494,4.251,4.251,0,0,1,3.4,1.494,5.678,5.678,0,0,1,1.279,3.828v.322a5.688,5.688,0,0,1-1.274,3.833A4.232,4.232,0,0,1,17.91.205,4.268,4.268,0,0,1,14.5-1.284a5.674,5.674,0,0,1-1.279-3.833Zm1.172.322a5.034,5.034,0,0,0,.928,3.086A3.039,3.039,0,0,0,17.91-.781a3.023,3.023,0,0,0,2.563-1.25,5.015,5.015,0,0,0,.933-3.086v-.322a4.991,4.991,0,0,0-.937-3.066,3.037,3.037,0,0,0-2.578-1.26,3.012,3.012,0,0,0-2.568,1.26,5.028,5.028,0,0,0-.928,3.066ZM29.834-9.561,29-9.619A2.649,2.649,0,0,0,27.192-9a3.42,3.42,0,0,0-1.011,1.7V0H25.01V-10.566h1.025l.146,1.758v.117a3.8,3.8,0,0,1,1.23-1.523,3.092,3.092,0,0,1,1.836-.547,2.377,2.377,0,0,1,.41.034,2.718,2.718,0,0,1,.322.073ZM31.191-5.2a6.9,6.9,0,0,1,1.069-4.048,3.444,3.444,0,0,1,2.983-1.519,3.807,3.807,0,0,1,1.9.459A3.818,3.818,0,0,1,38.5-9v-6.23h1.172V0h-.957l-.166-1.533A3.7,3.7,0,0,1,37.178-.244a4.044,4.044,0,0,1-1.953.449,3.51,3.51,0,0,1-2.964-1.411A6.115,6.115,0,0,1,31.191-4.99Zm1.172.205a5.359,5.359,0,0,0,.767,3.047,2.6,2.6,0,0,0,2.31,1.133,3.319,3.319,0,0,0,1.885-.5A3.355,3.355,0,0,0,38.5-2.705v-5.01A3.738,3.738,0,0,0,37.363-9.18a3.025,3.025,0,0,0-1.9-.566A2.546,2.546,0,0,0,33.14-8.481,6.208,6.208,0,0,0,32.363-5.2ZM46.8.205a4.232,4.232,0,0,1-3.33-1.45,5.424,5.424,0,0,1-1.279-3.726v-.537a5.529,5.529,0,0,1,1.294-3.77,4.087,4.087,0,0,1,3.208-1.484,3.688,3.688,0,0,1,2.974,1.235A4.965,4.965,0,0,1,50.713-6.2v.908H43.359v.322a4.785,4.785,0,0,0,.913,3A3,3,0,0,0,46.8-.781,4.834,4.834,0,0,0,48.574-1.1a3.872,3.872,0,0,0,1.348-.854l.5.8a4.321,4.321,0,0,1-1.46.972A5.49,5.49,0,0,1,46.8.205Zm-.107-9.971a2.849,2.849,0,0,0-2.217.967,4.168,4.168,0,0,0-1.016,2.451l.029.059h6.055v-.244A3.574,3.574,0,0,0,48.8-8.853,2.56,2.56,0,0,0,46.689-9.766ZM57.9-9.561l-.83-.059A2.649,2.649,0,0,0,55.259-9a3.42,3.42,0,0,0-1.011,1.7V0H53.076V-10.566H54.1l.146,1.758v.117a3.8,3.8,0,0,1,1.23-1.523,3.092,3.092,0,0,1,1.836-.547,2.377,2.377,0,0,1,.41.034,2.718,2.718,0,0,1,.322.073Z" transform="translate(842 2983)" fill="#595959"/>
    <path id="Trazado_1281" data-name="Trazado 1281" d="M5.391-2.191a1.121,1.121,0,0,0-.378-.873,3.479,3.479,0,0,0-1.339-.609,5.71,5.71,0,0,1-2.124-1A2,2,0,0,1,.8-6.287a2.1,2.1,0,0,1,.82-1.7,3.233,3.233,0,0,1,2.109-.668,3.2,3.2,0,0,1,2.212.741,2.271,2.271,0,0,1,.8,1.831l-.012.035H5.361a1.363,1.363,0,0,0-.448-1.072,1.729,1.729,0,0,0-1.192-.4,1.638,1.638,0,0,0-1.11.34,1.112,1.112,0,0,0-.39.879.974.974,0,0,0,.428.812,4.647,4.647,0,0,0,1.418.606A4.957,4.957,0,0,1,6.111-3.858a2.15,2.15,0,0,1,.7,1.655A2.02,2.02,0,0,1,5.982-.51,3.516,3.516,0,0,1,3.8.123,3.8,3.8,0,0,1,1.529-.568,2.19,2.19,0,0,1,.592-2.52L.6-2.555H1.975A1.344,1.344,0,0,0,2.5-1.4a2.122,2.122,0,0,0,1.292.39,1.9,1.9,0,0,0,1.175-.319A1.03,1.03,0,0,0,5.391-2.191ZM7.863-3.229A3.443,3.443,0,0,1,8.64-5.552a2.651,2.651,0,0,1,2.124-.905,2.672,2.672,0,0,1,2.142.905,3.443,3.443,0,0,1,.776,2.323v.123a3.437,3.437,0,0,1-.776,2.329,2.666,2.666,0,0,1-2.13.9,2.669,2.669,0,0,1-2.136-.9,3.44,3.44,0,0,1-.776-2.326Zm1.424.123A2.812,2.812,0,0,0,9.65-1.594a1.233,1.233,0,0,0,1.125.58A1.236,1.236,0,0,0,11.892-1.6a2.763,2.763,0,0,0,.372-1.509v-.123a2.757,2.757,0,0,0-.372-1.5,1.244,1.244,0,0,0-1.128-.589,1.219,1.219,0,0,0-1.11.589,2.792,2.792,0,0,0-.366,1.5ZM16.441,0H15.018V-9.141h1.424Zm3.111,0H18.129V-6.34h1.424Zm0-7.893H18.129V-9.141h1.424Zm1.33,4.811a4.181,4.181,0,0,1,.65-2.446,2.1,2.1,0,0,1,1.828-.929,2,2,0,0,1,.923.208,2.088,2.088,0,0,1,.706.595V-9.141h1.424V0H25.26l-.17-.8a2.115,2.115,0,0,1-.738.688,2.054,2.054,0,0,1-1,.237,2.157,2.157,0,0,1-1.816-.85,3.575,3.575,0,0,1-.65-2.232Zm1.424.123a2.553,2.553,0,0,0,.337,1.4,1.18,1.18,0,0,0,1.069.521,1.43,1.43,0,0,0,.765-.193,1.472,1.472,0,0,0,.513-.551V-4.547a1.5,1.5,0,0,0-.516-.548,1.394,1.394,0,0,0-.75-.2,1.148,1.148,0,0,0-1.072.612,3.231,3.231,0,0,0-.346,1.6Zm9.27-.094H28.119V-4.2h3.457ZM36.926,0H35.5V-7.219H33.691V-8.35l3.234-.3ZM45.65-2.959A3.575,3.575,0,0,1,45-.727a2.151,2.151,0,0,1-1.811.85,2.242,2.242,0,0,1-.955-.193,1.965,1.965,0,0,1-.715-.568V2.438H40.1V-6.34h1.2l.141.8a2.114,2.114,0,0,1,.735-.68,2.057,2.057,0,0,1,1-.234A2.106,2.106,0,0,1,45-5.528a4.167,4.167,0,0,1,.653,2.446Zm-1.418-.123a3.089,3.089,0,0,0-.366-1.591,1.191,1.191,0,0,0-1.093-.618,1.42,1.42,0,0,0-.756.19,1.4,1.4,0,0,0-.5.53v2.865a1.324,1.324,0,0,0,.5.513,1.518,1.518,0,0,0,.768.179,1.221,1.221,0,0,0,1.087-.536,2.484,2.484,0,0,0,.36-1.409Zm4.846-1.084L50.25-6.34h1.635L49.893-3.205,51.943,0H50.326L49.1-2.227,47.877,0H46.248L48.3-3.205,46.307-6.34h1.617Z" transform="translate(882.166 3021)" fill="#4199a0"/>
    <g id="Trazado_1282" data-name="Trazado 1282" transform="translate(842 3035.522)" fill="none">
      <path d="M14.991,0h99.018A14.991,14.991,0,0,1,129,14.991V30.009A14.991,14.991,0,0,1,114.009,45H14.991A14.991,14.991,0,0,1,0,30.009V14.991A14.991,14.991,0,0,1,14.991,0Z" stroke="none"/>
      <path d="M 14.99113464355469 1 C 11.25396728515625 1 7.740486145019531 2.455333709716797 5.097915649414062 5.097915649414062 C 2.455329895019531 7.740482330322266 1 11.25396728515625 1 14.99113273620605 L 1 30.00886535644531 C 1 33.74603271484375 2.455329895019531 37.25951766967773 5.097915649414062 39.90208435058594 C 7.740486145019531 42.5446662902832 11.25396728515625 44 14.99113464355469 44 L 114.0088653564453 44 C 117.7460327148438 44 121.2595138549805 42.5446662902832 123.9020843505859 39.90208435058594 C 126.5446701049805 37.25951766967773 128 33.74603271484375 128 30.00886535644531 L 128 14.99113273620605 C 128 11.25396728515625 126.5446701049805 7.740482330322266 123.9020843505859 5.097915649414062 C 121.2595138549805 2.455333709716797 117.7460327148438 1 114.0088653564453 1 L 14.99113464355469 1 M 14.99113464355469 0 L 114.0088653564453 0 C 122.2882308959961 0 129 6.711765289306641 129 14.99113273620605 L 129 30.00886535644531 C 129 38.28823471069336 122.2882308959961 45 114.0088653564453 45 L 14.99113464355469 45 C 6.711769104003906 45 0 38.28823471069336 0 30.00886535644531 L 0 14.99113273620605 C 0 6.711765289306641 6.711769104003906 0 14.99113464355469 0 Z" stroke="none" fill="#d5007f"/>
    </g>
    <path id="Trazado_1283" data-name="Trazado 1283" d="M8.086-3.287A1.681,1.681,0,0,0,7.519-4.6a5.219,5.219,0,0,0-2.008-.914,8.565,8.565,0,0,1-3.186-1.5A2.993,2.993,0,0,1,1.2-9.431a3.146,3.146,0,0,1,1.23-2.549,4.85,4.85,0,0,1,3.164-1A4.793,4.793,0,0,1,8.917-11.87a3.407,3.407,0,0,1,1.2,2.747L10.1-9.07H8.042a2.044,2.044,0,0,0-.672-1.608,2.593,2.593,0,0,0-1.789-.6,2.457,2.457,0,0,0-1.666.51,1.668,1.668,0,0,0-.584,1.318,1.46,1.46,0,0,0,.642,1.217,6.971,6.971,0,0,0,2.127.91A7.436,7.436,0,0,1,9.167-5.788,3.225,3.225,0,0,1,10.222-3.3,3.03,3.03,0,0,1,8.974-.765,5.274,5.274,0,0,1,5.7.185a5.694,5.694,0,0,1-3.4-1.037A3.286,3.286,0,0,1,.888-3.779l.018-.053H2.962a2.016,2.016,0,0,0,.8,1.736A3.183,3.183,0,0,0,5.7-1.512a2.852,2.852,0,0,0,1.762-.479A1.544,1.544,0,0,0,8.086-3.287ZM16.225.185a4.141,4.141,0,0,1-3.256-1.314,4.921,4.921,0,0,1-1.173-3.406v-.352a5.088,5.088,0,0,1,1.173-3.45A3.792,3.792,0,0,1,16-9.686,3.559,3.559,0,0,1,18.9-8.5a4.78,4.78,0,0,1,.984,3.16v1.151H14l-.018.044a3.116,3.116,0,0,0,.615,1.9,2.1,2.1,0,0,0,1.749.729,4.812,4.812,0,0,0,1.507-.211,4.3,4.3,0,0,0,1.182-.606l.694,1.4a4.526,4.526,0,0,1-1.441.8A6.041,6.041,0,0,1,16.225.185ZM16-7.972a1.65,1.65,0,0,0-1.336.6A2.984,2.984,0,0,0,14.036-5.8l.018.044h3.718v-.167A2.4,2.4,0,0,0,17.345-7.4,1.578,1.578,0,0,0,16-7.972Zm9.492,6.451a1.775,1.775,0,0,0,1.235-.457,1.5,1.5,0,0,0,.505-1.16h1.934l.018.053a2.867,2.867,0,0,1-1.059,2.3,3.839,3.839,0,0,1-2.632.967,3.875,3.875,0,0,1-3.173-1.358A5.213,5.213,0,0,1,21.2-4.6V-4.9a5.217,5.217,0,0,1,1.116-3.419,3.859,3.859,0,0,1,3.164-1.362,3.73,3.73,0,0,1,2.7,1,3.256,3.256,0,0,1,1,2.536l-.018.053H27.229a1.929,1.929,0,0,0-.483-1.327,1.611,1.611,0,0,0-1.266-.545,1.742,1.742,0,0,0-1.644.883,4.371,4.371,0,0,0-.5,2.184V-4.6a4.411,4.411,0,0,0,.5,2.2A1.752,1.752,0,0,0,25.488-1.521Zm11.417.114A3.19,3.19,0,0,1,35.776-.229a3.045,3.045,0,0,1-1.6.413A2.978,2.978,0,0,1,31.79-.822a4.732,4.732,0,0,1-.861-3.125V-9.51h2.127v5.581a3.178,3.178,0,0,0,.4,1.868,1.466,1.466,0,0,0,1.23.505,2.747,2.747,0,0,0,1.3-.277,2.011,2.011,0,0,0,.822-.8V-9.51h2.136V0H37.1Zm6.2-8.1.123,1.371A3.4,3.4,0,0,1,44.4-9.277a3.131,3.131,0,0,1,1.6-.409,2.97,2.97,0,0,1,2.316.914,4.153,4.153,0,0,1,.831,2.856V0H47V-5.9a2.3,2.3,0,0,0-.431-1.573,1.687,1.687,0,0,0-1.3-.466,2.55,2.55,0,0,0-1.187.259,2.078,2.078,0,0,0-.8.716V0H41.15V-9.51Zm7.866,4.887a6.271,6.271,0,0,1,.976-3.669,3.156,3.156,0,0,1,2.742-1.393,3,3,0,0,1,1.384.312,3.133,3.133,0,0,1,1.059.892v-5.229h2.136V0H57.533l-.255-1.2A3.172,3.172,0,0,1,56.171-.171a3.08,3.08,0,0,1-1.5.356A3.236,3.236,0,0,1,51.943-1.09a5.362,5.362,0,0,1-.976-3.349Zm2.136.185a3.83,3.83,0,0,0,.505,2.1,1.77,1.77,0,0,0,1.6.782,2.144,2.144,0,0,0,1.147-.29,2.208,2.208,0,0,0,.769-.826V-6.82a2.249,2.249,0,0,0-.773-.822,2.091,2.091,0,0,0-1.125-.294,1.722,1.722,0,0,0-1.608.918,4.846,4.846,0,0,0-.519,2.4ZM67.289,0q-.114-.36-.189-.7a5.026,5.026,0,0,1-.1-.686A3.663,3.663,0,0,1,65.848-.268a2.962,2.962,0,0,1-1.608.453A3.161,3.161,0,0,1,61.958-.58a2.777,2.777,0,0,1-.8-2.1,2.481,2.481,0,0,1,1.09-2.149A5.262,5.262,0,0,1,65.32-5.6h1.661v-.835A1.553,1.553,0,0,0,66.546-7.6a1.74,1.74,0,0,0-1.261-.422,1.8,1.8,0,0,0-1.16.347,1.1,1.1,0,0,0-.431.9l-2.057.009-.009-.053a2.355,2.355,0,0,1,1.006-2,4.264,4.264,0,0,1,2.782-.87,4.069,4.069,0,0,1,2.681.844,2.97,2.97,0,0,1,1.02,2.426v4.228A7.8,7.8,0,0,0,69.2-1.059,6,6,0,0,0,69.451,0Zm-2.61-1.529a2.669,2.669,0,0,0,1.446-.4,2.036,2.036,0,0,0,.857-.923V-4.263h-1.7a2.141,2.141,0,0,0-1.459.461A1.4,1.4,0,0,0,63.3-2.716a1.107,1.107,0,0,0,.356.866A1.479,1.479,0,0,0,64.679-1.529ZM76.087-7.585l-.914-.035a1.915,1.915,0,0,0-1.042.264,1.736,1.736,0,0,0-.646.747V0H71.35V-9.51H73.3l.141,1.38a3.05,3.05,0,0,1,.927-1.143,2.158,2.158,0,0,1,1.305-.413,1.99,1.99,0,0,1,.36.031,2.631,2.631,0,0,1,.308.075ZM79.945,0H77.81V-9.51h2.136Zm0-11.839H77.81v-1.872h2.136Zm2,7A5.164,5.164,0,0,1,83.1-8.328a3.977,3.977,0,0,1,3.186-1.358A4.007,4.007,0,0,1,89.5-8.328a5.164,5.164,0,0,1,1.165,3.485v.185A5.156,5.156,0,0,1,89.5-1.165,4,4,0,0,1,86.309.185a4,4,0,0,1-3.2-1.354A5.16,5.16,0,0,1,81.94-4.658Zm2.136.185a4.218,4.218,0,0,0,.545,2.268,1.85,1.85,0,0,0,1.688.87A1.855,1.855,0,0,0,87.983-2.4a4.144,4.144,0,0,0,.558-2.263v-.185a4.136,4.136,0,0,0-.558-2.246,1.866,1.866,0,0,0-1.692-.883,1.829,1.829,0,0,0-1.666.883,4.188,4.188,0,0,0-.549,2.246Z" transform="translate(861.166 3063)" fill="#d5007f"/>
    <g id="Trazado_1284" data-name="Trazado 1284" transform="translate(842 3035.522)" fill="none">
      <path d="M14.991,0h99.018A14.991,14.991,0,0,1,129,14.991V30.009A14.991,14.991,0,0,1,114.009,45H14.991A14.991,14.991,0,0,1,0,30.009V14.991A14.991,14.991,0,0,1,14.991,0Z" stroke="none"/>
      <path d="M 14.99113464355469 1 C 11.25396728515625 1 7.740486145019531 2.455333709716797 5.097915649414062 5.097915649414062 C 2.455329895019531 7.740482330322266 1 11.25396728515625 1 14.99113273620605 L 1 30.00886535644531 C 1 33.74603271484375 2.455329895019531 37.25951766967773 5.097915649414062 39.90208435058594 C 7.740486145019531 42.5446662902832 11.25396728515625 44 14.99113464355469 44 L 114.0088653564453 44 C 117.7460327148438 44 121.2595138549805 42.5446662902832 123.9020843505859 39.90208435058594 C 126.5446701049805 37.25951766967773 128 33.74603271484375 128 30.00886535644531 L 128 14.99113273620605 C 128 11.25396728515625 126.5446701049805 7.740482330322266 123.9020843505859 5.097915649414062 C 121.2595138549805 2.455333709716797 117.7460327148438 1 114.0088653564453 1 L 14.99113464355469 1 M 14.99113464355469 0 L 114.0088653564453 0 C 122.2882308959961 0 129 6.711765289306641 129 14.99113273620605 L 129 30.00886535644531 C 129 38.28823471069336 122.2882308959961 45 114.0088653564453 45 L 14.99113464355469 45 C 6.711769104003906 45 0 38.28823471069336 0 30.00886535644531 L 0 14.99113273620605 C 0 6.711765289306641 6.711769104003906 0 14.99113464355469 0 Z" stroke="none" fill="#d5007f"/>
    </g>
    <path id="Trazado_1285" data-name="Trazado 1285" d="M8.086-3.287A1.681,1.681,0,0,0,7.519-4.6a5.219,5.219,0,0,0-2.008-.914,8.565,8.565,0,0,1-3.186-1.5A2.993,2.993,0,0,1,1.2-9.431a3.146,3.146,0,0,1,1.23-2.549,4.85,4.85,0,0,1,3.164-1A4.793,4.793,0,0,1,8.917-11.87a3.407,3.407,0,0,1,1.2,2.747L10.1-9.07H8.042a2.044,2.044,0,0,0-.672-1.608,2.593,2.593,0,0,0-1.789-.6,2.457,2.457,0,0,0-1.666.51,1.668,1.668,0,0,0-.584,1.318,1.46,1.46,0,0,0,.642,1.217,6.971,6.971,0,0,0,2.127.91A7.436,7.436,0,0,1,9.167-5.788,3.225,3.225,0,0,1,10.222-3.3,3.03,3.03,0,0,1,8.974-.765,5.274,5.274,0,0,1,5.7.185a5.694,5.694,0,0,1-3.4-1.037A3.286,3.286,0,0,1,.888-3.779l.018-.053H2.962a2.016,2.016,0,0,0,.8,1.736A3.183,3.183,0,0,0,5.7-1.512a2.852,2.852,0,0,0,1.762-.479A1.544,1.544,0,0,0,8.086-3.287ZM16.225.185a4.141,4.141,0,0,1-3.256-1.314,4.921,4.921,0,0,1-1.173-3.406v-.352a5.088,5.088,0,0,1,1.173-3.45A3.792,3.792,0,0,1,16-9.686,3.559,3.559,0,0,1,18.9-8.5a4.78,4.78,0,0,1,.984,3.16v1.151H14l-.018.044a3.116,3.116,0,0,0,.615,1.9,2.1,2.1,0,0,0,1.749.729,4.812,4.812,0,0,0,1.507-.211,4.3,4.3,0,0,0,1.182-.606l.694,1.4a4.526,4.526,0,0,1-1.441.8A6.041,6.041,0,0,1,16.225.185ZM16-7.972a1.65,1.65,0,0,0-1.336.6A2.984,2.984,0,0,0,14.036-5.8l.018.044h3.718v-.167A2.4,2.4,0,0,0,17.345-7.4,1.578,1.578,0,0,0,16-7.972Zm9.492,6.451a1.775,1.775,0,0,0,1.235-.457,1.5,1.5,0,0,0,.505-1.16h1.934l.018.053a2.867,2.867,0,0,1-1.059,2.3,3.839,3.839,0,0,1-2.632.967,3.875,3.875,0,0,1-3.173-1.358A5.213,5.213,0,0,1,21.2-4.6V-4.9a5.217,5.217,0,0,1,1.116-3.419,3.859,3.859,0,0,1,3.164-1.362,3.73,3.73,0,0,1,2.7,1,3.256,3.256,0,0,1,1,2.536l-.018.053H27.229a1.929,1.929,0,0,0-.483-1.327,1.611,1.611,0,0,0-1.266-.545,1.742,1.742,0,0,0-1.644.883,4.371,4.371,0,0,0-.5,2.184V-4.6a4.411,4.411,0,0,0,.5,2.2A1.752,1.752,0,0,0,25.488-1.521Zm11.417.114A3.19,3.19,0,0,1,35.776-.229a3.045,3.045,0,0,1-1.6.413A2.978,2.978,0,0,1,31.79-.822a4.732,4.732,0,0,1-.861-3.125V-9.51h2.127v5.581a3.178,3.178,0,0,0,.4,1.868,1.466,1.466,0,0,0,1.23.505,2.747,2.747,0,0,0,1.3-.277,2.011,2.011,0,0,0,.822-.8V-9.51h2.136V0H37.1Zm6.2-8.1.123,1.371A3.4,3.4,0,0,1,44.4-9.277a3.131,3.131,0,0,1,1.6-.409,2.97,2.97,0,0,1,2.316.914,4.153,4.153,0,0,1,.831,2.856V0H47V-5.9a2.3,2.3,0,0,0-.431-1.573,1.687,1.687,0,0,0-1.3-.466,2.55,2.55,0,0,0-1.187.259,2.078,2.078,0,0,0-.8.716V0H41.15V-9.51Zm7.866,4.887a6.271,6.271,0,0,1,.976-3.669,3.156,3.156,0,0,1,2.742-1.393,3,3,0,0,1,1.384.312,3.133,3.133,0,0,1,1.059.892v-5.229h2.136V0H57.533l-.255-1.2A3.172,3.172,0,0,1,56.171-.171a3.08,3.08,0,0,1-1.5.356A3.236,3.236,0,0,1,51.943-1.09a5.362,5.362,0,0,1-.976-3.349Zm2.136.185a3.83,3.83,0,0,0,.505,2.1,1.77,1.77,0,0,0,1.6.782,2.144,2.144,0,0,0,1.147-.29,2.208,2.208,0,0,0,.769-.826V-6.82a2.249,2.249,0,0,0-.773-.822,2.091,2.091,0,0,0-1.125-.294,1.722,1.722,0,0,0-1.608.918,4.846,4.846,0,0,0-.519,2.4ZM67.289,0q-.114-.36-.189-.7a5.026,5.026,0,0,1-.1-.686A3.663,3.663,0,0,1,65.848-.268a2.962,2.962,0,0,1-1.608.453A3.161,3.161,0,0,1,61.958-.58a2.777,2.777,0,0,1-.8-2.1,2.481,2.481,0,0,1,1.09-2.149A5.262,5.262,0,0,1,65.32-5.6h1.661v-.835A1.553,1.553,0,0,0,66.546-7.6a1.74,1.74,0,0,0-1.261-.422,1.8,1.8,0,0,0-1.16.347,1.1,1.1,0,0,0-.431.9l-2.057.009-.009-.053a2.355,2.355,0,0,1,1.006-2,4.264,4.264,0,0,1,2.782-.87,4.069,4.069,0,0,1,2.681.844,2.97,2.97,0,0,1,1.02,2.426v4.228A7.8,7.8,0,0,0,69.2-1.059,6,6,0,0,0,69.451,0Zm-2.61-1.529a2.669,2.669,0,0,0,1.446-.4,2.036,2.036,0,0,0,.857-.923V-4.263h-1.7a2.141,2.141,0,0,0-1.459.461A1.4,1.4,0,0,0,63.3-2.716a1.107,1.107,0,0,0,.356.866A1.479,1.479,0,0,0,64.679-1.529ZM76.087-7.585l-.914-.035a1.915,1.915,0,0,0-1.042.264,1.736,1.736,0,0,0-.646.747V0H71.35V-9.51H73.3l.141,1.38a3.05,3.05,0,0,1,.927-1.143,2.158,2.158,0,0,1,1.305-.413,1.99,1.99,0,0,1,.36.031,2.631,2.631,0,0,1,.308.075ZM79.945,0H77.81V-9.51h2.136Zm0-11.839H77.81v-1.872h2.136Zm2,7A5.164,5.164,0,0,1,83.1-8.328a3.977,3.977,0,0,1,3.186-1.358A4.007,4.007,0,0,1,89.5-8.328a5.164,5.164,0,0,1,1.165,3.485v.185A5.156,5.156,0,0,1,89.5-1.165,4,4,0,0,1,86.309.185a4,4,0,0,1-3.2-1.354A5.16,5.16,0,0,1,81.94-4.658Zm2.136.185a4.218,4.218,0,0,0,.545,2.268,1.85,1.85,0,0,0,1.688.87A1.855,1.855,0,0,0,87.983-2.4a4.144,4.144,0,0,0,.558-2.263v-.185a4.136,4.136,0,0,0-.558-2.246,1.866,1.866,0,0,0-1.692-.883,1.829,1.829,0,0,0-1.666.883,4.188,4.188,0,0,0-.549,2.246Z" transform="translate(861.166 3063)" fill="#d5007f"/>
    <g id="Grupo_777" data-name="Grupo 777" transform="translate(439.5 1756.522)">
      <path id="Trazado_1287" data-name="Trazado 1287" d="M4.4,0H2.977V-7.219H1.166V-8.35l3.234-.3ZM7.746-3.773l.492-4.758h4.5V-7.3H9.422L9.164-5.127a2.37,2.37,0,0,1,.6-.3,2.4,2.4,0,0,1,.771-.129,2.3,2.3,0,0,1,1.852.744,3.068,3.068,0,0,1,.662,2.092,3,3,0,0,1-.7,2.057,2.635,2.635,0,0,1-2.086.791,2.994,2.994,0,0,1-1.9-.606,2,2,0,0,1-.747-1.731l.012-.029,1.336-.041a1.217,1.217,0,0,0,.36.935,1.322,1.322,0,0,0,.94.337,1.2,1.2,0,0,0,1.014-.451,2.008,2.008,0,0,0,.346-1.248,1.973,1.973,0,0,0-.357-1.233,1.209,1.209,0,0,0-1.02-.466,1.6,1.6,0,0,0-.87.188,1.059,1.059,0,0,0-.413.551Zm12.2.814a3.575,3.575,0,0,1-.65,2.232,2.151,2.151,0,0,1-1.811.85,2.242,2.242,0,0,1-.955-.193,1.965,1.965,0,0,1-.715-.568V2.438H14.391V-6.34h1.2l.141.8a2.114,2.114,0,0,1,.735-.68,2.057,2.057,0,0,1,1-.234,2.106,2.106,0,0,1,1.825.929,4.167,4.167,0,0,1,.653,2.446Zm-1.418-.123a3.089,3.089,0,0,0-.366-1.591,1.191,1.191,0,0,0-1.093-.618,1.42,1.42,0,0,0-.756.19,1.4,1.4,0,0,0-.5.53v2.865a1.324,1.324,0,0,0,.5.513,1.518,1.518,0,0,0,.768.179,1.221,1.221,0,0,0,1.087-.536,2.484,2.484,0,0,0,.36-1.409Zm4.846-1.084L24.545-6.34H26.18L24.188-3.205,26.238,0H24.621L23.4-2.227,22.172,0H20.543l2.051-3.205L20.6-6.34h1.617Z" transform="translate(167.166 1264.478)" fill="#4199a0"/>
      <line id="Línea_279" data-name="Línea 279" x2="14" transform="translate(137 1274.307)" fill="none" stroke="#4199a0" stroke-miterlimit="10" stroke-width="1"/>
      <line id="Línea_280" data-name="Línea 280" x2="14" transform="translate(137 1327.5)" fill="none" stroke="#4199a0" stroke-miterlimit="10" stroke-width="1"/>
      <line id="Línea_281" data-name="Línea 281" x2="14" transform="translate(213 1274.5)" fill="none" stroke="#4199a0" stroke-miterlimit="10" stroke-width="1"/>
      <line id="Línea_282" data-name="Línea 282" x2="14" transform="translate(213 1328.5)" fill="none" stroke="#4199a0" stroke-miterlimit="10" stroke-width="1"/>
      <line id="Línea_283" data-name="Línea 283" y1="14" transform="translate(123.5 1287)" fill="none" stroke="#4199a0" stroke-miterlimit="10" stroke-width="1"/>
      <line id="Línea_284" data-name="Línea 284" y1="14" transform="translate(123.5 1303)" fill="none" stroke="#4199a0" stroke-miterlimit="10" stroke-width="1"/>
      <line id="Línea_285" data-name="Línea 285" y1="14" transform="translate(240.5 1287)" fill="none" stroke="#4199a0" stroke-miterlimit="10" stroke-width="1"/>
      <line id="Línea_286" data-name="Línea 286" y1="14" transform="translate(240.5 1303)" fill="none" stroke="#4199a0" stroke-miterlimit="10" stroke-width="1"/>
      <path id="Trazado_1288" data-name="Trazado 1288" d="M15.232,0H92.768A15.232,15.232,0,0,1,108,15.232V29.768A15.232,15.232,0,0,1,92.768,45H15.232A15.232,15.232,0,0,1,0,29.768V15.232A15.232,15.232,0,0,1,15.232,0Z" transform="translate(128 1279)" fill="#b7006d"/>
      <path id="Trazado_1286" data-name="Trazado 1286" d="M3.48-4.852V0H1.345V-12.8h4.9A4.741,4.741,0,0,1,9.567-11.7a3.711,3.711,0,0,1,1.2,2.878,3.7,3.7,0,0,1-1.2,2.887A4.765,4.765,0,0,1,6.249-4.852Zm0-1.714H6.249A2.341,2.341,0,0,0,8.033-7.2a2.249,2.249,0,0,0,.6-1.608,2.312,2.312,0,0,0-.6-1.626,2.3,2.3,0,0,0-1.784-.65H3.48Zm13.843-1.02-.914-.035a1.915,1.915,0,0,0-1.042.264,1.736,1.736,0,0,0-.646.747V0H12.586V-9.51h1.951l.141,1.38A3.05,3.05,0,0,1,15.6-9.272a2.158,2.158,0,0,1,1.305-.413,1.99,1.99,0,0,1,.36.031,2.631,2.631,0,0,1,.308.075ZM21.182,0H19.046V-9.51h2.136Zm0-11.839H19.046v-1.872h2.136ZM25.523-9.51l.114,1.239a3.223,3.223,0,0,1,1.169-1.046,3.448,3.448,0,0,1,1.626-.369,2.934,2.934,0,0,1,1.6.422,2.55,2.55,0,0,1,1,1.266,3.332,3.332,0,0,1,1.16-1.239,3.129,3.129,0,0,1,1.688-.448,2.789,2.789,0,0,1,2.263,1,4.641,4.641,0,0,1,.831,3.019V0H34.84V-5.678a2.8,2.8,0,0,0-.417-1.753,1.531,1.531,0,0,0-1.252-.505,1.832,1.832,0,0,0-1.16.369,2.057,2.057,0,0,0-.686.993q0,.132.009.229t.009.185V0H29.206V-5.678a2.77,2.77,0,0,0-.426-1.731,1.515,1.515,0,0,0-1.252-.527,2.249,2.249,0,0,0-1.1.25,1.847,1.847,0,0,0-.716.708V0H23.572V-9.51ZM44.956,0q-.114-.36-.189-.7a5.026,5.026,0,0,1-.1-.686A3.663,3.663,0,0,1,43.515-.268a2.962,2.962,0,0,1-1.608.453A3.161,3.161,0,0,1,39.625-.58a2.777,2.777,0,0,1-.8-2.1A2.481,2.481,0,0,1,39.92-4.83,5.262,5.262,0,0,1,42.987-5.6h1.661v-.835A1.553,1.553,0,0,0,44.213-7.6a1.74,1.74,0,0,0-1.261-.422,1.8,1.8,0,0,0-1.16.347,1.1,1.1,0,0,0-.431.9L39.3-6.768,39.3-6.82a2.355,2.355,0,0,1,1.006-2,4.264,4.264,0,0,1,2.782-.87,4.069,4.069,0,0,1,2.681.844,2.97,2.97,0,0,1,1.02,2.426v4.228a7.8,7.8,0,0,0,.079,1.129A6,6,0,0,0,47.118,0Zm-2.61-1.529a2.669,2.669,0,0,0,1.446-.4,2.036,2.036,0,0,0,.857-.923V-4.263h-1.7a2.141,2.141,0,0,0-1.459.461,1.4,1.4,0,0,0-.527,1.085,1.107,1.107,0,0,0,.356.866A1.479,1.479,0,0,0,42.346-1.529ZM53.754-7.585,52.84-7.62a1.915,1.915,0,0,0-1.042.264,1.736,1.736,0,0,0-.646.747V0H49.017V-9.51h1.951l.141,1.38a3.05,3.05,0,0,1,.927-1.143,2.158,2.158,0,0,1,1.305-.413,1.99,1.99,0,0,1,.36.031,2.631,2.631,0,0,1,.308.075ZM57.612,0H55.477V-9.51h2.136Zm0-11.839H55.477v-1.872h2.136Zm2,7a5.164,5.164,0,0,1,1.165-3.485,3.977,3.977,0,0,1,3.186-1.358A4.007,4.007,0,0,1,67.17-8.328a5.164,5.164,0,0,1,1.165,3.485v.185A5.156,5.156,0,0,1,67.17-1.165,4,4,0,0,1,63.976.185a4,4,0,0,1-3.2-1.354,5.16,5.16,0,0,1-1.165-3.489Zm2.136.185a4.218,4.218,0,0,0,.545,2.268,1.85,1.85,0,0,0,1.688.87A1.855,1.855,0,0,0,65.65-2.4a4.144,4.144,0,0,0,.558-2.263v-.185a4.136,4.136,0,0,0-.558-2.246,1.866,1.866,0,0,0-1.692-.883,1.829,1.829,0,0,0-1.666.883,4.188,4.188,0,0,0-.549,2.246Z" transform="translate(147.166 1306.478)" fill="#fff"/>
    </g>
  </g>
</svg>
