<svg xmlns="http://www.w3.org/2000/svg" width="712" height="210.393" viewBox="0 0 712 210.393">
  <g id="Grupo_770" data-name="Grupo 770" transform="translate(-554 -1073.813)">
    <g id="Rectángulo_11" data-name="Rectángulo 11" transform="translate(554 1103)" fill="none" stroke="#b7006d" stroke-width="2">
      <rect width="160" height="45" rx="17" stroke="none"/>
      <rect x="1" y="1" width="158" height="43" rx="16" fill="none"/>
    </g>
    <path id="Trazado_1145" data-name="Trazado 1145" d="M-22.759,0V-12.8h4.192a5.518,5.518,0,0,1,3.313.875,3.031,3.031,0,0,1,1.2,2.615,2.569,2.569,0,0,1-.479,1.521,2.972,2.972,0,0,1-1.332,1.028A2.871,2.871,0,0,1-13.975-5.7a3.217,3.217,0,0,1,.664,2.021A3.288,3.288,0,0,1-14.489-.936,5.1,5.1,0,0,1-17.741,0Zm2.136-5.818v4.113h2.883a2.569,2.569,0,0,0,1.705-.505,1.809,1.809,0,0,0,.6-1.463,2.044,2.044,0,0,0-.589-1.538,2.394,2.394,0,0,0-1.652-.606h-2.944Zm0-1.591h2.285a2.409,2.409,0,0,0,1.569-.47,1.622,1.622,0,0,0,.576-1.332,1.66,1.66,0,0,0-.606-1.411,2.88,2.88,0,0,0-1.767-.461h-2.057Zm8.71,2.566a5.164,5.164,0,0,1,1.165-3.485A3.977,3.977,0,0,1-7.563-9.686,4.007,4.007,0,0,1-4.351-8.328,5.164,5.164,0,0,1-3.186-4.843v.185A5.156,5.156,0,0,1-4.351-1.165,4,4,0,0,1-7.545.185a4,4,0,0,1-3.2-1.354,5.16,5.16,0,0,1-1.165-3.489Zm2.136.185a4.218,4.218,0,0,0,.545,2.268,1.85,1.85,0,0,0,1.688.87A1.855,1.855,0,0,0-5.871-2.4a4.144,4.144,0,0,0,.558-2.263v-.185a4.136,4.136,0,0,0-.558-2.246,1.866,1.866,0,0,0-1.692-.883,1.829,1.829,0,0,0-1.666.883,4.188,4.188,0,0,0-.549,2.246ZM1.411-11.821V-9.51H3.116v1.582H1.411v5.256a1.146,1.146,0,0,0,.255.839.924.924,0,0,0,.677.25,1.888,1.888,0,0,0,.343-.031A2.083,2.083,0,0,0,3-1.7L3.23-.132A2.454,2.454,0,0,1,2.584.1a3.556,3.556,0,0,1-.778.083,2.464,2.464,0,0,1-1.85-.69A3.009,3.009,0,0,1-.716-2.672V-7.928h-1.45V-9.51h1.45v-2.312ZM4.443-4.843A5.164,5.164,0,0,1,5.607-8.328,3.977,3.977,0,0,1,8.793-9.686a4.007,4.007,0,0,1,3.212,1.358A5.164,5.164,0,0,1,13.17-4.843v.185a5.156,5.156,0,0,1-1.165,3.494A4,4,0,0,1,8.811.185a4,4,0,0,1-3.2-1.354A5.16,5.16,0,0,1,4.443-4.658Zm2.136.185a4.218,4.218,0,0,0,.545,2.268,1.85,1.85,0,0,0,1.688.87A1.855,1.855,0,0,0,10.485-2.4a4.144,4.144,0,0,0,.558-2.263v-.185a4.136,4.136,0,0,0-.558-2.246,1.866,1.866,0,0,0-1.692-.883,1.829,1.829,0,0,0-1.666.883,4.188,4.188,0,0,0-.549,2.246Zm2.9-8.9H11.9l.018.053-2.4,2.285H7.8ZM16.967-9.51l.123,1.371a3.4,3.4,0,0,1,1.173-1.138,3.131,3.131,0,0,1,1.6-.409,2.97,2.97,0,0,1,2.316.914,4.153,4.153,0,0,1,.831,2.856V0H20.87V-5.9a2.3,2.3,0,0,0-.431-1.573,1.687,1.687,0,0,0-1.3-.466,2.55,2.55,0,0,0-1.187.259,2.078,2.078,0,0,0-.8.716V0H15.016V-9.51Z" transform="translate(634 1132)" fill="#b7006d"/>
    <g id="Rectángulo_12" data-name="Rectángulo 12" transform="translate(830 1103)" fill="#f8f8f8" stroke="#b7006d" stroke-width="2">
      <rect width="160" height="45" rx="17" stroke="none"/>
      <rect x="1" y="1" width="158" height="43" rx="16" fill="none"/>
    </g>
    <path id="Trazado_1146" data-name="Trazado 1146" d="M-22.759,0V-12.8h4.192a5.518,5.518,0,0,1,3.313.875,3.031,3.031,0,0,1,1.2,2.615,2.569,2.569,0,0,1-.479,1.521,2.972,2.972,0,0,1-1.332,1.028A2.871,2.871,0,0,1-13.975-5.7a3.217,3.217,0,0,1,.664,2.021A3.288,3.288,0,0,1-14.489-.936,5.1,5.1,0,0,1-17.741,0Zm2.136-5.818v4.113h2.883a2.569,2.569,0,0,0,1.705-.505,1.809,1.809,0,0,0,.6-1.463,2.044,2.044,0,0,0-.589-1.538,2.394,2.394,0,0,0-1.652-.606h-2.944Zm0-1.591h2.285a2.409,2.409,0,0,0,1.569-.47,1.622,1.622,0,0,0,.576-1.332,1.66,1.66,0,0,0-.606-1.411,2.88,2.88,0,0,0-1.767-.461h-2.057Zm8.71,2.566a5.164,5.164,0,0,1,1.165-3.485A3.977,3.977,0,0,1-7.563-9.686,4.007,4.007,0,0,1-4.351-8.328,5.164,5.164,0,0,1-3.186-4.843v.185A5.156,5.156,0,0,1-4.351-1.165,4,4,0,0,1-7.545.185a4,4,0,0,1-3.2-1.354,5.16,5.16,0,0,1-1.165-3.489Zm2.136.185a4.218,4.218,0,0,0,.545,2.268,1.85,1.85,0,0,0,1.688.87A1.855,1.855,0,0,0-5.871-2.4a4.144,4.144,0,0,0,.558-2.263v-.185a4.136,4.136,0,0,0-.558-2.246,1.866,1.866,0,0,0-1.692-.883,1.829,1.829,0,0,0-1.666.883,4.188,4.188,0,0,0-.549,2.246ZM1.411-11.821V-9.51H3.116v1.582H1.411v5.256a1.146,1.146,0,0,0,.255.839.924.924,0,0,0,.677.25,1.888,1.888,0,0,0,.343-.031A2.083,2.083,0,0,0,3-1.7L3.23-.132A2.454,2.454,0,0,1,2.584.1a3.556,3.556,0,0,1-.778.083,2.464,2.464,0,0,1-1.85-.69A3.009,3.009,0,0,1-.716-2.672V-7.928h-1.45V-9.51h1.45v-2.312ZM4.443-4.843A5.164,5.164,0,0,1,5.607-8.328,3.977,3.977,0,0,1,8.793-9.686a4.007,4.007,0,0,1,3.212,1.358A5.164,5.164,0,0,1,13.17-4.843v.185a5.156,5.156,0,0,1-1.165,3.494A4,4,0,0,1,8.811.185a4,4,0,0,1-3.2-1.354A5.16,5.16,0,0,1,4.443-4.658Zm2.136.185a4.218,4.218,0,0,0,.545,2.268,1.85,1.85,0,0,0,1.688.87A1.855,1.855,0,0,0,10.485-2.4a4.144,4.144,0,0,0,.558-2.263v-.185a4.136,4.136,0,0,0-.558-2.246,1.866,1.866,0,0,0-1.692-.883,1.829,1.829,0,0,0-1.666.883,4.188,4.188,0,0,0-.549,2.246Zm2.9-8.9H11.9l.018.053-2.4,2.285H7.8ZM16.967-9.51l.123,1.371a3.4,3.4,0,0,1,1.173-1.138,3.131,3.131,0,0,1,1.6-.409,2.97,2.97,0,0,1,2.316.914,4.153,4.153,0,0,1,.831,2.856V0H20.87V-5.9a2.3,2.3,0,0,0-.431-1.573,1.687,1.687,0,0,0-1.3-.466,2.55,2.55,0,0,0-1.187.259,2.078,2.078,0,0,0-.8.716V0H15.016V-9.51Z" transform="translate(910 1132)" fill="#b7006d"/>
    <g id="Rectángulo_13" data-name="Rectángulo 13" transform="translate(1106 1103)" fill="none" stroke="#fcd3ec" stroke-width="2">
      <rect width="160" height="45" rx="17" stroke="none"/>
      <rect x="1" y="1" width="158" height="43" rx="16" fill="none"/>
    </g>
    <path id="Trazado_1147" data-name="Trazado 1147" d="M-22.759,0V-12.8h4.192a5.518,5.518,0,0,1,3.313.875,3.031,3.031,0,0,1,1.2,2.615,2.569,2.569,0,0,1-.479,1.521,2.972,2.972,0,0,1-1.332,1.028A2.871,2.871,0,0,1-13.975-5.7a3.217,3.217,0,0,1,.664,2.021A3.288,3.288,0,0,1-14.489-.936,5.1,5.1,0,0,1-17.741,0Zm2.136-5.818v4.113h2.883a2.569,2.569,0,0,0,1.705-.505,1.809,1.809,0,0,0,.6-1.463,2.044,2.044,0,0,0-.589-1.538,2.394,2.394,0,0,0-1.652-.606h-2.944Zm0-1.591h2.285a2.409,2.409,0,0,0,1.569-.47,1.622,1.622,0,0,0,.576-1.332,1.66,1.66,0,0,0-.606-1.411,2.88,2.88,0,0,0-1.767-.461h-2.057Zm8.71,2.566a5.164,5.164,0,0,1,1.165-3.485A3.977,3.977,0,0,1-7.563-9.686,4.007,4.007,0,0,1-4.351-8.328,5.164,5.164,0,0,1-3.186-4.843v.185A5.156,5.156,0,0,1-4.351-1.165,4,4,0,0,1-7.545.185a4,4,0,0,1-3.2-1.354,5.16,5.16,0,0,1-1.165-3.489Zm2.136.185a4.218,4.218,0,0,0,.545,2.268,1.85,1.85,0,0,0,1.688.87A1.855,1.855,0,0,0-5.871-2.4a4.144,4.144,0,0,0,.558-2.263v-.185a4.136,4.136,0,0,0-.558-2.246,1.866,1.866,0,0,0-1.692-.883,1.829,1.829,0,0,0-1.666.883,4.188,4.188,0,0,0-.549,2.246ZM1.411-11.821V-9.51H3.116v1.582H1.411v5.256a1.146,1.146,0,0,0,.255.839.924.924,0,0,0,.677.25,1.888,1.888,0,0,0,.343-.031A2.083,2.083,0,0,0,3-1.7L3.23-.132A2.454,2.454,0,0,1,2.584.1a3.556,3.556,0,0,1-.778.083,2.464,2.464,0,0,1-1.85-.69A3.009,3.009,0,0,1-.716-2.672V-7.928h-1.45V-9.51h1.45v-2.312ZM4.443-4.843A5.164,5.164,0,0,1,5.607-8.328,3.977,3.977,0,0,1,8.793-9.686a4.007,4.007,0,0,1,3.212,1.358A5.164,5.164,0,0,1,13.17-4.843v.185a5.156,5.156,0,0,1-1.165,3.494A4,4,0,0,1,8.811.185a4,4,0,0,1-3.2-1.354A5.16,5.16,0,0,1,4.443-4.658Zm2.136.185a4.218,4.218,0,0,0,.545,2.268,1.85,1.85,0,0,0,1.688.87A1.855,1.855,0,0,0,10.485-2.4a4.144,4.144,0,0,0,.558-2.263v-.185a4.136,4.136,0,0,0-.558-2.246,1.866,1.866,0,0,0-1.692-.883,1.829,1.829,0,0,0-1.666.883,4.188,4.188,0,0,0-.549,2.246Zm2.9-8.9H11.9l.018.053-2.4,2.285H7.8ZM16.967-9.51l.123,1.371a3.4,3.4,0,0,1,1.173-1.138,3.131,3.131,0,0,1,1.6-.409,2.97,2.97,0,0,1,2.316.914,4.153,4.153,0,0,1,.831,2.856V0H20.87V-5.9a2.3,2.3,0,0,0-.431-1.573,1.687,1.687,0,0,0-1.3-.466,2.55,2.55,0,0,0-1.187.259,2.078,2.078,0,0,0-.8.716V0H15.016V-9.51Z" transform="translate(1186 1132)" fill="#fcd3ec"/>
    <path id="Trazado_1142" data-name="Trazado 1142" d="M-14.473-3.172h-4.984L-21.082,0h-.969l5.883-11.375h.883L-12.84,0h-.969Zm-4.555-.836h4.383l-1.25-6.023-.047-.008ZM-8.113-.625A2.888,2.888,0,0,0-6.461-1.16a2.112,2.112,0,0,0,.934-1.473H-4.7l.016.047A2.807,2.807,0,0,1-5.9-.6,3.9,3.9,0,0,1-8.23.164a2.709,2.709,0,0,1-2.422-1.2,4.163,4.163,0,0,1-.516-3.027l.047-.328A5.449,5.449,0,0,1-9.734-7.453,3.718,3.718,0,0,1-6.926-8.609a2.819,2.819,0,0,1,2.117.828A2.35,2.35,0,0,1-4.23-5.625l-.016.039H-5.09A1.846,1.846,0,0,0-5.5-7.227a2.046,2.046,0,0,0-1.543-.586,2.608,2.608,0,0,0-2.1.992,4.862,4.862,0,0,0-1.043,2.43l-.047.328a4.01,4.01,0,0,0,.266,2.488A1.9,1.9,0,0,0-8.113-.625Zm8.1-9.992L-.34-8.453H1.52l-.109.766H-.457l-.82,5.508a1.651,1.651,0,0,0,.117,1.2A.892.892,0,0,0-.4-.656,2.572,2.572,0,0,0-.062-.68Q.113-.7.316-.742l.039.7A2.025,2.025,0,0,1-.137.109,2.9,2.9,0,0,1-.691.164,1.516,1.516,0,0,1-1.98-.4,2.339,2.339,0,0,1-2.223-2.18l.82-5.508H-2.855l.109-.766h1.461l.328-2.164ZM3.129,0H2.2L3.465-8.453h.93ZM4.762-10.875h-.93l.2-1.312h.93Zm3.68,8.758.133.984.039.008.445-.992L12.3-8.453h.969L8.793,0h-.75L6.09-8.453h.969Zm5.117-2.234a5.235,5.235,0,0,1,1.469-3.1,3.991,3.991,0,0,1,2.9-1.16A2.912,2.912,0,0,1,20.43-7.4a4,4,0,0,1,.605,3.051L21-4.094a5.311,5.311,0,0,1-1.48,3.1A3.976,3.976,0,0,1,16.629.164a2.923,2.923,0,0,1-2.512-1.2,3.978,3.978,0,0,1-.6-3.055Zm.9.258a3.644,3.644,0,0,0,.355,2.5,2.086,2.086,0,0,0,1.934.973,2.849,2.849,0,0,0,2.172-1.012,4.621,4.621,0,0,0,1.148-2.457l.039-.258a3.646,3.646,0,0,0-.379-2.48,2.077,2.077,0,0,0-1.918-.98,2.848,2.848,0,0,0-2.18,1.02A4.549,4.549,0,0,0,14.5-4.352Z" transform="translate(634 1086)" fill="#494949"/>
    <path id="Trazado_1143" data-name="Trazado 1143" d="M-25.727,0h-.937l1.7-11.375h.938Zm4.9-7.039A3.671,3.671,0,0,1-19.559-8.2a3.5,3.5,0,0,1,1.7-.406,2.244,2.244,0,0,1,1.945.848,3.537,3.537,0,0,1,.352,2.613L-16.336,0h-.937l.773-5.141a2.882,2.882,0,0,0-.223-2.082A1.734,1.734,0,0,0-18.187-7.8a2.747,2.747,0,0,0-1.668.512A3.621,3.621,0,0,0-20.969-5.93L-21.859,0H-22.8l1.266-8.453h.828ZM-8.539,0q-.016-.484-.016-.789a4.314,4.314,0,0,1,.047-.625A4.3,4.3,0,0,1-9.9-.285a3.963,3.963,0,0,1-1.871.449,2.321,2.321,0,0,1-1.8-.668,2.051,2.051,0,0,1-.437-1.785,2.556,2.556,0,0,1,1.262-1.859,4.994,4.994,0,0,1,2.691-.68h2.078l.156-1.047a1.627,1.627,0,0,0-.355-1.441,2.1,2.1,0,0,0-1.551-.5,2.735,2.735,0,0,0-1.6.473,1.738,1.738,0,0,0-.789,1.176h-.859L-13-6.211A2.38,2.38,0,0,1-11.934-7.9,3.889,3.889,0,0,1-9.57-8.609a2.945,2.945,0,0,1,2.105.719A2.181,2.181,0,0,1-6.9-5.859L-7.523-1.7a7.754,7.754,0,0,0-.086.875A4.42,4.42,0,0,0-7.562,0Zm-3.008-.664A3.729,3.729,0,0,0-9.633-1.18a3.228,3.228,0,0,0,1.289-1.3l.25-1.625H-10.18a3.5,3.5,0,0,0-1.941.547,1.925,1.925,0,0,0-.965,1.3,1.33,1.33,0,0,0,.293,1.168A1.641,1.641,0,0,0-11.547-.664ZM-2.1-.625A2.888,2.888,0,0,0-.449-1.16,2.112,2.112,0,0,0,.484-2.633h.828l.016.047A2.807,2.807,0,0,1,.113-.6,3.9,3.9,0,0,1-2.219.164a2.709,2.709,0,0,1-2.422-1.2,4.163,4.163,0,0,1-.516-3.027l.047-.328A5.449,5.449,0,0,1-3.723-7.453,3.718,3.718,0,0,1-.914-8.609,2.819,2.819,0,0,1,1.2-7.781a2.35,2.35,0,0,1,.578,2.156l-.016.039H.922a1.846,1.846,0,0,0-.41-1.641,2.046,2.046,0,0,0-1.543-.586,2.608,2.608,0,0,0-2.1.992,4.862,4.862,0,0,0-1.043,2.43l-.047.328a4.01,4.01,0,0,0,.266,2.488A1.9,1.9,0,0,0-2.1-.625ZM6-10.617,5.672-8.453H7.531l-.109.766H5.555L4.734-2.18a1.651,1.651,0,0,0,.117,1.2.892.892,0,0,0,.758.328,2.572,2.572,0,0,0,.34-.023q.176-.023.379-.062l.039.7a2.025,2.025,0,0,1-.492.156A2.9,2.9,0,0,1,5.32.164,1.516,1.516,0,0,1,4.031-.4,2.339,2.339,0,0,1,3.789-2.18l.82-5.508H3.156l.109-.766H4.727l.328-2.164ZM9.141,0h-.93L9.477-8.453h.93Zm1.633-10.875h-.93l.2-1.312h.93Zm3.68,8.758.133.984.039.008.445-.992,3.242-6.336h.969L14.8,0h-.75L12.1-8.453h.969ZM19.57-4.352a5.235,5.235,0,0,1,1.469-3.1,3.991,3.991,0,0,1,2.9-1.16,2.912,2.912,0,0,1,2.5,1.207,4,4,0,0,1,.605,3.051l-.039.258a5.311,5.311,0,0,1-1.48,3.1A3.976,3.976,0,0,1,22.641.164a2.923,2.923,0,0,1-2.512-1.2,3.978,3.978,0,0,1-.6-3.055Zm.9.258a3.644,3.644,0,0,0,.355,2.5,2.086,2.086,0,0,0,1.934.973A2.849,2.849,0,0,0,24.93-1.637a4.621,4.621,0,0,0,1.148-2.457l.039-.258a3.646,3.646,0,0,0-.379-2.48,2.077,2.077,0,0,0-1.918-.98,2.848,2.848,0,0,0-2.18,1.02,4.549,4.549,0,0,0-1.133,2.441Z" transform="translate(1186 1086)" fill="#494949"/>
    <path id="Trazado_1144" data-name="Trazado 1144" d="M-11.562,0H-12.5l.781-5.234H-18.18L-18.961,0H-19.9l1.7-11.375h.938l-.8,5.344H-11.6l.8-5.344h.938Zm2.82-4.352a5.235,5.235,0,0,1,1.469-3.1,3.991,3.991,0,0,1,2.9-1.16A2.912,2.912,0,0,1-1.871-7.4a4,4,0,0,1,.605,3.051l-.039.258a5.311,5.311,0,0,1-1.48,3.1A3.976,3.976,0,0,1-5.672.164a2.923,2.923,0,0,1-2.512-1.2,3.978,3.978,0,0,1-.6-3.055Zm.9.258a3.644,3.644,0,0,0,.355,2.5,2.086,2.086,0,0,0,1.934.973A2.849,2.849,0,0,0-3.383-1.637,4.621,4.621,0,0,0-2.234-4.094l.039-.258a3.646,3.646,0,0,0-.379-2.48,2.077,2.077,0,0,0-1.918-.98,2.848,2.848,0,0,0-2.18,1.02A4.549,4.549,0,0,0-7.8-4.352ZM2.641-2.117l.133.984.039.008.445-.992L6.5-8.453h.969L2.992,0h-.75L.289-8.453h.969ZM10.828.164A2.906,2.906,0,0,1,8.367-1.008a3.794,3.794,0,0,1-.609-2.969l.07-.43A5.092,5.092,0,0,1,9.3-7.457a3.861,3.861,0,0,1,2.754-1.152,2.521,2.521,0,0,1,2.2,1,3.534,3.534,0,0,1,.473,2.648l-.109.727H8.734L8.7-3.977a3.456,3.456,0,0,0,.363,2.426,2.071,2.071,0,0,0,1.887.926,4.2,4.2,0,0,0,1.449-.258,3.746,3.746,0,0,0,1.191-.68l.3.641a4.227,4.227,0,0,1-1.285.777A4.75,4.75,0,0,1,10.828.164Zm1.109-7.977a2.644,2.644,0,0,0-1.859.781A4.009,4.009,0,0,0,8.945-5.078l.016.047H13.8l.023-.2a2.6,2.6,0,0,0-.3-1.875A1.768,1.768,0,0,0,11.938-7.812Zm8.945.164L20.227-7.7a2.373,2.373,0,0,0-1.508.516,3.511,3.511,0,0,0-1.039,1.4L16.813,0h-.937l1.266-8.453h.82l-.094,1.406L17.859-7a3.609,3.609,0,0,1,1.156-1.187,2.858,2.858,0,0,1,1.539-.422,1.923,1.923,0,0,1,.324.027,1.787,1.787,0,0,1,.254.059Z" transform="translate(910 1086)" fill="#494949"/>
    <path id="Trazado_1153" data-name="Trazado 1153" d="M-35.887-4h-3.057L-39.7,0h-.977l.752-4h-2.49v-.908h2.656l.811-4.307h-2.725v-.937h2.9L-38-14.219h.977l-.771,4.063h3.066l.771-4.062h.977l-.771,4.063h2.236v.938h-2.412l-.811,4.307h2.49V-4H-34.91l-.752,4h-.977Zm-2.891-.908h3.066l.811-4.307h-3.066ZM-28.246,0V-14.219h4.15a5.645,5.645,0,0,1,3.457.933,3.289,3.289,0,0,1,1.24,2.808A3.023,3.023,0,0,1-20-8.613,3.208,3.208,0,0,1-21.615-7.48a3.319,3.319,0,0,1,2.2,1.172,3.523,3.523,0,0,1,.854,2.354,3.592,3.592,0,0,1-1.235,2.93A5.012,5.012,0,0,1-23.1,0Zm1.172-6.855V-.986H-23.1a3.655,3.655,0,0,0,2.471-.776,2.718,2.718,0,0,0,.9-2.173,2.662,2.662,0,0,0-.884-2.075,3.591,3.591,0,0,0-2.368-.845h-4.092Zm0-.986h3.418a3.556,3.556,0,0,0,2.28-.708,2.429,2.429,0,0,0,.806-1.968,2.379,2.379,0,0,0-.9-2.026,4.309,4.309,0,0,0-2.627-.679h-2.979Zm20.082-5.381a22.171,22.171,0,0,0-3.6,5.591A15.57,15.57,0,0,0-11.8-1.406V0h-1.172V-1.406a15.528,15.528,0,0,1,1.255-6.27A22.532,22.532,0,0,1-8.2-13.223H-16.24v-1h9.248ZM4.517-5.02A5.757,5.757,0,0,1,3.34-1.191,4,4,0,0,1,.112.205,4.033,4.033,0,0,1-3.13-1.2,5.713,5.713,0,0,1-4.321-5.02V-9.2A5.749,5.749,0,0,1-3.14-13.018,4,4,0,0,1,.093-14.424,4.012,4.012,0,0,1,3.33-13.018,5.733,5.733,0,0,1,4.517-9.2ZM3.345-9.385A4.7,4.7,0,0,0,2.5-12.339,2.867,2.867,0,0,0,.093-13.428a2.862,2.862,0,0,0-2.407,1.094,4.7,4.7,0,0,0-.845,2.949v4.541A4.713,4.713,0,0,0-2.3-1.89,2.874,2.874,0,0,0,.112-.781,2.828,2.828,0,0,0,2.5-1.885a4.767,4.767,0,0,0,.84-2.959ZM16.2-5.02a5.757,5.757,0,0,1-1.177,3.828A4,4,0,0,1,11.8.205,4.033,4.033,0,0,1,8.554-1.2,5.713,5.713,0,0,1,7.363-5.02V-9.2a5.749,5.749,0,0,1,1.182-3.818,4,4,0,0,1,3.232-1.406,4.012,4.012,0,0,1,3.237,1.406A5.733,5.733,0,0,1,16.2-9.2ZM15.029-9.385a4.7,4.7,0,0,0-.845-2.954,2.867,2.867,0,0,0-2.407-1.089A2.862,2.862,0,0,0,9.37-12.334a4.7,4.7,0,0,0-.845,2.949v4.541A4.713,4.713,0,0,0,9.379-1.89,2.874,2.874,0,0,0,11.8-.781a2.828,2.828,0,0,0,2.393-1.1,4.767,4.767,0,0,0,.84-2.959Zm9.008-5.039a7.613,7.613,0,0,1,1.577.166,5.029,5.029,0,0,1,1.362.479l-.3.957a5.469,5.469,0,0,0-1.2-.454,6.038,6.038,0,0,0-1.44-.151,3.047,3.047,0,0,0-2.466,1.191,4.742,4.742,0,0,0-.972,3.1v1.953A4.321,4.321,0,0,1,22.113-8.5a4.3,4.3,0,0,1,2.051-.493A3.664,3.664,0,0,1,27.1-7.764a4.946,4.946,0,0,1,1.055,3.33,4.743,4.743,0,0,1-1.187,3.359A4.056,4.056,0,0,1,23.851.205,3.991,3.991,0,0,1,20.687-1.25a5.837,5.837,0,0,1-1.25-3.936V-9.033a5.676,5.676,0,0,1,1.323-3.877A4.18,4.18,0,0,1,24.037-14.424Zm-.2,6.387a3.456,3.456,0,0,0-2.036.62A3.109,3.109,0,0,0,20.6-5.84V-5.1a4.967,4.967,0,0,0,.918,3.14A2.838,2.838,0,0,0,23.851-.781a2.8,2.8,0,0,0,2.29-1.035,4,4,0,0,0,.845-2.617,4.008,4.008,0,0,0-.8-2.661A2.9,2.9,0,0,0,23.842-8.037ZM31.424,0V-14.219H35.76a5.783,5.783,0,0,1,4.312,1.738,6.107,6.107,0,0,1,1.7,4.463v1.826a6.091,6.091,0,0,1-1.7,4.458A5.791,5.791,0,0,1,35.76,0ZM32.6-13.223V-.986H35.76a4.534,4.534,0,0,0,3.477-1.475A5.273,5.273,0,0,0,40.6-6.191V-8.047a5.223,5.223,0,0,0-1.372-3.7,4.538,4.538,0,0,0-3.472-1.475Z" transform="translate(921 1284)" fill="#999"/>
    <path id="Trazado_1149" data-name="Trazado 1149" d="M-35.887-4h-3.057L-39.7,0h-.977l.752-4h-2.49v-.908h2.656l.811-4.307h-2.725v-.937h2.9L-38-14.219h.977l-.771,4.063h3.066l.771-4.062h.977l-.771,4.063h2.236v.938h-2.412l-.811,4.307h2.49V-4H-34.91l-.752,4h-.977Zm-2.891-.908h3.066l.811-4.307h-3.066ZM-28.246,0V-14.219h4.15a5.645,5.645,0,0,1,3.457.933,3.289,3.289,0,0,1,1.24,2.808A3.023,3.023,0,0,1-20-8.613,3.208,3.208,0,0,1-21.615-7.48a3.319,3.319,0,0,1,2.2,1.172,3.523,3.523,0,0,1,.854,2.354,3.592,3.592,0,0,1-1.235,2.93A5.012,5.012,0,0,1-23.1,0Zm1.172-6.855V-.986H-23.1a3.655,3.655,0,0,0,2.471-.776,2.718,2.718,0,0,0,.9-2.173,2.662,2.662,0,0,0-.884-2.075,3.591,3.591,0,0,0-2.368-.845h-4.092Zm0-.986h3.418a3.556,3.556,0,0,0,2.28-.708,2.429,2.429,0,0,0,.806-1.968,2.379,2.379,0,0,0-.9-2.026,4.309,4.309,0,0,0-2.627-.679h-2.979Zm20.082-5.381a22.171,22.171,0,0,0-3.6,5.591A15.57,15.57,0,0,0-11.8-1.406V0h-1.172V-1.406a15.528,15.528,0,0,1,1.255-6.27A22.532,22.532,0,0,1-8.2-13.223H-16.24v-1h9.248ZM4.517-5.02A5.757,5.757,0,0,1,3.34-1.191,4,4,0,0,1,.112.205,4.033,4.033,0,0,1-3.13-1.2,5.713,5.713,0,0,1-4.321-5.02V-9.2A5.749,5.749,0,0,1-3.14-13.018,4,4,0,0,1,.093-14.424,4.012,4.012,0,0,1,3.33-13.018,5.733,5.733,0,0,1,4.517-9.2ZM3.345-9.385A4.7,4.7,0,0,0,2.5-12.339,2.867,2.867,0,0,0,.093-13.428a2.862,2.862,0,0,0-2.407,1.094,4.7,4.7,0,0,0-.845,2.949v4.541A4.713,4.713,0,0,0-2.3-1.89,2.874,2.874,0,0,0,.112-.781,2.828,2.828,0,0,0,2.5-1.885a4.767,4.767,0,0,0,.84-2.959ZM16.2-5.02a5.757,5.757,0,0,1-1.177,3.828A4,4,0,0,1,11.8.205,4.033,4.033,0,0,1,8.554-1.2,5.713,5.713,0,0,1,7.363-5.02V-9.2a5.749,5.749,0,0,1,1.182-3.818,4,4,0,0,1,3.232-1.406,4.012,4.012,0,0,1,3.237,1.406A5.733,5.733,0,0,1,16.2-9.2ZM15.029-9.385a4.7,4.7,0,0,0-.845-2.954,2.867,2.867,0,0,0-2.407-1.089A2.862,2.862,0,0,0,9.37-12.334a4.7,4.7,0,0,0-.845,2.949v4.541A4.713,4.713,0,0,0,9.379-1.89,2.874,2.874,0,0,0,11.8-.781a2.828,2.828,0,0,0,2.393-1.1,4.767,4.767,0,0,0,.84-2.959Zm9.008-5.039a7.613,7.613,0,0,1,1.577.166,5.029,5.029,0,0,1,1.362.479l-.3.957a5.469,5.469,0,0,0-1.2-.454,6.038,6.038,0,0,0-1.44-.151,3.047,3.047,0,0,0-2.466,1.191,4.742,4.742,0,0,0-.972,3.1v1.953A4.321,4.321,0,0,1,22.113-8.5a4.3,4.3,0,0,1,2.051-.493A3.664,3.664,0,0,1,27.1-7.764a4.946,4.946,0,0,1,1.055,3.33,4.743,4.743,0,0,1-1.187,3.359A4.056,4.056,0,0,1,23.851.205,3.991,3.991,0,0,1,20.687-1.25a5.837,5.837,0,0,1-1.25-3.936V-9.033a5.676,5.676,0,0,1,1.323-3.877A4.18,4.18,0,0,1,24.037-14.424Zm-.2,6.387a3.456,3.456,0,0,0-2.036.62A3.109,3.109,0,0,0,20.6-5.84V-5.1a4.967,4.967,0,0,0,.918,3.14A2.838,2.838,0,0,0,23.851-.781a2.8,2.8,0,0,0,2.29-1.035,4,4,0,0,0,.845-2.617,4.008,4.008,0,0,0-.8-2.661A2.9,2.9,0,0,0,23.842-8.037ZM31.424,0V-14.219H35.76a5.783,5.783,0,0,1,4.312,1.738,6.107,6.107,0,0,1,1.7,4.463v1.826a6.091,6.091,0,0,1-1.7,4.458A5.791,5.791,0,0,1,35.76,0ZM32.6-13.223V-.986H35.76a4.534,4.534,0,0,0,3.477-1.475A5.273,5.273,0,0,0,40.6-6.191V-8.047a5.223,5.223,0,0,0-1.372-3.7,4.538,4.538,0,0,0-3.472-1.475Z" transform="translate(648 1284)" fill="#999"/>
    <path id="Trazado_1154" data-name="Trazado 1154" d="M-33.973-4h-3.057l-.752,4h-.977l.752-4H-40.5v-.908h2.656l.811-4.307h-2.725v-.937h2.9l.771-4.062h.977l-.771,4.063h3.066l.771-4.062h.977l-.771,4.063H-29.6v.938H-32.01l-.811,4.307h2.49V-4H-33l-.752,4h-.977Zm-2.891-.908H-33.8l.811-4.307h-3.066ZM-18.627-6.66H-25.16V0h-1.172V-14.219h8.7v1H-25.16v5.557h6.533Zm11.821-3.984a3.221,3.221,0,0,1-.669,2.021,3.763,3.763,0,0,1-1.772,1.26A4.3,4.3,0,0,1-7.192-6.025a3.288,3.288,0,0,1,.786,2.178A3.682,3.682,0,0,1-7.68-.864a4.806,4.806,0,0,1-3.2,1.069A5.173,5.173,0,0,1-14.243-.859a3.63,3.63,0,0,1-1.313-2.988,3.264,3.264,0,0,1,.8-2.187,4.386,4.386,0,0,1,2.129-1.338,3.849,3.849,0,0,1-1.846-1.255,3.156,3.156,0,0,1-.684-2.017,3.419,3.419,0,0,1,1.191-2.8,4.664,4.664,0,0,1,3.066-.981,4.384,4.384,0,0,1,2.93.981A3.459,3.459,0,0,1-6.806-10.645Zm-.771,6.807a2.779,2.779,0,0,0-.967-2.187,3.44,3.44,0,0,0-2.354-.85,3.722,3.722,0,0,0-2.5.85,2.738,2.738,0,0,0-1,2.188,2.75,2.75,0,0,0,1,2.227,3.8,3.8,0,0,0,2.52.83A3.435,3.435,0,0,0-8.53-1.616,2.809,2.809,0,0,0-7.578-3.838Zm-.4-6.816a2.583,2.583,0,0,0-.85-2,2.958,2.958,0,0,0-2.07-.776,3.3,3.3,0,0,0-2.222.747,2.527,2.527,0,0,0-.874,2.026A2.545,2.545,0,0,0-13.1-8.628a3.288,3.288,0,0,0,2.227.767,2.934,2.934,0,0,0,2.061-.771A2.616,2.616,0,0,0-7.978-10.654ZM4.673-6.66H-1.86V0H-3.032V-14.219h8.7v1H-1.86v5.557H4.673Zm11.821-3.984a3.221,3.221,0,0,1-.669,2.021,3.763,3.763,0,0,1-1.772,1.26,4.3,4.3,0,0,1,2.056,1.338,3.288,3.288,0,0,1,.786,2.178A3.682,3.682,0,0,1,15.62-.864a4.806,4.806,0,0,1-3.2,1.069A5.173,5.173,0,0,1,9.057-.859,3.63,3.63,0,0,1,7.744-3.848a3.264,3.264,0,0,1,.8-2.187,4.386,4.386,0,0,1,2.129-1.338A3.849,3.849,0,0,1,8.828-8.628a3.156,3.156,0,0,1-.684-2.017,3.419,3.419,0,0,1,1.191-2.8,4.664,4.664,0,0,1,3.066-.981,4.384,4.384,0,0,1,2.93.981A3.459,3.459,0,0,1,16.494-10.645Zm-.771,6.807a2.779,2.779,0,0,0-.967-2.187,3.44,3.44,0,0,0-2.354-.85,3.722,3.722,0,0,0-2.5.85,2.738,2.738,0,0,0-1,2.188,2.75,2.75,0,0,0,1,2.227,3.8,3.8,0,0,0,2.52.83,3.435,3.435,0,0,0,2.349-.835A2.809,2.809,0,0,0,15.722-3.838Zm-.4-6.816a2.583,2.583,0,0,0-.85-2,2.958,2.958,0,0,0-2.07-.776,3.3,3.3,0,0,0-2.222.747,2.527,2.527,0,0,0-.874,2.026,2.545,2.545,0,0,0,.889,2.026,3.288,3.288,0,0,0,2.227.767,2.934,2.934,0,0,0,2.061-.771A2.616,2.616,0,0,0,15.322-10.654ZM27.972-6.66H21.439V0H20.267V-14.219h8.7v1H21.439v5.557h6.533Zm11.821-3.984a3.221,3.221,0,0,1-.669,2.021,3.763,3.763,0,0,1-1.772,1.26,4.3,4.3,0,0,1,2.056,1.338,3.288,3.288,0,0,1,.786,2.178A3.682,3.682,0,0,1,38.919-.864a4.806,4.806,0,0,1-3.2,1.069A5.173,5.173,0,0,1,32.357-.859a3.63,3.63,0,0,1-1.313-2.988,3.264,3.264,0,0,1,.8-2.187,4.386,4.386,0,0,1,2.129-1.338,3.849,3.849,0,0,1-1.846-1.255,3.156,3.156,0,0,1-.684-2.017,3.419,3.419,0,0,1,1.191-2.8,4.664,4.664,0,0,1,3.066-.981,4.384,4.384,0,0,1,2.93.981A3.459,3.459,0,0,1,39.793-10.645Zm-.771,6.807a2.779,2.779,0,0,0-.967-2.187,3.44,3.44,0,0,0-2.354-.85,3.722,3.722,0,0,0-2.5.85,2.738,2.738,0,0,0-1,2.188,2.75,2.75,0,0,0,1,2.227,3.8,3.8,0,0,0,2.52.83,3.435,3.435,0,0,0,2.349-.835A2.809,2.809,0,0,0,39.022-3.838Zm-.4-6.816a2.583,2.583,0,0,0-.85-2,2.958,2.958,0,0,0-2.07-.776,3.3,3.3,0,0,0-2.222.747,2.527,2.527,0,0,0-.874,2.026,2.545,2.545,0,0,0,.889,2.026,3.288,3.288,0,0,0,2.227.767,2.934,2.934,0,0,0,2.061-.771A2.616,2.616,0,0,0,38.621-10.654Z" transform="translate(919 1241)" fill="#999"/>
    <path id="Trazado_1158" data-name="Trazado 1158" d="M-33.87-4h-3.057l-.752,4h-.977l.752-4h-2.49v-.908h2.656l.811-4.307h-2.725v-.937h2.9l.771-4.062H-35l-.771,4.063h3.066l.771-4.062h.977l-.771,4.063H-29.5v.938h-2.412l-.811,4.307h2.49V-4h-2.666l-.752,4h-.977Zm-2.891-.908h3.066l.811-4.307H-35.95ZM-18.524-6.66h-6.533V0h-1.172V-14.219h8.7v1h-7.529v5.557h6.533Zm11.616,0h-6.533V0h-1.172V-14.219h8.7v1h-7.529v5.557h6.533Zm11.616,0H-1.826V0H-3V-14.219H5.7v1H-1.826v5.557H4.707Zm11.616,0H9.789V0H8.618V-14.219h8.7v1H9.789v5.557h6.533Zm11.616,0H21.405V0H20.233V-14.219h8.7v1H21.405v5.557h6.533Zm11.616,0H33.021V0H31.849V-14.219h8.7v1H33.021v5.557h6.533Z" transform="translate(1197 1241)" fill="#999"/>
    <path id="Trazado_1157" data-name="Trazado 1157" d="M-36.937-4h-3.057l-.752,4h-.977l.752-4h-2.49v-.908H-40.8l.811-4.307h-2.725v-.937h2.9l.771-4.062h.977l-.771,4.063h3.066L-35-14.219h.977l-.771,4.063h2.236v.938h-2.412l-.811,4.307h2.49V-4H-35.96l-.752,4h-.977Zm-2.891-.908h3.066l.811-4.307h-3.066ZM-21.591-6.66h-6.533V0H-29.3V-14.219h8.7v1h-7.529v5.557h6.533ZM-7.885-4.443l.02.059a4.136,4.136,0,0,1-1.367,3.34A5.349,5.349,0,0,1-12.924.205a4.777,4.777,0,0,1-3.828-1.714,6.621,6.621,0,0,1-1.455-4.438V-8.262A6.644,6.644,0,0,1-16.752-12.7a4.765,4.765,0,0,1,3.828-1.724A5.418,5.418,0,0,1-9.218-13.2,4.129,4.129,0,0,1-7.866-9.844l-.02.059H-8.979a3.453,3.453,0,0,0-1.05-2.681,4.125,4.125,0,0,0-2.9-.962,3.608,3.608,0,0,0-2.993,1.445,5.838,5.838,0,0,0-1.128,3.7v2.334a5.866,5.866,0,0,0,1.128,3.726,3.613,3.613,0,0,0,2.993,1.44,4.193,4.193,0,0,0,2.9-.937,3.463,3.463,0,0,0,1.05-2.725ZM-4.258,0V-14.219H.078A5.783,5.783,0,0,1,4.39-12.48a6.107,6.107,0,0,1,1.7,4.463v1.826a6.091,6.091,0,0,1-1.7,4.458A5.791,5.791,0,0,1,.078,0Zm1.172-13.223V-.986H.078A4.534,4.534,0,0,0,3.555-2.461a5.273,5.273,0,0,0,1.367-3.73V-8.047a5.223,5.223,0,0,0-1.372-3.7A4.538,4.538,0,0,0,.078-13.223Zm16.45,5.43a3.265,3.265,0,0,0,2.354-.771,2.644,2.644,0,0,0,.8-1.992,2.925,2.925,0,0,0-.742-2.07,2.851,2.851,0,0,0-2.2-.8,3.243,3.243,0,0,0-2.266.815,2.723,2.723,0,0,0-.9,2.114H9.321l-.02-.059a3.412,3.412,0,0,1,1.182-2.764,4.463,4.463,0,0,1,3.1-1.1,4.249,4.249,0,0,1,3,1.025,3.73,3.73,0,0,1,1.108,2.881,3.229,3.229,0,0,1-.61,1.914A3.63,3.63,0,0,1,15.4-7.324a3.639,3.639,0,0,1,1.89,1.279,3.569,3.569,0,0,1,.659,2.188,3.806,3.806,0,0,1-1.2,2.983A4.5,4.5,0,0,1,13.627.205a5.106,5.106,0,0,1-3.2-1.069A3.377,3.377,0,0,1,9.086-3.8l.02-.059H10.2a2.846,2.846,0,0,0,.967,2.2,3.518,3.518,0,0,0,2.461.879,3.185,3.185,0,0,0,2.324-.82,2.957,2.957,0,0,0,.84-2.217A2.738,2.738,0,0,0,15.9-6.06,3.881,3.881,0,0,0,13.364-6.8H12.055v-1Zm15.668.908H22.655v5.9h7.373V0H21.483V-14.219h8.5v1H22.655v5.342h6.377ZM42.9-4.443l.02.059a4.136,4.136,0,0,1-1.367,3.34A5.349,5.349,0,0,1,37.864.205a4.777,4.777,0,0,1-3.828-1.714,6.621,6.621,0,0,1-1.455-4.438V-8.262A6.644,6.644,0,0,1,34.036-12.7a4.765,4.765,0,0,1,3.828-1.724A5.418,5.418,0,0,1,41.571-13.2a4.129,4.129,0,0,1,1.353,3.359l-.02.059H41.81a3.453,3.453,0,0,0-1.05-2.681,4.125,4.125,0,0,0-2.9-.962,3.608,3.608,0,0,0-2.993,1.445,5.838,5.838,0,0,0-1.128,3.7v2.334a5.866,5.866,0,0,0,1.128,3.726,3.613,3.613,0,0,0,2.993,1.44,4.193,4.193,0,0,0,2.9-.937,3.463,3.463,0,0,0,1.05-2.725Z" transform="translate(1197 1284)" fill="#999"/>
    <path id="Trazado_1150" data-name="Trazado 1150" d="M-34.847-4H-37.9l-.752,4h-.977l.752-4h-2.49v-.908h2.656l.811-4.307h-2.725v-.937h2.9l.771-4.062h.977l-.771,4.063h3.066l.771-4.062h.977l-.771,4.063h2.236v.938h-2.412l-.811,4.307h2.49V-4H-33.87l-.752,4H-35.6Zm-2.891-.908h3.066l.811-4.307h-3.066ZM-19.5-6.66h-6.533V0h-1.172V-14.219h8.7v1h-7.529v5.557H-19.5ZM-5.8-4.443l.02.059a4.136,4.136,0,0,1-1.367,3.34A5.349,5.349,0,0,1-10.834.205a4.777,4.777,0,0,1-3.828-1.714,6.621,6.621,0,0,1-1.455-4.438V-8.262A6.644,6.644,0,0,1-14.662-12.7a4.765,4.765,0,0,1,3.828-1.724A5.418,5.418,0,0,1-7.128-13.2,4.129,4.129,0,0,1-5.776-9.844l-.02.059H-6.889a3.453,3.453,0,0,0-1.05-2.681,4.125,4.125,0,0,0-2.9-.962,3.608,3.608,0,0,0-2.993,1.445,5.838,5.838,0,0,0-1.128,3.7v2.334a5.866,5.866,0,0,0,1.128,3.726,3.613,3.613,0,0,0,2.993,1.44,4.193,4.193,0,0,0,2.9-.937,3.463,3.463,0,0,0,1.05-2.725ZM5.381-6.885H-1v5.9H6.377V0H-2.168V-14.219h8.5v1H-1v5.342H5.381ZM9.467-6.4l.781-7.822h6.914v1.084H11.254l-.527,5.117a4.257,4.257,0,0,1,1.187-.752,4.923,4.923,0,0,1,1.743-.3,3.674,3.674,0,0,1,2.935,1.2A4.8,4.8,0,0,1,17.7-4.531a5.182,5.182,0,0,1-1.084,3.447A4.009,4.009,0,0,1,13.364.205a4.408,4.408,0,0,1-2.93-.981A3.452,3.452,0,0,1,9.311-3.682l.02-.059h1.055a2.87,2.87,0,0,0,.811,2.2,3.037,3.037,0,0,0,2.168.762,2.9,2.9,0,0,0,2.378-.957,4.273,4.273,0,0,0,.786-2.773,3.811,3.811,0,0,0-.786-2.529,2.727,2.727,0,0,0-2.212-.937,4.046,4.046,0,0,0-2.075.435,2.466,2.466,0,0,0-1.04,1.313ZM28.846-6.66H22.313V0H21.141V-14.219h8.7v1H22.313v5.557h6.533Zm7.475-1.133a3.265,3.265,0,0,0,2.354-.771,2.644,2.644,0,0,0,.8-1.992,2.925,2.925,0,0,0-.742-2.07,2.851,2.851,0,0,0-2.2-.8,3.243,3.243,0,0,0-2.266.815,2.723,2.723,0,0,0-.9,2.114H32.279l-.02-.059a3.412,3.412,0,0,1,1.182-2.764,4.463,4.463,0,0,1,3.1-1.1,4.249,4.249,0,0,1,3,1.025,3.73,3.73,0,0,1,1.108,2.881,3.229,3.229,0,0,1-.61,1.914,3.63,3.63,0,0,1-1.675,1.279,3.639,3.639,0,0,1,1.89,1.279,3.569,3.569,0,0,1,.659,2.188,3.806,3.806,0,0,1-1.2,2.983A4.5,4.5,0,0,1,36.585.205a5.106,5.106,0,0,1-3.2-1.069A3.377,3.377,0,0,1,32.044-3.8l.02-.059h1.094a2.846,2.846,0,0,0,.967,2.2,3.518,3.518,0,0,0,2.461.879,3.185,3.185,0,0,0,2.324-.82,2.957,2.957,0,0,0,.84-2.217,2.738,2.738,0,0,0-.894-2.241A3.881,3.881,0,0,0,36.321-6.8H35.013v-1Z" transform="translate(646 1241)" fill="#999"/>
    <g id="Elipse_4" data-name="Elipse 4" transform="translate(827 1224)" fill="#f8f8f8" stroke="#707070" stroke-width="1">
      <circle cx="9" cy="9" r="9" stroke="none"/>
      <circle cx="9" cy="9" r="8.5" fill="none"/>
    </g>
    <g id="Elipse_6" data-name="Elipse 6" transform="translate(1105 1224)" fill="#fff" stroke="#707070" stroke-width="1">
      <circle cx="9" cy="9" r="9" stroke="none"/>
      <circle cx="9" cy="9" r="8.5" fill="none"/>
    </g>
    <g id="Elipse_5" data-name="Elipse 5" transform="translate(554 1224)" fill="#fff" stroke="#707070" stroke-width="1">
      <circle cx="9" cy="9" r="9" stroke="none"/>
      <circle cx="9" cy="9" r="8.5" fill="none"/>
    </g>
    <path id="Trazado_1155" data-name="Trazado 1155" d="M-35.887-4h-3.057L-39.7,0h-.977l.752-4h-2.49v-.908h2.656l.811-4.307h-2.725v-.937h2.9L-38-14.219h.977l-.771,4.063h3.066l.771-4.062h.977l-.771,4.063h2.236v.938h-2.412l-.811,4.307h2.49V-4H-34.91l-.752,4h-.977Zm-2.891-.908h3.066l.811-4.307h-3.066ZM-28.246,0V-14.219h4.15a5.645,5.645,0,0,1,3.457.933,3.289,3.289,0,0,1,1.24,2.808A3.023,3.023,0,0,1-20-8.613,3.208,3.208,0,0,1-21.615-7.48a3.319,3.319,0,0,1,2.2,1.172,3.523,3.523,0,0,1,.854,2.354,3.592,3.592,0,0,1-1.235,2.93A5.012,5.012,0,0,1-23.1,0Zm1.172-6.855V-.986H-23.1a3.655,3.655,0,0,0,2.471-.776,2.718,2.718,0,0,0,.9-2.173,2.662,2.662,0,0,0-.884-2.075,3.591,3.591,0,0,0-2.368-.845h-4.092Zm0-.986h3.418a3.556,3.556,0,0,0,2.28-.708,2.429,2.429,0,0,0,.806-1.968,2.379,2.379,0,0,0-.9-2.026,4.309,4.309,0,0,0-2.627-.679h-2.979Zm20.082-5.381a22.171,22.171,0,0,0-3.6,5.591A15.57,15.57,0,0,0-11.8-1.406V0h-1.172V-1.406a15.528,15.528,0,0,1,1.255-6.27A22.532,22.532,0,0,1-8.2-13.223H-16.24v-1h9.248ZM4.517-5.02A5.757,5.757,0,0,1,3.34-1.191,4,4,0,0,1,.112.205,4.033,4.033,0,0,1-3.13-1.2,5.713,5.713,0,0,1-4.321-5.02V-9.2A5.749,5.749,0,0,1-3.14-13.018,4,4,0,0,1,.093-14.424,4.012,4.012,0,0,1,3.33-13.018,5.733,5.733,0,0,1,4.517-9.2ZM3.345-9.385A4.7,4.7,0,0,0,2.5-12.339,2.867,2.867,0,0,0,.093-13.428a2.862,2.862,0,0,0-2.407,1.094,4.7,4.7,0,0,0-.845,2.949v4.541A4.713,4.713,0,0,0-2.3-1.89,2.874,2.874,0,0,0,.112-.781,2.828,2.828,0,0,0,2.5-1.885a4.767,4.767,0,0,0,.84-2.959ZM16.2-5.02a5.757,5.757,0,0,1-1.177,3.828A4,4,0,0,1,11.8.205,4.033,4.033,0,0,1,8.554-1.2,5.713,5.713,0,0,1,7.363-5.02V-9.2a5.749,5.749,0,0,1,1.182-3.818,4,4,0,0,1,3.232-1.406,4.012,4.012,0,0,1,3.237,1.406A5.733,5.733,0,0,1,16.2-9.2ZM15.029-9.385a4.7,4.7,0,0,0-.845-2.954,2.867,2.867,0,0,0-2.407-1.089A2.862,2.862,0,0,0,9.37-12.334a4.7,4.7,0,0,0-.845,2.949v4.541A4.713,4.713,0,0,0,9.379-1.89,2.874,2.874,0,0,0,11.8-.781a2.828,2.828,0,0,0,2.393-1.1,4.767,4.767,0,0,0,.84-2.959Zm9.008-5.039a7.613,7.613,0,0,1,1.577.166,5.029,5.029,0,0,1,1.362.479l-.3.957a5.469,5.469,0,0,0-1.2-.454,6.038,6.038,0,0,0-1.44-.151,3.047,3.047,0,0,0-2.466,1.191,4.742,4.742,0,0,0-.972,3.1v1.953A4.321,4.321,0,0,1,22.113-8.5a4.3,4.3,0,0,1,2.051-.493A3.664,3.664,0,0,1,27.1-7.764a4.946,4.946,0,0,1,1.055,3.33,4.743,4.743,0,0,1-1.187,3.359A4.056,4.056,0,0,1,23.851.205,3.991,3.991,0,0,1,20.687-1.25a5.837,5.837,0,0,1-1.25-3.936V-9.033a5.676,5.676,0,0,1,1.323-3.877A4.18,4.18,0,0,1,24.037-14.424Zm-.2,6.387a3.456,3.456,0,0,0-2.036.62A3.109,3.109,0,0,0,20.6-5.84V-5.1a4.967,4.967,0,0,0,.918,3.14A2.838,2.838,0,0,0,23.851-.781a2.8,2.8,0,0,0,2.29-1.035,4,4,0,0,0,.845-2.617,4.008,4.008,0,0,0-.8-2.661A2.9,2.9,0,0,0,23.842-8.037ZM31.424,0V-14.219H35.76a5.783,5.783,0,0,1,4.312,1.738,6.107,6.107,0,0,1,1.7,4.463v1.826a6.091,6.091,0,0,1-1.7,4.458A5.791,5.791,0,0,1,35.76,0ZM32.6-13.223V-.986H35.76a4.534,4.534,0,0,0,3.477-1.475A5.273,5.273,0,0,0,40.6-6.191V-8.047a5.223,5.223,0,0,0-1.372-3.7,4.538,4.538,0,0,0-3.472-1.475Z" transform="translate(918 1200)" fill="#999"/>
    <path id="Trazado_1152" data-name="Trazado 1152" d="M-3.81-3.526h-5.3L-10.211,0h-3.425l5.514-16.352h3.358L.728,0H-2.7ZM-8.3-6.1h3.695l-1.808-5.761h-.067ZM9.908,0A6.9,6.9,0,0,1,9.6-.876a6.093,6.093,0,0,1-.185-.943A4.5,4.5,0,0,1,8.077-.348,3.35,3.35,0,0,1,6.1.236,4.1,4.1,0,0,1,3.158-.747,3.521,3.521,0,0,1,2.125-3.425,3.2,3.2,0,0,1,3.5-6.194a6.871,6.871,0,0,1,4.015-.983H9.357v-.966A1.891,1.891,0,0,0,8.9-9.5a1.807,1.807,0,0,0-1.37-.483A1.781,1.781,0,0,0,6.3-9.6a1.353,1.353,0,0,0-.432,1.061H2.709L2.687-8.6a3.082,3.082,0,0,1,1.342-2.656A5.829,5.829,0,0,1,7.74-12.376a5.44,5.44,0,0,1,3.543,1.1A3.833,3.833,0,0,1,12.637-8.12V-3.1a9.495,9.495,0,0,0,.129,1.606A8.059,8.059,0,0,0,13.176,0Zm-3-2.19a2.794,2.794,0,0,0,1.527-.427A2.3,2.3,0,0,0,9.357-3.6V-5.323H7.516a2.183,2.183,0,0,0-1.578.517A1.7,1.7,0,0,0,5.4-3.538a1.267,1.267,0,0,0,.4.983A1.577,1.577,0,0,0,6.909-2.19Z" transform="translate(841 1200)" fill="#999"/>
    <path id="Trazado_1159" data-name="Trazado 1159" d="M-36.937-4h-3.057l-.752,4h-.977l.752-4h-2.49v-.908H-40.8l.811-4.307h-2.725v-.937h2.9l.771-4.062h.977l-.771,4.063h3.066L-35-14.219h.977l-.771,4.063h2.236v.938h-2.412l-.811,4.307h2.49V-4H-35.96l-.752,4h-.977Zm-2.891-.908h3.066l.811-4.307h-3.066ZM-21.591-6.66h-6.533V0H-29.3V-14.219h8.7v1h-7.529v5.557h6.533ZM-7.885-4.443l.02.059a4.136,4.136,0,0,1-1.367,3.34A5.349,5.349,0,0,1-12.924.205a4.777,4.777,0,0,1-3.828-1.714,6.621,6.621,0,0,1-1.455-4.438V-8.262A6.644,6.644,0,0,1-16.752-12.7a4.765,4.765,0,0,1,3.828-1.724A5.418,5.418,0,0,1-9.218-13.2,4.129,4.129,0,0,1-7.866-9.844l-.02.059H-8.979a3.453,3.453,0,0,0-1.05-2.681,4.125,4.125,0,0,0-2.9-.962,3.608,3.608,0,0,0-2.993,1.445,5.838,5.838,0,0,0-1.128,3.7v2.334a5.866,5.866,0,0,0,1.128,3.726,3.613,3.613,0,0,0,2.993,1.44,4.193,4.193,0,0,0,2.9-.937,3.463,3.463,0,0,0,1.05-2.725ZM-4.258,0V-14.219H.078A5.783,5.783,0,0,1,4.39-12.48a6.107,6.107,0,0,1,1.7,4.463v1.826a6.091,6.091,0,0,1-1.7,4.458A5.791,5.791,0,0,1,.078,0Zm1.172-13.223V-.986H.078A4.534,4.534,0,0,0,3.555-2.461a5.273,5.273,0,0,0,1.367-3.73V-8.047a5.223,5.223,0,0,0-1.372-3.7A4.538,4.538,0,0,0,.078-13.223Zm16.45,5.43a3.265,3.265,0,0,0,2.354-.771,2.644,2.644,0,0,0,.8-1.992,2.925,2.925,0,0,0-.742-2.07,2.851,2.851,0,0,0-2.2-.8,3.243,3.243,0,0,0-2.266.815,2.723,2.723,0,0,0-.9,2.114H9.321l-.02-.059a3.412,3.412,0,0,1,1.182-2.764,4.463,4.463,0,0,1,3.1-1.1,4.249,4.249,0,0,1,3,1.025,3.73,3.73,0,0,1,1.108,2.881,3.229,3.229,0,0,1-.61,1.914A3.63,3.63,0,0,1,15.4-7.324a3.639,3.639,0,0,1,1.89,1.279,3.569,3.569,0,0,1,.659,2.188,3.806,3.806,0,0,1-1.2,2.983A4.5,4.5,0,0,1,13.627.205a5.106,5.106,0,0,1-3.2-1.069A3.377,3.377,0,0,1,9.086-3.8l.02-.059H10.2a2.846,2.846,0,0,0,.967,2.2,3.518,3.518,0,0,0,2.461.879,3.185,3.185,0,0,0,2.324-.82,2.957,2.957,0,0,0,.84-2.217A2.738,2.738,0,0,0,15.9-6.06,3.881,3.881,0,0,0,13.364-6.8H12.055v-1Zm15.668.908H22.655v5.9h7.373V0H21.483V-14.219h8.5v1H22.655v5.342h6.377ZM42.9-4.443l.02.059a4.136,4.136,0,0,1-1.367,3.34A5.349,5.349,0,0,1,37.864.205a4.777,4.777,0,0,1-3.828-1.714,6.621,6.621,0,0,1-1.455-4.438V-8.262A6.644,6.644,0,0,1,34.036-12.7a4.765,4.765,0,0,1,3.828-1.724A5.418,5.418,0,0,1,41.571-13.2a4.129,4.129,0,0,1,1.353,3.359l-.02.059H41.81a3.453,3.453,0,0,0-1.05-2.681,4.125,4.125,0,0,0-2.9-.962,3.608,3.608,0,0,0-2.993,1.445,5.838,5.838,0,0,0-1.128,3.7v2.334a5.866,5.866,0,0,0,1.128,3.726,3.613,3.613,0,0,0,2.993,1.44,4.193,4.193,0,0,0,2.9-.937,3.463,3.463,0,0,0,1.05-2.725Z" transform="translate(1196 1200)" fill="#999"/>
    <path id="Trazado_1156" data-name="Trazado 1156" d="M-3.81-3.526h-5.3L-10.211,0h-3.425l5.514-16.352h3.358L.728,0H-2.7ZM-8.3-6.1h3.695l-1.808-5.761h-.067ZM9.908,0A6.9,6.9,0,0,1,9.6-.876a6.093,6.093,0,0,1-.185-.943A4.5,4.5,0,0,1,8.077-.348,3.35,3.35,0,0,1,6.1.236,4.1,4.1,0,0,1,3.158-.747,3.521,3.521,0,0,1,2.125-3.425,3.2,3.2,0,0,1,3.5-6.194a6.871,6.871,0,0,1,4.015-.983H9.357v-.966A1.891,1.891,0,0,0,8.9-9.5a1.807,1.807,0,0,0-1.37-.483A1.781,1.781,0,0,0,6.3-9.6a1.353,1.353,0,0,0-.432,1.061H2.709L2.687-8.6a3.082,3.082,0,0,1,1.342-2.656A5.829,5.829,0,0,1,7.74-12.376a5.44,5.44,0,0,1,3.543,1.1A3.833,3.833,0,0,1,12.637-8.12V-3.1a9.495,9.495,0,0,0,.129,1.606A8.059,8.059,0,0,0,13.176,0Zm-3-2.19a2.794,2.794,0,0,0,1.527-.427A2.3,2.3,0,0,0,9.357-3.6V-5.323H7.516a2.183,2.183,0,0,0-1.578.517A1.7,1.7,0,0,0,5.4-3.538a1.267,1.267,0,0,0,.4.983A1.577,1.577,0,0,0,6.909-2.19Z" transform="translate(1119 1200)" fill="#999"/>
    <path id="Trazado_1151" data-name="Trazado 1151" d="M-35.887-4h-3.057L-39.7,0h-.977l.752-4h-2.49v-.908h2.656l.811-4.307h-2.725v-.937h2.9L-38-14.219h.977l-.771,4.063h3.066l.771-4.062h.977l-.771,4.063h2.236v.938h-2.412l-.811,4.307h2.49V-4H-34.91l-.752,4h-.977Zm-2.891-.908h3.066l.811-4.307h-3.066ZM-28.246,0V-14.219h4.15a5.645,5.645,0,0,1,3.457.933,3.289,3.289,0,0,1,1.24,2.808A3.023,3.023,0,0,1-20-8.613,3.208,3.208,0,0,1-21.615-7.48a3.319,3.319,0,0,1,2.2,1.172,3.523,3.523,0,0,1,.854,2.354,3.592,3.592,0,0,1-1.235,2.93A5.012,5.012,0,0,1-23.1,0Zm1.172-6.855V-.986H-23.1a3.655,3.655,0,0,0,2.471-.776,2.718,2.718,0,0,0,.9-2.173,2.662,2.662,0,0,0-.884-2.075,3.591,3.591,0,0,0-2.368-.845h-4.092Zm0-.986h3.418a3.556,3.556,0,0,0,2.28-.708,2.429,2.429,0,0,0,.806-1.968,2.379,2.379,0,0,0-.9-2.026,4.309,4.309,0,0,0-2.627-.679h-2.979Zm20.082-5.381a22.171,22.171,0,0,0-3.6,5.591A15.57,15.57,0,0,0-11.8-1.406V0h-1.172V-1.406a15.528,15.528,0,0,1,1.255-6.27A22.532,22.532,0,0,1-8.2-13.223H-16.24v-1h9.248ZM4.517-5.02A5.757,5.757,0,0,1,3.34-1.191,4,4,0,0,1,.112.205,4.033,4.033,0,0,1-3.13-1.2,5.713,5.713,0,0,1-4.321-5.02V-9.2A5.749,5.749,0,0,1-3.14-13.018,4,4,0,0,1,.093-14.424,4.012,4.012,0,0,1,3.33-13.018,5.733,5.733,0,0,1,4.517-9.2ZM3.345-9.385A4.7,4.7,0,0,0,2.5-12.339,2.867,2.867,0,0,0,.093-13.428a2.862,2.862,0,0,0-2.407,1.094,4.7,4.7,0,0,0-.845,2.949v4.541A4.713,4.713,0,0,0-2.3-1.89,2.874,2.874,0,0,0,.112-.781,2.828,2.828,0,0,0,2.5-1.885a4.767,4.767,0,0,0,.84-2.959ZM16.2-5.02a5.757,5.757,0,0,1-1.177,3.828A4,4,0,0,1,11.8.205,4.033,4.033,0,0,1,8.554-1.2,5.713,5.713,0,0,1,7.363-5.02V-9.2a5.749,5.749,0,0,1,1.182-3.818,4,4,0,0,1,3.232-1.406,4.012,4.012,0,0,1,3.237,1.406A5.733,5.733,0,0,1,16.2-9.2ZM15.029-9.385a4.7,4.7,0,0,0-.845-2.954,2.867,2.867,0,0,0-2.407-1.089A2.862,2.862,0,0,0,9.37-12.334a4.7,4.7,0,0,0-.845,2.949v4.541A4.713,4.713,0,0,0,9.379-1.89,2.874,2.874,0,0,0,11.8-.781a2.828,2.828,0,0,0,2.393-1.1,4.767,4.767,0,0,0,.84-2.959Zm9.008-5.039a7.613,7.613,0,0,1,1.577.166,5.029,5.029,0,0,1,1.362.479l-.3.957a5.469,5.469,0,0,0-1.2-.454,6.038,6.038,0,0,0-1.44-.151,3.047,3.047,0,0,0-2.466,1.191,4.742,4.742,0,0,0-.972,3.1v1.953A4.321,4.321,0,0,1,22.113-8.5a4.3,4.3,0,0,1,2.051-.493A3.664,3.664,0,0,1,27.1-7.764a4.946,4.946,0,0,1,1.055,3.33,4.743,4.743,0,0,1-1.187,3.359A4.056,4.056,0,0,1,23.851.205,3.991,3.991,0,0,1,20.687-1.25a5.837,5.837,0,0,1-1.25-3.936V-9.033a5.676,5.676,0,0,1,1.323-3.877A4.18,4.18,0,0,1,24.037-14.424Zm-.2,6.387a3.456,3.456,0,0,0-2.036.62A3.109,3.109,0,0,0,20.6-5.84V-5.1a4.967,4.967,0,0,0,.918,3.14A2.838,2.838,0,0,0,23.851-.781a2.8,2.8,0,0,0,2.29-1.035,4,4,0,0,0,.845-2.617,4.008,4.008,0,0,0-.8-2.661A2.9,2.9,0,0,0,23.842-8.037ZM31.424,0V-14.219H35.76a5.783,5.783,0,0,1,4.312,1.738,6.107,6.107,0,0,1,1.7,4.463v1.826a6.091,6.091,0,0,1-1.7,4.458A5.791,5.791,0,0,1,35.76,0ZM32.6-13.223V-.986H35.76a4.534,4.534,0,0,0,3.477-1.475A5.273,5.273,0,0,0,40.6-6.191V-8.047a5.223,5.223,0,0,0-1.372-3.7,4.538,4.538,0,0,0-3.472-1.475Z" transform="translate(645 1200)" fill="#999"/>
    <path id="Trazado_1148" data-name="Trazado 1148" d="M-3.81-3.526h-5.3L-10.211,0h-3.425l5.514-16.352h3.358L.728,0H-2.7ZM-8.3-6.1h3.695l-1.808-5.761h-.067ZM9.908,0A6.9,6.9,0,0,1,9.6-.876a6.093,6.093,0,0,1-.185-.943A4.5,4.5,0,0,1,8.077-.348,3.35,3.35,0,0,1,6.1.236,4.1,4.1,0,0,1,3.158-.747,3.521,3.521,0,0,1,2.125-3.425,3.2,3.2,0,0,1,3.5-6.194a6.871,6.871,0,0,1,4.015-.983H9.357v-.966A1.891,1.891,0,0,0,8.9-9.5a1.807,1.807,0,0,0-1.37-.483A1.781,1.781,0,0,0,6.3-9.6a1.353,1.353,0,0,0-.432,1.061H2.709L2.687-8.6a3.082,3.082,0,0,1,1.342-2.656A5.829,5.829,0,0,1,7.74-12.376a5.44,5.44,0,0,1,3.543,1.1A3.833,3.833,0,0,1,12.637-8.12V-3.1a9.495,9.495,0,0,0,.129,1.606A8.059,8.059,0,0,0,13.176,0Zm-3-2.19a2.794,2.794,0,0,0,1.527-.427A2.3,2.3,0,0,0,9.357-3.6V-5.323H7.516a2.183,2.183,0,0,0-1.578.517A1.7,1.7,0,0,0,5.4-3.538a1.267,1.267,0,0,0,.4.983A1.577,1.577,0,0,0,6.909-2.19Z" transform="translate(568 1200)" fill="#999"/>
    <line id="Línea_20" data-name="Línea 20" x2="28" transform="translate(827.5 1276.5)" fill="none" stroke="#b7006d" stroke-width="2"/>
    <line id="Línea_22" data-name="Línea 22" x2="28" transform="translate(1105.5 1276.5)" fill="none" stroke="#fce5f3" stroke-width="2"/>
    <line id="Línea_21" data-name="Línea 21" x2="28" transform="translate(554.5 1276.5)" fill="none" stroke="#b7006d" stroke-width="2"/>
  </g>
</svg>
