<svg xmlns="http://www.w3.org/2000/svg" width="946" height="185.26" viewBox="0 0 946 185.26">
  <g id="Grupo_85" data-name="Grupo 85" transform="translate(-692 -3118.289)">
    <line id="Línea_10" data-name="Línea 10" x2="743.216" transform="translate(797.678 3235.527)" fill="none" stroke="#000" stroke-miterlimit="10" stroke-width="0.269"/>
    <line id="Línea_11" data-name="Línea 11" x2="743.323" transform="translate(797.726 3175.986)" fill="none" stroke="#000" stroke-miterlimit="10" stroke-width="0.269"/>
    <rect id="Rectángulo_476" data-name="Rectángulo 476" width="12.123" height="123.139" transform="translate(1057.451 3144.168)" fill="none" stroke="#000" stroke-miterlimit="10" stroke-width="0.269"/>
    <line id="Línea_12" data-name="Línea 12" y1="123.139" transform="translate(1510.638 3144.168)" fill="none" stroke="#000" stroke-miterlimit="10" stroke-width="0.269"/>
    <line id="Línea_13" data-name="Línea 13" y2="123.139" transform="translate(828.105 3144.168)" fill="none" stroke="#000" stroke-miterlimit="10" stroke-width="0.269"/>
    <rect id="Rectángulo_477" data-name="Rectángulo 477" width="12.126" height="123.139" transform="translate(1069.574 3144.168)" fill="none" stroke="#000" stroke-miterlimit="10" stroke-width="0.269"/>
    <rect id="Rectángulo_478" data-name="Rectángulo 478" width="12.125" height="123.139" transform="translate(1105.945 3144.168)" fill="none" stroke="#000" stroke-miterlimit="10" stroke-width="0.269"/>
    <rect id="Rectángulo_479" data-name="Rectángulo 479" width="392.568" height="11.477" transform="translate(1118.07 3200.16)" fill="none" stroke="#000" stroke-miterlimit="10" stroke-width="0.269"/>
    <rect id="Rectángulo_480" data-name="Rectángulo 480" width="12.12" height="123.139" transform="translate(1081.699 3144.168)" fill="none" stroke="#000" stroke-miterlimit="10" stroke-width="0.269"/>
    <rect id="Rectángulo_481" data-name="Rectángulo 481" width="743.216" height="123.139" transform="translate(797.726 3144.168)" fill="none" stroke="#000" stroke-miterlimit="10" stroke-width="0.269"/>
    <text id="UNICOM" transform="translate(824.333 3225.535)" fill="#363636" font-size="56" font-family="Helvetica-Bold, Helvetica" font-weight="700" letter-spacing="0.02em"><tspan x="0" y="0">UNICOM</tspan></text>
    <text id="Unidad_Técnica_de_Servicios_de_Informática" data-name="Unidad Técnica
de Servicios de Informática" transform="translate(1115.771 3199.13)" fill="#363636" font-size="31" font-family="Helvetica"><tspan x="0" y="0">Unidad Técnica</tspan><tspan x="0" y="35">de Servicios de Informática</tspan></text>
    <rect id="Rectángulo_482" data-name="Rectángulo 482" width="3.06" height="59.541" transform="translate(1086.231 3175.986)" fill="#363636"/>
    <rect id="Rectángulo_483" data-name="Rectángulo 483" width="206.797" height="3.748" transform="matrix(0.461, -0.887, 0.887, 0.461, 1035.375, 3301.822)" fill="#da01a8"/>
    <rect id="Rectángulo_484" data-name="Rectángulo 484" width="80.24" height="3.747" transform="translate(1551.932 3203.408)" fill="#da01a8"/>
    <path id="Trazado_39" data-name="Trazado 39" d="M1520.84,156.049l-17.182-17.182,17.184-17.182,2.65,2.65-14.534,14.532L1523.49,153.4Z" transform="translate(44.027 3065.862)" fill="#da01a8"/>
    <path id="Trazado_40" data-name="Trazado 40" d="M1630.163,156.055l-2.65-2.649,14.534-14.529-14.532-14.536,2.65-2.65,17.182,17.186Z" transform="translate(-9.346 3065.86)" fill="#da01a8"/>
    <rect id="Rectángulo_485" data-name="Rectángulo 485" width="80.239" height="3.747" transform="translate(696.247 3203.408)" fill="#da01a8"/>
    <path id="Trazado_41" data-name="Trazado 41" d="M17.182,156.049,0,138.867l17.184-17.182,2.649,2.65L5.3,138.867,19.831,153.4Z" transform="translate(692 3065.862)" fill="#da01a8"/>
    <path id="Trazado_42" data-name="Trazado 42" d="M126.5,156.055l-2.65-2.649,14.535-14.529-14.532-14.536,2.649-2.65,17.182,17.186Z" transform="translate(638.627 3065.86)" fill="#da01a8"/>
    <path id="Trazado_43" data-name="Trazado 43" d="M214.8,87.635c0,47.556-23.638,86.11-52.8,86.11s-52.8-38.554-52.8-86.11S132.84,1.517,162,1.517,214.8,40.075,214.8,87.635Z" transform="translate(644.941 3117.646)" fill="#97ffa8" opacity="0.4"/>
    <path id="Trazado_44" data-name="Trazado 44" d="M1473.908,87.635c0,47.556-23.637,86.11-52.8,86.11s-52.8-38.554-52.8-86.11,23.637-86.118,52.8-86.118S1473.908,40.075,1473.908,87.635Z" transform="translate(102.351 3117.646)" fill="#97ffa8" opacity="0.4"/>
  </g>
</svg>
