<svg xmlns="http://www.w3.org/2000/svg" xmlns:xlink="http://www.w3.org/1999/xlink" width="346.677" height="265.881" viewBox="0 0 346.677 265.881">
  <defs>
    <filter id="Trazado_1609" x="63.112" y="213.313" width="214.986" height="46.05" filterUnits="userSpaceOnUse">
      <feOffset dy="3" input="SourceAlpha"/>
      <feGaussianBlur stdDeviation="3" result="blur"/>
      <feFlood flood-opacity="0.161"/>
      <feComposite operator="in" in2="blur"/>
      <feComposite in="SourceGraphic"/>
    </filter>
    <filter id="Trazado_1627" x="119.212" y="213.313" width="46.05" height="46.05" filterUnits="userSpaceOnUse">
      <feOffset dy="3" input="SourceAlpha"/>
      <feGaussianBlur stdDeviation="3" result="blur-2"/>
      <feFlood flood-opacity="0.161"/>
      <feComposite operator="in" in2="blur-2"/>
      <feComposite in="SourceGraphic"/>
    </filter>
  </defs>
  <g id="Grupo_839" data-name="Grupo 839" transform="translate(-554 -1483)">
    <g id="Trazado_1462" data-name="Trazado 1462" transform="translate(554 1483)" fill="#fff">
      <path d="M 346.177001953125 265.3809814453125 L 0.5000009536743164 265.3809814453125 L 0.5000009536743164 0.5000209212303162 L 346.177001953125 0.5000209212303162 L 346.177001953125 265.3809814453125 Z" stroke="none"/>
      <path d="M 1 0.999969482421875 L 1 264.8809204101562 L 345.677001953125 264.8809204101562 L 345.677001953125 0.999969482421875 L 1 0.999969482421875 M 0 -3.0517578125e-05 L 346.677001953125 -3.0517578125e-05 L 346.677001953125 265.8809204101562 L 0 265.8809204101562 L 0 -3.0517578125e-05 Z" stroke="none" fill="#707070"/>
    </g>
    <path id="Trazado_1476" data-name="Trazado 1476" d="M0,0H346.677V25.882H0Z" transform="translate(554 1483)" fill="#333"/>
    <path id="Trazado_1473" data-name="Trazado 1473" d="M0,0H270.746V6H0Z" transform="translate(590 1536.544)" fill="#999" opacity="0.501"/>
    <path id="Trazado_1469" data-name="Trazado 1469" d="M0,0H270.746V6H0Z" transform="translate(590 1598.668)" fill="#999" opacity="0.501"/>
    <path id="Trazado_1471" data-name="Trazado 1471" d="M0,0H270.746V6H0Z" transform="translate(590 1567.606)" fill="#999" opacity="0.501"/>
    <path id="Trazado_1467" data-name="Trazado 1467" d="M0,0H270.746V6H0Z" transform="translate(590 1629.73)" fill="#999" opacity="0.501"/>
    <path id="Trazado_1465" data-name="Trazado 1465" d="M0,0H270.746V6H0Z" transform="translate(590 1660.392)" fill="#999" opacity="0.501"/>
    <path id="Trazado_1472" data-name="Trazado 1472" d="M0,0H270.746V6H0Z" transform="translate(590 1552.075)" fill="#999" opacity="0.501"/>
    <path id="Trazado_1468" data-name="Trazado 1468" d="M0,0H270.746V6H0Z" transform="translate(590 1614.199)" fill="#999" opacity="0.501"/>
    <path id="Trazado_1470" data-name="Trazado 1470" d="M0,0H270.746V6H0Z" transform="translate(590 1583.137)" fill="#999" opacity="0.501"/>
    <path id="Trazado_1466" data-name="Trazado 1466" d="M0,0H270.746V6H0Z" transform="translate(590 1645.261)" fill="#999" opacity="0.501"/>
    <path id="Trazado_1464" data-name="Trazado 1464" d="M0,0H270.746V6H0Z" transform="translate(590 1675.923)" fill="#999" opacity="0.501"/>
    <path id="Trazado_1474" data-name="Trazado 1474" d="M1.434,4.535V7H.664V1.316H2.609a2.16,2.16,0,0,1,1.426.414,1.484,1.484,0,0,1,.492,1.2A1.288,1.288,0,0,1,4.3,3.7a1.548,1.548,0,0,1-.666.516,1.166,1.166,0,0,1,.674.494,1.618,1.618,0,0,1,.205.846v.535a1.782,1.782,0,0,0,.059.477.715.715,0,0,0,.2.344V7H3.98a.637.637,0,0,1-.2-.391,3.227,3.227,0,0,1-.043-.531v-.52a1.028,1.028,0,0,0-.27-.742.954.954,0,0,0-.723-.281Zm0-.605h1.1a1.429,1.429,0,0,0,.939-.248.945.945,0,0,0,.287-.756.974.974,0,0,0-.279-.744,1.231,1.231,0,0,0-.869-.264H1.434ZM7.4,7.082A1.788,1.788,0,0,1,5.979,6.5a2.24,2.24,0,0,1-.51-1.531V4.8a2.193,2.193,0,0,1,.525-1.506,1.648,1.648,0,0,1,1.283-.6,1.534,1.534,0,0,1,1.271.527,2.173,2.173,0,0,1,.424,1.4v.406H6.27l-.012.02a1.747,1.747,0,0,0,.281,1.033.983.983,0,0,0,.859.4,1.936,1.936,0,0,0,.686-.111,1.53,1.53,0,0,0,.506-.307l.3.5a1.85,1.85,0,0,1-.6.369A2.381,2.381,0,0,1,7.4,7.082ZM7.277,3.3a.837.837,0,0,0-.666.311,1.469,1.469,0,0,0-.322.795l.008.02H8.2V4.363A1.231,1.231,0,0,0,7.977,3.6.819.819,0,0,0,7.277,3.3Zm5.016,2.563a.513.513,0,0,0-.193-.414,1.866,1.866,0,0,0-.732-.281,3.073,3.073,0,0,1-1.146-.449.907.907,0,0,1-.4-.773,1.115,1.115,0,0,1,.439-.883A1.716,1.716,0,0,1,11.4,2.7a1.7,1.7,0,0,1,1.164.391,1.119,1.119,0,0,1,.426.91l-.008.023h-.734a.665.665,0,0,0-.24-.5A.859.859,0,0,0,11.4,3.3a.876.876,0,0,0-.607.184.573.573,0,0,0-.2.438.464.464,0,0,0,.174.387,1.924,1.924,0,0,0,.717.25,3.029,3.029,0,0,1,1.18.465.936.936,0,0,1,.4.785,1.113,1.113,0,0,1-.455.918,1.877,1.877,0,0,1-1.189.355,1.857,1.857,0,0,1-1.273-.41A1.17,1.17,0,0,1,9.7,5.715l.008-.023h.734a.712.712,0,0,0,.3.6,1.179,1.179,0,0,0,.668.189,1.052,1.052,0,0,0,.643-.174A.532.532,0,0,0,12.293,5.863Zm4.41.512a1.432,1.432,0,0,1-.512.523,1.4,1.4,0,0,1-.723.184,1.358,1.358,0,0,1-1.078-.441A2.049,2.049,0,0,1,14,5.266V2.773h.77v2.5a1.574,1.574,0,0,0,.2.93.741.741,0,0,0,.621.254,1.266,1.266,0,0,0,.678-.166,1.039,1.039,0,0,0,.4-.471V2.773h.77V7h-.691ZM19.4,7h-.77V.906h.77Zm2.254-5.246v1.02h.8v.57h-.8V5.91a.575.575,0,0,0,.123.418.445.445,0,0,0,.326.121.715.715,0,0,0,.148-.018,1.1,1.1,0,0,0,.137-.037l.105.527a.68.68,0,0,1-.254.115,1.281,1.281,0,0,1-.332.045A1,1,0,0,1,21.16,6.8a1.23,1.23,0,0,1-.277-.889V3.344h-.672v-.57h.672V1.754ZM25.875,7q-.039-.191-.061-.338a2.48,2.48,0,0,1-.025-.295,1.794,1.794,0,0,1-.561.51,1.434,1.434,0,0,1-.744.205,1.382,1.382,0,0,1-1.006-.338,1.243,1.243,0,0,1-.346-.932,1.092,1.092,0,0,1,.49-.947,2.29,2.29,0,0,1,1.33-.342h.836V4.105a.775.775,0,0,0-.227-.588.89.89,0,0,0-.641-.217.93.93,0,0,0-.605.188.563.563,0,0,0-.23.449l-.73.008-.008-.023a1.012,1.012,0,0,1,.432-.844A1.789,1.789,0,0,1,24.965,2.7a1.745,1.745,0,0,1,1.156.365,1.294,1.294,0,0,1,.438,1.053V6.148a3.961,3.961,0,0,0,.023.438A2.25,2.25,0,0,0,26.668,7ZM24.6,6.438a1.37,1.37,0,0,0,.754-.215,1.021,1.021,0,0,0,.438-.492V5.043h-.863a1.12,1.12,0,0,0-.744.234.7.7,0,0,0-.279.551.58.58,0,0,0,.176.445A.736.736,0,0,0,24.6,6.438Zm2.9-1.473a2.821,2.821,0,0,1,.436-1.645A1.4,1.4,0,0,1,29.156,2.7a1.513,1.513,0,0,1,.658.137,1.349,1.349,0,0,1,.49.4V.906h.77V7h-.59l-.117-.535a1.372,1.372,0,0,1-.512.461,1.529,1.529,0,0,1-.707.156,1.45,1.45,0,0,1-1.211-.561A2.33,2.33,0,0,1,27.5,5.047Zm.77.082a1.794,1.794,0,0,0,.262,1.025.914.914,0,0,0,.813.385,1.019,1.019,0,0,0,.578-.156,1.167,1.167,0,0,0,.383-.437V3.891a1.185,1.185,0,0,0-.385-.416,1.017,1.017,0,0,0-.568-.154.88.88,0,0,0-.818.457,2.359,2.359,0,0,0-.264,1.188Zm3.773-.2A2.327,2.327,0,0,1,32.551,3.3a1.882,1.882,0,0,1,2.768,0,2.319,2.319,0,0,1,.51,1.547v.086A2.316,2.316,0,0,1,35.32,6.48a1.89,1.89,0,0,1-2.768,0,2.312,2.312,0,0,1-.51-1.545Zm.77.086A2,2,0,0,0,33.1,6.043a1.023,1.023,0,0,0,1.678,0,1.994,1.994,0,0,0,.285-1.109V4.848a1.988,1.988,0,0,0-.287-1.105A.941.941,0,0,0,33.93,3.3a.928.928,0,0,0-.834.441,2.009,2.009,0,0,0-.283,1.105Zm6.414.93a.513.513,0,0,0-.193-.414,1.866,1.866,0,0,0-.732-.281,3.073,3.073,0,0,1-1.146-.449.907.907,0,0,1-.4-.773,1.115,1.115,0,0,1,.439-.883,1.939,1.939,0,0,1,2.3.023,1.119,1.119,0,0,1,.426.91l-.008.023H39.18a.665.665,0,0,0-.24-.5.859.859,0,0,0-.607-.223.876.876,0,0,0-.607.184.573.573,0,0,0-.2.438.464.464,0,0,0,.174.387,1.924,1.924,0,0,0,.717.25,3.029,3.029,0,0,1,1.18.465.936.936,0,0,1,.4.785,1.113,1.113,0,0,1-.455.918,1.877,1.877,0,0,1-1.189.355,1.857,1.857,0,0,1-1.273-.41,1.17,1.17,0,0,1-.441-.957l.008-.023h.734a.712.712,0,0,0,.3.6,1.179,1.179,0,0,0,.668.189,1.052,1.052,0,0,0,.643-.174A.532.532,0,0,0,39.227,5.863Z" transform="translate(590 1517.56)" fill="#999"/>
    <path id="Trazado_1475" data-name="Trazado 1475" d="M0,0H270.26" transform="translate(590.451 1528.494)" fill="none" stroke="#707070" stroke-width="0.25"/>
    <path id="Trazado_1463" data-name="Trazado 1463" d="M0,0H270.26" transform="translate(590.451 1692.5)" fill="none" stroke="#707070" stroke-width="0.25"/>
    <g id="Grupo_836" data-name="Grupo 836" transform="translate(-231 367.313)">
      <g transform="matrix(1, 0, 0, 1, 785, 1115.69)" filter="url(#Trazado_1609)">
        <path id="Trazado_1609-2" data-name="Trazado 1609" d="M0,0H196.986V28.05H0Z" transform="translate(72.11 219.31)" fill="#fff"/>
      </g>
      <path id="Trazado_1610" data-name="Trazado 1610" d="M4.088-4.183H3.1v-6.345l-1.579.015v-.757l2.565-.269Z" transform="translate(868.035 1357.033)" fill="#494949"/>
      <path id="Trazado_1611" data-name="Trazado 1611" d="M5.64-4.183h-4.5v-.672L3.413-7.57a6.838,6.838,0,0,0,.824-1.173,1.957,1.957,0,0,0,.217-.879,1.174,1.174,0,0,0-.294-.824,1.045,1.045,0,0,0-.812-.321,1.216,1.216,0,0,0-.979.393,1.458,1.458,0,0,0-.336.981H1.088l-.01-.03a1.956,1.956,0,0,1,.593-1.5,2.273,2.273,0,0,1,1.678-.615A2.11,2.11,0,0,1,4.878-11a1.845,1.845,0,0,1,.558,1.39,2.216,2.216,0,0,1-.316,1.121,12.5,12.5,0,0,1-.964,1.375L2.328-4.975l.01.025h3.3Z" transform="translate(896.247 1357.033)" fill="#494949"/>
      <path id="Trazado_1612" data-name="Trazado 1612" d="M3.141-8.446a1.006,1.006,0,0,0,.769-.269,1.066,1.066,0,0,0,.252-.757A.928.928,0,0,0,3.9-10.15a.986.986,0,0,0-.737-.269.965.965,0,0,0-.67.244.8.8,0,0,0-.271.623H.815l-.01-.03a1.646,1.646,0,0,1,.657-1.4,2.623,2.623,0,0,1,1.7-.553,2.781,2.781,0,0,1,1.788.53,1.836,1.836,0,0,1,.662,1.522,1.577,1.577,0,0,1-.286.914,1.957,1.957,0,0,1-.784.655,1.831,1.831,0,0,1,.877.65,1.775,1.775,0,0,1,.309,1.053,1.889,1.889,0,0,1-.72,1.566,2.881,2.881,0,0,1-1.845.57,2.875,2.875,0,0,1-1.733-.538A1.7,1.7,0,0,1,.71-6.125l.01-.03H2.135a.914.914,0,0,0,.286.685,1.021,1.021,0,0,0,.74.276,1.122,1.122,0,0,0,.807-.294.981.981,0,0,0,.309-.742,1.126,1.126,0,0,0-.289-.849,1.179,1.179,0,0,0-.847-.276h-.8V-8.446Z" transform="translate(924.43 1357.033)" fill="#fff"/>
      <path id="Trazado_1613" data-name="Trazado 1613" d="M4.651-6.564h1V-5.8h-1v1.673H3.675V-5.8H.562V-6.35l3.053-5.025H4.651Zm-3.038,0H3.675v-3.4l-.03,0-.095.249Z" transform="translate(952.533 1356.974)" fill="#494949"/>
      <path id="Trazado_1614" data-name="Trazado 1614" d="M1.316-7.346l.418-4.029H5.365v.872h-2.8L2.327-8.417A2.239,2.239,0,0,1,2.845-8.7a1.822,1.822,0,0,1,.647-.117,1.975,1.975,0,0,1,1.576.63,2.545,2.545,0,0,1,.57,1.756,2.551,2.551,0,0,1-.585,1.753,2.156,2.156,0,0,1-1.706.662,2.337,2.337,0,0,1-1.534-.5A1.741,1.741,0,0,1,1.226-6l.01-.03h.887a1.211,1.211,0,0,0,.341.919,1.226,1.226,0,0,0,.884.326,1.157,1.157,0,0,0,.966-.438,1.9,1.9,0,0,0,.344-1.2,1.728,1.728,0,0,0-.346-1.121,1.17,1.17,0,0,0-.964-.428,1.54,1.54,0,0,0-.837.174,1.019,1.019,0,0,0-.383.538Z" transform="translate(980.342 1356.974)" fill="#494949"/>
      <path id="Trazado_1615" data-name="Trazado 1615" d="M2.239-.572H1.258V-1.578h.981Zm2.206,0H3.464V-1.578h.981Zm2.092,0H5.556V-1.578h.981Z" transform="translate(1007.105 1353.422)" fill="#494949"/>
      <path id="Trazado_1616" data-name="Trazado 1616" d="M3.223-8.307a1.15,1.15,0,0,0,.929-.326,1.389,1.389,0,0,0,.271-.914,1.288,1.288,0,0,0-.3-.884,1.11,1.11,0,0,0-.879-.336,1.311,1.311,0,0,0-.939.351,1.16,1.16,0,0,0-.371.879H1l-.015-.03A1.733,1.733,0,0,1,1.6-10.961a2.365,2.365,0,0,1,1.644-.578,2.3,2.3,0,0,1,1.584.51,1.907,1.907,0,0,1,.573,1.5,1.689,1.689,0,0,1-.266.926,1.8,1.8,0,0,1-.745.652,1.714,1.714,0,0,1,.834.665,1.953,1.953,0,0,1,.286,1.078,1.99,1.99,0,0,1-.63,1.561,2.357,2.357,0,0,1-1.636.565,2.591,2.591,0,0,1-1.631-.545,1.67,1.67,0,0,1-.68-1.442l.01-.03h.936a1.177,1.177,0,0,0,.381.889,1.372,1.372,0,0,0,.984.361,1.22,1.22,0,0,0,.941-.371,1.369,1.369,0,0,0,.344-.969,1.449,1.449,0,0,0-.316-1.021,1.3,1.3,0,0,0-.994-.339H2.416v-.762Zm3.73.9.418-4.029H11v.872H8.2L7.964-8.476a2.238,2.238,0,0,1,.518-.286A1.822,1.822,0,0,1,9.13-8.88a1.975,1.975,0,0,1,1.576.63,2.545,2.545,0,0,1,.57,1.756,2.551,2.551,0,0,1-.585,1.753,2.156,2.156,0,0,1-1.706.662,2.337,2.337,0,0,1-1.534-.5,1.741,1.741,0,0,1-.588-1.479l.01-.03H7.76a1.211,1.211,0,0,0,.341.919,1.226,1.226,0,0,0,.884.326,1.157,1.157,0,0,0,.966-.438,1.9,1.9,0,0,0,.344-1.2A1.728,1.728,0,0,0,9.949-7.6a1.17,1.17,0,0,0-.964-.428,1.54,1.54,0,0,0-.837.174,1.019,1.019,0,0,0-.383.538Z" transform="translate(1033.997 1357.033)" fill="#494949"/>
      <path id="Trazado_1617" data-name="Trazado 1617" d="M0,0V28.05" transform="translate(885.481 1335.319)" fill="none" stroke="#eaeaea" stroke-width="1"/>
      <path id="Trazado_1618" data-name="Trazado 1618" d="M0,0V28.05" transform="translate(969.63 1335.319)" fill="none" stroke="#eaeaea" stroke-width="1"/>
      <path id="Trazado_1619" data-name="Trazado 1619" d="M0,0V28.05" transform="translate(1053.78 1335.319)" fill="none" stroke="#f2f2f2" stroke-width="1"/>
      <path id="Trazado_1620" data-name="Trazado 1620" d="M0,0V28.05" transform="translate(913.531 1335.319)" fill="none" stroke="#f2f2f2" stroke-width="1"/>
      <path id="Trazado_1621" data-name="Trazado 1621" d="M0,0V28.05" transform="translate(913.531 1335.319)" fill="none" stroke="#eaeaea" stroke-width="1"/>
      <path id="Trazado_1622" data-name="Trazado 1622" d="M0,0V28.05" transform="translate(997.68 1335.319)" fill="none" stroke="#eaeaea" stroke-width="1"/>
      <path id="Trazado_1623" data-name="Trazado 1623" d="M0,0V28.05" transform="translate(941.581 1335.319)" fill="none" stroke="#eaeaea" stroke-width="1"/>
      <path id="Trazado_1624" data-name="Trazado 1624" d="M0,0V28.05" transform="translate(1025.73 1335.319)" fill="none" stroke="#eaeaea" stroke-width="1"/>
      <g id="Trazado_1625" data-name="Trazado 1625" transform="translate(1063.661 1335.637)" fill="none">
        <path d="M0,0H28.05V28.05H0Z" stroke="none"/>
        <path d="M 0.9999961853027344 0.9999961853027344 L 0.9999961853027344 27.04983711242676 L 27.04983711242676 27.04983711242676 L 27.04983711242676 0.9999961853027344 L 0.9999961853027344 0.9999961853027344 M -3.814697265625e-06 -3.814697265625e-06 L 28.04983711242676 -3.814697265625e-06 L 28.04983711242676 28.04983711242676 L -3.814697265625e-06 28.04983711242676 L -3.814697265625e-06 -3.814697265625e-06 Z" stroke="none" fill="#f2f2f2"/>
      </g>
      <g id="Trazado_1626" data-name="Trazado 1626" transform="translate(847.55 1363.687) rotate(180)" fill="none">
        <path d="M0,0H28.05V28.05H0Z" stroke="none"/>
        <path d="M 0.9999961853027344 0.9999961853027344 L 0.9999961853027344 27.04983711242676 L 27.04983711242676 27.04983711242676 L 27.04983711242676 0.9999961853027344 L 0.9999961853027344 0.9999961853027344 M -3.814697265625e-06 -3.814697265625e-06 L 28.04983711242676 -3.814697265625e-06 L 28.04983711242676 28.04983711242676 L -3.814697265625e-06 28.04983711242676 L -3.814697265625e-06 -3.814697265625e-06 Z" stroke="none" fill="#f2f2f2"/>
      </g>
      <g transform="matrix(1, 0, 0, 1, 785, 1115.69)" filter="url(#Trazado_1627)">
        <path id="Trazado_1627-2" data-name="Trazado 1627" d="M0,0H28.05V28.05H0Z" transform="translate(128.21 219.31)" fill="#b7006d"/>
      </g>
      <path id="Trazado_1628" data-name="Trazado 1628" d="M3.141-8.446a1.006,1.006,0,0,0,.769-.269,1.066,1.066,0,0,0,.252-.757A.928.928,0,0,0,3.9-10.15a.986.986,0,0,0-.737-.269.965.965,0,0,0-.67.244.8.8,0,0,0-.271.623H.815l-.01-.03a1.646,1.646,0,0,1,.657-1.4,2.623,2.623,0,0,1,1.7-.553,2.781,2.781,0,0,1,1.788.53,1.836,1.836,0,0,1,.662,1.522,1.577,1.577,0,0,1-.286.914,1.957,1.957,0,0,1-.784.655,1.831,1.831,0,0,1,.877.65,1.775,1.775,0,0,1,.309,1.053,1.889,1.889,0,0,1-.72,1.566,2.881,2.881,0,0,1-1.845.57,2.875,2.875,0,0,1-1.733-.538A1.7,1.7,0,0,1,.71-6.125l.01-.03H2.135a.914.914,0,0,0,.286.685,1.021,1.021,0,0,0,.74.276,1.122,1.122,0,0,0,.807-.294.981.981,0,0,0,.309-.742,1.126,1.126,0,0,0-.289-.849,1.179,1.179,0,0,0-.847-.276h-.8V-8.446Z" transform="translate(924.43 1357.033)" fill="#fff"/>
      <path id="Trazado_1629" data-name="Trazado 1629" d="M0,2.473,5.589,0l5.327,2.473" transform="translate(831.431 1355.224) rotate(-90)" fill="none" stroke="#b7006d" stroke-width="1"/>
      <path id="Trazado_1630" data-name="Trazado 1630" d="M0,2.473,5.589,0l5.327,2.473" transform="translate(833.606 1355.224) rotate(-90)" fill="none" stroke="#b7006d" stroke-width="1"/>
      <path id="Trazado_1631" data-name="Trazado 1631" d="M0,2.473,5.589,0l5.327,2.473" transform="translate(1080.219 1344.308) rotate(90)" fill="none" stroke="#b7006d" stroke-width="1"/>
      <path id="Trazado_1632" data-name="Trazado 1632" d="M0,2.473,5.589,0l5.327,2.473" transform="translate(1078.044 1344.308) rotate(90)" fill="none" stroke="#b7006d" stroke-width="1"/>
    </g>
  </g>
</svg>
