<svg xmlns="http://www.w3.org/2000/svg" width="311.777" height="46.5" viewBox="0 0 311.777 46.5">
  <g id="Grupo_895" data-name="Grupo 895" transform="translate(-554 -2574.022)">
    <g id="Trazado_1350" data-name="Trazado 1350" transform="translate(814.277 2620) rotate(180)" fill="#f8f8f8">
      <path d="M 254.27734375 44.5 L 6.00000524520874 44.5 C 2.967305183410645 44.5 0.5000051856040955 42.03269958496094 0.5000051856040955 39 L 0.5000051856040955 6 C 0.5000051856040955 2.967299938201904 2.967305183410645 0.5 6.00000524520874 0.5 L 254.27734375 0.5 C 257.3100280761719 0.5 259.77734375 2.967299938201904 259.77734375 6 L 259.77734375 39 C 259.77734375 42.03269958496094 257.3100280761719 44.5 254.27734375 44.5 Z" stroke="none"/>
      <path d="M 6 1 C 3.243011474609375 1 1 3.243000030517578 1 6 L 1 39 C 1 41.75699996948242 3.243011474609375 44 6 44 L 254.27734375 44 C 257.0343322753906 44 259.27734375 41.75699996948242 259.27734375 39 L 259.27734375 6 C 259.27734375 3.243000030517578 257.0343322753906 1 254.27734375 1 L 6 1 M 6 0 L 254.27734375 0 C 257.591064453125 0 260.27734375 2.686298370361328 260.27734375 6 L 260.27734375 39 C 260.27734375 42.31370162963867 257.591064453125 45 254.27734375 45 L 6 45 C 2.686279296875 45 0 42.31370162963867 0 39 L 0 6 C 0 2.686298370361328 2.686279296875 0 6 0 Z" stroke="none" fill="#d9d9d9"/>
    </g>
    <g id="Grupo_877" data-name="Grupo 877" transform="translate(-3945.272 -2203.634)">
      <path id="Trazado_1161" data-name="Trazado 1161" d="M4748.933,4792.037h-5.338v-2.32a.339.339,0,0,0-.678,0v2.32h-11.357v-2.32a.339.339,0,0,0-.678,0v2.32h-5.271a.339.339,0,0,0-.339.339v20.7a.339.339,0,0,0,.339.339h23.322a.339.339,0,0,0,.339-.339v-20.7A.339.339,0,0,0,4748.933,4792.037Zm-18.018,20.7h-4.965v-2.991h4.965Zm0-3.669h-4.965v-2.991h4.965Zm0-3.669h-4.965V4802.4h4.965Zm0-3.669h-4.965v-2.991h4.965Zm6,11.007h-5.318v-2.991h5.318Zm0-3.669h-5.318v-2.991h5.318Zm0-3.669h-5.318V4802.4h5.318Zm0-3.669h-5.318v-2.991h5.318Zm6,11.007h-5.319v-2.991h5.319Zm0-3.669h-5.319v-2.991h5.319Zm0-3.669h-5.319V4802.4h5.319Zm0-3.669h-5.319v-2.991h5.319Zm5.685,11.007h-5.007v-2.991h5.007Zm0-3.669h-5.007v-2.991h5.007Zm0-3.669h-5.007V4802.4h5.007Zm0-3.669h-5.007v-2.991h5.007Zm0-3.669H4725.95v-5.342h4.931v2.74a.339.339,0,0,0,.678,0v-2.74h11.357v2.74a.339.339,0,0,0,.678,0v-2.74h5Z" fill="#333"/>
    </g>
    <path id="Trazado_1353" data-name="Trazado 1353" d="M7.1,0q-.088-.431-.136-.76a5.58,5.58,0,0,1-.057-.664A4.037,4.037,0,0,1,5.647-.277,3.225,3.225,0,0,1,3.973.185a3.109,3.109,0,0,1-2.263-.76,2.8,2.8,0,0,1-.778-2.1A2.456,2.456,0,0,1,2.035-4.8a5.151,5.151,0,0,1,2.993-.769H6.908v-.94A1.745,1.745,0,0,0,6.4-7.835a2,2,0,0,0-1.441-.488A2.091,2.091,0,0,0,3.595-7.9a1.266,1.266,0,0,0-.519,1.011l-1.644.018-.018-.053a2.276,2.276,0,0,1,.971-1.9,4.025,4.025,0,0,1,2.667-.861,3.927,3.927,0,0,1,2.6.822A2.911,2.911,0,0,1,8.64-6.5v4.579a8.913,8.913,0,0,0,.053.984A5.062,5.062,0,0,0,8.886,0ZM4.228-1.266a3.082,3.082,0,0,0,1.7-.483,2.3,2.3,0,0,0,.984-1.107V-4.4H4.966a2.52,2.52,0,0,0-1.674.527,1.577,1.577,0,0,0-.628,1.239,1.3,1.3,0,0,0,.4,1A1.656,1.656,0,0,0,4.228-1.266ZM17,0q-.088-.431-.136-.76a5.58,5.58,0,0,1-.057-.664A4.037,4.037,0,0,1,15.543-.277a3.225,3.225,0,0,1-1.674.461,3.109,3.109,0,0,1-2.263-.76,2.8,2.8,0,0,1-.778-2.1,2.456,2.456,0,0,1,1.1-2.131,5.151,5.151,0,0,1,2.993-.769H16.8v-.94a1.745,1.745,0,0,0-.51-1.323,2,2,0,0,0-1.441-.488,2.091,2.091,0,0,0-1.362.422,1.266,1.266,0,0,0-.519,1.011l-1.644.018-.018-.053a2.276,2.276,0,0,1,.971-1.9,4.025,4.025,0,0,1,2.667-.861,3.927,3.927,0,0,1,2.6.822A2.911,2.911,0,0,1,18.536-6.5v4.579a8.913,8.913,0,0,0,.053.984A5.062,5.062,0,0,0,18.782,0ZM14.124-1.266a3.082,3.082,0,0,0,1.7-.483A2.3,2.3,0,0,0,16.8-2.856V-4.4H14.862a2.52,2.52,0,0,0-1.674.527,1.577,1.577,0,0,0-.628,1.239,1.3,1.3,0,0,0,.4,1A1.656,1.656,0,0,0,14.124-1.266ZM26.895,0q-.088-.431-.136-.76a5.58,5.58,0,0,1-.057-.664A4.037,4.037,0,0,1,25.44-.277a3.225,3.225,0,0,1-1.674.461A3.109,3.109,0,0,1,21.5-.576a2.8,2.8,0,0,1-.778-2.1,2.456,2.456,0,0,1,1.1-2.131,5.151,5.151,0,0,1,2.993-.769H26.7v-.94a1.745,1.745,0,0,0-.51-1.323,2,2,0,0,0-1.441-.488,2.091,2.091,0,0,0-1.362.422,1.266,1.266,0,0,0-.519,1.011l-1.644.018-.018-.053a2.276,2.276,0,0,1,.971-1.9,4.025,4.025,0,0,1,2.667-.861,3.927,3.927,0,0,1,2.6.822A2.911,2.911,0,0,1,28.433-6.5v4.579a8.913,8.913,0,0,0,.053.984A5.062,5.062,0,0,0,28.679,0ZM24.021-1.266a3.082,3.082,0,0,0,1.7-.483A2.3,2.3,0,0,0,26.7-2.856V-4.4H24.759a2.52,2.52,0,0,0-1.674.527,1.577,1.577,0,0,0-.628,1.239,1.3,1.3,0,0,0,.4,1A1.656,1.656,0,0,0,24.021-1.266ZM36.791,0q-.088-.431-.136-.76a5.58,5.58,0,0,1-.057-.664A4.037,4.037,0,0,1,35.336-.277a3.225,3.225,0,0,1-1.674.461A3.109,3.109,0,0,1,31.4-.576a2.8,2.8,0,0,1-.778-2.1,2.456,2.456,0,0,1,1.1-2.131,5.151,5.151,0,0,1,2.993-.769H36.6v-.94a1.745,1.745,0,0,0-.51-1.323,2,2,0,0,0-1.441-.488,2.091,2.091,0,0,0-1.362.422,1.266,1.266,0,0,0-.519,1.011l-1.644.018L31.1-6.926a2.276,2.276,0,0,1,.971-1.9,4.025,4.025,0,0,1,2.667-.861,3.927,3.927,0,0,1,2.6.822A2.911,2.911,0,0,1,38.329-6.5v4.579a8.913,8.913,0,0,0,.053.984A5.062,5.062,0,0,0,38.575,0ZM33.917-1.266a3.082,3.082,0,0,0,1.7-.483A2.3,2.3,0,0,0,36.6-2.856V-4.4H34.655a2.52,2.52,0,0,0-1.674.527,1.577,1.577,0,0,0-.628,1.239,1.3,1.3,0,0,0,.4,1A1.656,1.656,0,0,0,33.917-1.266ZM46.239-4.729H41.054V-6.082h5.186ZM50.5-9.51l.123,1.248a3.23,3.23,0,0,1,1.182-1.05,3.552,3.552,0,0,1,1.666-.374,2.942,2.942,0,0,1,1.63.439,2.658,2.658,0,0,1,1.024,1.318,3.557,3.557,0,0,1,1.191-1.288,3.115,3.115,0,0,1,1.718-.47,2.847,2.847,0,0,1,2.294,1,4.557,4.557,0,0,1,.844,3V0H60.442V-5.7a3.161,3.161,0,0,0-.483-1.991,1.763,1.763,0,0,0-1.441-.584,1.835,1.835,0,0,0-1.437.615,2.678,2.678,0,0,0-.646,1.556V0h-1.74V-5.7a3.118,3.118,0,0,0-.5-1.956,1.723,1.723,0,0,0-1.428-.62,2.379,2.379,0,0,0-1.3.325,2.1,2.1,0,0,0-.782.914V0H48.955V-9.51Zm15.732,0,.123,1.248a3.23,3.23,0,0,1,1.182-1.05,3.552,3.552,0,0,1,1.666-.374,2.942,2.942,0,0,1,1.63.439,2.658,2.658,0,0,1,1.024,1.318A3.557,3.557,0,0,1,73.05-9.215a3.115,3.115,0,0,1,1.718-.47,2.847,2.847,0,0,1,2.294,1,4.557,4.557,0,0,1,.844,3V0H76.175V-5.7a3.161,3.161,0,0,0-.483-1.991,1.763,1.763,0,0,0-1.441-.584,1.835,1.835,0,0,0-1.437.615,2.678,2.678,0,0,0-.646,1.556V0h-1.74V-5.7a3.118,3.118,0,0,0-.5-1.956,1.723,1.723,0,0,0-1.428-.62,2.379,2.379,0,0,0-1.3.325,2.1,2.1,0,0,0-.782.914V0H64.688V-9.51ZM85.816-4.729H80.631V-6.082h5.186Zm2.32.149a6.346,6.346,0,0,1,.98-3.7,3.158,3.158,0,0,1,2.747-1.406,3.405,3.405,0,0,1,1.481.308,3.036,3.036,0,0,1,1.1.9v-5.229h1.731V0H94.852l-.264-1.2A3.086,3.086,0,0,1,93.437-.167a3.44,3.44,0,0,1-1.591.352,3.264,3.264,0,0,1-2.725-1.261,5.241,5.241,0,0,1-.984-3.318Zm1.731.185a4.037,4.037,0,0,0,.589,2.307,2.056,2.056,0,0,0,1.828.866,2.293,2.293,0,0,0,1.3-.352,2.625,2.625,0,0,0,.861-.984V-7a2.666,2.666,0,0,0-.866-.936A2.288,2.288,0,0,0,92.3-8.279a1.979,1.979,0,0,0-1.841,1.028,5.308,5.308,0,0,0-.593,2.672Zm8.5-.185a6.346,6.346,0,0,1,.98-3.7,3.158,3.158,0,0,1,2.747-1.406,3.405,3.405,0,0,1,1.481.308,3.036,3.036,0,0,1,1.1.9v-5.229h1.731V0h-1.327l-.264-1.2a3.086,3.086,0,0,1-1.151,1.037,3.44,3.44,0,0,1-1.591.352,3.264,3.264,0,0,1-2.725-1.261,5.241,5.241,0,0,1-.984-3.318Zm1.731.185a4.037,4.037,0,0,0,.589,2.307,2.056,2.056,0,0,0,1.828.866,2.293,2.293,0,0,0,1.3-.352,2.625,2.625,0,0,0,.861-.984V-7a2.666,2.666,0,0,0-.866-.936,2.288,2.288,0,0,0-1.279-.347,1.979,1.979,0,0,0-1.841,1.028,5.308,5.308,0,0,0-.593,2.672Z" transform="translate(569 2604)" fill="#999"/>
    <path id="Trazado_1351" data-name="Trazado 1351" d="M6.3-3.548H7.561v1.34H6.3V0H4.648V-2.208H.485L.444-3.227,4.6-9.953H6.3Zm-4.238,0H4.648V-7.608l-.041-.007-.157.383ZM9.037-4.4l.574-5.551h5.25v1.436H10.992l-.3,2.536a2.765,2.765,0,0,1,.7-.355,2.8,2.8,0,0,1,.9-.15,2.682,2.682,0,0,1,2.16.868,3.579,3.579,0,0,1,.772,2.44,3.5,3.5,0,0,1-.813,2.4,3.074,3.074,0,0,1-2.434.923A3.494,3.494,0,0,1,9.758-.564a2.329,2.329,0,0,1-.872-2.02L8.9-2.618l1.559-.048a1.42,1.42,0,0,0,.42,1.09,1.542,1.542,0,0,0,1.1.393,1.4,1.4,0,0,0,1.183-.526,2.343,2.343,0,0,0,.4-1.456A2.3,2.3,0,0,0,13.146-4.6a1.41,1.41,0,0,0-1.189-.543,1.871,1.871,0,0,0-1.015.219,1.236,1.236,0,0,0-.482.643Zm14.232.95a4.17,4.17,0,0,1-.759,2.6A2.51,2.51,0,0,1,20.4.144a2.616,2.616,0,0,1-1.114-.226,2.293,2.293,0,0,1-.834-.663V2.844H16.789V-7.4h1.4l.164.93a2.467,2.467,0,0,1,.858-.793,2.4,2.4,0,0,1,1.166-.273A2.456,2.456,0,0,1,22.507-6.45,4.861,4.861,0,0,1,23.27-3.6ZM21.615-3.6a3.6,3.6,0,0,0-.427-1.856,1.389,1.389,0,0,0-1.275-.721,1.656,1.656,0,0,0-.882.222,1.636,1.636,0,0,0-.581.619v3.343a1.545,1.545,0,0,0,.581.6,1.771,1.771,0,0,0,.9.208,1.425,1.425,0,0,0,1.268-.625,2.9,2.9,0,0,0,.42-1.644ZM27.269-4.86,28.636-7.4h1.907L28.219-3.739,30.611,0H28.725L27.3-2.6,25.867,0h-1.9l2.393-3.739L24.035-7.4h1.887Z" transform="translate(835.166 2602)" fill="#4199a0"/>
    <path id="Trazado_1354" data-name="Trazado 1354" d="M0,0H8" transform="translate(826 2574.522)" fill="none" stroke="#4199a0" stroke-width="1"/>
    <path id="Trazado_1349" data-name="Trazado 1349" d="M0,0H8" transform="translate(826 2620.022)" fill="none" stroke="#4199a0" stroke-width="1"/>
    <path id="Trazado_1352" data-name="Trazado 1352" d="M0,0V45" transform="translate(830 2574.522)" fill="none" stroke="#4199a0" stroke-width="1"/>
  </g>
</svg>
